[0] Config.pm:304> INFO - This is Biber 2.14
[0] Config.pm:307> INFO - Logfile is 'sixth.blg'
[70] biber:322> INFO - === Sat Oct 31, 2020, 20:03:21
[83] Biber.pm:415> INFO - Reading 'sixth.bcf'
[141] Utils.pm:304> WARN - No data sources defined!
