\relax 
\providecommand\hyper@newdestlabel[2]{}
\@nameuse{bbl@beforestart}
\catcode `"\active 
\nicematrix@redefine@check@rerun 
\abx@aux@refcontext{nty/global//global/global}
\providecommand\HyperFirstAtBeginDocument{\AtBeginDocument}
\HyperFirstAtBeginDocument{\ifx\hyper@anchor\@undefined
\global\let\oldcontentsline\contentsline
\gdef\contentsline#1#2#3#4{\oldcontentsline{#1}{#2}{#3}}
\global\let\oldnewlabel\newlabel
\gdef\newlabel#1#2{\newlabelxx{#1}#2}
\gdef\newlabelxx#1#2#3#4#5#6{\oldnewlabel{#1}{{#2}{#3}}}
\AtEndDocument{\ifx\hyper@anchor\@undefined
\let\contentsline\oldcontentsline
\let\newlabel\oldnewlabel
\fi}
\fi}
\global\let\hyper@last\relax 
\gdef\HyperFirstAtBeginDocument#1{#1}
\providecommand\HyField@AuxAddToFields[1]{}
\providecommand\HyField@AuxAddToCoFields[2]{}
\providecommand\@newglossary[4]{}
\@newglossary{main}{glg}{gls}{glo}
\providecommand\@glsorder[1]{}
\providecommand\@istfilename[1]{}
\@istfilename{sixth.xdy}
\@glsorder{word}
\@writefile{toc}{\boolfalse {citerequest}\boolfalse {citetracker}\boolfalse {pagetracker}\boolfalse {backtracker}\relax }
\@writefile{lof}{\boolfalse {citerequest}\boolfalse {citetracker}\boolfalse {pagetracker}\boolfalse {backtracker}\relax }
\@writefile{lot}{\boolfalse {citerequest}\boolfalse {citetracker}\boolfalse {pagetracker}\boolfalse {backtracker}\relax }
\babel@aux{russian}{}
\pp@pagectr{footnote}{1}{3}{3}
\@writefile{toc}{\defcounter {refsection}{0}\relax }\@writefile{toc}{\contentsline {chapter}{\numberline {1}Задание}{3}{chapter.1}\protected@file@percent }
\@writefile{lof}{\defcounter {refsection}{0}\relax }\@writefile{lof}{\addvspace {10\p@ }}
\@writefile{lot}{\defcounter {refsection}{0}\relax }\@writefile{lot}{\addvspace {10\p@ }}
\pp@pagectr{footnote}{2}{4}{4}
\@writefile{toc}{\defcounter {refsection}{0}\relax }\@writefile{toc}{\contentsline {chapter}{\numberline {2}Unit 10}{4}{chapter.2}\protected@file@percent }
\@writefile{lof}{\defcounter {refsection}{0}\relax }\@writefile{lof}{\addvspace {10\p@ }}
\@writefile{lot}{\defcounter {refsection}{0}\relax }\@writefile{lot}{\addvspace {10\p@ }}
\@writefile{toc}{\defcounter {refsection}{0}\relax }\@writefile{toc}{\contentsline {section}{\numberline {2.1}Infotech Workbook}{4}{section.2.1}\protected@file@percent }
\@writefile{toc}{\defcounter {refsection}{0}\relax }\@writefile{toc}{\contentsline {subsection}{\numberline {2.1.1}Exercise 1}{4}{subsection.2.1.1}\protected@file@percent }
\@writefile{toc}{\defcounter {refsection}{0}\relax }\@writefile{toc}{\contentsline {subsection}{\numberline {2.1.2}Exercise 2}{5}{subsection.2.1.2}\protected@file@percent }
\@writefile{toc}{\defcounter {refsection}{0}\relax }\@writefile{toc}{\contentsline {subsection}{\numberline {2.1.3}Exercise 3}{6}{subsection.2.1.3}\protected@file@percent }
\@writefile{toc}{\defcounter {refsection}{0}\relax }\@writefile{toc}{\contentsline {subsection}{\numberline {2.1.4}Exercise 4}{7}{subsection.2.1.4}\protected@file@percent }
\@writefile{toc}{\defcounter {refsection}{0}\relax }\@writefile{toc}{\contentsline {section}{\numberline {2.2}Infotech Studentbook}{7}{section.2.2}\protected@file@percent }
\@writefile{toc}{\defcounter {refsection}{0}\relax }\@writefile{toc}{\contentsline {subsection}{\numberline {2.2.1}Exercise 1}{7}{subsection.2.2.1}\protected@file@percent }
\@writefile{toc}{\defcounter {refsection}{0}\relax }\@writefile{toc}{\contentsline {subsection}{\numberline {2.2.2}Exercise 2}{8}{subsection.2.2.2}\protected@file@percent }
\@writefile{toc}{\defcounter {refsection}{0}\relax }\@writefile{toc}{\contentsline {subsubsection}{A}{8}{subsubsection*.2}\protected@file@percent }
\@writefile{toc}{\defcounter {refsection}{0}\relax }\@writefile{toc}{\contentsline {subsubsection}{B}{8}{subsubsection*.3}\protected@file@percent }
\@writefile{toc}{\defcounter {refsection}{0}\relax }\@writefile{toc}{\contentsline {subsection}{\numberline {2.2.3}Exercise 3}{9}{subsection.2.2.3}\protected@file@percent }
\@writefile{toc}{\defcounter {refsection}{0}\relax }\@writefile{toc}{\contentsline {subsubsection}{A}{9}{subsubsection*.4}\protected@file@percent }
\@writefile{toc}{\defcounter {refsection}{0}\relax }\@writefile{toc}{\contentsline {subsubsection}{B}{10}{subsubsection*.5}\protected@file@percent }
\@writefile{toc}{\defcounter {refsection}{0}\relax }\@writefile{toc}{\contentsline {subsection}{\numberline {2.2.4}Listening and writing}{11}{subsection.2.2.4}\protected@file@percent }
\ExplSyntaxOn \cs_if_free:NT \pgfsyspdfmark {\cs_set_eq:NN \pgfsyspdfmark \use:nnn }\ExplSyntaxOff 
\@writefile{toc}{\defcounter {refsection}{0}\relax }\@writefile{toc}{\contentsline {section}{\numberline {2.3}Unit 10 (File)}{12}{section.2.3}\protected@file@percent }
\@writefile{toc}{\defcounter {refsection}{0}\relax }\@writefile{toc}{\contentsline {subsection}{\numberline {2.3.1}Assignment 1}{12}{subsection.2.3.1}\protected@file@percent }
\@writefile{lot}{\defcounter {refsection}{0}\relax }\@writefile{lot}{\contentsline {table}{\numberline {2.1}{\ignorespaces Assignment 1 a\relax }}{12}{table.caption.6}\protected@file@percent }
\providecommand*\caption@xref[2]{\@setref\relax\@undefined{#1}}
\newlabel{Assignment 1 a}{{2.1}{12}{Assignment 1 a\relax }{table.caption.6}{}}
\pgfsyspdfmark {pgfid3}{9239286}{41058193}
\pgfsyspdfmark {pgfid4}{9239286}{41058193}
\pgfsyspdfmark {pgfid5}{9239286}{39694498}
\pgfsyspdfmark {pgfid6}{9894646}{39694498}
\pgfsyspdfmark {pgfid7}{16251638}{39694498}
\pgfsyspdfmark {pgfid8}{26868470}{39694498}
\pgfsyspdfmark {pgfid9}{9239286}{34803541}
\pgfsyspdfmark {pgfid10}{9239286}{33789702}
\pgfsyspdfmark {pgfid11}{9894646}{33789702}
\pgfsyspdfmark {pgfid12}{16251638}{33789702}
\pgfsyspdfmark {pgfid13}{26868470}{33789702}
\pgfsyspdfmark {pgfid14}{9239286}{33355193}
\pgfsyspdfmark {pgfid15}{9239286}{32341354}
\pgfsyspdfmark {pgfid16}{9894646}{32341354}
\pgfsyspdfmark {pgfid17}{16251638}{32341354}
\pgfsyspdfmark {pgfid18}{26868470}{32341354}
\pgfsyspdfmark {pgfid19}{9239286}{30392961}
\pgfsyspdfmark {pgfid20}{9239286}{29379122}
\pgfsyspdfmark {pgfid21}{9894646}{29379122}
\pgfsyspdfmark {pgfid22}{16251638}{29379122}
\pgfsyspdfmark {pgfid23}{26868470}{29379122}
\pgfsyspdfmark {pgfid24}{9239286}{26549296}
\pgfsyspdfmark {pgfid25}{9239286}{25535457}
\pgfsyspdfmark {pgfid26}{9894646}{25535457}
\pgfsyspdfmark {pgfid27}{16251638}{25535457}
\pgfsyspdfmark {pgfid28}{26868470}{25535457}
\pgfsyspdfmark {pgfid29}{9239286}{25100948}
\pgfsyspdfmark {pgfid30}{9239286}{24087109}
\pgfsyspdfmark {pgfid31}{9894646}{24087109}
\pgfsyspdfmark {pgfid32}{16251638}{24087109}
\pgfsyspdfmark {pgfid33}{26868470}{24087109}
\pgfsyspdfmark {pgfid34}{9239286}{23652600}
\pgfsyspdfmark {pgfid35}{9239286}{22638761}
\pgfsyspdfmark {pgfid36}{9894646}{22638761}
\pgfsyspdfmark {pgfid37}{16251638}{22638761}
\pgfsyspdfmark {pgfid38}{26868470}{22638761}
\pgfsyspdfmark {pgfid39}{9239286}{20690368}
\pgfsyspdfmark {pgfid40}{9239286}{19676529}
\pgfsyspdfmark {pgfid41}{9894646}{19676529}
\pgfsyspdfmark {pgfid42}{16251638}{19676529}
\pgfsyspdfmark {pgfid43}{26868470}{19676529}
\pgfsyspdfmark {pgfid44}{9239286}{17728136}
\pgfsyspdfmark {pgfid45}{9239286}{16714297}
\pgfsyspdfmark {pgfid46}{9894646}{16714297}
\pgfsyspdfmark {pgfid47}{16251638}{16714297}
\pgfsyspdfmark {pgfid48}{26868470}{16714297}
\pgfsyspdfmark {pgfid49}{9239286}{16279788}
\pgfsyspdfmark {pgfid50}{9239286}{15265949}
\pgfsyspdfmark {pgfid51}{9894646}{15265949}
\pgfsyspdfmark {pgfid52}{16251638}{15265949}
\pgfsyspdfmark {pgfid53}{26868470}{15265949}
\pgfsyspdfmark {pgfid54}{9239286}{13317556}
\pgfsyspdfmark {pgfid55}{9239286}{12303717}
\pgfsyspdfmark {pgfid56}{9894646}{12303717}
\pgfsyspdfmark {pgfid57}{16251638}{12303717}
\pgfsyspdfmark {pgfid58}{26868470}{12303717}
\pgfsyspdfmark {pgfid59}{9239286}{10355324}
\pgfsyspdfmark {pgfid60}{9239286}{10186490}
\pgfsyspdfmark {pgfid61}{9239286}{10110991}
\pgfsyspdfmark {pgfid62}{10943222}{10110991}
\pgfsyspdfmark {pgfid63}{21560054}{10110991}
\pgfsyspdfmark {pgfid64}{31783670}{10110991}
\savepicturepage{pgfid65}{12}
\pgfsyspdfmark {pgfid65}{31783670}{25348663}
\@writefile{lot}{\defcounter {refsection}{0}\relax }\@writefile{lot}{\contentsline {table}{\numberline {2.2}{\ignorespaces Assignment 1 b\relax }}{13}{table.caption.7}\protected@file@percent }
\newlabel{Assignment 1 b}{{2.2}{13}{Assignment 1 b\relax }{table.caption.7}{}}
\pgfsyspdfmark {pgfid66}{9239286}{49882159}
\pgfsyspdfmark {pgfid67}{9239286}{49882159}
\pgfsyspdfmark {pgfid68}{9239286}{48518464}
\pgfsyspdfmark {pgfid69}{9894646}{48518464}
\pgfsyspdfmark {pgfid70}{16251638}{48518464}
\pgfsyspdfmark {pgfid71}{26868470}{48518464}
\pgfsyspdfmark {pgfid72}{9239286}{48083955}
\pgfsyspdfmark {pgfid73}{9239286}{47070116}
\pgfsyspdfmark {pgfid74}{9894646}{47070116}
\pgfsyspdfmark {pgfid75}{16251638}{47070116}
\pgfsyspdfmark {pgfid76}{26868470}{47070116}
\pgfsyspdfmark {pgfid77}{9239286}{46635607}
\pgfsyspdfmark {pgfid78}{9239286}{45621768}
\pgfsyspdfmark {pgfid79}{9894646}{45621768}
\pgfsyspdfmark {pgfid80}{16251638}{45621768}
\pgfsyspdfmark {pgfid81}{26868470}{45621768}
\pgfsyspdfmark {pgfid82}{9239286}{45187259}
\pgfsyspdfmark {pgfid83}{9239286}{44173420}
\pgfsyspdfmark {pgfid84}{9894646}{44173420}
\pgfsyspdfmark {pgfid85}{16251638}{44173420}
\pgfsyspdfmark {pgfid86}{26868470}{44173420}
\pgfsyspdfmark {pgfid87}{9239286}{43738911}
\pgfsyspdfmark {pgfid88}{9239286}{42725072}
\pgfsyspdfmark {pgfid89}{9894646}{42725072}
\pgfsyspdfmark {pgfid90}{16251638}{42725072}
\pgfsyspdfmark {pgfid91}{26868470}{42725072}
\pgfsyspdfmark {pgfid92}{9239286}{37665178}
\pgfsyspdfmark {pgfid93}{9239286}{36651339}
\pgfsyspdfmark {pgfid94}{9894646}{36651339}
\pgfsyspdfmark {pgfid95}{16251638}{36651339}
\pgfsyspdfmark {pgfid96}{26868470}{36651339}
\pgfsyspdfmark {pgfid97}{9239286}{34702946}
\pgfsyspdfmark {pgfid98}{9239286}{33689107}
\pgfsyspdfmark {pgfid99}{9894646}{33689107}
\pgfsyspdfmark {pgfid100}{16251638}{33689107}
\pgfsyspdfmark {pgfid101}{26868470}{33689107}
\pgfsyspdfmark {pgfid102}{9239286}{33254598}
\pgfsyspdfmark {pgfid103}{9239286}{32240759}
\pgfsyspdfmark {pgfid104}{9894646}{32240759}
\pgfsyspdfmark {pgfid105}{16251638}{32240759}
\pgfsyspdfmark {pgfid106}{26868470}{32240759}
\pgfsyspdfmark {pgfid107}{9239286}{31806250}
\pgfsyspdfmark {pgfid108}{9239286}{30792411}
\pgfsyspdfmark {pgfid109}{9894646}{30792411}
\pgfsyspdfmark {pgfid110}{16251638}{30792411}
\pgfsyspdfmark {pgfid111}{26868470}{30792411}
\pgfsyspdfmark {pgfid112}{9239286}{28844018}
\pgfsyspdfmark {pgfid113}{9239286}{27830179}
\pgfsyspdfmark {pgfid114}{9894646}{27830179}
\pgfsyspdfmark {pgfid115}{16251638}{27830179}
\pgfsyspdfmark {pgfid116}{26868470}{27830179}
\pgfsyspdfmark {pgfid117}{9239286}{25000353}
\pgfsyspdfmark {pgfid118}{9239286}{23986514}
\pgfsyspdfmark {pgfid119}{9894646}{23986514}
\pgfsyspdfmark {pgfid120}{16251638}{23986514}
\pgfsyspdfmark {pgfid121}{26868470}{23986514}
\pgfsyspdfmark {pgfid122}{9239286}{22038121}
\pgfsyspdfmark {pgfid123}{9239286}{21024282}
\pgfsyspdfmark {pgfid124}{9894646}{21024282}
\pgfsyspdfmark {pgfid125}{16251638}{21024282}
\pgfsyspdfmark {pgfid126}{26868470}{21024282}
\pgfsyspdfmark {pgfid127}{9239286}{19075889}
\pgfsyspdfmark {pgfid128}{9239286}{18062050}
\pgfsyspdfmark {pgfid129}{9894646}{18062050}
\pgfsyspdfmark {pgfid130}{9239286}{17627541}
\pgfsyspdfmark {pgfid131}{9239286}{17458707}
\pgfsyspdfmark {pgfid132}{9239286}{17383208}
\pgfsyspdfmark {pgfid133}{10943222}{17383208}
\pgfsyspdfmark {pgfid134}{21560054}{17383208}
\pgfsyspdfmark {pgfid135}{31783670}{17383208}
\savepicturepage{pgfid136}{13}
\pgfsyspdfmark {pgfid136}{31783670}{33396754}
\newlabel{LastPage}{{}{13}{}{page.13}{}}
\xdef\lastpage@lastpage{13}
\xdef\lastpage@lastpageHy{13}
