\boolfalse {citerequest}\boolfalse {citetracker}\boolfalse {pagetracker}\boolfalse {backtracker}\relax 
\babel@toc {russian}{}
\defcounter {refsection}{0}\relax 
\contentsline {chapter}{\numberline {1}Задание}{3}{chapter.1}%
\defcounter {refsection}{0}\relax 
\contentsline {chapter}{\numberline {2}Unit 10}{4}{chapter.2}%
\defcounter {refsection}{0}\relax 
\contentsline {section}{\numberline {2.1}Infotech Workbook}{4}{section.2.1}%
\defcounter {refsection}{0}\relax 
\contentsline {subsection}{\numberline {2.1.1}Exercise 1}{4}{subsection.2.1.1}%
\defcounter {refsection}{0}\relax 
\contentsline {subsection}{\numberline {2.1.2}Exercise 2}{5}{subsection.2.1.2}%
\defcounter {refsection}{0}\relax 
\contentsline {subsection}{\numberline {2.1.3}Exercise 3}{6}{subsection.2.1.3}%
\defcounter {refsection}{0}\relax 
\contentsline {subsection}{\numberline {2.1.4}Exercise 4}{7}{subsection.2.1.4}%
\defcounter {refsection}{0}\relax 
\contentsline {section}{\numberline {2.2}Infotech Studentbook}{7}{section.2.2}%
\defcounter {refsection}{0}\relax 
\contentsline {subsection}{\numberline {2.2.1}Exercise 1}{7}{subsection.2.2.1}%
\defcounter {refsection}{0}\relax 
\contentsline {subsection}{\numberline {2.2.2}Exercise 2}{8}{subsection.2.2.2}%
\defcounter {refsection}{0}\relax 
\contentsline {subsubsection}{A}{8}{subsubsection*.2}%
\defcounter {refsection}{0}\relax 
\contentsline {subsubsection}{B}{8}{subsubsection*.3}%
\defcounter {refsection}{0}\relax 
\contentsline {subsection}{\numberline {2.2.3}Exercise 3}{9}{subsection.2.2.3}%
\defcounter {refsection}{0}\relax 
\contentsline {subsubsection}{A}{9}{subsubsection*.4}%
\defcounter {refsection}{0}\relax 
\contentsline {subsubsection}{B}{10}{subsubsection*.5}%
\defcounter {refsection}{0}\relax 
\contentsline {subsection}{\numberline {2.2.4}Listening and writing}{11}{subsection.2.2.4}%
\defcounter {refsection}{0}\relax 
\contentsline {section}{\numberline {2.3}Unit 10 (File)}{12}{section.2.3}%
\defcounter {refsection}{0}\relax 
\contentsline {subsection}{\numberline {2.3.1}Assignment 1}{12}{subsection.2.3.1}%
