\relax 
\providecommand\hyper@newdestlabel[2]{}
\providecommand\babel@aux[2]{}
\@nameuse{bbl@beforestart}
\catcode `"\active 
\nicematrix@redefine@check@rerun 
\@writefile{toc}{\boolfalse {citerequest}\boolfalse {citetracker}\boolfalse {pagetracker}\boolfalse {backtracker}\relax }
\@writefile{lof}{\boolfalse {citerequest}\boolfalse {citetracker}\boolfalse {pagetracker}\boolfalse {backtracker}\relax }
\@writefile{lot}{\boolfalse {citerequest}\boolfalse {citetracker}\boolfalse {pagetracker}\boolfalse {backtracker}\relax }
\abx@aux@refcontext{nty/global//global/global}
\providecommand\HyperFirstAtBeginDocument{\AtBeginDocument}
\HyperFirstAtBeginDocument{\ifx\hyper@anchor\@undefined
\global\let\oldcontentsline\contentsline
\gdef\contentsline#1#2#3#4{\oldcontentsline{#1}{#2}{#3}}
\global\let\oldnewlabel\newlabel
\gdef\newlabel#1#2{\newlabelxx{#1}#2}
\gdef\newlabelxx#1#2#3#4#5#6{\oldnewlabel{#1}{{#2}{#3}}}
\AtEndDocument{\ifx\hyper@anchor\@undefined
\let\contentsline\oldcontentsline
\let\newlabel\oldnewlabel
\fi}
\fi}
\global\let\hyper@last\relax 
\gdef\HyperFirstAtBeginDocument#1{#1}
\providecommand\HyField@AuxAddToFields[1]{}
\providecommand\HyField@AuxAddToCoFields[2]{}
\providecommand\@newglossary[4]{}
\@newglossary{main}{glg}{gls}{glo}
\providecommand\@glsorder[1]{}
\providecommand\@istfilename[1]{}
\@istfilename{forth.xdy}
\@glsorder{word}
\babel@aux{russian}{}
\@writefile{toc}{\defcounter {refsection}{0}\relax }\@writefile{toc}{\contentsline {section}{\numberline {1}Задача 1}{2}{section.1}\protected@file@percent }
\@writefile{toc}{\defcounter {refsection}{0}\relax }\@writefile{toc}{\contentsline {subsection}{\numberline {1.1}Математические формулы}{2}{subsection.1.1}\protected@file@percent }
\newlabel{hyperbola}{{1}{2}{Математические формулы}{equation.1.1}{}}
\newlabel{num1:1}{{2}{2}{Математические формулы}{equation.1.2}{}}
\newlabel{num1:2}{{3}{2}{Математические формулы}{equation.1.3}{}}
\@writefile{toc}{\defcounter {refsection}{0}\relax }\@writefile{toc}{\contentsline {subsection}{\numberline {1.2}Программная реализация}{2}{subsection.1.2}\protected@file@percent }
\newlabel{fist:Задача 1}{{1.2}{2}{Программная реализация}{subsection.1.2}{}}
\@writefile{lomylisting}{\defcounter {refsection}{0}\relax }\@writefile{lomylisting}{\contentsline {mylisting}{\numberline {1.1}{\ignorespaces Задача 1\relax }}{2}{mylisting.1.1}\protected@file@percent }
\@writefile{toc}{\defcounter {refsection}{0}\relax }\@writefile{toc}{\contentsline {section}{\numberline {2}Задача 2}{5}{section.2}\protected@file@percent }
\@writefile{toc}{\defcounter {refsection}{0}\relax }\@writefile{toc}{\contentsline {subsection}{\numberline {2.1}Математические формулы}{5}{subsection.2.1}\protected@file@percent }
\newlabel{num2:angle}{{4}{5}{Математические формулы}{equation.2.4}{}}
\newlabel{num2:halfs}{{6}{5}{Математические формулы}{equation.2.6}{}}
\newlabel{num2:1}{{7}{5}{Математические формулы}{equation.2.7}{}}
\newlabel{num2:2}{{8}{6}{Математические формулы}{equation.2.8}{}}
\@writefile{toc}{\defcounter {refsection}{0}\relax }\@writefile{toc}{\contentsline {subsection}{\numberline {2.2}Программная реализация}{6}{subsection.2.2}\protected@file@percent }
\newlabel{fist:Задача 2}{{2.2}{6}{Программная реализация}{subsection.2.2}{}}
\@writefile{lomylisting}{\defcounter {refsection}{0}\relax }\@writefile{lomylisting}{\contentsline {mylisting}{\numberline {2.1}{\ignorespaces Задача 2\relax }}{6}{mylisting.2.1}\protected@file@percent }
\@writefile{toc}{\defcounter {refsection}{0}\relax }\@writefile{toc}{\contentsline {section}{\numberline {3}Задача 3}{10}{section.3}\protected@file@percent }
\newlabel{sec:3}{{3}{10}{Задача 3}{section.3}{}}
\@writefile{toc}{\defcounter {refsection}{0}\relax }\@writefile{toc}{\contentsline {subsection}{\numberline {3.1}Математические формулы}{10}{subsection.3.1}\protected@file@percent }
\newlabel{num3:alpha}{{12}{10}{Математические формулы}{equation.3.12}{}}
\@writefile{toc}{\defcounter {refsection}{0}\relax }\@writefile{toc}{\contentsline {subsection}{\numberline {3.2}Программная реализация}{10}{subsection.3.2}\protected@file@percent }
\newlabel{fist:Задача 3}{{3.2}{11}{Программная реализация}{subsection.3.2}{}}
\@writefile{lomylisting}{\defcounter {refsection}{0}\relax }\@writefile{lomylisting}{\contentsline {mylisting}{\numberline {3.1}{\ignorespaces Задача 3\relax }}{11}{mylisting.3.1}\protected@file@percent }
\@writefile{toc}{\defcounter {refsection}{0}\relax }\@writefile{toc}{\contentsline {section}{\numberline {4}Задача 4}{15}{section.4}\protected@file@percent }
\@writefile{toc}{\defcounter {refsection}{0}\relax }\@writefile{toc}{\contentsline {subsection}{\numberline {4.1}Математические формулы}{15}{subsection.4.1}\protected@file@percent }
\newlabel{num4:hyperbola}{{13}{15}{Математические формулы}{equation.4.13}{}}
\@writefile{toc}{\defcounter {refsection}{0}\relax }\@writefile{toc}{\contentsline {subsection}{\numberline {4.2}Программная реализация}{15}{subsection.4.2}\protected@file@percent }
\newlabel{fist:Задача 4}{{4.2}{15}{Программная реализация}{subsection.4.2}{}}
\@writefile{lomylisting}{\defcounter {refsection}{0}\relax }\@writefile{lomylisting}{\contentsline {mylisting}{\numberline {4.1}{\ignorespaces Задача 4\relax }}{15}{mylisting.4.1}\protected@file@percent }
\@writefile{toc}{\defcounter {refsection}{0}\relax }\@writefile{toc}{\contentsline {section}{\numberline {5}Задача 5}{18}{section.5}\protected@file@percent }
\newlabel{fist:Задача 5}{{5}{18}{Задача 5}{section.5}{}}
\@writefile{lomylisting}{\defcounter {refsection}{0}\relax }\@writefile{lomylisting}{\contentsline {mylisting}{\numberline {5.1}{\ignorespaces Задача 5\relax }}{18}{mylisting.5.1}\protected@file@percent }
\@writefile{toc}{\defcounter {refsection}{0}\relax }\@writefile{toc}{\contentsline {section}{\numberline {6}Задача 6}{21}{section.6}\protected@file@percent }
\@writefile{toc}{\defcounter {refsection}{0}\relax }\@writefile{toc}{\contentsline {subsection}{\numberline {6.1}Математические формулы}{21}{subsection.6.1}\protected@file@percent }
\newlabel{fist:Задача 6}{{6.1}{22}{Математические формулы}{equation.6.19}{}}
\@writefile{lomylisting}{\defcounter {refsection}{0}\relax }\@writefile{lomylisting}{\contentsline {mylisting}{\numberline {6.1}{\ignorespaces Задача 6\relax }}{22}{mylisting.6.1}\protected@file@percent }
\@writefile{toc}{\defcounter {refsection}{0}\relax }\@writefile{toc}{\contentsline {section}{\numberline {7}Задача 7}{25}{section.7}\protected@file@percent }
\@writefile{toc}{\defcounter {refsection}{0}\relax }\@writefile{toc}{\contentsline {subsection}{\numberline {7.1}Математические формулы}{25}{subsection.7.1}\protected@file@percent }
\newlabel{fist:Задача 7}{{7.1}{25}{Математические формулы}{equation.7.20}{}}
\@writefile{lomylisting}{\defcounter {refsection}{0}\relax }\@writefile{lomylisting}{\contentsline {mylisting}{\numberline {7.1}{\ignorespaces Задача 7\relax }}{25}{mylisting.7.1}\protected@file@percent }
\@writefile{toc}{\defcounter {refsection}{0}\relax }\@writefile{toc}{\contentsline {section}{\numberline {8}Задача 8}{28}{section.8}\protected@file@percent }
\@writefile{toc}{\defcounter {refsection}{0}\relax }\@writefile{toc}{\contentsline {subsection}{\numberline {8.1}Математические формулы}{28}{subsection.8.1}\protected@file@percent }
\newlabel{fist:Задача 8}{{8.1}{28}{Математические формулы}{equation.8.21}{}}
\@writefile{lomylisting}{\defcounter {refsection}{0}\relax }\@writefile{lomylisting}{\contentsline {mylisting}{\numberline {8.1}{\ignorespaces Задача 8\relax }}{28}{mylisting.8.1}\protected@file@percent }
\@writefile{toc}{\defcounter {refsection}{0}\relax }\@writefile{toc}{\contentsline {section}{\numberline {9}Задача 9,10}{30}{section.9}\protected@file@percent }
\@writefile{toc}{\defcounter {refsection}{0}\relax }\@writefile{toc}{\contentsline {subsection}{\numberline {9.1}Математические формулы}{30}{subsection.9.1}\protected@file@percent }
\newlabel{parabola}{{22}{30}{Математические формулы}{equation.9.22}{}}
\@writefile{toc}{\defcounter {refsection}{0}\relax }\@writefile{toc}{\contentsline {subsection}{\numberline {9.2}Программная реализация}{30}{subsection.9.2}\protected@file@percent }
\newlabel{num9:d}{{25}{30}{Программная реализация}{equation.9.25}{}}
\newlabel{fist:Задача 9 и задача 10}{{9.2}{30}{Программная реализация}{equation.9.27}{}}
\@writefile{lomylisting}{\defcounter {refsection}{0}\relax }\@writefile{lomylisting}{\contentsline {mylisting}{\numberline {9.1}{\ignorespaces Задача 9 и задача 10\relax }}{30}{mylisting.9.1}\protected@file@percent }
\@writefile{toc}{\defcounter {refsection}{0}\relax }\@writefile{toc}{\contentsline {section}{\numberline {10}Вывод}{35}{section.10}\protected@file@percent }
\gdef\minted@oldcachelist{,
  default-pyg-prefix.pygstyle,
  default.pygstyle,
  087FF33E125DD75534C2E70CE23321B2CCB3DA81423EC61351884621523F382E.pygtex,
  E060D469A65E12E2FCBDB5DA2EB1BD61CCB3DA81423EC61351884621523F382E.pygtex,
  A9B827F344FF5A6652A353E701174E85CCB3DA81423EC61351884621523F382E.pygtex,
  4CA0DFF52B84128A99F438828FDF3C76CCB3DA81423EC61351884621523F382E.pygtex,
  71A51C5609A2DC2716BB8A21847C7904CCB3DA81423EC61351884621523F382E.pygtex,
  DF27B3A0FB288BB6A52DD4F07DFD3006CCB3DA81423EC61351884621523F382E.pygtex,
  E800E4556C5CEAC6E6CC56AAA4DF13C6CCB3DA81423EC61351884621523F382E.pygtex,
  25C0005759FA07601C704A91B98C5DD5CCB3DA81423EC61351884621523F382E.pygtex,
  446ED9576BC66E56001E2F6E95018B75CCB3DA81423EC61351884621523F382E.pygtex}
\newlabel{LastPage}{{}{37}{}{page.37}{}}
\xdef\lastpage@lastpage{37}
\xdef\lastpage@lastpageHy{37}
\gdef \@abspage@last{37}
