\boolfalse {citerequest}\boolfalse {citetracker}\boolfalse {pagetracker}\boolfalse {backtracker}\relax 
\babel@toc {russian}{}
\defcounter {refsection}{0}\relax 
\contentsline {section}{\numberline {1}Задача 1}{2}{section.1}%
\defcounter {refsection}{0}\relax 
\contentsline {subsection}{\numberline {1.1}Математические формулы}{2}{subsection.1.1}%
\defcounter {refsection}{0}\relax 
\contentsline {subsection}{\numberline {1.2}Программная реализация}{2}{subsection.1.2}%
\defcounter {refsection}{0}\relax 
\contentsline {section}{\numberline {2}Задача 2}{5}{section.2}%
\defcounter {refsection}{0}\relax 
\contentsline {subsection}{\numberline {2.1}Математические формулы}{5}{subsection.2.1}%
\defcounter {refsection}{0}\relax 
\contentsline {subsection}{\numberline {2.2}Программная реализация}{6}{subsection.2.2}%
\defcounter {refsection}{0}\relax 
\contentsline {section}{\numberline {3}Задача 3}{10}{section.3}%
\defcounter {refsection}{0}\relax 
\contentsline {subsection}{\numberline {3.1}Математические формулы}{10}{subsection.3.1}%
\defcounter {refsection}{0}\relax 
\contentsline {subsection}{\numberline {3.2}Программная реализация}{10}{subsection.3.2}%
\defcounter {refsection}{0}\relax 
\contentsline {section}{\numberline {4}Задача 4}{15}{section.4}%
\defcounter {refsection}{0}\relax 
\contentsline {subsection}{\numberline {4.1}Математические формулы}{15}{subsection.4.1}%
\defcounter {refsection}{0}\relax 
\contentsline {subsection}{\numberline {4.2}Программная реализация}{15}{subsection.4.2}%
\defcounter {refsection}{0}\relax 
\contentsline {section}{\numberline {5}Задача 5}{18}{section.5}%
\defcounter {refsection}{0}\relax 
\contentsline {section}{\numberline {6}Задача 6}{21}{section.6}%
\defcounter {refsection}{0}\relax 
\contentsline {subsection}{\numberline {6.1}Математические формулы}{21}{subsection.6.1}%
\defcounter {refsection}{0}\relax 
\contentsline {section}{\numberline {7}Задача 7}{25}{section.7}%
\defcounter {refsection}{0}\relax 
\contentsline {subsection}{\numberline {7.1}Математические формулы}{25}{subsection.7.1}%
\defcounter {refsection}{0}\relax 
\contentsline {section}{\numberline {8}Задача 8}{28}{section.8}%
\defcounter {refsection}{0}\relax 
\contentsline {subsection}{\numberline {8.1}Математические формулы}{28}{subsection.8.1}%
\defcounter {refsection}{0}\relax 
\contentsline {section}{\numberline {9}Задача 9,10}{30}{section.9}%
\defcounter {refsection}{0}\relax 
\contentsline {subsection}{\numberline {9.1}Математические формулы}{30}{subsection.9.1}%
\defcounter {refsection}{0}\relax 
\contentsline {subsection}{\numberline {9.2}Программная реализация}{30}{subsection.9.2}%
\defcounter {refsection}{0}\relax 
\contentsline {section}{\numberline {10}Вывод}{35}{section.10}%
