\boolfalse {citerequest}\boolfalse {citetracker}\boolfalse {pagetracker}\boolfalse {backtracker}\relax 
\babel@toc {russian}{}
\defcounter {refsection}{0}\relax 
\contentsline {section}{\numberline {1}Задача 1}{2}{section.1}%
\defcounter {refsection}{0}\relax 
\contentsline {subsection}{\numberline {1.1}Математические формулы}{2}{subsection.1.1}%
\defcounter {refsection}{0}\relax 
\contentsline {subsection}{\numberline {1.2}Программная реализация}{3}{subsection.1.2}%
\defcounter {refsection}{0}\relax 
\contentsline {section}{\numberline {2}Задача 2}{6}{section.2}%
\defcounter {refsection}{0}\relax 
\contentsline {subsection}{\numberline {2.1}Математические формулы}{6}{subsection.2.1}%
\defcounter {refsection}{0}\relax 
\contentsline {subsection}{\numberline {2.2}Программная реализация}{6}{subsection.2.2}%
\defcounter {refsection}{0}\relax 
\contentsline {section}{\numberline {3}Задача 3}{9}{section.3}%
\defcounter {refsection}{0}\relax 
\contentsline {subsection}{\numberline {3.1}Математические формулы}{9}{subsection.3.1}%
\defcounter {refsection}{0}\relax 
\contentsline {subsection}{\numberline {3.2}Программная реализация}{9}{subsection.3.2}%
\defcounter {refsection}{0}\relax 
\contentsline {section}{\numberline {4}Задача 4}{14}{section.4}%
\defcounter {refsection}{0}\relax 
\contentsline {subsection}{\numberline {4.1}Математические формулы}{14}{subsection.4.1}%
\defcounter {refsection}{0}\relax 
\contentsline {subsection}{\numberline {4.2}Программная реализация}{15}{subsection.4.2}%
\defcounter {refsection}{0}\relax 
\contentsline {section}{\numberline {5}Задача 5}{19}{section.5}%
\defcounter {refsection}{0}\relax 
\contentsline {subsection}{\numberline {5.1}Математические формулы}{19}{subsection.5.1}%
\defcounter {refsection}{0}\relax 
\contentsline {subsection}{\numberline {5.2}Программная реализация}{19}{subsection.5.2}%
\defcounter {refsection}{0}\relax 
\contentsline {section}{\numberline {6}Задача 6}{22}{section.6}%
\defcounter {refsection}{0}\relax 
\contentsline {subsection}{\numberline {6.1}Математические формулы}{22}{subsection.6.1}%
\defcounter {refsection}{0}\relax 
\contentsline {subsection}{\numberline {6.2}Программная реализация}{23}{subsection.6.2}%
\defcounter {refsection}{0}\relax 
\contentsline {section}{\numberline {7}Задача 7}{26}{section.7}%
\defcounter {refsection}{0}\relax 
\contentsline {subsection}{\numberline {7.1}Математические формулы}{26}{subsection.7.1}%
\defcounter {refsection}{0}\relax 
\contentsline {subsection}{\numberline {7.2}Программная реализация}{26}{subsection.7.2}%
\defcounter {refsection}{0}\relax 
\contentsline {section}{\numberline {8}Задача 8}{29}{section.8}%
\defcounter {refsection}{0}\relax 
\contentsline {subsection}{\numberline {8.1}Математические формулы}{29}{subsection.8.1}%
\defcounter {refsection}{0}\relax 
\contentsline {subsection}{\numberline {8.2}Программная реализация}{29}{subsection.8.2}%
\defcounter {refsection}{0}\relax 
\contentsline {section}{\numberline {9}Задача 9}{32}{section.9}%
\defcounter {refsection}{0}\relax 
\contentsline {subsection}{\numberline {9.1}Математические формулы}{32}{subsection.9.1}%
\defcounter {refsection}{0}\relax 
\contentsline {subsection}{\numberline {9.2}Программная реализация}{32}{subsection.9.2}%
\defcounter {refsection}{0}\relax 
\contentsline {section}{\numberline {10}Задача 10}{35}{section.10}%
\defcounter {refsection}{0}\relax 
\contentsline {subsection}{\numberline {10.1}Математические формулы}{35}{subsection.10.1}%
\defcounter {refsection}{0}\relax 
\contentsline {subsection}{\numberline {10.2}Программная реализация}{35}{subsection.10.2}%
\defcounter {refsection}{0}\relax 
\contentsline {section}{\numberline {11}Вывод}{39}{section.11}%
