\BOOKMARK [0][-]{chapter.1}{\376\377\004\027\004\060\004\064\004\060\004\075\004\070\004\065}{}% 1
\BOOKMARK [0][-]{chapter.2}{\376\377\000U\000n\000i\000t\000\040\0003\000:\000\040\000T\000y\000p\000e\000s\000\040\000o\000f\000\040\000m\000e\000m\000o\000r\000y}{}% 2
\BOOKMARK [1][-]{section.2.1}{\376\377\000A\000s\000s\000i\000g\000n\000m\000e\000n\000t\000\040\000I}{chapter.2}% 3
\BOOKMARK [1][-]{section.2.2}{\376\377\000A\000s\000s\000i\000g\000n\000m\000e\000n\000t\000\040\000I\000I}{chapter.2}% 4
\BOOKMARK [1][-]{section.2.3}{\376\377\000A\000s\000s\000i\000g\000n\000m\000e\000n\000t\000\040\000I\000I\000I}{chapter.2}% 5
\BOOKMARK [0][-]{chapter.3}{\376\377\000I\000n\000f\000o\000t\000e\000c\000h\000\040\000W\000o\000r\000k\000b\000o\000o\000k\000:\000\040\000U\000n\000i\000t\000\040\0003}{}% 6
\BOOKMARK [1][-]{section.3.1}{\376\377\000E\000x\000e\000r\000c\000i\000s\000e\000\040\0001}{chapter.3}% 7
\BOOKMARK [1][-]{section.3.2}{\376\377\000E\000x\000e\000r\000c\000i\000s\000e\000\040\0002}{chapter.3}% 8
\BOOKMARK [1][-]{section.3.3}{\376\377\000E\000x\000e\000r\000c\000i\000s\000e\000\040\0003}{chapter.3}% 9
\BOOKMARK [1][-]{section.3.4}{\376\377\000E\000x\000e\000r\000c\000i\000s\000e\000\040\0004}{chapter.3}% 10
\BOOKMARK [1][-]{section.3.5}{\376\377\000E\000x\000e\000r\000c\000i\000s\000e\000\040\0005}{chapter.3}% 11
\BOOKMARK [1][-]{section.3.6}{\376\377\000E\000x\000e\000r\000c\000i\000s\000e\000\040\0006}{chapter.3}% 12
\BOOKMARK [1][-]{section.3.7}{\376\377\000E\000x\000e\000r\000c\000i\000s\000e\000\040\0007}{chapter.3}% 13
\BOOKMARK [1][-]{section.3.8}{\376\377\000E\000x\000e\000r\000c\000i\000s\000e\000\040\0008}{chapter.3}% 14
