\boolfalse {citerequest}\boolfalse {citetracker}\boolfalse {pagetracker}\boolfalse {backtracker}\relax 
\babel@toc {russian}{}
\defcounter {refsection}{0}\relax 
\contentsline {chapter}{\numberline {1}Задание}{3}{chapter.1}%
\defcounter {refsection}{0}\relax 
\contentsline {chapter}{\numberline {2}Unit 3: Types of memory}{4}{chapter.2}%
\defcounter {refsection}{0}\relax 
\contentsline {section}{\numberline {2.1}Assignment I}{4}{section.2.1}%
\defcounter {refsection}{0}\relax 
\contentsline {section}{\numberline {2.2}Assignment II}{6}{section.2.2}%
\defcounter {refsection}{0}\relax 
\contentsline {section}{\numberline {2.3}Assignment III}{8}{section.2.3}%
\defcounter {refsection}{0}\relax 
\contentsline {chapter}{\numberline {3}Infotech Workbook: Unit 3}{9}{chapter.3}%
\defcounter {refsection}{0}\relax 
\contentsline {section}{\numberline {3.1}Exercise 1}{9}{section.3.1}%
\defcounter {refsection}{0}\relax 
\contentsline {section}{\numberline {3.2}Exercise 2}{10}{section.3.2}%
\defcounter {refsection}{0}\relax 
\contentsline {section}{\numberline {3.3}Exercise 3}{12}{section.3.3}%
\defcounter {refsection}{0}\relax 
\contentsline {section}{\numberline {3.4}Exercise 4}{13}{section.3.4}%
\defcounter {refsection}{0}\relax 
\contentsline {section}{\numberline {3.5}Exercise 5}{14}{section.3.5}%
\defcounter {refsection}{0}\relax 
\contentsline {section}{\numberline {3.6}Exercise 6}{15}{section.3.6}%
\defcounter {refsection}{0}\relax 
\contentsline {section}{\numberline {3.7}Exercise 7}{16}{section.3.7}%
\defcounter {refsection}{0}\relax 
\contentsline {section}{\numberline {3.8}Exercise 8}{17}{section.3.8}%
