\relax 
\providecommand\hyper@newdestlabel[2]{}
\@nameuse{bbl@beforestart}
\catcode `"\active 
\nicematrix@redefine@check@rerun 
\abx@aux@refcontext{nty/global//global/global}
\providecommand\HyperFirstAtBeginDocument{\AtBeginDocument}
\HyperFirstAtBeginDocument{\ifx\hyper@anchor\@undefined
\global\let\oldcontentsline\contentsline
\gdef\contentsline#1#2#3#4{\oldcontentsline{#1}{#2}{#3}}
\global\let\oldnewlabel\newlabel
\gdef\newlabel#1#2{\newlabelxx{#1}#2}
\gdef\newlabelxx#1#2#3#4#5#6{\oldnewlabel{#1}{{#2}{#3}}}
\AtEndDocument{\ifx\hyper@anchor\@undefined
\let\contentsline\oldcontentsline
\let\newlabel\oldnewlabel
\fi}
\fi}
\global\let\hyper@last\relax 
\gdef\HyperFirstAtBeginDocument#1{#1}
\providecommand\HyField@AuxAddToFields[1]{}
\providecommand\HyField@AuxAddToCoFields[2]{}
\providecommand\@newglossary[4]{}
\@newglossary{main}{glg}{gls}{glo}
\providecommand\@glsorder[1]{}
\providecommand\@istfilename[1]{}
\@istfilename{third.xdy}
\@glsorder{word}
\@writefile{toc}{\boolfalse {citerequest}\boolfalse {citetracker}\boolfalse {pagetracker}\boolfalse {backtracker}\relax }
\@writefile{lof}{\boolfalse {citerequest}\boolfalse {citetracker}\boolfalse {pagetracker}\boolfalse {backtracker}\relax }
\@writefile{lot}{\boolfalse {citerequest}\boolfalse {citetracker}\boolfalse {pagetracker}\boolfalse {backtracker}\relax }
\babel@aux{russian}{}
\pp@pagectr{footnote}{1}{3}{3}
\@writefile{toc}{\defcounter {refsection}{0}\relax }\@writefile{toc}{\contentsline {chapter}{\numberline {1}Задание}{3}{chapter.1}\protected@file@percent }
\@writefile{lof}{\defcounter {refsection}{0}\relax }\@writefile{lof}{\addvspace {10\p@ }}
\@writefile{lot}{\defcounter {refsection}{0}\relax }\@writefile{lot}{\addvspace {10\p@ }}
\ExplSyntaxOn \cs_if_free:NT \pgfsyspdfmark {\cs_set_eq:NN \pgfsyspdfmark \use:nnn }\ExplSyntaxOff 
\pp@pagectr{footnote}{2}{4}{4}
\@writefile{toc}{\defcounter {refsection}{0}\relax }\@writefile{toc}{\contentsline {chapter}{\numberline {2}Unit 3: Types of memory}{4}{chapter.2}\protected@file@percent }
\@writefile{lof}{\defcounter {refsection}{0}\relax }\@writefile{lof}{\addvspace {10\p@ }}
\@writefile{lot}{\defcounter {refsection}{0}\relax }\@writefile{lot}{\addvspace {10\p@ }}
\@writefile{toc}{\defcounter {refsection}{0}\relax }\@writefile{toc}{\contentsline {section}{\numberline {2.1}Assignment I}{4}{section.2.1}\protected@file@percent }
\@writefile{lot}{\defcounter {refsection}{0}\relax }\@writefile{lot}{\contentsline {table}{\numberline {2.1}{\ignorespaces Assignment I\relax }}{5}{table.caption.2}\protected@file@percent }
\providecommand*\caption@xref[2]{\@setref\relax\@undefined{#1}}
\newlabel{Assignment I}{{2.1}{5}{Assignment I\relax }{table.caption.2}{}}
\pgfsyspdfmark {pgfid2}{6145987}{50078767}
\pgfsyspdfmark {pgfid3}{6145987}{50078767}
\pgfsyspdfmark {pgfid4}{6145987}{48715072}
\pgfsyspdfmark {pgfid5}{14429737}{48715072}
\pgfsyspdfmark {pgfid6}{28323369}{48715072}
\pgfsyspdfmark {pgfid7}{6145987}{48280563}
\pgfsyspdfmark {pgfid8}{6145987}{48111729}
\pgfsyspdfmark {pgfid9}{6145987}{46816979}
\pgfsyspdfmark {pgfid10}{6381916}{46816979}
\pgfsyspdfmark {pgfid11}{14429737}{46816979}
\pgfsyspdfmark {pgfid12}{28323369}{46816979}
\pgfsyspdfmark {pgfid13}{6145987}{46382470}
\pgfsyspdfmark {pgfid14}{6145987}{45368631}
\pgfsyspdfmark {pgfid15}{6381916}{45368631}
\pgfsyspdfmark {pgfid16}{14429737}{45368631}
\pgfsyspdfmark {pgfid17}{28323369}{45368631}
\pgfsyspdfmark {pgfid18}{6145987}{44934122}
\pgfsyspdfmark {pgfid19}{6145987}{43920283}
\pgfsyspdfmark {pgfid20}{6381916}{43920283}
\pgfsyspdfmark {pgfid21}{14429737}{43920283}
\pgfsyspdfmark {pgfid22}{28323369}{43920283}
\pgfsyspdfmark {pgfid23}{6145987}{43485774}
\pgfsyspdfmark {pgfid24}{6145987}{42471935}
\pgfsyspdfmark {pgfid25}{6381916}{42471935}
\pgfsyspdfmark {pgfid26}{14429737}{42471935}
\pgfsyspdfmark {pgfid27}{28323369}{42471935}
\pgfsyspdfmark {pgfid28}{6145987}{42037426}
\pgfsyspdfmark {pgfid29}{6145987}{41023587}
\pgfsyspdfmark {pgfid30}{6381916}{41023587}
\pgfsyspdfmark {pgfid31}{14429737}{41023587}
\pgfsyspdfmark {pgfid32}{28323369}{41023587}
\pgfsyspdfmark {pgfid33}{6145987}{40589078}
\pgfsyspdfmark {pgfid34}{6145987}{39575239}
\pgfsyspdfmark {pgfid35}{6381916}{39575239}
\pgfsyspdfmark {pgfid36}{14429737}{39575239}
\pgfsyspdfmark {pgfid37}{28323369}{39575239}
\pgfsyspdfmark {pgfid38}{6145987}{39140730}
\pgfsyspdfmark {pgfid39}{6145987}{38126891}
\pgfsyspdfmark {pgfid40}{6381916}{38126891}
\pgfsyspdfmark {pgfid41}{14429737}{38126891}
\pgfsyspdfmark {pgfid42}{28323369}{38126891}
\pgfsyspdfmark {pgfid43}{6145987}{37692382}
\pgfsyspdfmark {pgfid44}{6145987}{36678543}
\pgfsyspdfmark {pgfid45}{6381916}{36678543}
\pgfsyspdfmark {pgfid46}{14429737}{36678543}
\pgfsyspdfmark {pgfid47}{28323369}{36678543}
\pgfsyspdfmark {pgfid48}{6145987}{36244034}
\pgfsyspdfmark {pgfid49}{6145987}{35230195}
\pgfsyspdfmark {pgfid50}{6381916}{35230195}
\pgfsyspdfmark {pgfid51}{14429737}{35230195}
\pgfsyspdfmark {pgfid52}{28323369}{35230195}
\pgfsyspdfmark {pgfid53}{6145987}{34795686}
\pgfsyspdfmark {pgfid54}{6145987}{33781847}
\pgfsyspdfmark {pgfid55}{6617846}{33781847}
\pgfsyspdfmark {pgfid56}{14429737}{33781847}
\pgfsyspdfmark {pgfid57}{28323369}{33781847}
\pgfsyspdfmark {pgfid58}{6145987}{33347338}
\pgfsyspdfmark {pgfid59}{6145987}{32333499}
\pgfsyspdfmark {pgfid60}{6617846}{32333499}
\pgfsyspdfmark {pgfid61}{14429737}{32333499}
\pgfsyspdfmark {pgfid62}{28323369}{32333499}
\pgfsyspdfmark {pgfid63}{6145987}{31898990}
\pgfsyspdfmark {pgfid64}{6145987}{30885151}
\pgfsyspdfmark {pgfid65}{6617846}{30885151}
\pgfsyspdfmark {pgfid66}{14429737}{30885151}
\pgfsyspdfmark {pgfid67}{28323369}{30885151}
\pgfsyspdfmark {pgfid68}{6145987}{30450642}
\pgfsyspdfmark {pgfid69}{6145987}{29436803}
\pgfsyspdfmark {pgfid70}{6617846}{29436803}
\pgfsyspdfmark {pgfid71}{14429737}{29436803}
\pgfsyspdfmark {pgfid72}{28323369}{29436803}
\pgfsyspdfmark {pgfid73}{6145987}{29002294}
\pgfsyspdfmark {pgfid74}{6145987}{27988455}
\pgfsyspdfmark {pgfid75}{6617846}{27988455}
\pgfsyspdfmark {pgfid76}{14429737}{27988455}
\pgfsyspdfmark {pgfid77}{28323369}{27988455}
\pgfsyspdfmark {pgfid78}{6145987}{27553946}
\pgfsyspdfmark {pgfid79}{6145987}{26540107}
\pgfsyspdfmark {pgfid80}{6617846}{26540107}
\pgfsyspdfmark {pgfid81}{14429737}{26540107}
\pgfsyspdfmark {pgfid82}{28323369}{26540107}
\pgfsyspdfmark {pgfid83}{6145987}{26105598}
\pgfsyspdfmark {pgfid84}{6145987}{25091759}
\pgfsyspdfmark {pgfid85}{6617846}{25091759}
\pgfsyspdfmark {pgfid86}{14429737}{25091759}
\pgfsyspdfmark {pgfid87}{28323369}{25091759}
\pgfsyspdfmark {pgfid88}{6145987}{22260089}
\pgfsyspdfmark {pgfid89}{6145987}{21246250}
\pgfsyspdfmark {pgfid90}{6617846}{21246250}
\pgfsyspdfmark {pgfid91}{14429737}{21246250}
\pgfsyspdfmark {pgfid92}{28323369}{21246250}
\pgfsyspdfmark {pgfid93}{6145987}{20811741}
\pgfsyspdfmark {pgfid94}{6145987}{19797902}
\pgfsyspdfmark {pgfid95}{6617846}{19797902}
\pgfsyspdfmark {pgfid96}{14429737}{19797902}
\pgfsyspdfmark {pgfid97}{28323369}{19797902}
\pgfsyspdfmark {pgfid98}{6145987}{19363393}
\pgfsyspdfmark {pgfid99}{6145987}{18349554}
\pgfsyspdfmark {pgfid100}{6617846}{18349554}
\pgfsyspdfmark {pgfid101}{14429737}{18349554}
\pgfsyspdfmark {pgfid102}{28323369}{18349554}
\pgfsyspdfmark {pgfid103}{6145987}{17915045}
\pgfsyspdfmark {pgfid104}{6145987}{16901206}
\pgfsyspdfmark {pgfid105}{6617846}{16901206}
\pgfsyspdfmark {pgfid106}{14429737}{16901206}
\pgfsyspdfmark {pgfid107}{28323369}{16901206}
\pgfsyspdfmark {pgfid108}{6145987}{16466697}
\pgfsyspdfmark {pgfid109}{6145987}{16297863}
\pgfsyspdfmark {pgfid110}{6145987}{16222364}
\pgfsyspdfmark {pgfid111}{7482921}{16222364}
\pgfsyspdfmark {pgfid112}{21376553}{16222364}
\pgfsyspdfmark {pgfid113}{34876969}{16222364}
\savepicturepage{pgfid114}{5}
\pgfsyspdfmark {pgfid114}{34876969}{32914636}
\@writefile{toc}{\defcounter {refsection}{0}\relax }\@writefile{toc}{\contentsline {section}{\numberline {2.2}Assignment II}{6}{section.2.2}\protected@file@percent }
\@writefile{lot}{\defcounter {refsection}{0}\relax }\@writefile{lot}{\contentsline {table}{\numberline {2.2}{\ignorespaces Assignment II a\relax }}{6}{table.caption.3}\protected@file@percent }
\newlabel{Assignment II a}{{2.2}{6}{Assignment II a\relax }{table.caption.3}{}}
\pgfsyspdfmark {pgfid115}{6145987}{43632836}
\pgfsyspdfmark {pgfid116}{6145987}{43632836}
\pgfsyspdfmark {pgfid117}{6145987}{42269141}
\pgfsyspdfmark {pgfid118}{14429737}{42269141}
\pgfsyspdfmark {pgfid119}{28323369}{42269141}
\pgfsyspdfmark {pgfid120}{6145987}{41834632}
\pgfsyspdfmark {pgfid121}{6145987}{41665798}
\pgfsyspdfmark {pgfid122}{6145987}{40371048}
\pgfsyspdfmark {pgfid123}{6381916}{40371048}
\pgfsyspdfmark {pgfid124}{14429737}{40371048}
\pgfsyspdfmark {pgfid125}{28323369}{40371048}
\pgfsyspdfmark {pgfid126}{6145987}{39936539}
\pgfsyspdfmark {pgfid127}{6145987}{38922700}
\pgfsyspdfmark {pgfid128}{6381916}{38922700}
\pgfsyspdfmark {pgfid129}{14429737}{38922700}
\pgfsyspdfmark {pgfid130}{28323369}{38922700}
\pgfsyspdfmark {pgfid131}{6145987}{38488191}
\pgfsyspdfmark {pgfid132}{6145987}{37474352}
\pgfsyspdfmark {pgfid133}{6381916}{37474352}
\pgfsyspdfmark {pgfid134}{14429737}{37474352}
\pgfsyspdfmark {pgfid135}{28323369}{37474352}
\pgfsyspdfmark {pgfid136}{6145987}{37039843}
\pgfsyspdfmark {pgfid137}{6145987}{36026004}
\pgfsyspdfmark {pgfid138}{6381916}{36026004}
\pgfsyspdfmark {pgfid139}{14429737}{36026004}
\pgfsyspdfmark {pgfid140}{28323369}{36026004}
\pgfsyspdfmark {pgfid141}{6145987}{34077611}
\pgfsyspdfmark {pgfid142}{6145987}{33063772}
\pgfsyspdfmark {pgfid143}{6381916}{33063772}
\pgfsyspdfmark {pgfid144}{14429737}{33063772}
\pgfsyspdfmark {pgfid145}{28323369}{33063772}
\pgfsyspdfmark {pgfid146}{6145987}{32629263}
\pgfsyspdfmark {pgfid147}{6145987}{31615424}
\pgfsyspdfmark {pgfid148}{6381916}{31615424}
\pgfsyspdfmark {pgfid149}{14429737}{31615424}
\pgfsyspdfmark {pgfid150}{28323369}{31615424}
\pgfsyspdfmark {pgfid151}{6145987}{31180915}
\pgfsyspdfmark {pgfid152}{6145987}{30167076}
\pgfsyspdfmark {pgfid153}{6381916}{30167076}
\pgfsyspdfmark {pgfid154}{14429737}{30167076}
\pgfsyspdfmark {pgfid155}{28323369}{30167076}
\pgfsyspdfmark {pgfid156}{6145987}{28218683}
\pgfsyspdfmark {pgfid157}{6145987}{27204844}
\pgfsyspdfmark {pgfid158}{6381916}{27204844}
\pgfsyspdfmark {pgfid159}{14429737}{27204844}
\pgfsyspdfmark {pgfid160}{28323369}{27204844}
\pgfsyspdfmark {pgfid161}{6145987}{26770335}
\pgfsyspdfmark {pgfid162}{6145987}{25756496}
\pgfsyspdfmark {pgfid163}{6381916}{25756496}
\pgfsyspdfmark {pgfid164}{14429737}{25756496}
\pgfsyspdfmark {pgfid165}{28323369}{25756496}
\pgfsyspdfmark {pgfid166}{6145987}{22926670}
\pgfsyspdfmark {pgfid167}{6145987}{21912831}
\pgfsyspdfmark {pgfid168}{6617846}{21912831}
\pgfsyspdfmark {pgfid169}{14429737}{21912831}
\pgfsyspdfmark {pgfid170}{28323369}{21912831}
\pgfsyspdfmark {pgfid171}{6145987}{21478322}
\pgfsyspdfmark {pgfid172}{6145987}{20464483}
\pgfsyspdfmark {pgfid173}{6617846}{20464483}
\pgfsyspdfmark {pgfid174}{14429737}{20464483}
\pgfsyspdfmark {pgfid175}{28323369}{20464483}
\pgfsyspdfmark {pgfid176}{6145987}{18516090}
\pgfsyspdfmark {pgfid177}{6145987}{17502251}
\pgfsyspdfmark {pgfid178}{6617846}{17502251}
\pgfsyspdfmark {pgfid179}{14429737}{17502251}
\pgfsyspdfmark {pgfid180}{28323369}{17502251}
\pgfsyspdfmark {pgfid181}{6145987}{17067742}
\pgfsyspdfmark {pgfid182}{6145987}{16898908}
\pgfsyspdfmark {pgfid183}{6145987}{16823409}
\pgfsyspdfmark {pgfid184}{7482921}{16823409}
\pgfsyspdfmark {pgfid185}{21376553}{16823409}
\pgfsyspdfmark {pgfid186}{34876969}{16823409}
\savepicturepage{pgfid187}{6}
\pgfsyspdfmark {pgfid187}{34876969}{29992193}
\@writefile{lot}{\defcounter {refsection}{0}\relax }\@writefile{lot}{\contentsline {table}{\numberline {2.3}{\ignorespaces Assignment II b\relax }}{7}{table.caption.4}\protected@file@percent }
\newlabel{Assignment II b}{{2.3}{7}{Assignment II b\relax }{table.caption.4}{}}
\pgfsyspdfmark {pgfid188}{6106682}{49882159}
\pgfsyspdfmark {pgfid189}{6106682}{49882159}
\pgfsyspdfmark {pgfid190}{6106682}{48518464}
\pgfsyspdfmark {pgfid191}{6617846}{48518464}
\pgfsyspdfmark {pgfid192}{14469042}{48518464}
\pgfsyspdfmark {pgfid193}{28362674}{48518464}
\pgfsyspdfmark {pgfid194}{6106682}{48083955}
\pgfsyspdfmark {pgfid195}{6106682}{47070116}
\pgfsyspdfmark {pgfid196}{6578541}{47070116}
\pgfsyspdfmark {pgfid197}{14469042}{47070116}
\pgfsyspdfmark {pgfid198}{28362674}{47070116}
\pgfsyspdfmark {pgfid199}{6106682}{46635607}
\pgfsyspdfmark {pgfid200}{6106682}{45621768}
\pgfsyspdfmark {pgfid201}{6578541}{45621768}
\pgfsyspdfmark {pgfid202}{14469042}{45621768}
\pgfsyspdfmark {pgfid203}{28362674}{45621768}
\pgfsyspdfmark {pgfid204}{6106682}{43673375}
\pgfsyspdfmark {pgfid205}{6106682}{42659536}
\pgfsyspdfmark {pgfid206}{6578541}{42659536}
\pgfsyspdfmark {pgfid207}{14469042}{42659536}
\pgfsyspdfmark {pgfid208}{28362674}{42659536}
\pgfsyspdfmark {pgfid209}{6106682}{42225027}
\pgfsyspdfmark {pgfid210}{6106682}{41211188}
\pgfsyspdfmark {pgfid211}{6578541}{41211188}
\pgfsyspdfmark {pgfid212}{14469042}{41211188}
\pgfsyspdfmark {pgfid213}{28362674}{41211188}
\pgfsyspdfmark {pgfid214}{6106682}{39262795}
\pgfsyspdfmark {pgfid215}{6106682}{38248956}
\pgfsyspdfmark {pgfid216}{6578541}{38248956}
\pgfsyspdfmark {pgfid217}{14469042}{38248956}
\pgfsyspdfmark {pgfid218}{28362674}{38248956}
\pgfsyspdfmark {pgfid219}{6106682}{37814447}
\pgfsyspdfmark {pgfid220}{6106682}{36800608}
\pgfsyspdfmark {pgfid221}{6578541}{36800608}
\pgfsyspdfmark {pgfid222}{14469042}{36800608}
\pgfsyspdfmark {pgfid223}{28362674}{36800608}
\pgfsyspdfmark {pgfid224}{6106682}{36366099}
\pgfsyspdfmark {pgfid225}{6106682}{35352260}
\pgfsyspdfmark {pgfid226}{6578541}{35352260}
\pgfsyspdfmark {pgfid227}{14469042}{35352260}
\pgfsyspdfmark {pgfid228}{28362674}{35352260}
\pgfsyspdfmark {pgfid229}{6106682}{33403867}
\pgfsyspdfmark {pgfid230}{6106682}{32390028}
\pgfsyspdfmark {pgfid231}{6578541}{32390028}
\pgfsyspdfmark {pgfid232}{14469042}{32390028}
\pgfsyspdfmark {pgfid233}{28362674}{32390028}
\pgfsyspdfmark {pgfid234}{6106682}{31955519}
\pgfsyspdfmark {pgfid235}{6106682}{30941680}
\pgfsyspdfmark {pgfid236}{6578541}{30941680}
\pgfsyspdfmark {pgfid237}{14469042}{30941680}
\pgfsyspdfmark {pgfid238}{28362674}{30941680}
\pgfsyspdfmark {pgfid239}{6106682}{30507171}
\pgfsyspdfmark {pgfid240}{6106682}{29493332}
\pgfsyspdfmark {pgfid241}{6578541}{29493332}
\pgfsyspdfmark {pgfid242}{14469042}{29493332}
\pgfsyspdfmark {pgfid243}{28362674}{29493332}
\pgfsyspdfmark {pgfid244}{6106682}{27544939}
\pgfsyspdfmark {pgfid245}{6106682}{26531100}
\pgfsyspdfmark {pgfid246}{6578541}{26531100}
\pgfsyspdfmark {pgfid247}{14469042}{26531100}
\pgfsyspdfmark {pgfid248}{28362674}{26531100}
\pgfsyspdfmark {pgfid249}{6106682}{26096591}
\pgfsyspdfmark {pgfid250}{6106682}{25927757}
\pgfsyspdfmark {pgfid251}{6106682}{25852258}
\pgfsyspdfmark {pgfid252}{7522226}{25852258}
\pgfsyspdfmark {pgfid253}{21415858}{25852258}
\pgfsyspdfmark {pgfid254}{34916274}{25852258}
\savepicturepage{pgfid255}{7}
\pgfsyspdfmark {pgfid255}{34916274}{37631279}
\@writefile{toc}{\defcounter {refsection}{0}\relax }\@writefile{toc}{\contentsline {section}{\numberline {2.3}Assignment III}{8}{section.2.3}\protected@file@percent }
\@writefile{lot}{\defcounter {refsection}{0}\relax }\@writefile{lot}{\contentsline {table}{\numberline {2.4}{\ignorespaces Assignment III\relax }}{8}{table.caption.5}\protected@file@percent }
\newlabel{Assignment III}{{2.4}{8}{Assignment III\relax }{table.caption.5}{}}
\pgfsyspdfmark {pgfid256}{6381917}{44832861}
\pgfsyspdfmark {pgfid257}{6381917}{44832861}
\pgfsyspdfmark {pgfid258}{6381917}{43469166}
\pgfsyspdfmark {pgfid259}{14193807}{43469166}
\pgfsyspdfmark {pgfid260}{28087439}{43469166}
\pgfsyspdfmark {pgfid261}{6381917}{43034657}
\pgfsyspdfmark {pgfid262}{6381917}{42865823}
\pgfsyspdfmark {pgfid263}{6381917}{41571073}
\pgfsyspdfmark {pgfid264}{6617846}{41571073}
\pgfsyspdfmark {pgfid265}{14193807}{41571073}
\pgfsyspdfmark {pgfid266}{28087439}{41571073}
\pgfsyspdfmark {pgfid267}{6381917}{35397067}
\pgfsyspdfmark {pgfid268}{6381917}{34383228}
\pgfsyspdfmark {pgfid269}{6617846}{34383228}
\pgfsyspdfmark {pgfid270}{14193807}{34383228}
\pgfsyspdfmark {pgfid271}{28087439}{34383228}
\pgfsyspdfmark {pgfid272}{6381917}{31551558}
\pgfsyspdfmark {pgfid273}{6381917}{30537719}
\pgfsyspdfmark {pgfid274}{6617846}{30537719}
\pgfsyspdfmark {pgfid275}{14193807}{30537719}
\pgfsyspdfmark {pgfid276}{28087439}{30537719}
\pgfsyspdfmark {pgfid277}{6381917}{27706049}
\pgfsyspdfmark {pgfid278}{6381917}{26692210}
\pgfsyspdfmark {pgfid279}{6617846}{26692210}
\pgfsyspdfmark {pgfid280}{14193807}{26692210}
\pgfsyspdfmark {pgfid281}{28087439}{26692210}
\pgfsyspdfmark {pgfid282}{6381917}{22746428}
\pgfsyspdfmark {pgfid283}{6381917}{21732589}
\pgfsyspdfmark {pgfid284}{6617846}{21732589}
\pgfsyspdfmark {pgfid285}{14193807}{21732589}
\pgfsyspdfmark {pgfid286}{28087439}{21732589}
\pgfsyspdfmark {pgfid287}{6381917}{19784196}
\pgfsyspdfmark {pgfid288}{6381917}{18770357}
\pgfsyspdfmark {pgfid289}{6617846}{18770357}
\pgfsyspdfmark {pgfid290}{14193807}{18770357}
\pgfsyspdfmark {pgfid291}{28087439}{18770357}
\pgfsyspdfmark {pgfid292}{6381917}{13879400}
\pgfsyspdfmark {pgfid293}{6381917}{12865561}
\pgfsyspdfmark {pgfid294}{6617846}{12865561}
\pgfsyspdfmark {pgfid295}{14193807}{12865561}
\pgfsyspdfmark {pgfid296}{28087439}{12865561}
\pgfsyspdfmark {pgfid297}{6381917}{10033891}
\pgfsyspdfmark {pgfid298}{6381917}{9020052}
\pgfsyspdfmark {pgfid299}{6617846}{9020052}
\pgfsyspdfmark {pgfid300}{14193807}{9020052}
\pgfsyspdfmark {pgfid301}{28087439}{9020052}
\pgfsyspdfmark {pgfid302}{6381917}{6188382}
\pgfsyspdfmark {pgfid303}{6381917}{6019548}
\pgfsyspdfmark {pgfid304}{6381917}{5944049}
\pgfsyspdfmark {pgfid305}{7246991}{5944049}
\pgfsyspdfmark {pgfid306}{21140623}{5944049}
\pgfsyspdfmark {pgfid307}{34641039}{5944049}
\savepicturepage{pgfid308}{8}
\pgfsyspdfmark {pgfid308}{34641039}{25152526}
\pp@pagectr{footnote}{3}{9}{9}
\@writefile{toc}{\defcounter {refsection}{0}\relax }\@writefile{toc}{\contentsline {chapter}{\numberline {3}Infotech Workbook: Unit 3}{9}{chapter.3}\protected@file@percent }
\@writefile{lof}{\defcounter {refsection}{0}\relax }\@writefile{lof}{\addvspace {10\p@ }}
\@writefile{lot}{\defcounter {refsection}{0}\relax }\@writefile{lot}{\addvspace {10\p@ }}
\@writefile{toc}{\defcounter {refsection}{0}\relax }\@writefile{toc}{\contentsline {section}{\numberline {3.1}Exercise 1}{9}{section.3.1}\protected@file@percent }
\@writefile{lot}{\defcounter {refsection}{0}\relax }\@writefile{lot}{\contentsline {table}{\numberline {3.1}{\ignorespaces Exercise 1\relax }}{9}{table.caption.6}\protected@file@percent }
\newlabel{Exercise 1}{{3.1}{9}{Exercise 1\relax }{table.caption.6}{}}
\pgfsyspdfmark {pgfid309}{7011062}{35354710}
\pgfsyspdfmark {pgfid310}{7011062}{35354710}
\pgfsyspdfmark {pgfid311}{7011062}{33991015}
\pgfsyspdfmark {pgfid312}{13564662}{33991015}
\pgfsyspdfmark {pgfid313}{27458294}{33991015}
\pgfsyspdfmark {pgfid314}{7011062}{33556506}
\pgfsyspdfmark {pgfid315}{7011062}{33387672}
\pgfsyspdfmark {pgfid316}{7011062}{32092922}
\pgfsyspdfmark {pgfid317}{13564662}{32092922}
\pgfsyspdfmark {pgfid318}{27458294}{32092922}
\pgfsyspdfmark {pgfid319}{7011062}{31658413}
\pgfsyspdfmark {pgfid320}{7011062}{30644574}
\pgfsyspdfmark {pgfid321}{13564662}{30644574}
\pgfsyspdfmark {pgfid322}{27458294}{30644574}
\pgfsyspdfmark {pgfid323}{7011062}{30210065}
\pgfsyspdfmark {pgfid324}{7011062}{29196226}
\pgfsyspdfmark {pgfid325}{13564662}{29196226}
\pgfsyspdfmark {pgfid326}{27458294}{29196226}
\pgfsyspdfmark {pgfid327}{7011062}{28761717}
\pgfsyspdfmark {pgfid328}{7011062}{27747878}
\pgfsyspdfmark {pgfid329}{13564662}{27747878}
\pgfsyspdfmark {pgfid330}{27458294}{27747878}
\pgfsyspdfmark {pgfid331}{7011062}{27313369}
\pgfsyspdfmark {pgfid332}{7011062}{26299530}
\pgfsyspdfmark {pgfid333}{13564662}{26299530}
\pgfsyspdfmark {pgfid334}{27458294}{26299530}
\pgfsyspdfmark {pgfid335}{7011062}{25865021}
\pgfsyspdfmark {pgfid336}{7011062}{24851182}
\pgfsyspdfmark {pgfid337}{13564662}{24851182}
\pgfsyspdfmark {pgfid338}{27458294}{24851182}
\pgfsyspdfmark {pgfid339}{7011062}{24416673}
\pgfsyspdfmark {pgfid340}{7011062}{24247839}
\pgfsyspdfmark {pgfid341}{7011062}{24172340}
\pgfsyspdfmark {pgfid342}{20511478}{24172340}
\pgfsyspdfmark {pgfid343}{34011894}{24172340}
\savepicturepage{pgfid344}{9}
\pgfsyspdfmark {pgfid344}{34011894}{29527596}
\@writefile{toc}{\defcounter {refsection}{0}\relax }\@writefile{toc}{\contentsline {section}{\numberline {3.2}Exercise 2}{10}{section.3.2}\protected@file@percent }
\newlabel{Exercise 2}{{\caption@xref {Exercise 2}{ on input line 1}}{11}{Exercise 2}{figure.caption.7}{}}
\@writefile{lof}{\defcounter {refsection}{0}\relax }\@writefile{lof}{\contentsline {figure}{\numberline {3.2.1}{\ignorespaces Exercise 2\relax }}{11}{figure.caption.7}\protected@file@percent }
\@writefile{toc}{\defcounter {refsection}{0}\relax }\@writefile{toc}{\contentsline {section}{\numberline {3.3}Exercise 3}{12}{section.3.3}\protected@file@percent }
\@writefile{toc}{\defcounter {refsection}{0}\relax }\@writefile{toc}{\contentsline {section}{\numberline {3.4}Exercise 4}{13}{section.3.4}\protected@file@percent }
\@writefile{toc}{\defcounter {refsection}{0}\relax }\@writefile{toc}{\contentsline {section}{\numberline {3.5}Exercise 5}{14}{section.3.5}\protected@file@percent }
\@writefile{lot}{\defcounter {refsection}{0}\relax }\@writefile{lot}{\contentsline {table}{\numberline {3.2}{\ignorespaces Exercise 5\relax }}{14}{table.caption.8}\protected@file@percent }
\newlabel{Exercise 5}{{3.2}{14}{Exercise 5\relax }{table.caption.8}{}}
\pgfsyspdfmark {pgfid346}{8583926}{42049425}
\pgfsyspdfmark {pgfid347}{8583926}{42049425}
\pgfsyspdfmark {pgfid348}{8583926}{40685730}
\pgfsyspdfmark {pgfid349}{12516086}{40685730}
\pgfsyspdfmark {pgfid350}{21166838}{40685730}
\pgfsyspdfmark {pgfid351}{29162230}{40685730}
\pgfsyspdfmark {pgfid352}{8583926}{40251221}
\pgfsyspdfmark {pgfid353}{8583926}{40082387}
\pgfsyspdfmark {pgfid354}{8583926}{38787637}
\pgfsyspdfmark {pgfid355}{12516086}{38787637}
\pgfsyspdfmark {pgfid356}{21166838}{38787637}
\pgfsyspdfmark {pgfid357}{29162230}{38787637}
\pgfsyspdfmark {pgfid358}{8583926}{38353128}
\pgfsyspdfmark {pgfid359}{8583926}{37339289}
\pgfsyspdfmark {pgfid360}{12516086}{37339289}
\pgfsyspdfmark {pgfid361}{21166838}{37339289}
\pgfsyspdfmark {pgfid362}{29162230}{37339289}
\pgfsyspdfmark {pgfid363}{8583926}{36904780}
\pgfsyspdfmark {pgfid364}{8583926}{35890941}
\pgfsyspdfmark {pgfid365}{12516086}{35890941}
\pgfsyspdfmark {pgfid366}{21166838}{35890941}
\pgfsyspdfmark {pgfid367}{29162230}{35890941}
\pgfsyspdfmark {pgfid368}{8583926}{35456432}
\pgfsyspdfmark {pgfid369}{8583926}{34442593}
\pgfsyspdfmark {pgfid370}{12516086}{34442593}
\pgfsyspdfmark {pgfid371}{21166838}{34442593}
\pgfsyspdfmark {pgfid372}{29162230}{34442593}
\pgfsyspdfmark {pgfid373}{8583926}{34008084}
\pgfsyspdfmark {pgfid374}{8583926}{32994245}
\pgfsyspdfmark {pgfid375}{12516086}{32994245}
\pgfsyspdfmark {pgfid376}{21166838}{32994245}
\pgfsyspdfmark {pgfid377}{29162230}{32994245}
\pgfsyspdfmark {pgfid378}{8583926}{32559736}
\pgfsyspdfmark {pgfid379}{8583926}{31545897}
\pgfsyspdfmark {pgfid380}{12516086}{31545897}
\pgfsyspdfmark {pgfid381}{21166838}{31545897}
\pgfsyspdfmark {pgfid382}{29162230}{31545897}
\pgfsyspdfmark {pgfid383}{8583926}{31111388}
\pgfsyspdfmark {pgfid384}{8583926}{30097549}
\pgfsyspdfmark {pgfid385}{12516086}{30097549}
\pgfsyspdfmark {pgfid386}{8583926}{29663040}
\pgfsyspdfmark {pgfid387}{8583926}{29494206}
\pgfsyspdfmark {pgfid388}{8583926}{29418707}
\pgfsyspdfmark {pgfid389}{16841462}{29418707}
\pgfsyspdfmark {pgfid390}{25492214}{29418707}
\pgfsyspdfmark {pgfid391}{32439030}{29418707}
\savepicturepage{pgfid392}{14}
\pgfsyspdfmark {pgfid392}{32439030}{35498137}
\@writefile{toc}{\defcounter {refsection}{0}\relax }\@writefile{toc}{\contentsline {section}{\numberline {3.6}Exercise 6}{15}{section.3.6}\protected@file@percent }
\@writefile{toc}{\defcounter {refsection}{0}\relax }\@writefile{toc}{\contentsline {section}{\numberline {3.7}Exercise 7}{16}{section.3.7}\protected@file@percent }
\@writefile{toc}{\defcounter {refsection}{0}\relax }\@writefile{toc}{\contentsline {section}{\numberline {3.8}Exercise 8}{17}{section.3.8}\protected@file@percent }
\newlabel{LastPage}{{}{17}{}{page.17}{}}
\xdef\lastpage@lastpage{17}
\xdef\lastpage@lastpageHy{17}
