\relax 
\providecommand\hyper@newdestlabel[2]{}
\providecommand\babel@aux[2]{}
\@nameuse{bbl@beforestart}
\catcode `"\active 
\nicematrix@redefine@check@rerun 
\abx@aux@refcontext{nty/global//global/global}
\providecommand\HyperFirstAtBeginDocument{\AtBeginDocument}
\HyperFirstAtBeginDocument{\ifx\hyper@anchor\@undefined
\global\let\oldcontentsline\contentsline
\gdef\contentsline#1#2#3#4{\oldcontentsline{#1}{#2}{#3}}
\global\let\oldnewlabel\newlabel
\gdef\newlabel#1#2{\newlabelxx{#1}#2}
\gdef\newlabelxx#1#2#3#4#5#6{\oldnewlabel{#1}{{#2}{#3}}}
\AtEndDocument{\ifx\hyper@anchor\@undefined
\let\contentsline\oldcontentsline
\let\newlabel\oldnewlabel
\fi}
\fi}
\global\let\hyper@last\relax 
\gdef\HyperFirstAtBeginDocument#1{#1}
\providecommand\HyField@AuxAddToFields[1]{}
\providecommand\HyField@AuxAddToCoFields[2]{}
\babel@aux{russian}{}
\ExplSyntaxOn \cs_if_free:NT \pgfsyspdfmark {\cs_set_eq:NN \pgfsyspdfmark \@gobblethree }\ExplSyntaxOff 
\ExplSyntaxOn 
\char_set_catcode_space:n {32}
\tl_gset:cn {c__nicematrix_1_tl}{\seq_gset_from_clist:Nn \g__nicematrix_size_seq {1,10,10,1,8,8}}
\ExplSyntaxOff 
\@writefile{toc}{\contentsline {section}{\numberline {1}Задание №1}{3}{section.1}\protected@file@percent }
\@LN@col{1}
\@LN@col{1}
\@writefile{toc}{\contentsline {section}{\numberline {2}Задание №2}{3}{section.2}\protected@file@percent }
\@LN@col{1}
\@LN@col{1}
\@writefile{toc}{\contentsline {section}{\numberline {3}Задание №3}{3}{section.3}\protected@file@percent }
\@LN@col{1}
\@LN@col{1}
\ExplSyntaxOn 
\char_set_catcode_space:n {32}
\tl_gset:cn {c__nicematrix_2_tl}{\seq_gset_from_clist:Nn \g__nicematrix_size_seq {1,9,9,1,5,5}}
\ExplSyntaxOff 
\ExplSyntaxOn 
\char_set_catcode_space:n {32}
\tl_gset:cn {c__nicematrix_3_tl}{\seq_gset_from_clist:Nn \g__nicematrix_size_seq {1,5,5,1,3,3}}
\ExplSyntaxOff 
\@writefile{lot}{\contentsline {table}{\numberline {1}{\ignorespaces Задание 3\relax }}{4}{table.caption.1}\protected@file@percent }
\providecommand*\caption@xref[2]{\@setref\relax\@undefined{#1}}
\newlabel{myt:Задание 3}{{1}{4}{Задание 3\relax }{table.caption.1}{}}
\pgfsyspdfmark {nm-1-position}{9131509}{40805682}
\pgfsyspdfmark {pgfid6}{9131509}{40805682}
\pgfsyspdfmark {pgfid7}{9131509}{40805682}
\pgfsyspdfmark {nm-1-row-1}{9131509}{49007254}
\pgfsyspdfmark {pgfid9}{9131509}{49030191}
\pgfsyspdfmark {nm-1-row-1}{9131509}{49007254}
\pgfsyspdfmark {pgfid10}{9131509}{49030191}
\pgfsyspdfmark {pgfid11}{9394060}{47666496}
\pgfsyspdfmark {pgfid12}{14019651}{47666496}
\pgfsyspdfmark {pgfid13}{21573029}{47666496}
\pgfsyspdfmark {nm-1-row-2}{9131509}{47209050}
\pgfsyspdfmark {pgfid14}{9131509}{47231987}
\pgfsyspdfmark {pgfid15}{9131509}{46218148}
\pgfsyspdfmark {pgfid16}{9394060}{46218148}
\pgfsyspdfmark {pgfid17}{10685250}{46218148}
\pgfsyspdfmark {pgfid18}{11949543}{46218148}
\pgfsyspdfmark {pgfid19}{14019651}{46218148}
\pgfsyspdfmark {pgfid20}{17825491}{46218148}
\pgfsyspdfmark {pgfid21}{21573029}{46218148}
\pgfsyspdfmark {pgfid22}{24148848}{46218148}
\pgfsyspdfmark {pgfid23}{28859072}{46218148}
\pgfsyspdfmark {nm-1-row-3}{9131509}{45760702}
\pgfsyspdfmark {pgfid24}{9131509}{45783639}
\pgfsyspdfmark {nm-1-row-3}{9131509}{45591868}
\pgfsyspdfmark {pgfid25}{9131509}{45614805}
\pgfsyspdfmark {pgfid26}{9163049}{44320055}
\pgfsyspdfmark {pgfid27}{9394060}{44320055}
\pgfsyspdfmark {pgfid28}{10685250}{44320055}
\pgfsyspdfmark {pgfid29}{11949543}{44320055}
\pgfsyspdfmark {pgfid30}{14019651}{44320055}
\pgfsyspdfmark {pgfid31}{17825491}{44320055}
\pgfsyspdfmark {pgfid32}{21573029}{44320055}
\pgfsyspdfmark {pgfid33}{24148848}{44320055}
\pgfsyspdfmark {pgfid34}{28859072}{44320055}
\pgfsyspdfmark {nm-1-row-4}{9131509}{43862609}
\pgfsyspdfmark {pgfid35}{9131509}{43885546}
\pgfsyspdfmark {pgfid36}{9163049}{42871707}
\pgfsyspdfmark {pgfid37}{9394060}{42871707}
\pgfsyspdfmark {pgfid38}{10685250}{42871707}
\pgfsyspdfmark {pgfid39}{11949543}{42871707}
\pgfsyspdfmark {pgfid40}{14019651}{42871707}
\pgfsyspdfmark {pgfid41}{17825491}{42871707}
\pgfsyspdfmark {pgfid42}{21573029}{42871707}
\pgfsyspdfmark {pgfid43}{24148848}{42871707}
\pgfsyspdfmark {pgfid44}{28859072}{42871707}
\pgfsyspdfmark {nm-1-row-5}{9131509}{42414261}
\pgfsyspdfmark {pgfid45}{9131509}{42437198}
\pgfsyspdfmark {pgfid46}{9163049}{41423359}
\pgfsyspdfmark {pgfid47}{9394060}{41423359}
\pgfsyspdfmark {pgfid48}{10685250}{41423359}
\pgfsyspdfmark {pgfid49}{11949543}{41423359}
\pgfsyspdfmark {pgfid50}{14019651}{41423359}
\pgfsyspdfmark {pgfid51}{17825491}{41423359}
\pgfsyspdfmark {pgfid52}{21573029}{41423359}
\pgfsyspdfmark {pgfid53}{24148848}{41423359}
\pgfsyspdfmark {pgfid54}{28859072}{41423359}
\pgfsyspdfmark {nm-1-row-6}{9131509}{40965913}
\pgfsyspdfmark {pgfid55}{9131509}{40988850}
\pgfsyspdfmark {pgfid56}{9163049}{39975011}
\pgfsyspdfmark {pgfid57}{9394060}{39975011}
\pgfsyspdfmark {pgfid58}{10685250}{39975011}
\pgfsyspdfmark {pgfid59}{11949543}{39975011}
\pgfsyspdfmark {pgfid60}{14019651}{39975011}
\pgfsyspdfmark {pgfid61}{17825491}{39975011}
\pgfsyspdfmark {pgfid62}{21573029}{39975011}
\pgfsyspdfmark {pgfid63}{24148848}{39975011}
\pgfsyspdfmark {pgfid64}{28859072}{39975011}
\pgfsyspdfmark {nm-1-row-7}{9131509}{39517565}
\pgfsyspdfmark {pgfid65}{9131509}{39540502}
\pgfsyspdfmark {nm-1-row-7}{9131509}{39348731}
\pgfsyspdfmark {pgfid66}{9131509}{39371668}
\pgfsyspdfmark {pgfid67}{9163049}{38076918}
\pgfsyspdfmark {pgfid68}{9394060}{38076918}
\pgfsyspdfmark {pgfid69}{10685250}{38076918}
\pgfsyspdfmark {pgfid70}{11949543}{38076918}
\pgfsyspdfmark {pgfid71}{14019651}{38076918}
\pgfsyspdfmark {pgfid72}{17825491}{38076918}
\pgfsyspdfmark {pgfid73}{21573029}{38076918}
\pgfsyspdfmark {pgfid74}{24148848}{38076918}
\pgfsyspdfmark {pgfid75}{28859072}{38076918}
\pgfsyspdfmark {nm-1-row-8}{9131509}{37619472}
\pgfsyspdfmark {pgfid76}{9131509}{37642409}
\pgfsyspdfmark {pgfid77}{9163049}{36628570}
\pgfsyspdfmark {pgfid78}{9394060}{36628570}
\pgfsyspdfmark {pgfid79}{10685250}{36628570}
\pgfsyspdfmark {pgfid80}{11949543}{36628570}
\pgfsyspdfmark {pgfid81}{14019651}{36628570}
\pgfsyspdfmark {pgfid82}{17825491}{36628570}
\pgfsyspdfmark {pgfid83}{21573029}{36628570}
\pgfsyspdfmark {pgfid84}{24148848}{36628570}
\pgfsyspdfmark {pgfid85}{28859072}{36628570}
\pgfsyspdfmark {nm-1-row-9}{9131509}{36171124}
\pgfsyspdfmark {pgfid86}{9131509}{36194061}
\pgfsyspdfmark {pgfid87}{9163049}{35180222}
\pgfsyspdfmark {pgfid88}{9394060}{35180222}
\pgfsyspdfmark {pgfid89}{10685250}{35180222}
\pgfsyspdfmark {pgfid90}{11949543}{35180222}
\pgfsyspdfmark {pgfid91}{14019651}{35180222}
\pgfsyspdfmark {pgfid92}{17825491}{35180222}
\pgfsyspdfmark {pgfid93}{21573029}{35180222}
\pgfsyspdfmark {pgfid94}{24148848}{35180222}
\pgfsyspdfmark {pgfid95}{28859072}{35180222}
\pgfsyspdfmark {nm-1-row-10}{9131509}{34722776}
\pgfsyspdfmark {pgfid96}{9131509}{34745713}
\pgfsyspdfmark {pgfid97}{9163049}{33731874}
\pgfsyspdfmark {pgfid98}{9394060}{33731874}
\pgfsyspdfmark {pgfid99}{10685250}{33731874}
\pgfsyspdfmark {pgfid100}{11949543}{33731874}
\pgfsyspdfmark {pgfid101}{14019651}{33731874}
\pgfsyspdfmark {pgfid102}{17825491}{33731874}
\pgfsyspdfmark {pgfid103}{21573029}{33731874}
\pgfsyspdfmark {pgfid104}{24148848}{33731874}
\pgfsyspdfmark {pgfid105}{28859072}{33731874}
\pgfsyspdfmark {nm-1-row-11}{9131509}{33274428}
\pgfsyspdfmark {pgfid106}{9131509}{33297365}
\pgfsyspdfmark {nm-1-row-11}{9131509}{33105594}
\pgfsyspdfmark {pgfid107}{9131509}{33128531}
\pgfsyspdfmark {nm-1-col-1}{9154446}{33053032}
\pgfsyspdfmark {pgfid108}{9131509}{33053032}
\pgfsyspdfmark {nm-1-col-2}{10026890}{33053032}
\pgfsyspdfmark {pgfid109}{10049827}{33053032}
\pgfsyspdfmark {nm-1-col-3}{11297736}{33053032}
\pgfsyspdfmark {pgfid110}{11320673}{33053032}
\pgfsyspdfmark {nm-1-col-4}{12601351}{33053032}
\pgfsyspdfmark {pgfid111}{12624288}{33053032}
\pgfsyspdfmark {nm-1-col-5}{15392077}{33053032}
\pgfsyspdfmark {pgfid112}{15415014}{33053032}
\pgfsyspdfmark {nm-1-col-6}{20258906}{33053032}
\pgfsyspdfmark {pgfid113}{20281843}{33053032}
\pgfsyspdfmark {nm-1-col-7}{22841278}{33053032}
\pgfsyspdfmark {pgfid114}{22864215}{33053032}
\pgfsyspdfmark {nm-1-col-8}{25410544}{33053032}
\pgfsyspdfmark {pgfid115}{25433481}{33053032}
\pgfsyspdfmark {nm-1-col-9}{31868510}{33053032}
\pgfsyspdfmark {pgfid116}{31891447}{33053032}
\pgfsyspdfmark {pgfid117}{31891447}{40805682}
\savepicturepage{pgfid119}{4}
\pgfsyspdfmark {pgfid119}{31891447}{40805682}
\pgfsyspdfmark {pgfid120}{31891447}{40805682}
\pgfsyspdfmark {pgfid121}{31891447}{40805682}
\@writefile{toc}{\contentsline {section}{\numberline {4}Задание №4}{4}{section.4}\protected@file@percent }
\@LN@col{1}
\@LN@col{1}
\@writefile{lot}{\contentsline {table}{\numberline {2}{\ignorespaces Задание 4, $f_1,f_2$\relax }}{5}{table.caption.2}\protected@file@percent }
\newlabel{myt:Задание 4, $f_1,f_2$}{{2}{5}{Задание 4, $f_1,f_2$\relax }{table.caption.2}{}}
\pgfsyspdfmark {nm-2-position}{17390885}{37268141}
\pgfsyspdfmark {pgfid124}{17390885}{37268141}
\pgfsyspdfmark {pgfid125}{17390885}{37268141}
\pgfsyspdfmark {nm-2-row-1}{17390885}{44745539}
\pgfsyspdfmark {pgfid127}{17390885}{44768476}
\pgfsyspdfmark {nm-2-row-1}{17390885}{44745539}
\pgfsyspdfmark {pgfid128}{17390885}{44768476}
\pgfsyspdfmark {pgfid129}{17437987}{43404781}
\pgfsyspdfmark {pgfid130}{17621896}{43404781}
\pgfsyspdfmark {pgfid131}{18881546}{43404781}
\pgfsyspdfmark {pgfid132}{20145839}{43404781}
\pgfsyspdfmark {pgfid133}{21621760}{43404781}
\pgfsyspdfmark {pgfid134}{23224112}{43404781}
\pgfsyspdfmark {nm-2-row-2}{17390885}{42947335}
\pgfsyspdfmark {pgfid135}{17390885}{42970272}
\pgfsyspdfmark {nm-2-row-2}{17390885}{42778501}
\pgfsyspdfmark {pgfid136}{17390885}{42801438}
\pgfsyspdfmark {pgfid137}{17390885}{41506688}
\pgfsyspdfmark {pgfid138}{17621896}{41506688}
\pgfsyspdfmark {pgfid139}{18881546}{41506688}
\pgfsyspdfmark {pgfid140}{20145839}{41506688}
\pgfsyspdfmark {pgfid141}{21621760}{41506688}
\pgfsyspdfmark {pgfid142}{23224112}{41506688}
\pgfsyspdfmark {nm-2-row-3}{17390885}{41049242}
\pgfsyspdfmark {pgfid143}{17390885}{41072179}
\pgfsyspdfmark {pgfid144}{17390885}{40058340}
\pgfsyspdfmark {pgfid145}{17621896}{40058340}
\pgfsyspdfmark {pgfid146}{18881546}{40058340}
\pgfsyspdfmark {pgfid147}{20145839}{40058340}
\pgfsyspdfmark {pgfid148}{21621760}{40058340}
\pgfsyspdfmark {pgfid149}{23224112}{40058340}
\pgfsyspdfmark {nm-2-row-4}{17390885}{39600894}
\pgfsyspdfmark {pgfid150}{17390885}{39623831}
\pgfsyspdfmark {pgfid151}{17390885}{38609992}
\pgfsyspdfmark {pgfid152}{17621896}{38609992}
\pgfsyspdfmark {pgfid153}{18881546}{38609992}
\pgfsyspdfmark {pgfid154}{20145839}{38609992}
\pgfsyspdfmark {pgfid155}{21621760}{38609992}
\pgfsyspdfmark {pgfid156}{23224112}{38609992}
\pgfsyspdfmark {nm-2-row-5}{17390885}{38152546}
\pgfsyspdfmark {pgfid157}{17390885}{38175483}
\pgfsyspdfmark {pgfid158}{17390885}{37161644}
\pgfsyspdfmark {pgfid159}{17621896}{37161644}
\pgfsyspdfmark {pgfid160}{18881546}{37161644}
\pgfsyspdfmark {pgfid161}{20145839}{37161644}
\pgfsyspdfmark {pgfid162}{21621760}{37161644}
\pgfsyspdfmark {pgfid163}{23224112}{37161644}
\pgfsyspdfmark {nm-2-row-6}{17390885}{36704198}
\pgfsyspdfmark {pgfid164}{17390885}{36727135}
\pgfsyspdfmark {nm-2-row-6}{17390885}{36535364}
\pgfsyspdfmark {pgfid165}{17390885}{36558301}
\pgfsyspdfmark {pgfid166}{17390885}{35263551}
\pgfsyspdfmark {pgfid167}{17621896}{35263551}
\pgfsyspdfmark {pgfid168}{18881546}{35263551}
\pgfsyspdfmark {pgfid169}{20145839}{35263551}
\pgfsyspdfmark {pgfid170}{21621760}{35263551}
\pgfsyspdfmark {pgfid171}{23224112}{35263551}
\pgfsyspdfmark {nm-2-row-7}{17390885}{34806105}
\pgfsyspdfmark {pgfid172}{17390885}{34829042}
\pgfsyspdfmark {pgfid173}{17390885}{33815203}
\pgfsyspdfmark {pgfid174}{17621896}{33815203}
\pgfsyspdfmark {pgfid175}{18881546}{33815203}
\pgfsyspdfmark {pgfid176}{20145839}{33815203}
\pgfsyspdfmark {pgfid177}{21621760}{33815203}
\pgfsyspdfmark {pgfid178}{23224112}{33815203}
\pgfsyspdfmark {nm-2-row-8}{17390885}{33357757}
\pgfsyspdfmark {pgfid179}{17390885}{33380694}
\pgfsyspdfmark {pgfid180}{17390885}{32366855}
\pgfsyspdfmark {pgfid181}{17621896}{32366855}
\pgfsyspdfmark {pgfid182}{18881546}{32366855}
\pgfsyspdfmark {pgfid183}{20145839}{32366855}
\pgfsyspdfmark {pgfid184}{21621760}{32366855}
\pgfsyspdfmark {pgfid185}{23224112}{32366855}
\pgfsyspdfmark {nm-2-row-9}{17390885}{31909409}
\pgfsyspdfmark {pgfid186}{17390885}{31932346}
\pgfsyspdfmark {pgfid187}{17390885}{30918507}
\pgfsyspdfmark {pgfid188}{17621896}{30918507}
\pgfsyspdfmark {pgfid189}{18881546}{30918507}
\pgfsyspdfmark {pgfid190}{20145839}{30918507}
\pgfsyspdfmark {pgfid191}{21621760}{30918507}
\pgfsyspdfmark {pgfid192}{23224112}{30918507}
\pgfsyspdfmark {nm-2-row-10}{17390885}{30461061}
\pgfsyspdfmark {pgfid193}{17390885}{30483998}
\pgfsyspdfmark {nm-2-row-10}{17390885}{30292227}
\pgfsyspdfmark {pgfid194}{17390885}{30315164}
\pgfsyspdfmark {nm-2-col-1}{17413822}{30239665}
\pgfsyspdfmark {pgfid195}{17390885}{30239665}
\pgfsyspdfmark {nm-2-col-2}{18223186}{30239665}
\pgfsyspdfmark {pgfid196}{18246123}{30239665}
\pgfsyspdfmark {nm-2-col-3}{19494032}{30239665}
\pgfsyspdfmark {pgfid197}{19516969}{30239665}
\pgfsyspdfmark {nm-2-col-4}{20797647}{30239665}
\pgfsyspdfmark {pgfid198}{20820584}{30239665}
\pgfsyspdfmark {nm-2-col-5}{22399999}{30239665}
\pgfsyspdfmark {pgfid199}{22422936}{30239665}
\pgfsyspdfmark {nm-2-col-6}{23609135}{30239665}
\pgfsyspdfmark {pgfid200}{23632072}{30239665}
\pgfsyspdfmark {pgfid201}{23632072}{37268141}
\savepicturepage{pgfid203}{5}
\pgfsyspdfmark {pgfid203}{23632072}{37268141}
\pgfsyspdfmark {pgfid204}{23632072}{37268141}
\@writefile{lot}{\contentsline {table}{\numberline {3}{\ignorespaces Задание 4, $g$\relax }}{5}{table.caption.3}\protected@file@percent }
\newlabel{myt:Задание 4, $g$}{{3}{5}{Задание 4, $g$\relax }{table.caption.3}{}}
\pgfsyspdfmark {nm-3-position}{18990725}{12946557}
\pgfsyspdfmark {pgfid206}{18990725}{12946557}
\pgfsyspdfmark {pgfid207}{18990725}{12946557}
\pgfsyspdfmark {nm-3-row-1}{18990725}{17302386}
\pgfsyspdfmark {pgfid209}{18990725}{17325323}
\pgfsyspdfmark {nm-3-row-1}{18990725}{17302386}
\pgfsyspdfmark {pgfid210}{18990725}{17325323}
\pgfsyspdfmark {pgfid211}{19037827}{15961628}
\pgfsyspdfmark {pgfid212}{19221736}{15961628}
\pgfsyspdfmark {pgfid213}{20481386}{15961628}
\pgfsyspdfmark {pgfid214}{21794066}{15961628}
\pgfsyspdfmark {nm-3-row-2}{18990725}{15504182}
\pgfsyspdfmark {pgfid215}{18990725}{15527119}
\pgfsyspdfmark {nm-3-row-2}{18990725}{15335348}
\pgfsyspdfmark {pgfid216}{18990725}{15358285}
\pgfsyspdfmark {pgfid217}{18990725}{14063535}
\pgfsyspdfmark {pgfid218}{19221736}{14063535}
\pgfsyspdfmark {pgfid219}{20481386}{14063535}
\pgfsyspdfmark {pgfid220}{21794066}{14063535}
\pgfsyspdfmark {nm-3-row-3}{18990725}{13606089}
\pgfsyspdfmark {pgfid221}{18990725}{13629026}
\pgfsyspdfmark {pgfid222}{18990725}{12615187}
\pgfsyspdfmark {pgfid223}{19221736}{12615187}
\pgfsyspdfmark {pgfid224}{20481386}{12615187}
\pgfsyspdfmark {pgfid225}{21794066}{12615187}
\pgfsyspdfmark {nm-3-row-4}{18990725}{12157741}
\pgfsyspdfmark {pgfid226}{18990725}{12180678}
\pgfsyspdfmark {pgfid227}{18990725}{11166839}
\pgfsyspdfmark {pgfid228}{19221736}{11166839}
\pgfsyspdfmark {pgfid229}{20481386}{11166839}
\pgfsyspdfmark {pgfid230}{21794066}{11166839}
\pgfsyspdfmark {nm-3-row-5}{18990725}{10709393}
\pgfsyspdfmark {pgfid231}{18990725}{10732330}
\pgfsyspdfmark {pgfid232}{18990725}{9718491}
\pgfsyspdfmark {pgfid233}{19221736}{9718491}
\pgfsyspdfmark {pgfid234}{20481386}{9718491}
\pgfsyspdfmark {pgfid235}{21794066}{9718491}
\pgfsyspdfmark {nm-3-row-6}{18990725}{9261045}
\pgfsyspdfmark {pgfid236}{18990725}{9283982}
\pgfsyspdfmark {nm-3-row-6}{18990725}{9092211}
\pgfsyspdfmark {pgfid237}{18990725}{9115148}
\pgfsyspdfmark {nm-3-col-1}{19013662}{9039649}
\pgfsyspdfmark {pgfid238}{18990725}{9039649}
\pgfsyspdfmark {nm-3-col-2}{19823026}{9039649}
\pgfsyspdfmark {pgfid239}{19845963}{9039649}
\pgfsyspdfmark {nm-3-col-3}{21139747}{9039649}
\pgfsyspdfmark {pgfid240}{21162684}{9039649}
\pgfsyspdfmark {nm-3-col-4}{22009295}{9039649}
\pgfsyspdfmark {pgfid241}{22032232}{9039649}
\pgfsyspdfmark {pgfid242}{22032232}{12946557}
\savepicturepage{pgfid244}{5}
\pgfsyspdfmark {pgfid244}{22032232}{12946557}
\pgfsyspdfmark {pgfid245}{22032232}{12946557}
\ExplSyntaxOn 
\char_set_catcode_space:n {32}
\tl_gset:cn {c__nicematrix_4_tl}{\seq_gset_from_clist:Nn \g__nicematrix_size_seq {1,9,9,1,4,4}}
\ExplSyntaxOff 
\ExplSyntaxOn 
\char_set_catcode_space:n {32}
\tl_gset:cn {c__nicematrix_5_tl}{\seq_gset_from_clist:Nn \g__nicematrix_size_seq {1,5,5,1,3,3}}
\ExplSyntaxOff 
\pgfsyspdfmark {pgfid247}{9528753}{51651631}
\pgfsyspdfmark {pgfid248}{9528753}{51651631}
\pgfsyspdfmark {pgfid249}{9921969}{50287936}
\pgfsyspdfmark {pgfid250}{10184520}{50287936}
\pgfsyspdfmark {pgfid251}{11475710}{50287936}
\pgfsyspdfmark {pgfid252}{12740278}{50287936}
\pgfsyspdfmark {pgfid253}{14040754}{50287936}
\pgfsyspdfmark {pgfid254}{9528753}{49853427}
\pgfsyspdfmark {pgfid255}{9528753}{49684593}
\pgfsyspdfmark {pgfid256}{9948591}{48389843}
\pgfsyspdfmark {pgfid257}{10184520}{48389843}
\pgfsyspdfmark {pgfid258}{11475710}{48389843}
\pgfsyspdfmark {pgfid259}{12740278}{48389843}
\pgfsyspdfmark {pgfid260}{14040754}{48389843}
\pgfsyspdfmark {pgfid261}{9528753}{47955334}
\pgfsyspdfmark {pgfid262}{9948591}{46941495}
\pgfsyspdfmark {pgfid263}{10184520}{46941495}
\pgfsyspdfmark {pgfid264}{11475710}{46941495}
\pgfsyspdfmark {pgfid265}{12740278}{46941495}
\pgfsyspdfmark {pgfid266}{14040754}{46941495}
\pgfsyspdfmark {pgfid267}{9528753}{46506986}
\pgfsyspdfmark {pgfid268}{9948591}{45493147}
\pgfsyspdfmark {pgfid269}{10184520}{45493147}
\pgfsyspdfmark {pgfid270}{11475710}{45493147}
\pgfsyspdfmark {pgfid271}{12740278}{45493147}
\pgfsyspdfmark {pgfid272}{14040754}{45493147}
\pgfsyspdfmark {pgfid273}{9528753}{45058638}
\pgfsyspdfmark {pgfid274}{9948591}{44044799}
\pgfsyspdfmark {pgfid275}{10184520}{44044799}
\pgfsyspdfmark {pgfid276}{11475710}{44044799}
\pgfsyspdfmark {pgfid277}{12740278}{44044799}
\pgfsyspdfmark {pgfid278}{14040754}{44044799}
\pgfsyspdfmark {pgfid279}{9528753}{43610290}
\pgfsyspdfmark {pgfid280}{9528753}{43441456}
\pgfsyspdfmark {pgfid281}{9948591}{42146706}
\pgfsyspdfmark {pgfid282}{10184520}{42146706}
\pgfsyspdfmark {pgfid283}{11475710}{42146706}
\pgfsyspdfmark {pgfid284}{12740278}{42146706}
\pgfsyspdfmark {pgfid285}{14040754}{42146706}
\pgfsyspdfmark {pgfid286}{9528753}{41712197}
\pgfsyspdfmark {pgfid287}{9948591}{40698358}
\pgfsyspdfmark {pgfid288}{10184520}{40698358}
\pgfsyspdfmark {pgfid289}{11475710}{40698358}
\pgfsyspdfmark {pgfid290}{12740278}{40698358}
\pgfsyspdfmark {pgfid291}{14040754}{40698358}
\pgfsyspdfmark {pgfid292}{9528753}{40263849}
\pgfsyspdfmark {pgfid293}{9948591}{39250010}
\pgfsyspdfmark {pgfid294}{10184520}{39250010}
\pgfsyspdfmark {pgfid295}{11475710}{39250010}
\pgfsyspdfmark {pgfid296}{12740278}{39250010}
\pgfsyspdfmark {pgfid297}{14040754}{39250010}
\pgfsyspdfmark {pgfid298}{9528753}{38815501}
\pgfsyspdfmark {pgfid299}{9948591}{37801662}
\pgfsyspdfmark {pgfid300}{10184520}{37801662}
\pgfsyspdfmark {pgfid301}{11475710}{37801662}
\pgfsyspdfmark {pgfid302}{12740278}{37801662}
\pgfsyspdfmark {pgfid303}{14040754}{37801662}
\pgfsyspdfmark {pgfid304}{9528753}{37367153}
\pgfsyspdfmark {pgfid305}{9528753}{37198319}
\pgfsyspdfmark {pgfid306}{9528753}{37122820}
\pgfsyspdfmark {pgfid307}{10840287}{37122820}
\pgfsyspdfmark {pgfid308}{12111133}{37122820}
\pgfsyspdfmark {pgfid309}{13369423}{37122820}
\pgfsyspdfmark {pgfid310}{14712085}{37122820}
\pgfsyspdfmark {pgfid311}{14712085}{44151296}
\savepicturepage{pgfid313}{6}
\pgfsyspdfmark {pgfid313}{14712085}{44151296}
\pgfsyspdfmark {pgfid314}{27097304}{48754935}
\pgfsyspdfmark {pgfid315}{27097304}{48754935}
\pgfsyspdfmark {pgfid316}{27490520}{47391240}
\pgfsyspdfmark {pgfid317}{27753071}{47391240}
\pgfsyspdfmark {pgfid318}{29044261}{47391240}
\pgfsyspdfmark {pgfid319}{30351015}{47391240}
\pgfsyspdfmark {pgfid320}{27097304}{46956731}
\pgfsyspdfmark {pgfid321}{27097304}{46787897}
\pgfsyspdfmark {pgfid322}{27517142}{45493147}
\pgfsyspdfmark {pgfid323}{27753071}{45493147}
\pgfsyspdfmark {pgfid324}{29044261}{45493147}
\pgfsyspdfmark {pgfid325}{30351015}{45493147}
\pgfsyspdfmark {pgfid326}{27097304}{45058638}
\pgfsyspdfmark {pgfid327}{27517142}{44044799}
\pgfsyspdfmark {pgfid328}{27753071}{44044799}
\pgfsyspdfmark {pgfid329}{29044261}{44044799}
\pgfsyspdfmark {pgfid330}{30351015}{44044799}
\pgfsyspdfmark {pgfid331}{27097304}{43610290}
\pgfsyspdfmark {pgfid332}{27097304}{43441456}
\pgfsyspdfmark {pgfid333}{27517142}{42146706}
\pgfsyspdfmark {pgfid334}{27753071}{42146706}
\pgfsyspdfmark {pgfid335}{29044261}{42146706}
\pgfsyspdfmark {pgfid336}{30351015}{42146706}
\pgfsyspdfmark {pgfid337}{27097304}{41712197}
\pgfsyspdfmark {pgfid338}{27517142}{40698358}
\pgfsyspdfmark {pgfid339}{27753071}{40698358}
\pgfsyspdfmark {pgfid340}{29044261}{40698358}
\pgfsyspdfmark {pgfid341}{30351015}{40698358}
\pgfsyspdfmark {pgfid342}{27097304}{40263849}
\pgfsyspdfmark {pgfid343}{27097304}{40095015}
\pgfsyspdfmark {pgfid344}{27097304}{40019516}
\pgfsyspdfmark {pgfid345}{28408838}{40019516}
\pgfsyspdfmark {pgfid346}{29679684}{40019516}
\pgfsyspdfmark {pgfid347}{31022346}{40019516}
\pgfsyspdfmark {pgfid348}{31022346}{44151296}
\savepicturepage{pgfid350}{6}
\pgfsyspdfmark {pgfid350}{31022346}{44151296}
\@writefile{lot}{\contentsline {table}{\numberline {4}{\ignorespaces Задание 5\relax }}{6}{table.caption.4}\protected@file@percent }
\newlabel{myt:Задание 5}{{4}{6}{Задание 5\relax }{table.caption.4}{}}
\@writefile{toc}{\contentsline {section}{\numberline {5}Задание №5}{6}{section.5}\protected@file@percent }
\@LN@col{1}
\@LN@col{1}
\@writefile{toc}{\contentsline {section}{\numberline {6}Задание №6}{7}{section.6}\protected@file@percent }
\@LN@col{1}
\@LN@col{1}
\@writefile{toc}{\contentsline {section}{\numberline {7}Задание №7}{7}{section.7}\protected@file@percent }
\@LN@col{1}
\@LN@col{1}
\@writefile{lomyscheme}{\contentsline {myscheme}{\numberline {7.1}{\ignorespaces Задание 7\relax }}{8}{myscheme.caption.5}\protected@file@percent }
\newlabel{gr:Задание 7}{{7.1}{8}{Задание 7\relax }{myscheme.caption.5}{}}
\@writefile{lomyscheme}{\contentsline {myscheme}{\numberline {7.2}{\ignorespaces Задание 7, этап 1\relax }}{8}{myscheme.caption.6}\protected@file@percent }
\newlabel{gr:Задание 7, этап 1}{{7.2}{8}{Задание 7, этап 1\relax }{myscheme.caption.6}{}}
\@writefile{lomyscheme}{\contentsline {myscheme}{\numberline {7.3}{\ignorespaces Задание 7, этап 2\relax }}{9}{myscheme.caption.7}\protected@file@percent }
\newlabel{gr:Задание 7, этап 2}{{7.3}{9}{Задание 7, этап 2\relax }{myscheme.caption.7}{}}
\@writefile{lomyscheme}{\contentsline {myscheme}{\numberline {7.4}{\ignorespaces Задание 7, этап 3\relax }}{9}{myscheme.caption.8}\protected@file@percent }
\newlabel{gr:Задание 7, этап 3}{{7.4}{9}{Задание 7, этап 3\relax }{myscheme.caption.8}{}}
\newlabel{LastPage}{{}{9}{}{page.9}{}}
\xdef\lastpage@lastpage{9}
\xdef\lastpage@lastpageHy{9}
\abx@aux@read@bbl@mdfivesum{D41D8CD98F00B204E9800998ECF8427E}
\gdef \@abspage@last{9}
