\BOOKMARK [1][-]{section.1}{\376\377\004\027\004\060\004\064\004\060\004\075\004\070\004\065\000\040\041\026\0001}{}% 1
\BOOKMARK [1][-]{section.2}{\376\377\004\027\004\060\004\064\004\060\004\075\004\070\004\065\000\040\041\026\0002}{}% 2
\BOOKMARK [1][-]{section.3}{\376\377\004\027\004\060\004\064\004\060\004\075\004\070\004\065\000\040\041\026\0003}{}% 3
\BOOKMARK [1][-]{section.4}{\376\377\004\027\004\060\004\064\004\060\004\075\004\070\004\065\000\040\041\026\0004}{}% 4
\BOOKMARK [1][-]{section.5}{\376\377\004\027\004\060\004\064\004\060\004\075\004\070\004\065\000\040\041\026\0005}{}% 5
\BOOKMARK [1][-]{section.6}{\376\377\004\027\004\060\004\064\004\060\004\075\004\070\004\065\000\040\041\026\0006}{}% 6
\BOOKMARK [1][-]{section.7}{\376\377\004\027\004\060\004\064\004\060\004\075\004\070\004\065\000\040\041\026\0007}{}% 7
