\babel@toc {russian}{}\relax 
\contentsline {section}{\numberline {1}Задание №1}{3}{section.1}%
\contentsline {section}{\numberline {2}Задание №2}{3}{section.2}%
\contentsline {section}{\numberline {3}Задание №3}{3}{section.3}%
\contentsline {section}{\numberline {4}Задание №4}{4}{section.4}%
\contentsline {section}{\numberline {5}Задание №5}{6}{section.5}%
\contentsline {section}{\numberline {6}Задание №6}{7}{section.6}%
\contentsline {section}{\numberline {7}Задание №7}{7}{section.7}%
