\relax 
\providecommand\hyper@newdestlabel[2]{}
\providecommand\babel@aux[2]{}
\@nameuse{bbl@beforestart}
\catcode `"\active 
\nicematrix@redefine@check@rerun 
\@writefile{toc}{\boolfalse {citerequest}\boolfalse {citetracker}\boolfalse {pagetracker}\boolfalse {backtracker}\relax }
\@writefile{lof}{\boolfalse {citerequest}\boolfalse {citetracker}\boolfalse {pagetracker}\boolfalse {backtracker}\relax }
\@writefile{lot}{\boolfalse {citerequest}\boolfalse {citetracker}\boolfalse {pagetracker}\boolfalse {backtracker}\relax }
\abx@aux@refcontext{nty/global//global/global}
\providecommand\HyperFirstAtBeginDocument{\AtBeginDocument}
\HyperFirstAtBeginDocument{\ifx\hyper@anchor\@undefined
\global\let\oldcontentsline\contentsline
\gdef\contentsline#1#2#3#4{\oldcontentsline{#1}{#2}{#3}}
\global\let\oldnewlabel\newlabel
\gdef\newlabel#1#2{\newlabelxx{#1}#2}
\gdef\newlabelxx#1#2#3#4#5#6{\oldnewlabel{#1}{{#2}{#3}}}
\AtEndDocument{\ifx\hyper@anchor\@undefined
\let\contentsline\oldcontentsline
\let\newlabel\oldnewlabel
\fi}
\fi}
\global\let\hyper@last\relax 
\gdef\HyperFirstAtBeginDocument#1{#1}
\providecommand\HyField@AuxAddToFields[1]{}
\providecommand\HyField@AuxAddToCoFields[2]{}
\providecommand\@newglossary[4]{}
\@newglossary{main}{glg}{gls}{glo}
\providecommand\@glsorder[1]{}
\providecommand\@istfilename[1]{}
\@istfilename{third.xdy}
\@glsorder{word}
\babel@aux{russian}{}
\@writefile{toc}{\defcounter {refsection}{0}\relax }\@writefile{toc}{\contentsline {section}{\numberline {1}Задача 1}{2}{section.1}\protected@file@percent }
\@writefile{toc}{\defcounter {refsection}{0}\relax }\@writefile{toc}{\contentsline {subsection}{\numberline {1.1}Математические формулы}{2}{subsection.1.1}\protected@file@percent }
\newlabel{num1:ya}{{1}{2}{Математические формулы}{equation.1.1}{}}
\newlabel{num1:yb}{{2}{2}{Математические формулы}{equation.1.2}{}}
\newlabel{num1:ka}{{3}{2}{Математические формулы}{equation.1.3}{}}
\newlabel{num1:kb}{{4}{2}{Математические формулы}{equation.1.4}{}}
\newlabel{num1:x}{{7}{3}{Математические формулы}{equation.1.7}{}}
\newlabel{num1:y}{{8}{3}{Математические формулы}{equation.1.8}{}}
\@writefile{toc}{\defcounter {refsection}{0}\relax }\@writefile{toc}{\contentsline {subsection}{\numberline {1.2}Программная реализация}{3}{subsection.1.2}\protected@file@percent }
\newlabel{fist:Задача 1}{{1.2}{3}{Программная реализация}{subsection.1.2}{}}
\@writefile{lomylisting}{\defcounter {refsection}{0}\relax }\@writefile{lomylisting}{\contentsline {mylisting}{\numberline {1.1}{\ignorespaces Задача 1\relax }}{3}{mylisting.1.1}\protected@file@percent }
\@writefile{toc}{\defcounter {refsection}{0}\relax }\@writefile{toc}{\contentsline {section}{\numberline {2}Задача 2}{6}{section.2}\protected@file@percent }
\@writefile{toc}{\defcounter {refsection}{0}\relax }\@writefile{toc}{\contentsline {subsection}{\numberline {2.1}Математические формулы}{6}{subsection.2.1}\protected@file@percent }
\newlabel{num2:r}{{9}{6}{Математические формулы}{equation.2.9}{}}
\@writefile{toc}{\defcounter {refsection}{0}\relax }\@writefile{toc}{\contentsline {subsection}{\numberline {2.2}Программная реализация}{6}{subsection.2.2}\protected@file@percent }
\newlabel{fist:Задача 2}{{2.2}{6}{Программная реализация}{subsection.2.2}{}}
\@writefile{lomylisting}{\defcounter {refsection}{0}\relax }\@writefile{lomylisting}{\contentsline {mylisting}{\numberline {2.1}{\ignorespaces Задача 2\relax }}{6}{mylisting.2.1}\protected@file@percent }
\@writefile{toc}{\defcounter {refsection}{0}\relax }\@writefile{toc}{\contentsline {section}{\numberline {3}Задача 3}{9}{section.3}\protected@file@percent }
\newlabel{sec:3}{{3}{9}{Задача 3}{section.3}{}}
\@writefile{toc}{\defcounter {refsection}{0}\relax }\@writefile{toc}{\contentsline {subsection}{\numberline {3.1}Математические формулы}{9}{subsection.3.1}\protected@file@percent }
\newlabel{num3:PO}{{10}{9}{Математические формулы}{equation.3.10}{}}
\newlabel{num3:lPO}{{11}{9}{Математические формулы}{equation.3.11}{}}
\newlabel{num3:alpha}{{13}{9}{Математические формулы}{equation.3.13}{}}
\newlabel{num3:rAlpha}{{14}{9}{Математические формулы}{equation.3.14}{}}
\@writefile{toc}{\defcounter {refsection}{0}\relax }\@writefile{toc}{\contentsline {subsection}{\numberline {3.2}Программная реализация}{9}{subsection.3.2}\protected@file@percent }
\newlabel{fist:Задача 3}{{3.2}{10}{Программная реализация}{subsection.3.2}{}}
\@writefile{lomylisting}{\defcounter {refsection}{0}\relax }\@writefile{lomylisting}{\contentsline {mylisting}{\numberline {3.1}{\ignorespaces Задача 3\relax }}{10}{mylisting.3.1}\protected@file@percent }
\@writefile{toc}{\defcounter {refsection}{0}\relax }\@writefile{toc}{\contentsline {section}{\numberline {4}Задача 4}{14}{section.4}\protected@file@percent }
\@writefile{toc}{\defcounter {refsection}{0}\relax }\@writefile{toc}{\contentsline {subsection}{\numberline {4.1}Математические формулы}{14}{subsection.4.1}\protected@file@percent }
\newlabel{sec:3}{{4.1}{14}{Математические формулы}{subsection.4.1}{}}
\@writefile{toc}{\defcounter {refsection}{0}\relax }\@writefile{toc}{\contentsline {subsection}{\numberline {4.2}Программная реализация}{15}{subsection.4.2}\protected@file@percent }
\newlabel{fist:Задача 4}{{4.2}{15}{Программная реализация}{subsection.4.2}{}}
\@writefile{lomylisting}{\defcounter {refsection}{0}\relax }\@writefile{lomylisting}{\contentsline {mylisting}{\numberline {4.1}{\ignorespaces Задача 4\relax }}{15}{mylisting.4.1}\protected@file@percent }
\@writefile{toc}{\defcounter {refsection}{0}\relax }\@writefile{toc}{\contentsline {section}{\numberline {5}Задача 5}{19}{section.5}\protected@file@percent }
\@writefile{toc}{\defcounter {refsection}{0}\relax }\@writefile{toc}{\contentsline {subsection}{\numberline {5.1}Математические формулы}{19}{subsection.5.1}\protected@file@percent }
\newlabel{num5:ob}{{22}{19}{Математические формулы}{equation.5.22}{}}
\@writefile{toc}{\defcounter {refsection}{0}\relax }\@writefile{toc}{\contentsline {subsection}{\numberline {5.2}Программная реализация}{19}{subsection.5.2}\protected@file@percent }
\newlabel{fist:Задача 5}{{5.2}{19}{Программная реализация}{subsection.5.2}{}}
\@writefile{lomylisting}{\defcounter {refsection}{0}\relax }\@writefile{lomylisting}{\contentsline {mylisting}{\numberline {5.1}{\ignorespaces Задача 5\relax }}{19}{mylisting.5.1}\protected@file@percent }
\@writefile{toc}{\defcounter {refsection}{0}\relax }\@writefile{toc}{\contentsline {section}{\numberline {6}Задача 6}{22}{section.6}\protected@file@percent }
\@writefile{toc}{\defcounter {refsection}{0}\relax }\@writefile{toc}{\contentsline {subsection}{\numberline {6.1}Математические формулы}{22}{subsection.6.1}\protected@file@percent }
\newlabel{num6:s}{{25}{22}{Математические формулы}{equation.6.25}{}}
\@writefile{toc}{\defcounter {refsection}{0}\relax }\@writefile{toc}{\contentsline {subsection}{\numberline {6.2}Программная реализация}{23}{subsection.6.2}\protected@file@percent }
\newlabel{fist:Задача 5}{{6.2}{23}{Программная реализация}{subsection.6.2}{}}
\@writefile{lomylisting}{\defcounter {refsection}{0}\relax }\@writefile{lomylisting}{\contentsline {mylisting}{\numberline {6.1}{\ignorespaces Задача 5\relax }}{23}{mylisting.6.1}\protected@file@percent }
\@writefile{toc}{\defcounter {refsection}{0}\relax }\@writefile{toc}{\contentsline {section}{\numberline {7}Задача 7}{26}{section.7}\protected@file@percent }
\@writefile{toc}{\defcounter {refsection}{0}\relax }\@writefile{toc}{\contentsline {subsection}{\numberline {7.1}Математические формулы}{26}{subsection.7.1}\protected@file@percent }
\newlabel{num7:xf}{{26}{26}{Математические формулы}{equation.7.26}{}}
\@writefile{toc}{\defcounter {refsection}{0}\relax }\@writefile{toc}{\contentsline {subsection}{\numberline {7.2}Программная реализация}{26}{subsection.7.2}\protected@file@percent }
\newlabel{fist:Задача 7}{{7.2}{26}{Программная реализация}{subsection.7.2}{}}
\@writefile{lomylisting}{\defcounter {refsection}{0}\relax }\@writefile{lomylisting}{\contentsline {mylisting}{\numberline {7.1}{\ignorespaces Задача 7\relax }}{26}{mylisting.7.1}\protected@file@percent }
\@writefile{toc}{\defcounter {refsection}{0}\relax }\@writefile{toc}{\contentsline {section}{\numberline {8}Задача 8}{29}{section.8}\protected@file@percent }
\@writefile{toc}{\defcounter {refsection}{0}\relax }\@writefile{toc}{\contentsline {subsection}{\numberline {8.1}Математические формулы}{29}{subsection.8.1}\protected@file@percent }
\@writefile{toc}{\defcounter {refsection}{0}\relax }\@writefile{toc}{\contentsline {subsection}{\numberline {8.2}Программная реализация}{29}{subsection.8.2}\protected@file@percent }
\newlabel{fist:Задача 8}{{8.2}{29}{Программная реализация}{subsection.8.2}{}}
\@writefile{lomylisting}{\defcounter {refsection}{0}\relax }\@writefile{lomylisting}{\contentsline {mylisting}{\numberline {8.1}{\ignorespaces Задача 8\relax }}{29}{mylisting.8.1}\protected@file@percent }
\@writefile{toc}{\defcounter {refsection}{0}\relax }\@writefile{toc}{\contentsline {section}{\numberline {9}Задача 9}{32}{section.9}\protected@file@percent }
\@writefile{toc}{\defcounter {refsection}{0}\relax }\@writefile{toc}{\contentsline {subsection}{\numberline {9.1}Математические формулы}{32}{subsection.9.1}\protected@file@percent }
\newlabel{num9:d}{{27}{32}{Математические формулы}{equation.9.27}{}}
\@writefile{toc}{\defcounter {refsection}{0}\relax }\@writefile{toc}{\contentsline {subsection}{\numberline {9.2}Программная реализация}{32}{subsection.9.2}\protected@file@percent }
\newlabel{fist:Задача 9}{{9.2}{32}{Программная реализация}{subsection.9.2}{}}
\@writefile{lomylisting}{\defcounter {refsection}{0}\relax }\@writefile{lomylisting}{\contentsline {mylisting}{\numberline {9.1}{\ignorespaces Задача 9\relax }}{32}{mylisting.9.1}\protected@file@percent }
\@writefile{toc}{\defcounter {refsection}{0}\relax }\@writefile{toc}{\contentsline {section}{\numberline {10}Задача 10}{35}{section.10}\protected@file@percent }
\@writefile{toc}{\defcounter {refsection}{0}\relax }\@writefile{toc}{\contentsline {subsection}{\numberline {10.1}Математические формулы}{35}{subsection.10.1}\protected@file@percent }
\@writefile{toc}{\defcounter {refsection}{0}\relax }\@writefile{toc}{\contentsline {subsection}{\numberline {10.2}Программная реализация}{35}{subsection.10.2}\protected@file@percent }
\newlabel{fist:Задача 10}{{10.2}{35}{Программная реализация}{subsection.10.2}{}}
\@writefile{lomylisting}{\defcounter {refsection}{0}\relax }\@writefile{lomylisting}{\contentsline {mylisting}{\numberline {10.1}{\ignorespaces Задача 10\relax }}{35}{mylisting.10.1}\protected@file@percent }
\@writefile{toc}{\defcounter {refsection}{0}\relax }\@writefile{toc}{\contentsline {section}{\numberline {11}Вывод}{39}{section.11}\protected@file@percent }
\gdef\minted@oldcachelist{,
  default-pyg-prefix.pygstyle,
  default.pygstyle,
  16C8F28B0EE40D7926F77C615014E38A5D9CAE012AACC1B1DC9BBA18446FA925.pygtex,
  B844A73F043189E88AD7FE9B523F4E6A5D9CAE012AACC1B1DC9BBA18446FA925.pygtex,
  30B0CB09015598B4A2FDEC5BABE3EEE05D9CAE012AACC1B1DC9BBA18446FA925.pygtex,
  CB4198A441638B39D2DA0392B033A0DF5D9CAE012AACC1B1DC9BBA18446FA925.pygtex,
  DCC230F61BF6BBBAC44F15668A6E21B05D9CAE012AACC1B1DC9BBA18446FA925.pygtex,
  48E9781AC4FDB188901B8A5E141568FC5D9CAE012AACC1B1DC9BBA18446FA925.pygtex,
  B5891106C97AC398B1848ECC96971FEB5D9CAE012AACC1B1DC9BBA18446FA925.pygtex,
  4058CBA485B3A3953080D5FB8BAF9F125D9CAE012AACC1B1DC9BBA18446FA925.pygtex,
  4058CBA485B3A3953080D5FB8BAF9F125D9CAE012AACC1B1DC9BBA18446FA925.pygtex,
  1E56E168386B8B3769A2288FC69B39095D9CAE012AACC1B1DC9BBA18446FA925.pygtex}
\newlabel{LastPage}{{}{42}{}{page.42}{}}
\xdef\lastpage@lastpage{42}
\xdef\lastpage@lastpageHy{42}
\gdef \@abspage@last{42}
