\relax 
\providecommand\babel@aux[2]{}
\@nameuse{bbl@beforestart}
\catcode `"\active 
\babel@aux{russian}{}
\@writefile{toc}{\contentsline {chapter}{\numberline {1}Упражнения по ОАиТЧ}{1}{}\protected@file@percent }
\@writefile{lof}{\addvspace {10\p@ }}
\@writefile{lot}{\addvspace {10\p@ }}
\@writefile{toc}{\contentsline {section}{\numberline {1.1}№1}{1}{}\protected@file@percent }
\@writefile{toc}{\contentsline {section}{\numberline {1.2}№2}{1}{}\protected@file@percent }
\@writefile{toc}{\contentsline {section}{\numberline {1.3}№3}{3}{}\protected@file@percent }
\@writefile{toc}{\contentsline {section}{\numberline {1.4}№4}{3}{}\protected@file@percent }
\@writefile{toc}{\contentsline {section}{\numberline {1.5}№6}{4}{}\protected@file@percent }
\@writefile{toc}{\contentsline {section}{\numberline {1.6}№15}{5}{}\protected@file@percent }
\@writefile{toc}{\contentsline {section}{\numberline {1.7}№23}{6}{}\protected@file@percent }
\@writefile{toc}{\contentsline {chapter}{\numberline {2}НОД и НОК.}{7}{}\protected@file@percent }
\@writefile{lof}{\addvspace {10\p@ }}
\@writefile{lot}{\addvspace {10\p@ }}
\@writefile{toc}{\contentsline {section}{\numberline {2.1}№2}{7}{}\protected@file@percent }
\@writefile{toc}{\contentsline {section}{\numberline {2.2}№4}{7}{}\protected@file@percent }
\@writefile{toc}{\contentsline {section}{\numberline {2.3}№8}{8}{}\protected@file@percent }
\@writefile{toc}{\contentsline {section}{\numberline {2.4}№11}{8}{}\protected@file@percent }
\@writefile{toc}{\contentsline {section}{\numberline {2.5}№12}{9}{}\protected@file@percent }
\@writefile{toc}{\contentsline {section}{\numberline {2.6}№15}{10}{}\protected@file@percent }
\@writefile{toc}{\contentsline {chapter}{\numberline {3}Простые числа.}{11}{}\protected@file@percent }
\@writefile{lof}{\addvspace {10\p@ }}
\@writefile{lot}{\addvspace {10\p@ }}
\@writefile{toc}{\contentsline {section}{\numberline {3.1}№1}{11}{}\protected@file@percent }
\@writefile{toc}{\contentsline {section}{\numberline {3.2}№7}{11}{}\protected@file@percent }
\@writefile{toc}{\contentsline {section}{\numberline {3.3}№11}{12}{}\protected@file@percent }
\@writefile{toc}{\contentsline {section}{\numberline {3.4}№12}{12}{}\protected@file@percent }
\@writefile{toc}{\contentsline {section}{\numberline {3.5}№14}{12}{}\protected@file@percent }
\newlabel{n14:1}{{3.12}{12}}
\newlabel{n14:2}{{3.13}{12}}
\newlabel{n14:3}{{3.18}{13}}
\@writefile{toc}{\contentsline {section}{\numberline {3.6}№16}{13}{}\protected@file@percent }
\@writefile{toc}{\contentsline {section}{\numberline {3.7}№17}{13}{}\protected@file@percent }
\@writefile{toc}{\contentsline {chapter}{\numberline {4}Числовые функции.}{15}{}\protected@file@percent }
\@writefile{lof}{\addvspace {10\p@ }}
\@writefile{lot}{\addvspace {10\p@ }}
\@writefile{toc}{\contentsline {section}{\numberline {4.1}№1}{15}{}\protected@file@percent }
\@writefile{toc}{\contentsline {section}{\numberline {4.2}№3}{15}{}\protected@file@percent }
\@writefile{toc}{\contentsline {section}{\numberline {4.3}№5}{16}{}\protected@file@percent }
\@writefile{toc}{\contentsline {section}{\numberline {4.4}№7}{16}{}\protected@file@percent }
\@writefile{toc}{\contentsline {section}{\numberline {4.5}№13}{16}{}\protected@file@percent }
\@writefile{toc}{\contentsline {section}{\numberline {4.6}№18}{17}{}\protected@file@percent }
\@writefile{toc}{\contentsline {section}{\numberline {4.7}№18}{17}{}\protected@file@percent }
\@writefile{toc}{\contentsline {section}{\numberline {4.8}№18}{18}{}\protected@file@percent }
\@writefile{toc}{\contentsline {section}{\numberline {4.9}№24}{19}{}\protected@file@percent }
\@writefile{toc}{\contentsline {section}{\numberline {4.10}№32}{19}{}\protected@file@percent }
\gdef \@abspage@last{19}
