\BOOKMARK [2][]{Outline0.1}{\376\377\004\036\004\077\004\100\004\065\004\064\004\065\004\073\004\065\004\075\004\070\004\065}{}% 1
\BOOKMARK [3][]{Outline0.1.1.2}{\376\377\004\037\004\100\004\065\004\073\004\116\004\064\004\070\004\117}{Outline0.1}% 2
\BOOKMARK [3][]{Outline0.1.2.4}{\376\377\004\035\004\065\004\104\004\076\004\100\004\074\004\060\004\073\004\114\004\075\004\076\004\065\000\040\004\063\004\065\004\076\004\074\004\065\004\102\004\100\004\070\004\107\004\065\004\101\004\072\004\076\004\065\000\040\004\076\004\077\004\070\004\101\004\060\004\075\004\070\004\065}{Outline0.1}% 3
