\babel@toc {russian}{}\relax 
\contentsline {section}{\numberline {1}Цели работы}{2}{section.1}%
\contentsline {section}{\numberline {2}Задачи работы}{2}{section.2}%
\contentsline {section}{\numberline {3}Средства разработки}{2}{section.3}%
\contentsline {section}{\numberline {4}Ход работы}{3}{section.4}%
\contentsline {subsection}{\numberline {4.1}Структура базы данных}{3}{subsection.4.1}%
\contentsline {subsection}{\numberline {4.2}Запросы}{10}{subsection.4.2}%
\contentsline {subsubsection}{\numberline {4.2.1}Запрос 1}{10}{subsubsection.4.2.1}%
\contentsline {subsubsection}{\numberline {4.2.2}Запрос 2}{12}{subsubsection.4.2.2}%
\contentsline {subsubsection}{\numberline {4.2.3}Запрос 3}{13}{subsubsection.4.2.3}%
\contentsline {subsubsection}{\numberline {4.2.4}Запрос 4}{14}{subsubsection.4.2.4}%
\contentsline {subsubsection}{\numberline {4.2.5}Запрос 5}{15}{subsubsection.4.2.5}%
\contentsline {subsubsection}{\numberline {4.2.6}Запрос 6}{17}{subsubsection.4.2.6}%
\contentsline {subsubsection}{\numberline {4.2.7}Запрос 7}{19}{subsubsection.4.2.7}%
\contentsline {subsubsection}{\numberline {4.2.8}Запрос 8}{20}{subsubsection.4.2.8}%
\contentsline {subsubsection}{\numberline {4.2.9}Запрос 9}{21}{subsubsection.4.2.9}%
\contentsline {subsubsection}{\numberline {4.2.10}Запрос 10}{23}{subsubsection.4.2.10}%
\contentsline {subsubsection}{\numberline {4.2.11}Удаление с параметрами}{24}{subsubsection.4.2.11}%
\contentsline {subsubsection}{\numberline {4.2.12}Обновление с параметрами}{25}{subsubsection.4.2.12}%
\contentsline {section}{\numberline {5}Выводы}{26}{section.5}%
