\babel@toc {russian}{}\relax 
\contentsline {table}{\numberline {1}{\ignorespaces Запрос 1\relax }}{11}{table.caption.9}%
\contentsline {table}{\numberline {2}{\ignorespaces Запрос 2\relax }}{12}{table.caption.11}%
\contentsline {table}{\numberline {3}{\ignorespaces Запрос 3\relax }}{13}{table.caption.13}%
\contentsline {table}{\numberline {4}{\ignorespaces Запрос 4\relax }}{14}{table.caption.15}%
\contentsline {table}{\numberline {5}{\ignorespaces Запрос 5\relax }}{16}{table.caption.17}%
\contentsline {table}{\numberline {6}{\ignorespaces Запрос 6\relax }}{18}{table.caption.19}%
\contentsline {table}{\numberline {7}{\ignorespaces Запрос 7\relax }}{19}{table.caption.21}%
\contentsline {table}{\numberline {8}{\ignorespaces Запрос 8\relax }}{20}{table.caption.23}%
\contentsline {table}{\numberline {9}{\ignorespaces Запрос 9\relax }}{22}{table.caption.25}%
\contentsline {table}{\numberline {10}{\ignorespaces Запрос 10\relax }}{23}{table.caption.27}%
\contentsline {table}{\numberline {11}{\ignorespaces Удаление с параметрами\relax }}{24}{table.caption.29}%
\contentsline {table}{\numberline {12}{\ignorespaces Обновление с параметрами\relax }}{25}{table.caption.31}%
