\relax 
\providecommand\hyper@newdestlabel[2]{}
\providecommand\babel@aux[2]{}
\@nameuse{bbl@beforestart}
\catcode `"\active 
\nicematrix@redefine@check@rerun 
\abx@aux@refcontext{nty/global//global/global}
\providecommand\HyperFirstAtBeginDocument{\AtBeginDocument}
\HyperFirstAtBeginDocument{\ifx\hyper@anchor\@undefined
\global\let\oldcontentsline\contentsline
\gdef\contentsline#1#2#3#4{\oldcontentsline{#1}{#2}{#3}}
\global\let\oldnewlabel\newlabel
\gdef\newlabel#1#2{\newlabelxx{#1}#2}
\gdef\newlabelxx#1#2#3#4#5#6{\oldnewlabel{#1}{{#2}{#3}}}
\AtEndDocument{\ifx\hyper@anchor\@undefined
\let\contentsline\oldcontentsline
\let\newlabel\oldnewlabel
\fi}
\fi}
\global\let\hyper@last\relax 
\gdef\HyperFirstAtBeginDocument#1{#1}
\providecommand\HyField@AuxAddToFields[1]{}
\providecommand\HyField@AuxAddToCoFields[2]{}
\providecommand\@newglossary[4]{}
\@newglossary{main}{glg}{gls}{glo}
\providecommand\@glsorder[1]{}
\providecommand\@istfilename[1]{}
\@istfilename{work.xdy}
\@glsorder{word}
\babel@aux{russian}{}
\@writefile{toc}{\contentsline {section}{\numberline {1}Цели работы}{2}{section.1}\protected@file@percent }
\@writefile{toc}{\contentsline {section}{\numberline {2}Задачи работы}{2}{section.2}\protected@file@percent }
\@writefile{toc}{\contentsline {section}{\numberline {3}Средства разработки}{2}{section.3}\protected@file@percent }
\@writefile{toc}{\contentsline {section}{\numberline {4}Ход работы}{3}{section.4}\protected@file@percent }
\@writefile{toc}{\contentsline {subsection}{\numberline {4.1}Структура базы данных}{3}{subsection.4.1}\protected@file@percent }
\@writefile{lomylisting}{\contentsline {mylisting}{\numberline {4.1}{\ignorespaces Структура таблицы с товарными группами\relax }}{4}{mylisting.caption.1}\protected@file@percent }
\providecommand*\caption@xref[2]{\@setref\relax\@undefined{#1}}
\newlabel{fist:Структура таблицы с товарными группами}{{4.1}{4}{Структура таблицы с товарными группами\relax }{mylisting.caption.1}{}}
\@writefile{lomylisting}{\contentsline {mylisting}{\numberline {4.2}{\ignorespaces Структура <<Учёта продуктов>>\relax }}{5}{mylisting.caption.2}\protected@file@percent }
\newlabel{fist:Структура <<Учёта продуктов>>}{{4.2}{5}{Структура <<Учёта продуктов>>\relax }{mylisting.caption.2}{}}
\@writefile{lomylisting}{\contentsline {mylisting}{\numberline {4.3}{\ignorespaces Структура View\relax }}{6}{mylisting.caption.3}\protected@file@percent }
\newlabel{fist:Структура View}{{4.3}{6}{Структура View\relax }{mylisting.caption.3}{}}
\@writefile{lomylisting}{\contentsline {mylisting}{\numberline {4.4}{\ignorespaces Структура триггера\relax }}{6}{mylisting.caption.4}\protected@file@percent }
\newlabel{fist:Структура триггера}{{4.4}{6}{Структура триггера\relax }{mylisting.caption.4}{}}
\@writefile{lomylisting}{\contentsline {mylisting}{\numberline {4.5}{\ignorespaces Структура функции: начало и DELETE\relax }}{7}{mylisting.caption.5}\protected@file@percent }
\newlabel{fist:Структура функции: начало и DELETE}{{4.5}{7}{Структура функции: начало и DELETE\relax }{mylisting.caption.5}{}}
\@writefile{lomylisting}{\contentsline {mylisting}{\numberline {4.6}{\ignorespaces Структура функции: UPDATE\relax }}{8}{mylisting.caption.6}\protected@file@percent }
\newlabel{fist:Структура функции: UPDATE}{{4.6}{8}{Структура функции: UPDATE\relax }{mylisting.caption.6}{}}
\@writefile{lomylisting}{\contentsline {mylisting}{\numberline {4.7}{\ignorespaces Структура функции: INSERT\relax }}{9}{mylisting.caption.7}\protected@file@percent }
\newlabel{fist:Структура функции: INSERT}{{4.7}{9}{Структура функции: INSERT\relax }{mylisting.caption.7}{}}
\@writefile{toc}{\contentsline {subsection}{\numberline {4.2}Запросы}{10}{subsection.4.2}\protected@file@percent }
\@writefile{toc}{\contentsline {subsubsection}{\numberline {4.2.1}Запрос 1}{10}{subsubsection.4.2.1}\protected@file@percent }
\@writefile{lomylisting}{\contentsline {mylisting}{\numberline {4.8}{\ignorespaces Запрос 1\relax }}{10}{mylisting.caption.8}\protected@file@percent }
\newlabel{fist:Запрос 1}{{4.8}{10}{Запрос 1\relax }{mylisting.caption.8}{}}
\@writefile{lot}{\contentsline {table}{\numberline {1}{\ignorespaces Запрос 1\relax }}{11}{table.caption.9}\protected@file@percent }
\newlabel{Запрос 1}{{1}{11}{Запрос 1\relax }{table.caption.9}{}}
\@writefile{toc}{\contentsline {subsubsection}{\numberline {4.2.2}Запрос 2}{12}{subsubsection.4.2.2}\protected@file@percent }
\@writefile{lomylisting}{\contentsline {mylisting}{\numberline {4.9}{\ignorespaces Запрос 2\relax }}{12}{mylisting.caption.10}\protected@file@percent }
\newlabel{fist:Запрос 2}{{4.9}{12}{Запрос 2\relax }{mylisting.caption.10}{}}
\@writefile{lot}{\contentsline {table}{\numberline {2}{\ignorespaces Запрос 2\relax }}{12}{table.caption.11}\protected@file@percent }
\newlabel{Запрос 2}{{2}{12}{Запрос 2\relax }{table.caption.11}{}}
\@writefile{toc}{\contentsline {subsubsection}{\numberline {4.2.3}Запрос 3}{13}{subsubsection.4.2.3}\protected@file@percent }
\@writefile{lomylisting}{\contentsline {mylisting}{\numberline {4.10}{\ignorespaces Запрос 3\relax }}{13}{mylisting.caption.12}\protected@file@percent }
\newlabel{fist:Запрос 3}{{4.10}{13}{Запрос 3\relax }{mylisting.caption.12}{}}
\@writefile{lot}{\contentsline {table}{\numberline {3}{\ignorespaces Запрос 3\relax }}{13}{table.caption.13}\protected@file@percent }
\newlabel{Запрос 3}{{3}{13}{Запрос 3\relax }{table.caption.13}{}}
\@writefile{toc}{\contentsline {subsubsection}{\numberline {4.2.4}Запрос 4}{14}{subsubsection.4.2.4}\protected@file@percent }
\@writefile{lomylisting}{\contentsline {mylisting}{\numberline {4.11}{\ignorespaces Запрос 4\relax }}{14}{mylisting.caption.14}\protected@file@percent }
\newlabel{fist:Запрос 4}{{4.11}{14}{Запрос 4\relax }{mylisting.caption.14}{}}
\@writefile{lot}{\contentsline {table}{\numberline {4}{\ignorespaces Запрос 4\relax }}{14}{table.caption.15}\protected@file@percent }
\newlabel{Запрос 4}{{4}{14}{Запрос 4\relax }{table.caption.15}{}}
\@writefile{toc}{\contentsline {subsubsection}{\numberline {4.2.5}Запрос 5}{15}{subsubsection.4.2.5}\protected@file@percent }
\@writefile{lomylisting}{\contentsline {mylisting}{\numberline {4.12}{\ignorespaces Запрос 5\relax }}{15}{mylisting.caption.16}\protected@file@percent }
\newlabel{fist:Запрос 5}{{4.12}{15}{Запрос 5\relax }{mylisting.caption.16}{}}
\@writefile{lot}{\contentsline {table}{\numberline {5}{\ignorespaces Запрос 5\relax }}{16}{table.caption.17}\protected@file@percent }
\newlabel{Запрос 5}{{5}{16}{Запрос 5\relax }{table.caption.17}{}}
\@writefile{toc}{\contentsline {subsubsection}{\numberline {4.2.6}Запрос 6}{17}{subsubsection.4.2.6}\protected@file@percent }
\@writefile{lomylisting}{\contentsline {mylisting}{\numberline {4.13}{\ignorespaces Запрос 6\relax }}{17}{mylisting.caption.18}\protected@file@percent }
\newlabel{fist:Запрос 6}{{4.13}{17}{Запрос 6\relax }{mylisting.caption.18}{}}
\@writefile{lot}{\contentsline {table}{\numberline {6}{\ignorespaces Запрос 6\relax }}{18}{table.caption.19}\protected@file@percent }
\newlabel{Запрос 6}{{6}{18}{Запрос 6\relax }{table.caption.19}{}}
\@writefile{toc}{\contentsline {subsubsection}{\numberline {4.2.7}Запрос 7}{19}{subsubsection.4.2.7}\protected@file@percent }
\@writefile{lomylisting}{\contentsline {mylisting}{\numberline {4.14}{\ignorespaces Запрос 7\relax }}{19}{mylisting.caption.20}\protected@file@percent }
\newlabel{fist:Запрос 7}{{4.14}{19}{Запрос 7\relax }{mylisting.caption.20}{}}
\@writefile{lot}{\contentsline {table}{\numberline {7}{\ignorespaces Запрос 7\relax }}{19}{table.caption.21}\protected@file@percent }
\newlabel{Запрос 7}{{7}{19}{Запрос 7\relax }{table.caption.21}{}}
\@writefile{toc}{\contentsline {subsubsection}{\numberline {4.2.8}Запрос 8}{20}{subsubsection.4.2.8}\protected@file@percent }
\@writefile{lomylisting}{\contentsline {mylisting}{\numberline {4.15}{\ignorespaces Запрос 8\relax }}{20}{mylisting.caption.22}\protected@file@percent }
\newlabel{fist:Запрос 8}{{4.15}{20}{Запрос 8\relax }{mylisting.caption.22}{}}
\@writefile{lot}{\contentsline {table}{\numberline {8}{\ignorespaces Запрос 8\relax }}{20}{table.caption.23}\protected@file@percent }
\newlabel{Запрос 8}{{8}{20}{Запрос 8\relax }{table.caption.23}{}}
\@writefile{toc}{\contentsline {subsubsection}{\numberline {4.2.9}Запрос 9}{21}{subsubsection.4.2.9}\protected@file@percent }
\newlabel{sec:Запрос 9}{{4.2.9}{21}{Запрос 9}{subsubsection.4.2.9}{}}
\@writefile{lomylisting}{\contentsline {mylisting}{\numberline {4.16}{\ignorespaces Запрос 9\relax }}{21}{mylisting.caption.24}\protected@file@percent }
\newlabel{fist:Запрос 9}{{4.16}{21}{Запрос 9\relax }{mylisting.caption.24}{}}
\@writefile{lot}{\contentsline {table}{\numberline {9}{\ignorespaces Запрос 9\relax }}{22}{table.caption.25}\protected@file@percent }
\newlabel{Запрос 9}{{9}{22}{Запрос 9\relax }{table.caption.25}{}}
\@writefile{toc}{\contentsline {subsubsection}{\numberline {4.2.10}Запрос 10}{23}{subsubsection.4.2.10}\protected@file@percent }
\@writefile{lomylisting}{\contentsline {mylisting}{\numberline {4.17}{\ignorespaces Запрос 10\relax }}{23}{mylisting.caption.26}\protected@file@percent }
\newlabel{fist:Запрос 10}{{4.17}{23}{Запрос 10\relax }{mylisting.caption.26}{}}
\@writefile{lot}{\contentsline {table}{\numberline {10}{\ignorespaces Запрос 10\relax }}{23}{table.caption.27}\protected@file@percent }
\newlabel{Запрос 10}{{10}{23}{Запрос 10\relax }{table.caption.27}{}}
\@writefile{toc}{\contentsline {subsubsection}{\numberline {4.2.11}Удаление с параметрами}{24}{subsubsection.4.2.11}\protected@file@percent }
\@writefile{lomylisting}{\contentsline {mylisting}{\numberline {4.18}{\ignorespaces Удаление с параметрами\relax }}{24}{mylisting.caption.28}\protected@file@percent }
\newlabel{fist:Удаление с параметрами}{{4.18}{24}{Удаление с параметрами\relax }{mylisting.caption.28}{}}
\@writefile{lot}{\contentsline {table}{\numberline {11}{\ignorespaces Удаление с параметрами\relax }}{24}{table.caption.29}\protected@file@percent }
\newlabel{Удаление с параметрами}{{11}{24}{Удаление с параметрами\relax }{table.caption.29}{}}
\@writefile{toc}{\contentsline {subsubsection}{\numberline {4.2.12}Обновление с параметрами}{25}{subsubsection.4.2.12}\protected@file@percent }
\@writefile{lomylisting}{\contentsline {mylisting}{\numberline {4.19}{\ignorespaces Обновление с параметрами\relax }}{25}{mylisting.caption.30}\protected@file@percent }
\newlabel{fist:Обновление с параметрами}{{4.19}{25}{Обновление с параметрами\relax }{mylisting.caption.30}{}}
\@writefile{lot}{\contentsline {table}{\numberline {12}{\ignorespaces Обновление с параметрами\relax }}{25}{table.caption.31}\protected@file@percent }
\newlabel{Обновление с параметрами}{{12}{25}{Обновление с параметрами\relax }{table.caption.31}{}}
\@writefile{toc}{\contentsline {section}{\numberline {5}Выводы}{26}{section.5}\protected@file@percent }
\gdef\minted@oldcachelist{,
  default.pygstyle,
  64E9AAA3CA98BF09EEF19C9EFDFBC41E35124699D5D5EAFE79D4805EBB866C8E.pygtex,
  98F388BE65E2A1CB8F3D49AB93EC683035124699D5D5EAFE79D4805EBB866C8E.pygtex,
  32D50294DADF09CA8A8BD0A7BE65514135124699D5D5EAFE79D4805EBB866C8E.pygtex,
  914C7DC53DBAFCBD6B4298B525B8553135124699D5D5EAFE79D4805EBB866C8E.pygtex,
  BE791F1F47C24AF6CB7EE46D7F93342735124699D5D5EAFE79D4805EBB866C8E.pygtex,
  775AEE79FAAD21C222877F30F99655A535124699D5D5EAFE79D4805EBB866C8E.pygtex,
  A7639E28C4C9271241B215B58A2C2D9035124699D5D5EAFE79D4805EBB866C8E.pygtex,
  29CCB87BC0C4350DCDF55D2448691BAB35124699D5D5EAFE79D4805EBB866C8E.pygtex,
  935D1BC457A4F0404A1E02D482168A2D35124699D5D5EAFE79D4805EBB866C8E.pygtex,
  F24D7D0DA422E40B28038FE3D277FF7935124699D5D5EAFE79D4805EBB866C8E.pygtex,
  F6E53062F712D73650A8063AC2FAAA0235124699D5D5EAFE79D4805EBB866C8E.pygtex,
  F2F67A14295F55E2204E6E975EC4F10035124699D5D5EAFE79D4805EBB866C8E.pygtex,
  1E85BC1170EFDDD9D2E20A22DA63CD1035124699D5D5EAFE79D4805EBB866C8E.pygtex,
  972857D6B5A94713E350968A4E0FEF4C35124699D5D5EAFE79D4805EBB866C8E.pygtex,
  080420B2CA79D2616B43C7DD4D04EC1E35124699D5D5EAFE79D4805EBB866C8E.pygtex,
  6E834344B99A1C2561C63D35907F63E935124699D5D5EAFE79D4805EBB866C8E.pygtex,
  83B3BEB1A584ADCE714C4CEB0BE8AD8F35124699D5D5EAFE79D4805EBB866C8E.pygtex,
  CA957031D74D0ABEE41DFF52A865F53C35124699D5D5EAFE79D4805EBB866C8E.pygtex,
  7721BBE7762AA2375F1A875611CFC74B35124699D5D5EAFE79D4805EBB866C8E.pygtex}
\newlabel{LastPage}{{}{29}{}{page.29}{}}
\xdef\lastpage@lastpage{29}
\xdef\lastpage@lastpageHy{29}
\abx@aux@read@bbl@mdfivesum{nobblfile}
\gdef \@abspage@last{29}
