\babel@toc {russian}{}\relax 
\contentsline {section}{\numberline {1}Приготовление}{2}{section.1}%
\contentsline {section}{\numberline {2}Номер 1}{3}{section.2}%
\contentsline {subsection}{\numberline {2.1}Условие}{3}{subsection.2.1}%
\contentsline {subsection}{\numberline {2.2}Код}{3}{subsection.2.2}%
\contentsline {subsection}{\numberline {2.3}Вывод}{3}{subsection.2.3}%
\contentsline {section}{\numberline {3}Номер 2}{4}{section.3}%
\contentsline {subsection}{\numberline {3.1}Условие}{4}{subsection.3.1}%
\contentsline {subsection}{\numberline {3.2}Код}{4}{subsection.3.2}%
\contentsline {subsection}{\numberline {3.3}Вывод}{5}{subsection.3.3}%
\contentsline {section}{\numberline {4}Номер 3}{5}{section.4}%
\contentsline {subsection}{\numberline {4.1}Условие}{5}{subsection.4.1}%
\contentsline {subsection}{\numberline {4.2}Код}{5}{subsection.4.2}%
\contentsline {subsection}{\numberline {4.3}Вывод}{6}{subsection.4.3}%
\contentsline {section}{\numberline {5}Номер 4}{6}{section.5}%
\contentsline {subsection}{\numberline {5.1}Условие}{6}{subsection.5.1}%
\contentsline {subsection}{\numberline {5.2}Код}{7}{subsection.5.2}%
\contentsline {subsection}{\numberline {5.3}Вывод}{7}{subsection.5.3}%
\contentsline {section}{\numberline {6}Номер 5}{8}{section.6}%
\contentsline {subsection}{\numberline {6.1}Условие}{8}{subsection.6.1}%
\contentsline {subsection}{\numberline {6.2}Код}{8}{subsection.6.2}%
\contentsline {subsection}{\numberline {6.3}Вывод}{8}{subsection.6.3}%
\contentsline {section}{\numberline {7}Номер 6}{9}{section.7}%
\contentsline {subsection}{\numberline {7.1}Условие}{9}{subsection.7.1}%
\contentsline {subsection}{\numberline {7.2}Код}{9}{subsection.7.2}%
\contentsline {subsection}{\numberline {7.3}Вывод}{10}{subsection.7.3}%
\contentsline {section}{\numberline {8}Номер 7}{10}{section.8}%
\contentsline {subsection}{\numberline {8.1}Условие}{10}{subsection.8.1}%
\contentsline {subsection}{\numberline {8.2}Код}{10}{subsection.8.2}%
\contentsline {subsection}{\numberline {8.3}Вывод}{11}{subsection.8.3}%
\contentsline {section}{\numberline {9}Номер 8}{11}{section.9}%
\contentsline {subsection}{\numberline {9.1}Условие}{11}{subsection.9.1}%
\contentsline {subsection}{\numberline {9.2}Код}{11}{subsection.9.2}%
\contentsline {subsection}{\numberline {9.3}Вывод}{12}{subsection.9.3}%
\contentsline {section}{\numberline {10}Номер 9}{12}{section.10}%
\contentsline {subsection}{\numberline {10.1}Условие}{12}{subsection.10.1}%
\contentsline {subsection}{\numberline {10.2}Код}{12}{subsection.10.2}%
\contentsline {subsection}{\numberline {10.3}Вывод}{12}{subsection.10.3}%
\contentsline {section}{\numberline {11}Номер 10}{13}{section.11}%
\contentsline {subsection}{\numberline {11.1}Условие}{13}{subsection.11.1}%
\contentsline {subsection}{\numberline {11.2}Код}{13}{subsection.11.2}%
\contentsline {subsection}{\numberline {11.3}Вывод}{13}{subsection.11.3}%
