[1] ""
[1] "№1"
[1] "P-value, H1 = 'не отл. от нормального закона':                      0.261"
[1] "Больше 0.05; Принимается"
[1] ""
[1] "№2"
[1] "P-value, H1 = 'не отл. от нормального закона':                      0.609"
[1] "Больше 0.05; Принимается"
[1] ""
[1] "№3"
[1] "P-value для H1 = 'с одинаковыми законами':                          0"
[1] "Меньше 0.05; Не принимается"
[1] ""
[1] "№4"
[1] "Проверим применимость критерия Стьюдента"
[1] "P-value, H1 = 'не отл. от нормального закона':                      0.261"
[1] "Больше 0.05; Принимается"
[1] "P-value, H1 = 'M=164':                                              0"
[1] "Меньше 0.05; Не принимается"
[1] ""
[1] "№5"
[1] "P-value, H1 = 'M(x)=10':                                            0"
[1] "Меньше 0.05; Не принимается"
[1] ""
[1] "№6"
[1] "P-value, H1 = 'не отл. от нормального закона':                      0.173"
[1] "Больше 0.05; Принимается"
[1] ""
[1] "№7"
[1] "P-value, H1 = 'мат. ожидания равны':                                0.007"
[1] "Меньше 0.05; Не принимается"
[1] ""
[1] "№8"
[1] "P-value, H1 = 'уровень для сильной и слабой одинаков':              0.436"
[1] "Больше 0.05; Принимается"
[1] ""
[1] "№9"
[1] "P-value, H1 = 'Депрессивность не зависит от семейного дохода':      0.561"
[1] "Больше 0.05; Принимается"
[1] ""
[1] "№10"
[1] "P-value, H1 = 'Депрессивность не зависит от семейного дохода':      0.303"
[1] "Больше 0.05; Принимается"
