R version 4.2.0 (2022-04-22) -- "Vigorous Calisthenics"
> # №10
> s <- function(N_var) {
+   set.seed(N_var)
+   p <- sample(20:39,1)/1000; N <- sample(301:499,1)
+   x <- rbinom(N,1000,p)
+   sqrt(2*mean(x)*(1-mean(x)/1000))
+ }
> 
> s(1)
[1] 6.71484
> s(2)
[1] 8.052898
> s(3)
[1] 6.851711
> s(4)
[1] 7.617298
> s(5)
[1] 6.400942
> s(6)
[1] 7.558187
> s(7)
[1] 7.526647
> s(8)
[1] 8.689291
> s(9)
[1] 7.004442
> s(10)
[1] 7.63312
> s(11)
[1] 6.386656
> 
