{
  "compiler": {
    "path": "/usr/bin",
    "options": [
      "-interaction=nonstopmode",
      "-halt-on-error",
      "-file-line-error"
    ]
  },
  "color": "auto",
  "patterns": [
    {
      "match": "^Output written on .*\\.[a-z]+ \\(.*\\)\\.$",
      "style": "green bold"
    },
    {
      "match": "(LaTeX Warning(:|))|(Package [^\\s]+ Warning(:|))",
      "style": "yellow bold"
    },
    {
      "match": "(^[^:]*:\\d+: )|(^! LaTeX Error: )|(^! .* Fatal error.*)",
      "style": "red bold"
    },
    {
      "match": "^l\\.\\d+ ",
      "style": "cyan bold"
    },
    {
      "match": "^This is[\\w ,.]+",
      "style": "bright_magenta bold"
    }
  ]
}
