\boolfalse {citerequest}\boolfalse {citetracker}\boolfalse {pagetracker}\boolfalse {backtracker}\relax 
\babel@toc {russian}{}
\defcounter {refsection}{0}\relax 
\contentsline {part}{I\hspace {1em}Вещественные числа}{3}{part.1}%
\defcounter {refsection}{0}\relax 
\contentsline {chapter}{\numberline {1}Точные грани ограниченного числового множества}{4}{chapter.1}%
\defcounter {refsection}{0}\relax 
\contentsline {section}{\numberline {1.1}Множества}{4}{section.1.1}%
\defcounter {refsection}{0}\relax 
\contentsline {section}{\numberline {1.2}Функции}{5}{section.1.2}%
\defcounter {refsection}{0}\relax 
\contentsline {section}{\numberline {1.3}Пределы}{6}{section.1.3}%
