\relax 
\providecommand\hyper@newdestlabel[2]{}
\@nameuse{bbl@beforestart}
\catcode `"\active 
\nicematrix@redefine@check@rerun 
\abx@aux@refcontext{nty/global//global/global}
\providecommand\HyperFirstAtBeginDocument{\AtBeginDocument}
\HyperFirstAtBeginDocument{\ifx\hyper@anchor\@undefined
\global\let\oldcontentsline\contentsline
\gdef\contentsline#1#2#3#4{\oldcontentsline{#1}{#2}{#3}}
\global\let\oldnewlabel\newlabel
\gdef\newlabel#1#2{\newlabelxx{#1}#2}
\gdef\newlabelxx#1#2#3#4#5#6{\oldnewlabel{#1}{{#2}{#3}}}
\AtEndDocument{\ifx\hyper@anchor\@undefined
\let\contentsline\oldcontentsline
\let\newlabel\oldnewlabel
\fi}
\fi}
\global\let\hyper@last\relax 
\gdef\HyperFirstAtBeginDocument#1{#1}
\providecommand\HyField@AuxAddToFields[1]{}
\providecommand\HyField@AuxAddToCoFields[2]{}
\providecommand\@newglossary[4]{}
\@newglossary{main}{glg}{gls}{glo}
\providecommand\@glsorder[1]{}
\providecommand\@istfilename[1]{}
\@istfilename{matan(inf).xdy}
\@glsorder{word}
\@writefile{toc}{\boolfalse {citerequest}\boolfalse {citetracker}\boolfalse {pagetracker}\boolfalse {backtracker}\relax }
\@writefile{lof}{\boolfalse {citerequest}\boolfalse {citetracker}\boolfalse {pagetracker}\boolfalse {backtracker}\relax }
\@writefile{lot}{\boolfalse {citerequest}\boolfalse {citetracker}\boolfalse {pagetracker}\boolfalse {backtracker}\relax }
\babel@aux{russian}{}
\@writefile{toc}{\defcounter {refsection}{0}\relax }\@writefile{toc}{\contentsline {part}{I\hspace  {1em}Вещественные числа}{3}{part.1}\protected@file@percent }
\pp@pagectr{footnote}{1}{4}{4}
\@writefile{toc}{\defcounter {refsection}{0}\relax }\@writefile{toc}{\contentsline {chapter}{\numberline {1}Точные грани ограниченного числового множества}{4}{chapter.1}\protected@file@percent }
\@writefile{lof}{\defcounter {refsection}{0}\relax }\@writefile{lof}{\addvspace {10\p@ }}
\@writefile{lot}{\defcounter {refsection}{0}\relax }\@writefile{lot}{\addvspace {10\p@ }}
\@writefile{toc}{\defcounter {refsection}{0}\relax }\@writefile{toc}{\contentsline {section}{\numberline {1.1}Множества}{4}{section.1.1}\protected@file@percent }
\newlabel{Ограниченность сверху(снизу)}{{1}{4}{Множества}{defi.1.1.1}{}}
\newlabel{Ограниченность}{{2}{4}{Множества}{defi.1.1.2}{}}
\newlabel{Точная верхняя грань}{{3}{4}{Множества}{defi.1.1.3}{}}
\newlabel{Точная нижняя грань}{{4}{4}{Множества}{defi.1.1.4}{}}
\@writefile{toc}{\defcounter {refsection}{0}\relax }\@writefile{toc}{\contentsline {section}{\numberline {1.2}Функции}{5}{section.1.2}\protected@file@percent }
\newlabel{Верхняя(нижняя) грань функции}{{1}{5}{Функции}{defi.1.2.1}{}}
\newlabel{Ограниченность функции}{{2}{5}{Функции}{defi.1.2.2}{}}
\newlabel{Грани функции}{{3}{6}{Функции}{defi.1.2.3}{}}
\@writefile{toc}{\defcounter {refsection}{0}\relax }\@writefile{toc}{\contentsline {section}{\numberline {1.3}Пределы}{6}{section.1.3}\protected@file@percent }
\newlabel{Предельная точка}{{1}{6}{Пределы}{defi.1.3.1}{}}
\newlabel{Предел по Коши}{{2}{6}{Пределы}{defi.1.3.2}{}}
\newlabel{Предел справа(слева)}{{3}{6}{Пределы}{defi.1.3.3}{}}
\newlabel{Предел}{{4}{6}{Пределы}{defi.1.3.4}{}}
\newlabel{LastPage}{{}{6}{}{page.6}{}}
\xdef\lastpage@lastpage{6}
\xdef\lastpage@lastpageHy{6}
