\BOOKMARK [-1][-]{part.1}{\376\377\000I\000\040\004\022\004\065\004\111\004\065\004\101\004\102\004\062\004\065\004\075\004\075\004\113\004\065\000\040\004\107\004\070\004\101\004\073\004\060}{}% 1
\BOOKMARK [0][-]{chapter.1}{\376\377\004\042\004\076\004\107\004\075\004\113\004\065\000\040\004\063\004\100\004\060\004\075\004\070\000\040\004\076\004\063\004\100\004\060\004\075\004\070\004\107\004\065\004\075\004\075\004\076\004\063\004\076\000\040\004\107\004\070\004\101\004\073\004\076\004\062\004\076\004\063\004\076\000\040\004\074\004\075\004\076\004\066\004\065\004\101\004\102\004\062\004\060}{part.1}% 2
\BOOKMARK [1][-]{section.1.1}{\376\377\004\034\004\075\004\076\004\066\004\065\004\101\004\102\004\062\004\060}{chapter.1}% 3
\BOOKMARK [1][-]{section.1.2}{\376\377\004\044\004\103\004\075\004\072\004\106\004\070\004\070}{chapter.1}% 4
\BOOKMARK [1][-]{section.1.3}{\376\377\004\037\004\100\004\065\004\064\004\065\004\073\004\113}{chapter.1}% 5
