\boolfalse {citerequest}\boolfalse {citetracker}\boolfalse {pagetracker}\boolfalse {backtracker}\relax 
\babel@toc {russian}{}
\defcounter {refsection}{0}\relax 
\contentsline {chapter}{\numberline {1}Задание}{3}{chapter.1}%
\defcounter {refsection}{0}\relax 
\contentsline {chapter}{\numberline {2}Unit 1}{4}{chapter.2}%
\defcounter {refsection}{0}\relax 
\contentsline {section}{\numberline {2.1}Assignment I}{4}{section.2.1}%
\defcounter {refsection}{0}\relax 
\contentsline {section}{\numberline {2.2}Assignment II a}{5}{section.2.2}%
\defcounter {refsection}{0}\relax 
\contentsline {section}{\numberline {2.3}Assignment II b}{6}{section.2.3}%
\defcounter {refsection}{0}\relax 
\contentsline {section}{\numberline {2.4}Assignment III}{7}{section.2.4}%
\defcounter {refsection}{0}\relax 
\contentsline {section}{\numberline {2.5}Vocabulary Test}{8}{section.2.5}%
\defcounter {refsection}{0}\relax 
\contentsline {section}{\numberline {2.6}Assignment IV a}{10}{section.2.6}%
\defcounter {refsection}{0}\relax 
\contentsline {section}{\numberline {2.7}Assignment IV b}{11}{section.2.7}%
\defcounter {refsection}{0}\relax 
\contentsline {section}{\numberline {2.8}Assignment V}{12}{section.2.8}%
\defcounter {refsection}{0}\relax 
\contentsline {chapter}{\numberline {3}Пособие}{13}{chapter.3}%
\defcounter {refsection}{0}\relax 
\contentsline {section}{\numberline {3.1}Упражнение 14}{13}{section.3.1}%
\defcounter {refsection}{0}\relax 
\contentsline {section}{\numberline {3.2}Упражнение 15}{14}{section.3.2}%
\defcounter {refsection}{0}\relax 
\contentsline {section}{\numberline {3.3}Упражнение 16}{15}{section.3.3}%
\defcounter {refsection}{0}\relax 
\contentsline {chapter}{\numberline {4}Infotech Workbook}{16}{chapter.4}%
\defcounter {refsection}{0}\relax 
\contentsline {section}{\numberline {4.1}Exercise 1}{16}{section.4.1}%
\defcounter {refsection}{0}\relax 
\contentsline {section}{\numberline {4.2}Exercise 2}{17}{section.4.2}%
\defcounter {refsection}{0}\relax 
\contentsline {section}{\numberline {4.3}Exercise 3}{18}{section.4.3}%
\defcounter {refsection}{0}\relax 
\contentsline {section}{\numberline {4.4}Exercise 4}{19}{section.4.4}%
\defcounter {refsection}{0}\relax 
\contentsline {section}{\numberline {4.5}Exercise 5}{20}{section.4.5}%
\defcounter {refsection}{0}\relax 
\contentsline {section}{\numberline {4.6}Exercise 6}{21}{section.4.6}%
\defcounter {refsection}{0}\relax 
\contentsline {section}{\numberline {4.7}Exercise 7}{22}{section.4.7}%
\defcounter {refsection}{0}\relax 
\contentsline {section}{\numberline {4.8}Exercise 8}{23}{section.4.8}%
