\relax 
\providecommand\hyper@newdestlabel[2]{}
\@nameuse{bbl@beforestart}
\catcode `"\active 
\nicematrix@redefine@check@rerun 
\abx@aux@refcontext{nty/global//global/global}
\providecommand\HyperFirstAtBeginDocument{\AtBeginDocument}
\HyperFirstAtBeginDocument{\ifx\hyper@anchor\@undefined
\global\let\oldcontentsline\contentsline
\gdef\contentsline#1#2#3#4{\oldcontentsline{#1}{#2}{#3}}
\global\let\oldnewlabel\newlabel
\gdef\newlabel#1#2{\newlabelxx{#1}#2}
\gdef\newlabelxx#1#2#3#4#5#6{\oldnewlabel{#1}{{#2}{#3}}}
\AtEndDocument{\ifx\hyper@anchor\@undefined
\let\contentsline\oldcontentsline
\let\newlabel\oldnewlabel
\fi}
\fi}
\global\let\hyper@last\relax 
\gdef\HyperFirstAtBeginDocument#1{#1}
\providecommand\HyField@AuxAddToFields[1]{}
\providecommand\HyField@AuxAddToCoFields[2]{}
\providecommand\@newglossary[4]{}
\@newglossary{main}{glg}{gls}{glo}
\providecommand\@glsorder[1]{}
\providecommand\@istfilename[1]{}
\@istfilename{first.xdy}
\@glsorder{word}
\@writefile{toc}{\boolfalse {citerequest}\boolfalse {citetracker}\boolfalse {pagetracker}\boolfalse {backtracker}\relax }
\@writefile{lof}{\boolfalse {citerequest}\boolfalse {citetracker}\boolfalse {pagetracker}\boolfalse {backtracker}\relax }
\@writefile{lot}{\boolfalse {citerequest}\boolfalse {citetracker}\boolfalse {pagetracker}\boolfalse {backtracker}\relax }
\babel@aux{russian}{}
\pp@pagectr{footnote}{1}{3}{3}
\@writefile{toc}{\defcounter {refsection}{0}\relax }\@writefile{toc}{\contentsline {chapter}{\numberline {1}Задание}{3}{chapter.1}\protected@file@percent }
\@writefile{lof}{\defcounter {refsection}{0}\relax }\@writefile{lof}{\addvspace {10\p@ }}
\@writefile{lot}{\defcounter {refsection}{0}\relax }\@writefile{lot}{\addvspace {10\p@ }}
\ExplSyntaxOn \cs_if_free:NT \pgfsyspdfmark {\cs_set_eq:NN \pgfsyspdfmark \use:nnn }\ExplSyntaxOff 
\pp@pagectr{footnote}{2}{4}{4}
\@writefile{toc}{\defcounter {refsection}{0}\relax }\@writefile{toc}{\contentsline {chapter}{\numberline {2}Unit 1}{4}{chapter.2}\protected@file@percent }
\@writefile{lof}{\defcounter {refsection}{0}\relax }\@writefile{lof}{\addvspace {10\p@ }}
\@writefile{lot}{\defcounter {refsection}{0}\relax }\@writefile{lot}{\addvspace {10\p@ }}
\@writefile{toc}{\defcounter {refsection}{0}\relax }\@writefile{toc}{\contentsline {section}{\numberline {2.1}Assignment I}{4}{section.2.1}\protected@file@percent }
\@writefile{lot}{\defcounter {refsection}{0}\relax }\@writefile{lot}{\contentsline {table}{\numberline {2.1}{\ignorespaces Assignment I\relax }}{4}{table.caption.2}\protected@file@percent }
\providecommand*\caption@xref[2]{\@setref\relax\@undefined{#1}}
\newlabel{Assignment I}{{2.1}{4}{Assignment I\relax }{table.caption.2}{}}
\pgfsyspdfmark {pgfid2}{6381917}{34173424}
\pgfsyspdfmark {pgfid3}{6381917}{34173424}
\pgfsyspdfmark {pgfid4}{6381917}{32809729}
\pgfsyspdfmark {pgfid5}{14193807}{32809729}
\pgfsyspdfmark {pgfid6}{28087439}{32809729}
\pgfsyspdfmark {pgfid7}{6381917}{32375220}
\pgfsyspdfmark {pgfid8}{6381917}{32206386}
\pgfsyspdfmark {pgfid9}{6381917}{30911636}
\pgfsyspdfmark {pgfid10}{6617846}{30911636}
\pgfsyspdfmark {pgfid11}{14193807}{30911636}
\pgfsyspdfmark {pgfid12}{28087439}{30911636}
\pgfsyspdfmark {pgfid13}{6381917}{28963243}
\pgfsyspdfmark {pgfid14}{6381917}{27949404}
\pgfsyspdfmark {pgfid15}{6617846}{27949404}
\pgfsyspdfmark {pgfid16}{14193807}{27949404}
\pgfsyspdfmark {pgfid17}{28087439}{27949404}
\pgfsyspdfmark {pgfid18}{6381917}{26001011}
\pgfsyspdfmark {pgfid19}{6381917}{24987172}
\pgfsyspdfmark {pgfid20}{6617846}{24987172}
\pgfsyspdfmark {pgfid21}{14193807}{24987172}
\pgfsyspdfmark {pgfid22}{28087439}{24987172}
\pgfsyspdfmark {pgfid23}{6381917}{24552663}
\pgfsyspdfmark {pgfid24}{6381917}{23538824}
\pgfsyspdfmark {pgfid25}{6617846}{23538824}
\pgfsyspdfmark {pgfid26}{14193807}{23538824}
\pgfsyspdfmark {pgfid27}{28087439}{23538824}
\pgfsyspdfmark {pgfid28}{6381917}{21590431}
\pgfsyspdfmark {pgfid29}{6381917}{20576592}
\pgfsyspdfmark {pgfid30}{6617846}{20576592}
\pgfsyspdfmark {pgfid31}{14193807}{20576592}
\pgfsyspdfmark {pgfid32}{28087439}{20576592}
\pgfsyspdfmark {pgfid33}{6381917}{20142083}
\pgfsyspdfmark {pgfid34}{6381917}{19128244}
\pgfsyspdfmark {pgfid35}{6617846}{19128244}
\pgfsyspdfmark {pgfid36}{14193807}{19128244}
\pgfsyspdfmark {pgfid37}{28087439}{19128244}
\pgfsyspdfmark {pgfid38}{6381917}{18693735}
\pgfsyspdfmark {pgfid39}{6381917}{17679896}
\pgfsyspdfmark {pgfid40}{6617846}{17679896}
\pgfsyspdfmark {pgfid41}{14193807}{17679896}
\pgfsyspdfmark {pgfid42}{28087439}{17679896}
\pgfsyspdfmark {pgfid43}{6381917}{17245387}
\pgfsyspdfmark {pgfid44}{6381917}{16231548}
\pgfsyspdfmark {pgfid45}{6617846}{16231548}
\pgfsyspdfmark {pgfid46}{14193807}{16231548}
\pgfsyspdfmark {pgfid47}{28087439}{16231548}
\pgfsyspdfmark {pgfid48}{6381917}{15797039}
\pgfsyspdfmark {pgfid49}{6381917}{14783200}
\pgfsyspdfmark {pgfid50}{6617846}{14783200}
\pgfsyspdfmark {pgfid51}{14193807}{14783200}
\pgfsyspdfmark {pgfid52}{28087439}{14783200}
\pgfsyspdfmark {pgfid53}{6381917}{14348691}
\pgfsyspdfmark {pgfid54}{6381917}{14179857}
\pgfsyspdfmark {pgfid55}{6381917}{14104358}
\pgfsyspdfmark {pgfid56}{7246991}{14104358}
\pgfsyspdfmark {pgfid57}{21140623}{14104358}
\pgfsyspdfmark {pgfid58}{34641039}{14104358}
\savepicturepage{pgfid59}{4}
\pgfsyspdfmark {pgfid59}{34641039}{23902962}
\@writefile{toc}{\defcounter {refsection}{0}\relax }\@writefile{toc}{\contentsline {section}{\numberline {2.2}Assignment II a}{5}{section.2.2}\protected@file@percent }
\@writefile{lot}{\defcounter {refsection}{0}\relax }\@writefile{lot}{\contentsline {table}{\numberline {2.2}{\ignorespaces Assignment II a\relax }}{5}{table.caption.3}\protected@file@percent }
\newlabel{Assignment II a}{{2.2}{5}{Assignment II a\relax }{table.caption.3}{}}
\pgfsyspdfmark {pgfid60}{6381917}{43636829}
\pgfsyspdfmark {pgfid61}{6381917}{43636829}
\pgfsyspdfmark {pgfid62}{6381917}{42273134}
\pgfsyspdfmark {pgfid63}{14193807}{42273134}
\pgfsyspdfmark {pgfid64}{28087439}{42273134}
\pgfsyspdfmark {pgfid65}{6381917}{41838625}
\pgfsyspdfmark {pgfid66}{6381917}{41669791}
\pgfsyspdfmark {pgfid67}{6381917}{40375041}
\pgfsyspdfmark {pgfid68}{6617846}{40375041}
\pgfsyspdfmark {pgfid69}{14193807}{40375041}
\pgfsyspdfmark {pgfid70}{28087439}{40375041}
\pgfsyspdfmark {pgfid71}{6381917}{39940532}
\pgfsyspdfmark {pgfid72}{6381917}{38926693}
\pgfsyspdfmark {pgfid73}{6617846}{38926693}
\pgfsyspdfmark {pgfid74}{14193807}{38926693}
\pgfsyspdfmark {pgfid75}{28087439}{38926693}
\pgfsyspdfmark {pgfid76}{6381917}{38492184}
\pgfsyspdfmark {pgfid77}{6381917}{37478345}
\pgfsyspdfmark {pgfid78}{6617846}{37478345}
\pgfsyspdfmark {pgfid79}{14193807}{37478345}
\pgfsyspdfmark {pgfid80}{28087439}{37478345}
\pgfsyspdfmark {pgfid81}{6381917}{35529952}
\pgfsyspdfmark {pgfid82}{6381917}{34516113}
\pgfsyspdfmark {pgfid83}{6617846}{34516113}
\pgfsyspdfmark {pgfid84}{14193807}{34516113}
\pgfsyspdfmark {pgfid85}{28087439}{34516113}
\pgfsyspdfmark {pgfid86}{6381917}{34081604}
\pgfsyspdfmark {pgfid87}{6381917}{33067765}
\pgfsyspdfmark {pgfid88}{6617846}{33067765}
\pgfsyspdfmark {pgfid89}{14193807}{33067765}
\pgfsyspdfmark {pgfid90}{28087439}{33067765}
\pgfsyspdfmark {pgfid91}{6381917}{31119372}
\pgfsyspdfmark {pgfid92}{6381917}{30105533}
\pgfsyspdfmark {pgfid93}{6617846}{30105533}
\pgfsyspdfmark {pgfid94}{14193807}{30105533}
\pgfsyspdfmark {pgfid95}{28087439}{30105533}
\pgfsyspdfmark {pgfid96}{6381917}{29671024}
\pgfsyspdfmark {pgfid97}{6381917}{29502190}
\pgfsyspdfmark {pgfid98}{6381917}{29426691}
\pgfsyspdfmark {pgfid99}{7246991}{29426691}
\pgfsyspdfmark {pgfid100}{21140623}{29426691}
\pgfsyspdfmark {pgfid101}{34641039}{29426691}
\savepicturepage{pgfid102}{5}
\pgfsyspdfmark {pgfid102}{34641039}{36295831}
\@writefile{toc}{\defcounter {refsection}{0}\relax }\@writefile{toc}{\contentsline {section}{\numberline {2.3}Assignment II b}{6}{section.2.3}\protected@file@percent }
\@writefile{lot}{\defcounter {refsection}{0}\relax }\@writefile{lot}{\contentsline {table}{\numberline {2.3}{\ignorespaces Assignment II b\relax }}{6}{table.caption.4}\protected@file@percent }
\newlabel{Assignment II b}{{2.3}{6}{Assignment II b\relax }{table.caption.4}{}}
\pgfsyspdfmark {pgfid103}{6381917}{43440221}
\pgfsyspdfmark {pgfid104}{6381917}{43440221}
\pgfsyspdfmark {pgfid105}{6381917}{42076526}
\pgfsyspdfmark {pgfid106}{14193807}{42076526}
\pgfsyspdfmark {pgfid107}{28087439}{42076526}
\pgfsyspdfmark {pgfid108}{6381917}{41642017}
\pgfsyspdfmark {pgfid109}{6381917}{41473183}
\pgfsyspdfmark {pgfid110}{6381917}{40178433}
\pgfsyspdfmark {pgfid111}{6617846}{40178433}
\pgfsyspdfmark {pgfid112}{14193807}{40178433}
\pgfsyspdfmark {pgfid113}{28087439}{40178433}
\pgfsyspdfmark {pgfid114}{6381917}{39743924}
\pgfsyspdfmark {pgfid115}{6381917}{38730085}
\pgfsyspdfmark {pgfid116}{6617846}{38730085}
\pgfsyspdfmark {pgfid117}{14193807}{38730085}
\pgfsyspdfmark {pgfid118}{28087439}{38730085}
\pgfsyspdfmark {pgfid119}{6381917}{36781692}
\pgfsyspdfmark {pgfid120}{6381917}{35767853}
\pgfsyspdfmark {pgfid121}{6617846}{35767853}
\pgfsyspdfmark {pgfid122}{14193807}{35767853}
\pgfsyspdfmark {pgfid123}{28087439}{35767853}
\pgfsyspdfmark {pgfid124}{6381917}{35333344}
\pgfsyspdfmark {pgfid125}{6381917}{34319505}
\pgfsyspdfmark {pgfid126}{6617846}{34319505}
\pgfsyspdfmark {pgfid127}{14193807}{34319505}
\pgfsyspdfmark {pgfid128}{28087439}{34319505}
\pgfsyspdfmark {pgfid129}{6381917}{32371112}
\pgfsyspdfmark {pgfid130}{6381917}{31357273}
\pgfsyspdfmark {pgfid131}{6617846}{31357273}
\pgfsyspdfmark {pgfid132}{14193807}{31357273}
\pgfsyspdfmark {pgfid133}{28087439}{31357273}
\pgfsyspdfmark {pgfid134}{6381917}{30922764}
\pgfsyspdfmark {pgfid135}{6381917}{29908925}
\pgfsyspdfmark {pgfid136}{6617846}{29908925}
\pgfsyspdfmark {pgfid137}{14193807}{29908925}
\pgfsyspdfmark {pgfid138}{28087439}{29908925}
\pgfsyspdfmark {pgfid139}{6381917}{29474416}
\pgfsyspdfmark {pgfid140}{6381917}{28460577}
\pgfsyspdfmark {pgfid141}{6617846}{28460577}
\pgfsyspdfmark {pgfid142}{14193807}{28460577}
\pgfsyspdfmark {pgfid143}{28087439}{28460577}
\pgfsyspdfmark {pgfid144}{6381917}{28026068}
\pgfsyspdfmark {pgfid145}{6381917}{27857234}
\pgfsyspdfmark {pgfid146}{6381917}{27781735}
\pgfsyspdfmark {pgfid147}{7246991}{27781735}
\pgfsyspdfmark {pgfid148}{21140623}{27781735}
\pgfsyspdfmark {pgfid149}{34641039}{27781735}
\savepicturepage{pgfid150}{6}
\pgfsyspdfmark {pgfid150}{34641039}{35375049}
\@writefile{toc}{\defcounter {refsection}{0}\relax }\@writefile{toc}{\contentsline {section}{\numberline {2.4}Assignment III}{7}{section.2.4}\protected@file@percent }
\@writefile{lot}{\defcounter {refsection}{0}\relax }\@writefile{lot}{\contentsline {table}{\numberline {2.4}{\ignorespaces Assignment III\relax }}{7}{table.caption.5}\protected@file@percent }
\newlabel{Assignment III}{{2.4}{7}{Assignment III\relax }{table.caption.5}{}}
\pgfsyspdfmark {pgfid151}{6145987}{44832861}
\pgfsyspdfmark {pgfid152}{6145987}{44832861}
\pgfsyspdfmark {pgfid153}{6145987}{43469166}
\pgfsyspdfmark {pgfid154}{14429737}{43469166}
\pgfsyspdfmark {pgfid155}{28323369}{43469166}
\pgfsyspdfmark {pgfid156}{6145987}{43034657}
\pgfsyspdfmark {pgfid157}{6145987}{42865823}
\pgfsyspdfmark {pgfid158}{6145987}{41571073}
\pgfsyspdfmark {pgfid159}{6381916}{41571073}
\pgfsyspdfmark {pgfid160}{14429737}{41571073}
\pgfsyspdfmark {pgfid161}{28323369}{41571073}
\pgfsyspdfmark {pgfid162}{6145987}{39622680}
\pgfsyspdfmark {pgfid163}{6145987}{38608841}
\pgfsyspdfmark {pgfid164}{6381916}{38608841}
\pgfsyspdfmark {pgfid165}{14429737}{38608841}
\pgfsyspdfmark {pgfid166}{28323369}{38608841}
\pgfsyspdfmark {pgfid167}{6145987}{36660448}
\pgfsyspdfmark {pgfid168}{6145987}{35646609}
\pgfsyspdfmark {pgfid169}{6381916}{35646609}
\pgfsyspdfmark {pgfid170}{14429737}{35646609}
\pgfsyspdfmark {pgfid171}{28323369}{35646609}
\pgfsyspdfmark {pgfid172}{6145987}{35212100}
\pgfsyspdfmark {pgfid173}{6145987}{34198261}
\pgfsyspdfmark {pgfid174}{6381916}{34198261}
\pgfsyspdfmark {pgfid175}{14429737}{34198261}
\pgfsyspdfmark {pgfid176}{28323369}{34198261}
\pgfsyspdfmark {pgfid177}{6145987}{33763752}
\pgfsyspdfmark {pgfid178}{6145987}{32749913}
\pgfsyspdfmark {pgfid179}{6381916}{32749913}
\pgfsyspdfmark {pgfid180}{14429737}{32749913}
\pgfsyspdfmark {pgfid181}{28323369}{32749913}
\pgfsyspdfmark {pgfid182}{6145987}{30801520}
\pgfsyspdfmark {pgfid183}{6145987}{29787681}
\pgfsyspdfmark {pgfid184}{6381916}{29787681}
\pgfsyspdfmark {pgfid185}{14429737}{29787681}
\pgfsyspdfmark {pgfid186}{28323369}{29787681}
\pgfsyspdfmark {pgfid187}{6145987}{26957855}
\pgfsyspdfmark {pgfid188}{6145987}{25944016}
\pgfsyspdfmark {pgfid189}{6381916}{25944016}
\pgfsyspdfmark {pgfid190}{14429737}{25944016}
\pgfsyspdfmark {pgfid191}{28323369}{25944016}
\pgfsyspdfmark {pgfid192}{6145987}{25509507}
\pgfsyspdfmark {pgfid193}{6145987}{24495668}
\pgfsyspdfmark {pgfid194}{6381916}{24495668}
\pgfsyspdfmark {pgfid195}{14429737}{24495668}
\pgfsyspdfmark {pgfid196}{28323369}{24495668}
\pgfsyspdfmark {pgfid197}{6145987}{24061159}
\pgfsyspdfmark {pgfid198}{6145987}{23047320}
\pgfsyspdfmark {pgfid199}{6381916}{23047320}
\pgfsyspdfmark {pgfid200}{14429737}{23047320}
\pgfsyspdfmark {pgfid201}{28323369}{23047320}
\pgfsyspdfmark {pgfid202}{6145987}{22612811}
\pgfsyspdfmark {pgfid203}{6145987}{21598972}
\pgfsyspdfmark {pgfid204}{6617846}{21598972}
\pgfsyspdfmark {pgfid205}{14429737}{21598972}
\pgfsyspdfmark {pgfid206}{28323369}{21598972}
\pgfsyspdfmark {pgfid207}{6145987}{21164463}
\pgfsyspdfmark {pgfid208}{6145987}{20150624}
\pgfsyspdfmark {pgfid209}{6617846}{20150624}
\pgfsyspdfmark {pgfid210}{14429737}{20150624}
\pgfsyspdfmark {pgfid211}{28323369}{20150624}
\pgfsyspdfmark {pgfid212}{6145987}{19716115}
\pgfsyspdfmark {pgfid213}{6145987}{18702276}
\pgfsyspdfmark {pgfid214}{6617846}{18702276}
\pgfsyspdfmark {pgfid215}{14429737}{18702276}
\pgfsyspdfmark {pgfid216}{28323369}{18702276}
\pgfsyspdfmark {pgfid217}{6145987}{16753883}
\pgfsyspdfmark {pgfid218}{6145987}{15740044}
\pgfsyspdfmark {pgfid219}{6617846}{15740044}
\pgfsyspdfmark {pgfid220}{14429737}{15740044}
\pgfsyspdfmark {pgfid221}{28323369}{15740044}
\pgfsyspdfmark {pgfid222}{6145987}{15305535}
\pgfsyspdfmark {pgfid223}{6145987}{15136701}
\pgfsyspdfmark {pgfid224}{6145987}{15061202}
\pgfsyspdfmark {pgfid225}{7482921}{15061202}
\pgfsyspdfmark {pgfid226}{21376553}{15061202}
\pgfsyspdfmark {pgfid227}{34876969}{15061202}
\savepicturepage{pgfid228}{7}
\pgfsyspdfmark {pgfid228}{34876969}{29711102}
\@writefile{toc}{\defcounter {refsection}{0}\relax }\@writefile{toc}{\contentsline {section}{\numberline {2.5}Vocabulary Test}{8}{section.2.5}\protected@file@percent }
\@writefile{lot}{\defcounter {refsection}{0}\relax }\@writefile{lot}{\contentsline {table}{\numberline {2.5}{\ignorespaces Vocabulary Test, part 1\relax }}{8}{table.caption.6}\protected@file@percent }
\newlabel{Vocabulary Test, part 1}{{2.5}{8}{Vocabulary Test, part 1\relax }{table.caption.6}{}}
\pgfsyspdfmark {pgfid229}{6381917}{44832861}
\pgfsyspdfmark {pgfid230}{6381917}{44832861}
\pgfsyspdfmark {pgfid231}{6381917}{43469166}
\pgfsyspdfmark {pgfid232}{14193807}{43469166}
\pgfsyspdfmark {pgfid233}{28087439}{43469166}
\pgfsyspdfmark {pgfid234}{6381917}{43034657}
\pgfsyspdfmark {pgfid235}{6381917}{42865823}
\pgfsyspdfmark {pgfid236}{6381917}{41571073}
\pgfsyspdfmark {pgfid237}{6617846}{41571073}
\pgfsyspdfmark {pgfid238}{14193807}{41571073}
\pgfsyspdfmark {pgfid239}{28087439}{41571073}
\pgfsyspdfmark {pgfid240}{6381917}{38739403}
\pgfsyspdfmark {pgfid241}{6381917}{37725564}
\pgfsyspdfmark {pgfid242}{6617846}{37725564}
\pgfsyspdfmark {pgfid243}{14193807}{37725564}
\pgfsyspdfmark {pgfid244}{28087439}{37725564}
\pgfsyspdfmark {pgfid245}{6381917}{35777171}
\pgfsyspdfmark {pgfid246}{6381917}{34763332}
\pgfsyspdfmark {pgfid247}{6617846}{34763332}
\pgfsyspdfmark {pgfid248}{14193807}{34763332}
\pgfsyspdfmark {pgfid249}{28087439}{34763332}
\pgfsyspdfmark {pgfid250}{6381917}{32814939}
\pgfsyspdfmark {pgfid251}{6381917}{31801100}
\pgfsyspdfmark {pgfid252}{6617846}{31801100}
\pgfsyspdfmark {pgfid253}{14193807}{31801100}
\pgfsyspdfmark {pgfid254}{28087439}{31801100}
\pgfsyspdfmark {pgfid255}{6381917}{27855318}
\pgfsyspdfmark {pgfid256}{6381917}{26841479}
\pgfsyspdfmark {pgfid257}{6617846}{26841479}
\pgfsyspdfmark {pgfid258}{14193807}{26841479}
\pgfsyspdfmark {pgfid259}{28087439}{26841479}
\pgfsyspdfmark {pgfid260}{6381917}{22897541}
\pgfsyspdfmark {pgfid261}{6381917}{21883702}
\pgfsyspdfmark {pgfid262}{6617846}{21883702}
\pgfsyspdfmark {pgfid263}{14193807}{21883702}
\pgfsyspdfmark {pgfid264}{28087439}{21883702}
\pgfsyspdfmark {pgfid265}{6381917}{16910439}
\pgfsyspdfmark {pgfid266}{6381917}{15896600}
\pgfsyspdfmark {pgfid267}{6617846}{15896600}
\pgfsyspdfmark {pgfid268}{14193807}{15896600}
\pgfsyspdfmark {pgfid269}{28087439}{15896600}
\pgfsyspdfmark {pgfid270}{6381917}{13948207}
\pgfsyspdfmark {pgfid271}{6381917}{12934368}
\pgfsyspdfmark {pgfid272}{6381917}{12499859}
\pgfsyspdfmark {pgfid273}{6381917}{12331025}
\pgfsyspdfmark {pgfid274}{6381917}{12255526}
\pgfsyspdfmark {pgfid275}{7246991}{12255526}
\pgfsyspdfmark {pgfid276}{21140623}{12255526}
\pgfsyspdfmark {pgfid277}{34641039}{12255526}
\savepicturepage{pgfid278}{8}
\pgfsyspdfmark {pgfid278}{34641039}{28308264}
\@writefile{lot}{\defcounter {refsection}{0}\relax }\@writefile{lot}{\contentsline {table}{\numberline {2.6}{\ignorespaces Vocabulary Test, part 2\relax }}{9}{table.caption.7}\protected@file@percent }
\newlabel{Vocabulary Test, part 2}{{2.6}{9}{Vocabulary Test, part 2\relax }{table.caption.7}{}}
\pgfsyspdfmark {pgfid279}{6145987}{49882159}
\pgfsyspdfmark {pgfid280}{6145987}{49882159}
\pgfsyspdfmark {pgfid281}{6145987}{48518464}
\pgfsyspdfmark {pgfid282}{14429737}{48518464}
\pgfsyspdfmark {pgfid283}{28323369}{48518464}
\pgfsyspdfmark {pgfid284}{6145987}{48083955}
\pgfsyspdfmark {pgfid285}{6145987}{47915121}
\pgfsyspdfmark {pgfid286}{6145987}{46620371}
\pgfsyspdfmark {pgfid287}{6381916}{46620371}
\pgfsyspdfmark {pgfid288}{14429737}{46620371}
\pgfsyspdfmark {pgfid289}{28323369}{46620371}
\pgfsyspdfmark {pgfid290}{6145987}{43790545}
\pgfsyspdfmark {pgfid291}{6145987}{42776706}
\pgfsyspdfmark {pgfid292}{6381916}{42776706}
\pgfsyspdfmark {pgfid293}{14429737}{42776706}
\pgfsyspdfmark {pgfid294}{28323369}{42776706}
\pgfsyspdfmark {pgfid295}{6145987}{39945036}
\pgfsyspdfmark {pgfid296}{6145987}{38931197}
\pgfsyspdfmark {pgfid297}{6617846}{38931197}
\pgfsyspdfmark {pgfid298}{14429737}{38931197}
\pgfsyspdfmark {pgfid299}{28323369}{38931197}
\pgfsyspdfmark {pgfid300}{6145987}{36099527}
\pgfsyspdfmark {pgfid301}{6145987}{35085688}
\pgfsyspdfmark {pgfid302}{6617846}{35085688}
\pgfsyspdfmark {pgfid303}{14429737}{35085688}
\pgfsyspdfmark {pgfid304}{28323369}{35085688}
\pgfsyspdfmark {pgfid305}{6145987}{32255862}
\pgfsyspdfmark {pgfid306}{6145987}{31242023}
\pgfsyspdfmark {pgfid307}{6617846}{31242023}
\pgfsyspdfmark {pgfid308}{14429737}{31242023}
\pgfsyspdfmark {pgfid309}{28323369}{31242023}
\pgfsyspdfmark {pgfid310}{6145987}{28410353}
\pgfsyspdfmark {pgfid311}{6145987}{27396514}
\pgfsyspdfmark {pgfid312}{6617846}{27396514}
\pgfsyspdfmark {pgfid313}{14429737}{27396514}
\pgfsyspdfmark {pgfid314}{28323369}{27396514}
\pgfsyspdfmark {pgfid315}{6145987}{23452576}
\pgfsyspdfmark {pgfid316}{6145987}{22438737}
\pgfsyspdfmark {pgfid317}{6617846}{22438737}
\pgfsyspdfmark {pgfid318}{14429737}{22438737}
\pgfsyspdfmark {pgfid319}{28323369}{22438737}
\pgfsyspdfmark {pgfid320}{6145987}{18494799}
\pgfsyspdfmark {pgfid321}{6145987}{18325965}
\pgfsyspdfmark {pgfid322}{6145987}{18250466}
\pgfsyspdfmark {pgfid323}{7482921}{18250466}
\pgfsyspdfmark {pgfid324}{21376553}{18250466}
\pgfsyspdfmark {pgfid325}{34876969}{18250466}
\savepicturepage{pgfid326}{9}
\pgfsyspdfmark {pgfid326}{34876969}{33830383}
\@writefile{toc}{\defcounter {refsection}{0}\relax }\@writefile{toc}{\contentsline {section}{\numberline {2.6}Assignment IV a}{10}{section.2.6}\protected@file@percent }
\@writefile{lot}{\defcounter {refsection}{0}\relax }\@writefile{lot}{\contentsline {table}{\numberline {2.7}{\ignorespaces Assignment IV a\relax }}{10}{table.caption.8}\protected@file@percent }
\newlabel{Assignment IV a}{{2.7}{10}{Assignment IV a\relax }{table.caption.8}{}}
\pgfsyspdfmark {pgfid327}{6381917}{42240196}
\pgfsyspdfmark {pgfid328}{6381917}{42240196}
\pgfsyspdfmark {pgfid329}{6381917}{40876501}
\pgfsyspdfmark {pgfid330}{14193807}{40876501}
\pgfsyspdfmark {pgfid331}{28087439}{40876501}
\pgfsyspdfmark {pgfid332}{6381917}{40441992}
\pgfsyspdfmark {pgfid333}{6381917}{40273158}
\pgfsyspdfmark {pgfid334}{6381917}{38978408}
\pgfsyspdfmark {pgfid335}{6617846}{38978408}
\pgfsyspdfmark {pgfid336}{14193807}{38978408}
\pgfsyspdfmark {pgfid337}{28087439}{38978408}
\pgfsyspdfmark {pgfid338}{6381917}{36146738}
\pgfsyspdfmark {pgfid339}{6381917}{35132899}
\pgfsyspdfmark {pgfid340}{6617846}{35132899}
\pgfsyspdfmark {pgfid341}{14193807}{35132899}
\pgfsyspdfmark {pgfid342}{28087439}{35132899}
\pgfsyspdfmark {pgfid343}{6381917}{33184506}
\pgfsyspdfmark {pgfid344}{6381917}{32170667}
\pgfsyspdfmark {pgfid345}{6617846}{32170667}
\pgfsyspdfmark {pgfid346}{14193807}{32170667}
\pgfsyspdfmark {pgfid347}{28087439}{32170667}
\pgfsyspdfmark {pgfid348}{6381917}{24884393}
\pgfsyspdfmark {pgfid349}{6381917}{23870554}
\pgfsyspdfmark {pgfid350}{6617846}{23870554}
\pgfsyspdfmark {pgfid351}{14193807}{23870554}
\pgfsyspdfmark {pgfid352}{28087439}{23870554}
\pgfsyspdfmark {pgfid353}{6381917}{21922161}
\pgfsyspdfmark {pgfid354}{6381917}{20908322}
\pgfsyspdfmark {pgfid355}{6617846}{20908322}
\pgfsyspdfmark {pgfid356}{14193807}{20908322}
\pgfsyspdfmark {pgfid357}{28087439}{20908322}
\pgfsyspdfmark {pgfid358}{6381917}{18959929}
\pgfsyspdfmark {pgfid359}{6381917}{18791095}
\pgfsyspdfmark {pgfid360}{6381917}{18715596}
\pgfsyspdfmark {pgfid361}{7246991}{18715596}
\pgfsyspdfmark {pgfid362}{21140623}{18715596}
\pgfsyspdfmark {pgfid363}{34641039}{18715596}
\savepicturepage{pgfid364}{10}
\pgfsyspdfmark {pgfid364}{34641039}{30241967}
\@writefile{toc}{\defcounter {refsection}{0}\relax }\@writefile{toc}{\contentsline {section}{\numberline {2.7}Assignment IV b}{11}{section.2.7}\protected@file@percent }
\@writefile{lot}{\defcounter {refsection}{0}\relax }\@writefile{lot}{\contentsline {table}{\numberline {2.8}{\ignorespaces Assignment IV b\relax }}{11}{table.caption.9}\protected@file@percent }
\newlabel{Assignment IV b}{{2.8}{11}{Assignment IV b\relax }{table.caption.9}{}}
\pgfsyspdfmark {pgfid365}{6145987}{44832861}
\pgfsyspdfmark {pgfid366}{6145987}{44832861}
\pgfsyspdfmark {pgfid367}{6145987}{43469166}
\pgfsyspdfmark {pgfid368}{14429737}{43469166}
\pgfsyspdfmark {pgfid369}{28323369}{43469166}
\pgfsyspdfmark {pgfid370}{6145987}{43034657}
\pgfsyspdfmark {pgfid371}{6145987}{42865823}
\pgfsyspdfmark {pgfid372}{6145987}{41571073}
\pgfsyspdfmark {pgfid373}{6381916}{41571073}
\pgfsyspdfmark {pgfid374}{14429737}{41571073}
\pgfsyspdfmark {pgfid375}{28323369}{41571073}
\pgfsyspdfmark {pgfid376}{6145987}{41136564}
\pgfsyspdfmark {pgfid377}{6145987}{40122725}
\pgfsyspdfmark {pgfid378}{6381916}{40122725}
\pgfsyspdfmark {pgfid379}{14429737}{40122725}
\pgfsyspdfmark {pgfid380}{28323369}{40122725}
\pgfsyspdfmark {pgfid381}{6145987}{39688216}
\pgfsyspdfmark {pgfid382}{6145987}{38674377}
\pgfsyspdfmark {pgfid383}{6381916}{38674377}
\pgfsyspdfmark {pgfid384}{14429737}{38674377}
\pgfsyspdfmark {pgfid385}{28323369}{38674377}
\pgfsyspdfmark {pgfid386}{6145987}{38239868}
\pgfsyspdfmark {pgfid387}{6145987}{37226029}
\pgfsyspdfmark {pgfid388}{6381916}{37226029}
\pgfsyspdfmark {pgfid389}{14429737}{37226029}
\pgfsyspdfmark {pgfid390}{28323369}{37226029}
\pgfsyspdfmark {pgfid391}{6145987}{36791520}
\pgfsyspdfmark {pgfid392}{6145987}{35777681}
\pgfsyspdfmark {pgfid393}{6381916}{35777681}
\pgfsyspdfmark {pgfid394}{14429737}{35777681}
\pgfsyspdfmark {pgfid395}{28323369}{35777681}
\pgfsyspdfmark {pgfid396}{6145987}{33829288}
\pgfsyspdfmark {pgfid397}{6145987}{32815449}
\pgfsyspdfmark {pgfid398}{6381916}{32815449}
\pgfsyspdfmark {pgfid399}{14429737}{32815449}
\pgfsyspdfmark {pgfid400}{28323369}{32815449}
\pgfsyspdfmark {pgfid401}{6145987}{32380940}
\pgfsyspdfmark {pgfid402}{6145987}{31367101}
\pgfsyspdfmark {pgfid403}{6381916}{31367101}
\pgfsyspdfmark {pgfid404}{14429737}{31367101}
\pgfsyspdfmark {pgfid405}{28323369}{31367101}
\pgfsyspdfmark {pgfid406}{6145987}{30932592}
\pgfsyspdfmark {pgfid407}{6145987}{29918753}
\pgfsyspdfmark {pgfid408}{6381916}{29918753}
\pgfsyspdfmark {pgfid409}{14429737}{29918753}
\pgfsyspdfmark {pgfid410}{28323369}{29918753}
\pgfsyspdfmark {pgfid411}{6145987}{29484244}
\pgfsyspdfmark {pgfid412}{6145987}{28470405}
\pgfsyspdfmark {pgfid413}{6381916}{28470405}
\pgfsyspdfmark {pgfid414}{14429737}{28470405}
\pgfsyspdfmark {pgfid415}{28323369}{28470405}
\pgfsyspdfmark {pgfid416}{6145987}{28035896}
\pgfsyspdfmark {pgfid417}{6145987}{27022057}
\pgfsyspdfmark {pgfid418}{6617846}{27022057}
\pgfsyspdfmark {pgfid419}{14429737}{27022057}
\pgfsyspdfmark {pgfid420}{28323369}{27022057}
\pgfsyspdfmark {pgfid421}{6145987}{26587548}
\pgfsyspdfmark {pgfid422}{6145987}{26418714}
\pgfsyspdfmark {pgfid423}{6145987}{26343215}
\pgfsyspdfmark {pgfid424}{7482921}{26343215}
\pgfsyspdfmark {pgfid425}{21376553}{26343215}
\pgfsyspdfmark {pgfid426}{34876969}{26343215}
\savepicturepage{pgfid427}{11}
\pgfsyspdfmark {pgfid427}{34876969}{35352109}
\@writefile{toc}{\defcounter {refsection}{0}\relax }\@writefile{toc}{\contentsline {section}{\numberline {2.8}Assignment V}{12}{section.2.8}\protected@file@percent }
\@writefile{lot}{\defcounter {refsection}{0}\relax }\@writefile{lot}{\contentsline {table}{\numberline {2.9}{\ignorespaces Assignment V\relax }}{12}{table.caption.10}\protected@file@percent }
\newlabel{Assignment V}{{2.9}{12}{Assignment V\relax }{table.caption.10}{}}
\pgfsyspdfmark {pgfid428}{6381917}{44832861}
\pgfsyspdfmark {pgfid429}{6381917}{44832861}
\pgfsyspdfmark {pgfid430}{6381917}{43469166}
\pgfsyspdfmark {pgfid431}{14193807}{43469166}
\pgfsyspdfmark {pgfid432}{28087439}{43469166}
\pgfsyspdfmark {pgfid433}{6381917}{43034657}
\pgfsyspdfmark {pgfid434}{6381917}{42865823}
\pgfsyspdfmark {pgfid435}{6381917}{41571073}
\pgfsyspdfmark {pgfid436}{6617846}{41571073}
\pgfsyspdfmark {pgfid437}{14193807}{41571073}
\pgfsyspdfmark {pgfid438}{28087439}{41571073}
\pgfsyspdfmark {pgfid439}{6381917}{32056575}
\pgfsyspdfmark {pgfid440}{6381917}{31042736}
\pgfsyspdfmark {pgfid441}{6617846}{31042736}
\pgfsyspdfmark {pgfid442}{14193807}{31042736}
\pgfsyspdfmark {pgfid443}{28087439}{31042736}
\pgfsyspdfmark {pgfid444}{6381917}{22642350}
\pgfsyspdfmark {pgfid445}{6381917}{22473516}
\pgfsyspdfmark {pgfid446}{6381917}{22398017}
\pgfsyspdfmark {pgfid447}{7246991}{22398017}
\pgfsyspdfmark {pgfid448}{21140623}{22398017}
\pgfsyspdfmark {pgfid449}{34641039}{22398017}
\savepicturepage{pgfid450}{12}
\pgfsyspdfmark {pgfid450}{34641039}{33379510}
\pp@pagectr{footnote}{3}{13}{13}
\@writefile{toc}{\defcounter {refsection}{0}\relax }\@writefile{toc}{\contentsline {chapter}{\numberline {3}Пособие}{13}{chapter.3}\protected@file@percent }
\@writefile{lof}{\defcounter {refsection}{0}\relax }\@writefile{lof}{\addvspace {10\p@ }}
\@writefile{lot}{\defcounter {refsection}{0}\relax }\@writefile{lot}{\addvspace {10\p@ }}
\@writefile{toc}{\defcounter {refsection}{0}\relax }\@writefile{toc}{\contentsline {section}{\numberline {3.1}Упражнение 14}{13}{section.3.1}\protected@file@percent }
\@writefile{toc}{\defcounter {refsection}{0}\relax }\@writefile{toc}{\contentsline {section}{\numberline {3.2}Упражнение 15}{14}{section.3.2}\protected@file@percent }
\@writefile{toc}{\defcounter {refsection}{0}\relax }\@writefile{toc}{\contentsline {section}{\numberline {3.3}Упражнение 16}{15}{section.3.3}\protected@file@percent }
\pp@pagectr{footnote}{4}{16}{16}
\@writefile{toc}{\defcounter {refsection}{0}\relax }\@writefile{toc}{\contentsline {chapter}{\numberline {4}Infotech Workbook}{16}{chapter.4}\protected@file@percent }
\@writefile{lof}{\defcounter {refsection}{0}\relax }\@writefile{lof}{\addvspace {10\p@ }}
\@writefile{lot}{\defcounter {refsection}{0}\relax }\@writefile{lot}{\addvspace {10\p@ }}
\@writefile{toc}{\defcounter {refsection}{0}\relax }\@writefile{toc}{\contentsline {section}{\numberline {4.1}Exercise 1}{16}{section.4.1}\protected@file@percent }
\@writefile{toc}{\defcounter {refsection}{0}\relax }\@writefile{toc}{\contentsline {section}{\numberline {4.2}Exercise 2}{17}{section.4.2}\protected@file@percent }
\@writefile{toc}{\defcounter {refsection}{0}\relax }\@writefile{toc}{\contentsline {section}{\numberline {4.3}Exercise 3}{18}{section.4.3}\protected@file@percent }
\@writefile{toc}{\defcounter {refsection}{0}\relax }\@writefile{toc}{\contentsline {section}{\numberline {4.4}Exercise 4}{19}{section.4.4}\protected@file@percent }
\@writefile{lomyscheme}{\defcounter {refsection}{0}\relax }\@writefile{lomyscheme}{\contentsline {myscheme}{\numberline {4.1}{\ignorespaces Exercise 4\relax }}{19}{myscheme.caption.11}\protected@file@percent }
\@writefile{toc}{\defcounter {refsection}{0}\relax }\@writefile{toc}{\contentsline {section}{\numberline {4.5}Exercise 5}{20}{section.4.5}\protected@file@percent }
\@writefile{toc}{\defcounter {refsection}{0}\relax }\@writefile{toc}{\contentsline {section}{\numberline {4.6}Exercise 6}{21}{section.4.6}\protected@file@percent }
\@writefile{toc}{\defcounter {refsection}{0}\relax }\@writefile{toc}{\contentsline {section}{\numberline {4.7}Exercise 7}{22}{section.4.7}\protected@file@percent }
\@writefile{toc}{\defcounter {refsection}{0}\relax }\@writefile{toc}{\contentsline {section}{\numberline {4.8}Exercise 8}{23}{section.4.8}\protected@file@percent }
\newlabel{LastPage}{{}{23}{}{page.23}{}}
\xdef\lastpage@lastpage{23}
\xdef\lastpage@lastpageHy{23}
