\relax 
\providecommand\hyper@newdestlabel[2]{}
\@nameuse{bbl@beforestart}
\catcode `"\active 
\nicematrix@redefine@check@rerun 
\abx@aux@refcontext{nty/global//global/global}
\providecommand\HyperFirstAtBeginDocument{\AtBeginDocument}
\HyperFirstAtBeginDocument{\ifx\hyper@anchor\@undefined
\global\let\oldcontentsline\contentsline
\gdef\contentsline#1#2#3#4{\oldcontentsline{#1}{#2}{#3}}
\global\let\oldnewlabel\newlabel
\gdef\newlabel#1#2{\newlabelxx{#1}#2}
\gdef\newlabelxx#1#2#3#4#5#6{\oldnewlabel{#1}{{#2}{#3}}}
\AtEndDocument{\ifx\hyper@anchor\@undefined
\let\contentsline\oldcontentsline
\let\newlabel\oldnewlabel
\fi}
\fi}
\global\let\hyper@last\relax 
\gdef\HyperFirstAtBeginDocument#1{#1}
\providecommand\HyField@AuxAddToFields[1]{}
\providecommand\HyField@AuxAddToCoFields[2]{}
\providecommand\@newglossary[4]{}
\@newglossary{main}{glg}{gls}{glo}
\providecommand\@glsorder[1]{}
\providecommand\@istfilename[1]{}
\@istfilename{kr.xdy}
\@glsorder{word}
\@writefile{toc}{\boolfalse {citerequest}\boolfalse {citetracker}\boolfalse {pagetracker}\boolfalse {backtracker}\relax }
\@writefile{lof}{\boolfalse {citerequest}\boolfalse {citetracker}\boolfalse {pagetracker}\boolfalse {backtracker}\relax }
\@writefile{lot}{\boolfalse {citerequest}\boolfalse {citetracker}\boolfalse {pagetracker}\boolfalse {backtracker}\relax }
\babel@aux{russian}{}
\@writefile{toc}{\defcounter {refsection}{0}\relax }\@writefile{toc}{\contentsline {section}{\numberline {1}Условия}{3}{section.1}\protected@file@percent }
\@writefile{toc}{\defcounter {refsection}{0}\relax }\@writefile{toc}{\contentsline {section}{\numberline {2}Задание №1}{4}{section.2}\protected@file@percent }
\@writefile{lomygraphic}{\defcounter {refsection}{0}\relax }\@writefile{lomygraphic}{\contentsline {mygraphic}{\numberline {1}{\ignorespaces Задание №1\relax }}{5}{mygraphic.caption.1}\protected@file@percent }
\providecommand*\caption@xref[2]{\@setref\relax\@undefined{#1}}
\newlabel{plot:Задание №1}{{1}{5}{Задание №1\relax }{mygraphic.caption.1}{}}
\@writefile{toc}{\defcounter {refsection}{0}\relax }\@writefile{toc}{\contentsline {section}{\numberline {3}Задание №2}{6}{section.3}\protected@file@percent }
\@writefile{lomygraphic}{\defcounter {refsection}{0}\relax }\@writefile{lomygraphic}{\contentsline {mygraphic}{\numberline {2}{\ignorespaces Задание №2\relax }}{7}{mygraphic.caption.2}\protected@file@percent }
\newlabel{plot:Задание №2}{{2}{7}{Задание №2\relax }{mygraphic.caption.2}{}}
\@writefile{toc}{\defcounter {refsection}{0}\relax }\@writefile{toc}{\contentsline {section}{\numberline {4}Задание №3}{8}{section.4}\protected@file@percent }
\@writefile{lomygraphic}{\defcounter {refsection}{0}\relax }\@writefile{lomygraphic}{\contentsline {mygraphic}{\numberline {3}{\ignorespaces Задание №3\relax }}{9}{mygraphic.caption.3}\protected@file@percent }
\newlabel{plot:Задание №3}{{3}{9}{Задание №3\relax }{mygraphic.caption.3}{}}
\@writefile{toc}{\defcounter {refsection}{0}\relax }\@writefile{toc}{\contentsline {section}{\numberline {5}Задание №4}{10}{section.5}\protected@file@percent }
\@writefile{lof}{\defcounter {refsection}{0}\relax }\@writefile{lof}{\contentsline {figure}{\numberline {5.1}{\ignorespaces Задание №4\relax }}{10}{figure.caption.4}\protected@file@percent }
\newlabel{interval}{{5.1}{10}{Задание №4\relax }{figure.caption.4}{}}
\@writefile{toc}{\defcounter {refsection}{0}\relax }\@writefile{toc}{\contentsline {section}{\numberline {6}Задание №5}{11}{section.6}\protected@file@percent }
\@writefile{lof}{\defcounter {refsection}{0}\relax }\@writefile{lof}{\contentsline {figure}{\numberline {6.1}{\ignorespaces Задание №5\relax }}{11}{figure.caption.5}\protected@file@percent }
\newlabel{interval2}{{6.1}{11}{Задание №5\relax }{figure.caption.5}{}}
\@writefile{toc}{\defcounter {refsection}{0}\relax }\@writefile{toc}{\contentsline {section}{\numberline {7}Задание №6}{12}{section.7}\protected@file@percent }
\@writefile{lomygraphic}{\defcounter {refsection}{0}\relax }\@writefile{lomygraphic}{\contentsline {mygraphic}{\numberline {4}{\ignorespaces Задание №6\relax }}{13}{mygraphic.caption.6}\protected@file@percent }
\newlabel{plot:Задание №6}{{4}{13}{Задание №6\relax }{mygraphic.caption.6}{}}
\@writefile{toc}{\defcounter {refsection}{0}\relax }\@writefile{toc}{\contentsline {section}{\numberline {8}Задание №7}{14}{section.8}\protected@file@percent }
\@writefile{lof}{\defcounter {refsection}{0}\relax }\@writefile{lof}{\contentsline {figure}{\numberline {8.1}{\ignorespaces Задание №7\relax }}{14}{figure.caption.7}\protected@file@percent }
\newlabel{interval3}{{8.1}{14}{Задание №7\relax }{figure.caption.7}{}}
\newlabel{LastPage}{{}{15}{}{page.15}{}}
\xdef\lastpage@lastpage{15}
\xdef\lastpage@lastpageHy{15}
