\boolfalse {citerequest}\boolfalse {citetracker}\boolfalse {pagetracker}\boolfalse {backtracker}\relax 
\babel@toc {russian}{}
\defcounter {refsection}{0}\relax 
\contentsline {section}{\numberline {1}Условия}{3}{section.1}%
\defcounter {refsection}{0}\relax 
\contentsline {section}{\numberline {2}Задание №1}{4}{section.2}%
\defcounter {refsection}{0}\relax 
\contentsline {section}{\numberline {3}Задание №2}{6}{section.3}%
\defcounter {refsection}{0}\relax 
\contentsline {section}{\numberline {4}Задание №3}{8}{section.4}%
\defcounter {refsection}{0}\relax 
\contentsline {section}{\numberline {5}Задание №4}{10}{section.5}%
\defcounter {refsection}{0}\relax 
\contentsline {section}{\numberline {6}Задание №5}{11}{section.6}%
\defcounter {refsection}{0}\relax 
\contentsline {section}{\numberline {7}Задание №6}{12}{section.7}%
\defcounter {refsection}{0}\relax 
\contentsline {section}{\numberline {8}Задание №7}{14}{section.8}%
