\relax 
\providecommand\hyper@newdestlabel[2]{}
\providecommand\babel@aux[2]{}
\@nameuse{bbl@beforestart}
\catcode `"\active 
\nicematrix@redefine@check@rerun 
\@writefile{toc}{\boolfalse {citerequest}\boolfalse {citetracker}\boolfalse {pagetracker}\boolfalse {backtracker}\relax }
\@writefile{lof}{\boolfalse {citerequest}\boolfalse {citetracker}\boolfalse {pagetracker}\boolfalse {backtracker}\relax }
\@writefile{lot}{\boolfalse {citerequest}\boolfalse {citetracker}\boolfalse {pagetracker}\boolfalse {backtracker}\relax }
\abx@aux@refcontext{nty/global//global/global}
\providecommand\HyperFirstAtBeginDocument{\AtBeginDocument}
\HyperFirstAtBeginDocument{\ifx\hyper@anchor\@undefined
\global\let\oldcontentsline\contentsline
\gdef\contentsline#1#2#3#4{\oldcontentsline{#1}{#2}{#3}}
\global\let\oldnewlabel\newlabel
\gdef\newlabel#1#2{\newlabelxx{#1}#2}
\gdef\newlabelxx#1#2#3#4#5#6{\oldnewlabel{#1}{{#2}{#3}}}
\AtEndDocument{\ifx\hyper@anchor\@undefined
\let\contentsline\oldcontentsline
\let\newlabel\oldnewlabel
\fi}
\fi}
\global\let\hyper@last\relax 
\gdef\HyperFirstAtBeginDocument#1{#1}
\providecommand\HyField@AuxAddToFields[1]{}
\providecommand\HyField@AuxAddToCoFields[2]{}
\babel@aux{russian}{}
\ExplSyntaxOn \cs_if_free:NT \pgfsyspdfmark {\cs_set_eq:NN \pgfsyspdfmark \@gobblethree }\ExplSyntaxOff 
\@writefile{toc}{\defcounter {refsection}{0}\relax }\@writefile{toc}{\contentsline {section}{\numberline {1}Задание №5.44}{3}{section.1}\protected@file@percent }
\pgfsyspdfmark {pgfid203}{12517355}{46478298}
\pgfsyspdfmark {pgfid204}{12845035}{45211000}
\pgfsyspdfmark {pgfid205}{13076046}{45211000}
\pgfsyspdfmark {pgfid206}{14193428}{45211000}
\pgfsyspdfmark {pgfid207}{12517355}{44667864}
\pgfsyspdfmark {pgfid208}{12845035}{43400566}
\pgfsyspdfmark {pgfid209}{13076046}{43400566}
\pgfsyspdfmark {pgfid210}{14193428}{43400566}
\pgfsyspdfmark {pgfid211}{12517355}{42857430}
\pgfsyspdfmark {pgfid212}{12517355}{42857430}
\pgfsyspdfmark {pgfid213}{13634737}{42857430}
\pgfsyspdfmark {pgfid214}{14752119}{42857430}
\savepicturepage{pgfid215}{3}
\pgfsyspdfmark {pgfid215}{15250194}{44386060}
\pgfsyspdfmark {pgfid216}{16991252}{47383515}
\pgfsyspdfmark {pgfid217}{17318932}{46116217}
\pgfsyspdfmark {pgfid218}{17549943}{46116217}
\pgfsyspdfmark {pgfid219}{19034328}{46116217}
\pgfsyspdfmark {pgfid220}{16991252}{45573081}
\pgfsyspdfmark {pgfid221}{17318932}{44305783}
\pgfsyspdfmark {pgfid222}{17549943}{44305783}
\pgfsyspdfmark {pgfid223}{19401331}{44305783}
\pgfsyspdfmark {pgfid224}{16991252}{43762647}
\pgfsyspdfmark {pgfid225}{17318932}{42495349}
\pgfsyspdfmark {pgfid226}{17549943}{42495349}
\pgfsyspdfmark {pgfid227}{19401331}{42495349}
\pgfsyspdfmark {pgfid228}{16991252}{41952213}
\pgfsyspdfmark {pgfid229}{16991252}{41952213}
\pgfsyspdfmark {pgfid230}{18108634}{41952213}
\pgfsyspdfmark {pgfid231}{19960022}{41952213}
\savepicturepage{pgfid232}{3}
\pgfsyspdfmark {pgfid232}{20458097}{44386060}
\pgfsyspdfmark {pgfid233}{13078770}{41459011}
\pgfsyspdfmark {pgfid234}{13406450}{40191713}
\pgfsyspdfmark {pgfid235}{13637461}{40191713}
\pgfsyspdfmark {pgfid236}{15121846}{40191713}
\pgfsyspdfmark {pgfid237}{13078770}{39648577}
\pgfsyspdfmark {pgfid238}{13406450}{38381279}
\pgfsyspdfmark {pgfid239}{13637461}{38381279}
\pgfsyspdfmark {pgfid240}{15488849}{38381279}
\pgfsyspdfmark {pgfid241}{13078770}{37838143}
\pgfsyspdfmark {pgfid242}{13406450}{36570845}
\pgfsyspdfmark {pgfid243}{13637461}{36570845}
\pgfsyspdfmark {pgfid244}{15488849}{36570845}
\pgfsyspdfmark {pgfid245}{13078770}{36027709}
\pgfsyspdfmark {pgfid246}{13078770}{36027709}
\pgfsyspdfmark {pgfid247}{14196152}{36027709}
\pgfsyspdfmark {pgfid248}{16047540}{36027709}
\savepicturepage{pgfid249}{3}
\pgfsyspdfmark {pgfid249}{16545615}{38461556}
\pgfsyspdfmark {pgfid250}{17725258}{40553794}
\pgfsyspdfmark {pgfid251}{18052938}{39286496}
\pgfsyspdfmark {pgfid252}{18283949}{39286496}
\pgfsyspdfmark {pgfid253}{19401331}{39286496}
\pgfsyspdfmark {pgfid254}{17725258}{38743360}
\pgfsyspdfmark {pgfid255}{18052938}{37476062}
\pgfsyspdfmark {pgfid256}{18283949}{37476062}
\pgfsyspdfmark {pgfid257}{19401331}{37476062}
\pgfsyspdfmark {pgfid258}{17725258}{36932926}
\pgfsyspdfmark {pgfid259}{17725258}{36932926}
\pgfsyspdfmark {pgfid260}{18842640}{36932926}
\pgfsyspdfmark {pgfid261}{19960022}{36932926}
\savepicturepage{pgfid262}{3}
\pgfsyspdfmark {pgfid262}{20458097}{38461556}
\pgfsyspdfmark {pgfid263}{10994694}{33212778}
\pgfsyspdfmark {pgfid264}{11322374}{31945480}
\pgfsyspdfmark {pgfid265}{11553385}{31945480}
\pgfsyspdfmark {pgfid266}{12670767}{31945480}
\pgfsyspdfmark {pgfid267}{10994694}{31402344}
\pgfsyspdfmark {pgfid268}{11322374}{30135046}
\pgfsyspdfmark {pgfid269}{11553385}{30135046}
\pgfsyspdfmark {pgfid270}{12670767}{30135046}
\pgfsyspdfmark {pgfid271}{10994694}{29591910}
\pgfsyspdfmark {pgfid272}{10994694}{29591910}
\pgfsyspdfmark {pgfid273}{12112076}{29591910}
\pgfsyspdfmark {pgfid274}{13229458}{29591910}
\savepicturepage{pgfid275}{3}
\pgfsyspdfmark {pgfid275}{13727533}{31120540}
\pgfsyspdfmark {pgfid276}{10994694}{29329766}
\pgfsyspdfmark {pgfid277}{11322374}{28062468}
\pgfsyspdfmark {pgfid278}{11553385}{28062468}
\pgfsyspdfmark {pgfid279}{12670767}{28062468}
\pgfsyspdfmark {pgfid280}{13857617}{28062468}
\pgfsyspdfmark {pgfid281}{14974999}{28062468}
\pgfsyspdfmark {pgfid282}{10994694}{27519332}
\pgfsyspdfmark {pgfid283}{11322374}{26252034}
\pgfsyspdfmark {pgfid284}{11553385}{26252034}
\pgfsyspdfmark {pgfid285}{12670767}{26252034}
\pgfsyspdfmark {pgfid286}{13857617}{26252034}
\pgfsyspdfmark {pgfid287}{14974999}{26252034}
\pgfsyspdfmark {pgfid288}{10994694}{25708898}
\pgfsyspdfmark {pgfid289}{10994694}{25708898}
\pgfsyspdfmark {pgfid290}{12112076}{25708898}
\pgfsyspdfmark {pgfid291}{13298926}{25708898}
\pgfsyspdfmark {pgfid292}{14416308}{25708898}
\pgfsyspdfmark {pgfid293}{15533690}{25708898}
\savepicturepage{pgfid294}{3}
\pgfsyspdfmark {pgfid294}{16031765}{27237528}
\savepicturepage{pgfid295}{3}
\pgfsyspdfmark {pgfid295}{16031765}{27237528}
\pgfsyspdfmark {pgfid296}{17473558}{29329766}
\pgfsyspdfmark {pgfid297}{17801238}{28062468}
\pgfsyspdfmark {pgfid298}{18032249}{28062468}
\pgfsyspdfmark {pgfid299}{19161103}{28062468}
\pgfsyspdfmark {pgfid300}{21104903}{28062468}
\pgfsyspdfmark {pgfid301}{22233757}{28062468}
\pgfsyspdfmark {pgfid302}{17473558}{27519332}
\pgfsyspdfmark {pgfid303}{17801238}{26252034}
\pgfsyspdfmark {pgfid304}{18032249}{26252034}
\pgfsyspdfmark {pgfid305}{19161103}{26252034}
\pgfsyspdfmark {pgfid306}{20737900}{26252034}
\pgfsyspdfmark {pgfid307}{22233757}{26252034}
\pgfsyspdfmark {pgfid308}{17473558}{25708898}
\pgfsyspdfmark {pgfid309}{17473558}{25708898}
\pgfsyspdfmark {pgfid310}{18590940}{25708898}
\pgfsyspdfmark {pgfid311}{19800734}{25708898}
\pgfsyspdfmark {pgfid312}{21675066}{25708898}
\pgfsyspdfmark {pgfid313}{22792448}{25708898}
\savepicturepage{pgfid314}{3}
\pgfsyspdfmark {pgfid314}{23290523}{27237528}
\savepicturepage{pgfid315}{3}
\pgfsyspdfmark {pgfid315}{23290523}{27237528}
\pgfsyspdfmark {pgfid316}{24732316}{29329766}
\pgfsyspdfmark {pgfid317}{25059996}{28062468}
\pgfsyspdfmark {pgfid318}{25291007}{28062468}
\pgfsyspdfmark {pgfid319}{26419861}{28062468}
\pgfsyspdfmark {pgfid320}{28340717}{28062468}
\pgfsyspdfmark {pgfid321}{29469571}{28062468}
\pgfsyspdfmark {pgfid322}{24732316}{27519332}
\pgfsyspdfmark {pgfid323}{25059996}{26252034}
\pgfsyspdfmark {pgfid324}{25291007}{26252034}
\pgfsyspdfmark {pgfid325}{26431333}{26252034}
\pgfsyspdfmark {pgfid326}{27985186}{26252034}
\pgfsyspdfmark {pgfid327}{29469571}{26252034}
\pgfsyspdfmark {pgfid328}{24732316}{25708898}
\pgfsyspdfmark {pgfid329}{24732316}{25708898}
\pgfsyspdfmark {pgfid330}{25849698}{25708898}
\pgfsyspdfmark {pgfid331}{27059492}{25708898}
\pgfsyspdfmark {pgfid332}{28910880}{25708898}
\pgfsyspdfmark {pgfid333}{30028262}{25708898}
\savepicturepage{pgfid334}{3}
\pgfsyspdfmark {pgfid334}{30526337}{27237528}
\savepicturepage{pgfid335}{3}
\pgfsyspdfmark {pgfid335}{30526337}{27237528}
\pgfsyspdfmark {pgfid336}{10994694}{25446754}
\pgfsyspdfmark {pgfid337}{11322374}{24179456}
\pgfsyspdfmark {pgfid338}{11553385}{24179456}
\pgfsyspdfmark {pgfid339}{12670767}{24179456}
\pgfsyspdfmark {pgfid340}{14591623}{24179456}
\pgfsyspdfmark {pgfid341}{16076008}{24179456}
\pgfsyspdfmark {pgfid342}{10994694}{23636320}
\pgfsyspdfmark {pgfid343}{11322374}{22369022}
\pgfsyspdfmark {pgfid344}{11553385}{22369022}
\pgfsyspdfmark {pgfid345}{12670767}{22369022}
\pgfsyspdfmark {pgfid346}{14224620}{22369022}
\pgfsyspdfmark {pgfid347}{16443011}{22369022}
\pgfsyspdfmark {pgfid348}{10994694}{21825886}
\pgfsyspdfmark {pgfid349}{10994694}{21825886}
\pgfsyspdfmark {pgfid350}{12112076}{21825886}
\pgfsyspdfmark {pgfid351}{13298926}{21825886}
\pgfsyspdfmark {pgfid352}{15150314}{21825886}
\pgfsyspdfmark {pgfid353}{17001702}{21825886}
\savepicturepage{pgfid354}{3}
\pgfsyspdfmark {pgfid354}{17499777}{23354516}
\savepicturepage{pgfid355}{3}
\pgfsyspdfmark {pgfid355}{17499777}{23354516}
\pgfsyspdfmark {pgfid356}{13078770}{19210670}
\pgfsyspdfmark {pgfid357}{13406450}{17943372}
\pgfsyspdfmark {pgfid358}{13637461}{17943372}
\pgfsyspdfmark {pgfid359}{15121846}{17943372}
\pgfsyspdfmark {pgfid360}{13078770}{17400236}
\pgfsyspdfmark {pgfid361}{13406450}{16132938}
\pgfsyspdfmark {pgfid362}{13637461}{16132938}
\pgfsyspdfmark {pgfid363}{15488849}{16132938}
\pgfsyspdfmark {pgfid364}{13078770}{15589802}
\pgfsyspdfmark {pgfid365}{13406450}{14322504}
\pgfsyspdfmark {pgfid366}{13637461}{14322504}
\pgfsyspdfmark {pgfid367}{15488849}{14322504}
\pgfsyspdfmark {pgfid368}{13078770}{13779368}
\pgfsyspdfmark {pgfid369}{13078770}{13779368}
\pgfsyspdfmark {pgfid370}{14196152}{13779368}
\pgfsyspdfmark {pgfid371}{16047540}{13779368}
\savepicturepage{pgfid372}{3}
\pgfsyspdfmark {pgfid372}{16545615}{16213215}
\pgfsyspdfmark {pgfid373}{17725258}{18305453}
\pgfsyspdfmark {pgfid374}{18786944}{17038155}
\pgfsyspdfmark {pgfid375}{19017955}{17038155}
\pgfsyspdfmark {pgfid376}{20502340}{17038155}
\pgfsyspdfmark {pgfid377}{17725258}{16495019}
\pgfsyspdfmark {pgfid378}{18052938}{15227721}
\pgfsyspdfmark {pgfid379}{18650952}{15227721}
\pgfsyspdfmark {pgfid380}{20869343}{15227721}
\pgfsyspdfmark {pgfid381}{17725258}{14684585}
\pgfsyspdfmark {pgfid382}{17725258}{14684585}
\pgfsyspdfmark {pgfid383}{19576646}{14684585}
\pgfsyspdfmark {pgfid384}{21428034}{14684585}
\savepicturepage{pgfid385}{3}
\pgfsyspdfmark {pgfid385}{21926109}{16213215}
\pgfsyspdfmark {pgfid386}{14104341}{12633531}
\pgfsyspdfmark {pgfid387}{15166025}{11366233}
\pgfsyspdfmark {pgfid388}{15628048}{11366233}
\pgfsyspdfmark {pgfid389}{17574456}{11366233}
\pgfsyspdfmark {pgfid390}{14104341}{10823097}
\pgfsyspdfmark {pgfid391}{15628049}{9555799}
\pgfsyspdfmark {pgfid392}{15859060}{9555799}
\pgfsyspdfmark {pgfid393}{17805467}{9555799}
\pgfsyspdfmark {pgfid394}{14104341}{9012663}
\pgfsyspdfmark {pgfid395}{14432021}{7745365}
\pgfsyspdfmark {pgfid396}{15261046}{7745365}
\pgfsyspdfmark {pgfid397}{18172470}{7745365}
\pgfsyspdfmark {pgfid398}{14104341}{7202229}
\pgfsyspdfmark {pgfid399}{14104341}{7202229}
\pgfsyspdfmark {pgfid400}{16417751}{7202229}
\pgfsyspdfmark {pgfid401}{18731161}{7202229}
\savepicturepage{pgfid402}{3}
\pgfsyspdfmark {pgfid402}{19229236}{9636076}
\@writefile{toc}{\defcounter {refsection}{0}\relax }\@writefile{toc}{\contentsline {section}{\numberline {2}Задание №5.44}{4}{section.2}\protected@file@percent }
\pgfsyspdfmark {pgfid723}{6963191}{47383515}
\pgfsyspdfmark {pgfid724}{7657874}{46116217}
\pgfsyspdfmark {pgfid725}{7888885}{46116217}
\pgfsyspdfmark {pgfid726}{9740273}{46116217}
\pgfsyspdfmark {pgfid727}{11224658}{46116217}
\pgfsyspdfmark {pgfid728}{6963191}{45573081}
\pgfsyspdfmark {pgfid729}{7657874}{44305783}
\pgfsyspdfmark {pgfid730}{7888885}{44305783}
\pgfsyspdfmark {pgfid731}{9740273}{44305783}
\pgfsyspdfmark {pgfid732}{11224658}{44305783}
\pgfsyspdfmark {pgfid733}{6963191}{43762647}
\pgfsyspdfmark {pgfid734}{7290871}{42495349}
\pgfsyspdfmark {pgfid735}{7888885}{42495349}
\pgfsyspdfmark {pgfid736}{9740273}{42495349}
\pgfsyspdfmark {pgfid737}{11224658}{42495349}
\pgfsyspdfmark {pgfid738}{6963191}{41952213}
\pgfsyspdfmark {pgfid739}{6963191}{41952213}
\pgfsyspdfmark {pgfid740}{8814579}{41952213}
\pgfsyspdfmark {pgfid741}{10665967}{41952213}
\pgfsyspdfmark {pgfid742}{11783349}{41952213}
\savepicturepage{pgfid743}{4}
\pgfsyspdfmark {pgfid743}{12281424}{44386060}
\pgfsyspdfmark {pgfid744}{14022482}{46478298}
\pgfsyspdfmark {pgfid745}{15084168}{45211000}
\pgfsyspdfmark {pgfid746}{15315179}{45211000}
\pgfsyspdfmark {pgfid747}{16432561}{45211000}
\pgfsyspdfmark {pgfid748}{17549943}{45211000}
\pgfsyspdfmark {pgfid749}{14022482}{44667864}
\pgfsyspdfmark {pgfid750}{14350162}{43400566}
\pgfsyspdfmark {pgfid751}{14948176}{43400566}
\pgfsyspdfmark {pgfid752}{16432561}{43400566}
\pgfsyspdfmark {pgfid753}{17549943}{43400566}
\pgfsyspdfmark {pgfid754}{14022482}{42857430}
\pgfsyspdfmark {pgfid755}{14022482}{42857430}
\pgfsyspdfmark {pgfid756}{15873870}{42857430}
\pgfsyspdfmark {pgfid757}{16991252}{42857430}
\pgfsyspdfmark {pgfid758}{18108634}{42857430}
\savepicturepage{pgfid759}{4}
\pgfsyspdfmark {pgfid759}{18606709}{44386060}
\pgfsyspdfmark {pgfid760}{7524606}{40384491}
\pgfsyspdfmark {pgfid761}{8586292}{39117193}
\pgfsyspdfmark {pgfid762}{8817303}{39117193}
\pgfsyspdfmark {pgfid763}{9934685}{39117193}
\pgfsyspdfmark {pgfid764}{11052067}{39117193}
\pgfsyspdfmark {pgfid765}{7524606}{38574057}
\pgfsyspdfmark {pgfid766}{7852286}{37306759}
\pgfsyspdfmark {pgfid767}{8450300}{37306759}
\pgfsyspdfmark {pgfid768}{9934685}{37306759}
\pgfsyspdfmark {pgfid769}{11052067}{37306759}
\pgfsyspdfmark {pgfid770}{7524606}{36763623}
\pgfsyspdfmark {pgfid771}{7524606}{36763623}
\pgfsyspdfmark {pgfid772}{9375994}{36763623}
\pgfsyspdfmark {pgfid773}{10493376}{36763623}
\pgfsyspdfmark {pgfid774}{11610758}{36763623}
\savepicturepage{pgfid775}{4}
\pgfsyspdfmark {pgfid775}{12108833}{38292253}
\pgfsyspdfmark {pgfid776}{13288476}{41289708}
\pgfsyspdfmark {pgfid777}{13983159}{40022410}
\pgfsyspdfmark {pgfid778}{14214170}{40022410}
\pgfsyspdfmark {pgfid779}{16065558}{40022410}
\pgfsyspdfmark {pgfid780}{17549943}{40022410}
\pgfsyspdfmark {pgfid781}{13288476}{39479274}
\pgfsyspdfmark {pgfid782}{13983159}{38211976}
\pgfsyspdfmark {pgfid783}{14214170}{38211976}
\pgfsyspdfmark {pgfid784}{16065558}{38211976}
\pgfsyspdfmark {pgfid785}{17549943}{38211976}
\pgfsyspdfmark {pgfid786}{13288476}{37668840}
\pgfsyspdfmark {pgfid787}{13616156}{36401542}
\pgfsyspdfmark {pgfid788}{14214170}{36401542}
\pgfsyspdfmark {pgfid789}{16065558}{36401542}
\pgfsyspdfmark {pgfid790}{17549943}{36401542}
\pgfsyspdfmark {pgfid791}{13288476}{35858406}
\pgfsyspdfmark {pgfid792}{13288476}{35858406}
\pgfsyspdfmark {pgfid793}{15139864}{35858406}
\pgfsyspdfmark {pgfid794}{16991252}{35858406}
\pgfsyspdfmark {pgfid795}{18108634}{35858406}
\savepicturepage{pgfid796}{4}
\pgfsyspdfmark {pgfid796}{18606709}{38292253}
\pgfsyspdfmark {pgfid797}{5440530}{32927946}
\pgfsyspdfmark {pgfid798}{6135213}{31660648}
\pgfsyspdfmark {pgfid799}{6366224}{31660648}
\pgfsyspdfmark {pgfid800}{8217612}{31660648}
\pgfsyspdfmark {pgfid801}{9701997}{31660648}
\pgfsyspdfmark {pgfid802}{5440530}{31117512}
\pgfsyspdfmark {pgfid803}{6135213}{29850214}
\pgfsyspdfmark {pgfid804}{6366224}{29850214}
\pgfsyspdfmark {pgfid805}{8217612}{29850214}
\pgfsyspdfmark {pgfid806}{9701997}{29850214}
\pgfsyspdfmark {pgfid807}{5440530}{29307078}
\pgfsyspdfmark {pgfid808}{5768210}{28039780}
\pgfsyspdfmark {pgfid809}{6366224}{28039780}
\pgfsyspdfmark {pgfid810}{8217612}{28039780}
\pgfsyspdfmark {pgfid811}{9701997}{28039780}
\pgfsyspdfmark {pgfid812}{5440530}{27496644}
\pgfsyspdfmark {pgfid813}{5440530}{27496644}
\pgfsyspdfmark {pgfid814}{7291918}{27496644}
\pgfsyspdfmark {pgfid815}{9143306}{27496644}
\pgfsyspdfmark {pgfid816}{10260688}{27496644}
\savepicturepage{pgfid817}{4}
\pgfsyspdfmark {pgfid817}{10758763}{29930491}
\pgfsyspdfmark {pgfid818}{5440530}{27003442}
\pgfsyspdfmark {pgfid819}{6502216}{25736144}
\pgfsyspdfmark {pgfid820}{6733227}{25736144}
\pgfsyspdfmark {pgfid821}{8217612}{25736144}
\pgfsyspdfmark {pgfid822}{9701997}{25736144}
\pgfsyspdfmark {pgfid823}{10888847}{25736144}
\pgfsyspdfmark {pgfid824}{12006229}{25736144}
\pgfsyspdfmark {pgfid825}{13123611}{25736144}
\pgfsyspdfmark {pgfid826}{5440530}{25193008}
\pgfsyspdfmark {pgfid827}{6502216}{23925710}
\pgfsyspdfmark {pgfid828}{6733227}{23925710}
\pgfsyspdfmark {pgfid829}{8217612}{23925710}
\pgfsyspdfmark {pgfid830}{9701997}{23925710}
\pgfsyspdfmark {pgfid831}{10888847}{23925710}
\pgfsyspdfmark {pgfid832}{12006229}{23925710}
\pgfsyspdfmark {pgfid833}{13123611}{23925710}
\pgfsyspdfmark {pgfid834}{5440530}{23382574}
\pgfsyspdfmark {pgfid835}{5768210}{22115276}
\pgfsyspdfmark {pgfid836}{6366224}{22115276}
\pgfsyspdfmark {pgfid837}{8217612}{22115276}
\pgfsyspdfmark {pgfid838}{9701997}{22115276}
\pgfsyspdfmark {pgfid839}{10888847}{22115276}
\pgfsyspdfmark {pgfid840}{12006229}{22115276}
\pgfsyspdfmark {pgfid841}{13123611}{22115276}
\pgfsyspdfmark {pgfid842}{5440530}{21572140}
\pgfsyspdfmark {pgfid843}{5440530}{21572140}
\pgfsyspdfmark {pgfid844}{7291918}{21572140}
\pgfsyspdfmark {pgfid845}{9143306}{21572140}
\pgfsyspdfmark {pgfid846}{10330156}{21572140}
\pgfsyspdfmark {pgfid847}{11447538}{21572140}
\pgfsyspdfmark {pgfid848}{12564920}{21572140}
\pgfsyspdfmark {pgfid849}{13682302}{21572140}
\savepicturepage{pgfid850}{4}
\pgfsyspdfmark {pgfid850}{14180377}{24005987}
\savepicturepage{pgfid851}{4}
\pgfsyspdfmark {pgfid851}{14180377}{24005987}
\pgfsyspdfmark {pgfid852}{15622170}{27003442}
\pgfsyspdfmark {pgfid853}{15949850}{25736144}
\pgfsyspdfmark {pgfid854}{16180861}{25736144}
\pgfsyspdfmark {pgfid855}{17665246}{25736144}
\pgfsyspdfmark {pgfid856}{19883637}{25736144}
\pgfsyspdfmark {pgfid857}{21804493}{25736144}
\pgfsyspdfmark {pgfid858}{22921875}{25736144}
\pgfsyspdfmark {pgfid859}{24039257}{25736144}
\pgfsyspdfmark {pgfid860}{15622170}{25193008}
\pgfsyspdfmark {pgfid861}{15949850}{23925710}
\pgfsyspdfmark {pgfid862}{16180861}{23925710}
\pgfsyspdfmark {pgfid863}{18032249}{23925710}
\pgfsyspdfmark {pgfid864}{19516634}{23925710}
\pgfsyspdfmark {pgfid865}{21437490}{23925710}
\pgfsyspdfmark {pgfid866}{22921875}{23925710}
\pgfsyspdfmark {pgfid867}{24039257}{23925710}
\pgfsyspdfmark {pgfid868}{15622170}{23382574}
\pgfsyspdfmark {pgfid869}{15949850}{22115276}
\pgfsyspdfmark {pgfid870}{16180861}{22115276}
\pgfsyspdfmark {pgfid871}{17665246}{22115276}
\pgfsyspdfmark {pgfid872}{19883637}{22115276}
\pgfsyspdfmark {pgfid873}{21804493}{22115276}
\pgfsyspdfmark {pgfid874}{22921875}{22115276}
\pgfsyspdfmark {pgfid875}{24039257}{22115276}
\pgfsyspdfmark {pgfid876}{15622170}{21572140}
\pgfsyspdfmark {pgfid877}{15622170}{21572140}
\pgfsyspdfmark {pgfid878}{16739552}{21572140}
\pgfsyspdfmark {pgfid879}{18590940}{21572140}
\pgfsyspdfmark {pgfid880}{20511796}{21572140}
\pgfsyspdfmark {pgfid881}{22363184}{21572140}
\pgfsyspdfmark {pgfid882}{23480566}{21572140}
\pgfsyspdfmark {pgfid883}{24597948}{21572140}
\savepicturepage{pgfid884}{4}
\pgfsyspdfmark {pgfid884}{25096023}{24005987}
\savepicturepage{pgfid885}{4}
\pgfsyspdfmark {pgfid885}{25096023}{24005987}
\pgfsyspdfmark {pgfid886}{26537816}{27003442}
\pgfsyspdfmark {pgfid887}{26865496}{25736144}
\pgfsyspdfmark {pgfid888}{27096507}{25736144}
\pgfsyspdfmark {pgfid889}{28580892}{25736144}
\pgfsyspdfmark {pgfid890}{30822227}{25736144}
\pgfsyspdfmark {pgfid891}{32766027}{25736144}
\pgfsyspdfmark {pgfid892}{33906353}{25736144}
\pgfsyspdfmark {pgfid893}{35023735}{25736144}
\pgfsyspdfmark {pgfid894}{26537816}{25193008}
\pgfsyspdfmark {pgfid895}{26865496}{23925710}
\pgfsyspdfmark {pgfid896}{27096507}{23925710}
\pgfsyspdfmark {pgfid897}{28947895}{23925710}
\pgfsyspdfmark {pgfid898}{30443752}{23925710}
\pgfsyspdfmark {pgfid899}{32387552}{23925710}
\pgfsyspdfmark {pgfid900}{33894881}{23925710}
\pgfsyspdfmark {pgfid901}{35023735}{23925710}
\pgfsyspdfmark {pgfid902}{26537816}{23382574}
\pgfsyspdfmark {pgfid903}{26865496}{22115276}
\pgfsyspdfmark {pgfid904}{27096507}{22115276}
\pgfsyspdfmark {pgfid905}{28947895}{22115276}
\pgfsyspdfmark {pgfid906}{30822227}{22115276}
\pgfsyspdfmark {pgfid907}{32399024}{22115276}
\pgfsyspdfmark {pgfid908}{33906353}{22115276}
\pgfsyspdfmark {pgfid909}{35023735}{22115276}
\pgfsyspdfmark {pgfid910}{26537816}{21572140}
\pgfsyspdfmark {pgfid911}{26537816}{21572140}
\pgfsyspdfmark {pgfid912}{27655198}{21572140}
\pgfsyspdfmark {pgfid913}{29506586}{21572140}
\pgfsyspdfmark {pgfid914}{31450386}{21572140}
\pgfsyspdfmark {pgfid915}{33324718}{21572140}
\pgfsyspdfmark {pgfid916}{34465044}{21572140}
\pgfsyspdfmark {pgfid917}{35582426}{21572140}
\savepicturepage{pgfid918}{4}
\pgfsyspdfmark {pgfid918}{36080501}{24005987}
\savepicturepage{pgfid919}{4}
\pgfsyspdfmark {pgfid919}{36080501}{24005987}
\pgfsyspdfmark {pgfid920}{5440530}{21078938}
\pgfsyspdfmark {pgfid921}{5768210}{19811640}
\pgfsyspdfmark {pgfid922}{5999221}{19811640}
\pgfsyspdfmark {pgfid923}{7116603}{19811640}
\pgfsyspdfmark {pgfid924}{8233985}{19811640}
\pgfsyspdfmark {pgfid925}{9799310}{19811640}
\pgfsyspdfmark {pgfid926}{11306639}{19811640}
\pgfsyspdfmark {pgfid927}{12446965}{19811640}
\pgfsyspdfmark {pgfid928}{5440530}{19268504}
\pgfsyspdfmark {pgfid929}{5768210}{18001206}
\pgfsyspdfmark {pgfid930}{5999221}{18001206}
\pgfsyspdfmark {pgfid931}{7116603}{18001206}
\pgfsyspdfmark {pgfid932}{8233985}{18001206}
\pgfsyspdfmark {pgfid933}{9799310}{18001206}
\pgfsyspdfmark {pgfid934}{11306639}{18001206}
\pgfsyspdfmark {pgfid935}{12446965}{18001206}
\pgfsyspdfmark {pgfid936}{5440530}{17458070}
\pgfsyspdfmark {pgfid937}{5768210}{16190772}
\pgfsyspdfmark {pgfid938}{5999221}{16190772}
\pgfsyspdfmark {pgfid939}{7116603}{16190772}
\pgfsyspdfmark {pgfid940}{8233985}{16190772}
\pgfsyspdfmark {pgfid941}{9810782}{16190772}
\pgfsyspdfmark {pgfid942}{11318111}{16190772}
\pgfsyspdfmark {pgfid943}{12458437}{16190772}
\pgfsyspdfmark {pgfid944}{5440530}{15647636}
\pgfsyspdfmark {pgfid945}{5440530}{15647636}
\pgfsyspdfmark {pgfid946}{6557912}{15647636}
\pgfsyspdfmark {pgfid947}{7675294}{15647636}
\pgfsyspdfmark {pgfid948}{8862144}{15647636}
\pgfsyspdfmark {pgfid949}{10736476}{15647636}
\pgfsyspdfmark {pgfid950}{11876802}{15647636}
\pgfsyspdfmark {pgfid951}{13017128}{15647636}
\savepicturepage{pgfid952}{4}
\pgfsyspdfmark {pgfid952}{13515203}{18081483}
\savepicturepage{pgfid953}{4}
\pgfsyspdfmark {pgfid953}{13515203}{18081483}
\pgfsyspdfmark {pgfid954}{14956996}{21078938}
\pgfsyspdfmark {pgfid955}{15284676}{19811640}
\pgfsyspdfmark {pgfid956}{15515687}{19811640}
\pgfsyspdfmark {pgfid957}{16633069}{19811640}
\pgfsyspdfmark {pgfid958}{17750451}{19811640}
\pgfsyspdfmark {pgfid959}{19682779}{19811640}
\pgfsyspdfmark {pgfid960}{20823105}{19811640}
\pgfsyspdfmark {pgfid961}{22330434}{19811640}
\pgfsyspdfmark {pgfid962}{14956996}{19268504}
\pgfsyspdfmark {pgfid963}{15284676}{18001206}
\pgfsyspdfmark {pgfid964}{15515687}{18001206}
\pgfsyspdfmark {pgfid965}{16633069}{18001206}
\pgfsyspdfmark {pgfid966}{17750451}{18001206}
\pgfsyspdfmark {pgfid967}{19315776}{18001206}
\pgfsyspdfmark {pgfid968}{20823105}{18001206}
\pgfsyspdfmark {pgfid969}{22697437}{18001206}
\pgfsyspdfmark {pgfid970}{14956996}{17458070}
\pgfsyspdfmark {pgfid971}{15284676}{16190772}
\pgfsyspdfmark {pgfid972}{15515687}{16190772}
\pgfsyspdfmark {pgfid973}{16633069}{16190772}
\pgfsyspdfmark {pgfid974}{17750451}{16190772}
\pgfsyspdfmark {pgfid975}{19327248}{16190772}
\pgfsyspdfmark {pgfid976}{20834577}{16190772}
\pgfsyspdfmark {pgfid977}{22708909}{16190772}
\pgfsyspdfmark {pgfid978}{14956996}{15647636}
\pgfsyspdfmark {pgfid979}{14956996}{15647636}
\pgfsyspdfmark {pgfid980}{16074378}{15647636}
\pgfsyspdfmark {pgfid981}{17191760}{15647636}
\pgfsyspdfmark {pgfid982}{18378610}{15647636}
\pgfsyspdfmark {pgfid983}{20252942}{15647636}
\pgfsyspdfmark {pgfid984}{21393268}{15647636}
\pgfsyspdfmark {pgfid985}{23267600}{15647636}
\savepicturepage{pgfid986}{4}
\pgfsyspdfmark {pgfid986}{23765675}{18081483}
\savepicturepage{pgfid987}{4}
\pgfsyspdfmark {pgfid987}{23765675}{18081483}
\pgfsyspdfmark {pgfid988}{7524606}{12011674}
\pgfsyspdfmark {pgfid989}{8586292}{10744376}
\pgfsyspdfmark {pgfid990}{8817303}{10744376}
\pgfsyspdfmark {pgfid991}{9934685}{10744376}
\pgfsyspdfmark {pgfid992}{11052067}{10744376}
\pgfsyspdfmark {pgfid993}{7524606}{10201240}
\pgfsyspdfmark {pgfid994}{7852286}{8933942}
\pgfsyspdfmark {pgfid995}{8450300}{8933942}
\pgfsyspdfmark {pgfid996}{9934685}{8933942}
\pgfsyspdfmark {pgfid997}{11052067}{8933942}
\pgfsyspdfmark {pgfid998}{7524606}{8390806}
\pgfsyspdfmark {pgfid999}{7524606}{8390806}
\pgfsyspdfmark {pgfid1000}{9375994}{8390806}
\pgfsyspdfmark {pgfid1001}{10493376}{8390806}
\pgfsyspdfmark {pgfid1002}{11610758}{8390806}
\savepicturepage{pgfid1003}{4}
\pgfsyspdfmark {pgfid1003}{12108833}{9919436}
\pgfsyspdfmark {pgfid1004}{13288476}{12916891}
\pgfsyspdfmark {pgfid1005}{13983159}{11649593}
\pgfsyspdfmark {pgfid1006}{14225642}{11649593}
\pgfsyspdfmark {pgfid1007}{15732971}{11649593}
\pgfsyspdfmark {pgfid1008}{17240300}{11649593}
\pgfsyspdfmark {pgfid1009}{13288476}{11106457}
\pgfsyspdfmark {pgfid1010}{13616156}{9839159}
\pgfsyspdfmark {pgfid1011}{14225642}{9839159}
\pgfsyspdfmark {pgfid1012}{15732971}{9839159}
\pgfsyspdfmark {pgfid1013}{17240300}{9839159}
\pgfsyspdfmark {pgfid1014}{13288476}{9296023}
\pgfsyspdfmark {pgfid1015}{13627628}{8028725}
\pgfsyspdfmark {pgfid1016}{14225642}{8028725}
\pgfsyspdfmark {pgfid1017}{15732971}{8028725}
\pgfsyspdfmark {pgfid1018}{17240300}{8028725}
\pgfsyspdfmark {pgfid1019}{13288476}{7485589}
\pgfsyspdfmark {pgfid1020}{13288476}{7485589}
\pgfsyspdfmark {pgfid1021}{15162808}{7485589}
\pgfsyspdfmark {pgfid1022}{16303134}{7485589}
\pgfsyspdfmark {pgfid1023}{18177466}{7485589}
\savepicturepage{pgfid1024}{4}
\pgfsyspdfmark {pgfid1024}{18675541}{9919436}
\pgfsyspdfmark {pgfid1025}{8550177}{50848263}
\pgfsyspdfmark {pgfid1026}{8877857}{49580965}
\pgfsyspdfmark {pgfid1027}{9475871}{49580965}
\pgfsyspdfmark {pgfid1028}{10960256}{49580965}
\pgfsyspdfmark {pgfid1029}{12077638}{49580965}
\pgfsyspdfmark {pgfid1030}{8550177}{49037829}
\pgfsyspdfmark {pgfid1031}{8877857}{47770531}
\pgfsyspdfmark {pgfid1032}{9475871}{47770531}
\pgfsyspdfmark {pgfid1033}{10960256}{47770531}
\pgfsyspdfmark {pgfid1034}{12077638}{47770531}
\pgfsyspdfmark {pgfid1035}{8550177}{47227395}
\pgfsyspdfmark {pgfid1036}{8550177}{47227395}
\pgfsyspdfmark {pgfid1037}{10401565}{47227395}
\pgfsyspdfmark {pgfid1038}{11518947}{47227395}
\pgfsyspdfmark {pgfid1039}{12636329}{47227395}
\savepicturepage{pgfid1040}{5}
\pgfsyspdfmark {pgfid1040}{13134404}{48756025}
\@writefile{toc}{\defcounter {refsection}{0}\relax }\@writefile{toc}{\contentsline {section}{\numberline {3}Задание №4.29}{5}{section.3}\protected@file@percent }
\@writefile{toc}{\defcounter {refsection}{0}\relax }\@writefile{toc}{\contentsline {subsection}{\numberline {3.1}Задание №4.29 a)}{5}{subsection.3.1}\protected@file@percent }
\pgfsyspdfmark {pgfid1158}{4227434}{38469465}
\pgfsyspdfmark {pgfid1159}{5289120}{37202167}
\pgfsyspdfmark {pgfid1160}{5520131}{37202167}
\pgfsyspdfmark {pgfid1161}{7371519}{37202167}
\pgfsyspdfmark {pgfid1162}{8520441}{37202167}
\pgfsyspdfmark {pgfid1163}{10403369}{37202167}
\pgfsyspdfmark {pgfid1164}{4227434}{36659031}
\pgfsyspdfmark {pgfid1165}{4555114}{35391733}
\pgfsyspdfmark {pgfid1166}{5153128}{35391733}
\pgfsyspdfmark {pgfid1167}{7004516}{35391733}
\pgfsyspdfmark {pgfid1168}{8540785}{35391733}
\pgfsyspdfmark {pgfid1169}{10036366}{35391733}
\pgfsyspdfmark {pgfid1170}{4227434}{34848597}
\pgfsyspdfmark {pgfid1171}{5289120}{33581299}
\pgfsyspdfmark {pgfid1172}{5520131}{33581299}
\pgfsyspdfmark {pgfid1173}{7004516}{33581299}
\pgfsyspdfmark {pgfid1174}{8547338}{33581299}
\pgfsyspdfmark {pgfid1175}{10172357}{33581299}
\pgfsyspdfmark {pgfid1176}{4227434}{33038163}
\pgfsyspdfmark {pgfid1177}{5289120}{31770865}
\pgfsyspdfmark {pgfid1178}{5520131}{31770865}
\pgfsyspdfmark {pgfid1179}{7004516}{31770865}
\pgfsyspdfmark {pgfid1180}{8616151}{31770865}
\pgfsyspdfmark {pgfid1181}{10403369}{31770865}
\pgfsyspdfmark {pgfid1182}{4227434}{31227729}
\pgfsyspdfmark {pgfid1183}{4227434}{31227729}
\pgfsyspdfmark {pgfid1184}{6078822}{31227729}
\pgfsyspdfmark {pgfid1185}{7930210}{31227729}
\pgfsyspdfmark {pgfid1186}{9110672}{31227729}
\pgfsyspdfmark {pgfid1187}{10962060}{31227729}
\savepicturepage{pgfid1188}{5}
\pgfsyspdfmark {pgfid1188}{11460135}{34566793}
\pgfsyspdfmark {pgfid1189}{5434104}{30790390}
\pgfsyspdfmark {pgfid1190}{5761784}{29523092}
\pgfsyspdfmark {pgfid1191}{6359798}{29523092}
\pgfsyspdfmark {pgfid1192}{8211186}{29523092}
\pgfsyspdfmark {pgfid1193}{10062574}{29523092}
\pgfsyspdfmark {pgfid1194}{5434104}{28979956}
\pgfsyspdfmark {pgfid1195}{6495790}{27712658}
\pgfsyspdfmark {pgfid1196}{6726801}{27712658}
\pgfsyspdfmark {pgfid1197}{8211186}{27712658}
\pgfsyspdfmark {pgfid1198}{10198565}{27712658}
\pgfsyspdfmark {pgfid1199}{5434104}{27169522}
\pgfsyspdfmark {pgfid1200}{6495790}{25902224}
\pgfsyspdfmark {pgfid1201}{6726801}{25902224}
\pgfsyspdfmark {pgfid1202}{8211186}{25902224}
\pgfsyspdfmark {pgfid1203}{10429577}{25902224}
\pgfsyspdfmark {pgfid1204}{5434104}{25359088}
\pgfsyspdfmark {pgfid1205}{5434104}{25359088}
\pgfsyspdfmark {pgfid1206}{7285492}{25359088}
\pgfsyspdfmark {pgfid1207}{9136880}{25359088}
\pgfsyspdfmark {pgfid1208}{10988268}{25359088}
\savepicturepage{pgfid1209}{5}
\pgfsyspdfmark {pgfid1209}{11486343}{27792935}
\pgfsyspdfmark {pgfid1210}{14303830}{30790390}
\pgfsyspdfmark {pgfid1211}{14631510}{29523092}
\pgfsyspdfmark {pgfid1212}{14862521}{29523092}
\pgfsyspdfmark {pgfid1213}{16713909}{29523092}
\pgfsyspdfmark {pgfid1214}{18293315}{29523092}
\pgfsyspdfmark {pgfid1215}{14303830}{28979956}
\pgfsyspdfmark {pgfid1216}{14631510}{27712658}
\pgfsyspdfmark {pgfid1217}{14862521}{27712658}
\pgfsyspdfmark {pgfid1218}{16346906}{27712658}
\pgfsyspdfmark {pgfid1219}{18062303}{27712658}
\pgfsyspdfmark {pgfid1220}{14303830}{27169522}
\pgfsyspdfmark {pgfid1221}{14631510}{25902224}
\pgfsyspdfmark {pgfid1222}{14862521}{25902224}
\pgfsyspdfmark {pgfid1223}{16346906}{25902224}
\pgfsyspdfmark {pgfid1224}{18293315}{25902224}
\pgfsyspdfmark {pgfid1225}{14303830}{25359088}
\pgfsyspdfmark {pgfid1226}{14303830}{25359088}
\pgfsyspdfmark {pgfid1227}{15421212}{25359088}
\pgfsyspdfmark {pgfid1228}{17272600}{25359088}
\pgfsyspdfmark {pgfid1229}{18852006}{25359088}
\savepicturepage{pgfid1230}{5}
\pgfsyspdfmark {pgfid1230}{19350081}{27792935}
\pgfsyspdfmark {pgfid1231}{22139159}{30790390}
\pgfsyspdfmark {pgfid1232}{23200845}{29523092}
\pgfsyspdfmark {pgfid1233}{23431856}{29523092}
\pgfsyspdfmark {pgfid1234}{25283244}{29523092}
\pgfsyspdfmark {pgfid1235}{27134632}{29523092}
\pgfsyspdfmark {pgfid1236}{22139159}{28979956}
\pgfsyspdfmark {pgfid1237}{22466839}{27712658}
\pgfsyspdfmark {pgfid1238}{23064853}{27712658}
\pgfsyspdfmark {pgfid1239}{24916241}{27712658}
\pgfsyspdfmark {pgfid1240}{26767629}{27712658}
\pgfsyspdfmark {pgfid1241}{22139159}{27169522}
\pgfsyspdfmark {pgfid1242}{23200845}{25902224}
\pgfsyspdfmark {pgfid1243}{23431856}{25902224}
\pgfsyspdfmark {pgfid1244}{24916241}{25902224}
\pgfsyspdfmark {pgfid1245}{27134632}{25902224}
\pgfsyspdfmark {pgfid1246}{22139159}{25359088}
\pgfsyspdfmark {pgfid1247}{22139159}{25359088}
\pgfsyspdfmark {pgfid1248}{23990547}{25359088}
\pgfsyspdfmark {pgfid1249}{25841935}{25359088}
\pgfsyspdfmark {pgfid1250}{27693323}{25359088}
\savepicturepage{pgfid1251}{5}
\pgfsyspdfmark {pgfid1251}{28191398}{27792935}
\pgfsyspdfmark {pgfid1252}{30858153}{30790390}
\pgfsyspdfmark {pgfid1253}{31919839}{29523092}
\pgfsyspdfmark {pgfid1254}{32150850}{29523092}
\pgfsyspdfmark {pgfid1255}{34002238}{29523092}
\pgfsyspdfmark {pgfid1256}{35853626}{29523092}
\pgfsyspdfmark {pgfid1257}{30858153}{28979956}
\pgfsyspdfmark {pgfid1258}{31185833}{27712658}
\pgfsyspdfmark {pgfid1259}{31783847}{27712658}
\pgfsyspdfmark {pgfid1260}{33635235}{27712658}
\pgfsyspdfmark {pgfid1261}{35486623}{27712658}
\pgfsyspdfmark {pgfid1262}{30858153}{27169522}
\pgfsyspdfmark {pgfid1263}{31919839}{25902224}
\pgfsyspdfmark {pgfid1264}{32150850}{25902224}
\pgfsyspdfmark {pgfid1265}{33635235}{25902224}
\pgfsyspdfmark {pgfid1266}{35622614}{25902224}
\pgfsyspdfmark {pgfid1267}{30858153}{25359088}
\pgfsyspdfmark {pgfid1268}{30858153}{25359088}
\pgfsyspdfmark {pgfid1269}{32709541}{25359088}
\pgfsyspdfmark {pgfid1270}{34560929}{25359088}
\pgfsyspdfmark {pgfid1271}{36412317}{25359088}
\savepicturepage{pgfid1272}{5}
\pgfsyspdfmark {pgfid1272}{36910392}{27792935}
\@writefile{toc}{\defcounter {refsection}{0}\relax }\@writefile{toc}{\contentsline {subsection}{\numberline {3.2}Задание №4.29 b)}{5}{subsection.3.2}\protected@file@percent }
\pgfsyspdfmark {pgfid1390}{4227434}{13266844}
\pgfsyspdfmark {pgfid1391}{5289120}{11999546}
\pgfsyspdfmark {pgfid1392}{5520131}{11999546}
\pgfsyspdfmark {pgfid1393}{7004516}{11999546}
\pgfsyspdfmark {pgfid1394}{8500425}{11999546}
\pgfsyspdfmark {pgfid1395}{9996334}{11999546}
\pgfsyspdfmark {pgfid1396}{4227434}{11456410}
\pgfsyspdfmark {pgfid1397}{4555114}{10189112}
\pgfsyspdfmark {pgfid1398}{5153128}{10189112}
\pgfsyspdfmark {pgfid1399}{7004516}{10189112}
\pgfsyspdfmark {pgfid1400}{8546519}{10189112}
\pgfsyspdfmark {pgfid1401}{9996334}{10189112}
\pgfsyspdfmark {pgfid1402}{4227434}{9645976}
\pgfsyspdfmark {pgfid1403}{4555114}{8378678}
\pgfsyspdfmark {pgfid1404}{5153128}{8378678}
\pgfsyspdfmark {pgfid1405}{7371519}{8378678}
\pgfsyspdfmark {pgfid1406}{8544116}{8378678}
\pgfsyspdfmark {pgfid1407}{10363337}{8378678}
\pgfsyspdfmark {pgfid1408}{4227434}{7835542}
\pgfsyspdfmark {pgfid1409}{5289120}{6568244}
\pgfsyspdfmark {pgfid1410}{5520131}{6568244}
\pgfsyspdfmark {pgfid1411}{7371519}{6568244}
\pgfsyspdfmark {pgfid1412}{8502882}{6568244}
\pgfsyspdfmark {pgfid1413}{10363337}{6568244}
\pgfsyspdfmark {pgfid1414}{4227434}{6025108}
\pgfsyspdfmark {pgfid1415}{4227434}{6025108}
\pgfsyspdfmark {pgfid1416}{6078822}{6025108}
\pgfsyspdfmark {pgfid1417}{7930210}{6025108}
\pgfsyspdfmark {pgfid1418}{9070640}{6025108}
\pgfsyspdfmark {pgfid1419}{10922028}{6025108}
\savepicturepage{pgfid1420}{5}
\pgfsyspdfmark {pgfid1420}{11420103}{9364172}
\pgfsyspdfmark {pgfid1421}{5394072}{51385369}
\pgfsyspdfmark {pgfid1422}{5721752}{50118071}
\pgfsyspdfmark {pgfid1423}{6319766}{50118071}
\pgfsyspdfmark {pgfid1424}{8171154}{50118071}
\pgfsyspdfmark {pgfid1425}{10022542}{50118071}
\pgfsyspdfmark {pgfid1426}{5394072}{49574935}
\pgfsyspdfmark {pgfid1427}{5721752}{48307637}
\pgfsyspdfmark {pgfid1428}{6319766}{48307637}
\pgfsyspdfmark {pgfid1429}{8538157}{48307637}
\pgfsyspdfmark {pgfid1430}{10389545}{48307637}
\pgfsyspdfmark {pgfid1431}{5394072}{47764501}
\pgfsyspdfmark {pgfid1432}{6455758}{46497203}
\pgfsyspdfmark {pgfid1433}{6686769}{46497203}
\pgfsyspdfmark {pgfid1434}{8538157}{46497203}
\pgfsyspdfmark {pgfid1435}{10389545}{46497203}
\pgfsyspdfmark {pgfid1436}{5394072}{45954067}
\pgfsyspdfmark {pgfid1437}{5394072}{45954067}
\pgfsyspdfmark {pgfid1438}{7245460}{45954067}
\pgfsyspdfmark {pgfid1439}{9096848}{45954067}
\pgfsyspdfmark {pgfid1440}{10948236}{45954067}
\savepicturepage{pgfid1441}{6}
\pgfsyspdfmark {pgfid1441}{11446311}{48387914}
\pgfsyspdfmark {pgfid1442}{14172266}{51385369}
\pgfsyspdfmark {pgfid1443}{15233952}{50118071}
\pgfsyspdfmark {pgfid1444}{15464963}{50118071}
\pgfsyspdfmark {pgfid1445}{16949348}{50118071}
\pgfsyspdfmark {pgfid1446}{18800736}{50118071}
\pgfsyspdfmark {pgfid1447}{14172266}{49574935}
\pgfsyspdfmark {pgfid1448}{14499946}{48307637}
\pgfsyspdfmark {pgfid1449}{15097960}{48307637}
\pgfsyspdfmark {pgfid1450}{17316351}{48307637}
\pgfsyspdfmark {pgfid1451}{19167739}{48307637}
\pgfsyspdfmark {pgfid1452}{14172266}{47764501}
\pgfsyspdfmark {pgfid1453}{15233952}{46497203}
\pgfsyspdfmark {pgfid1454}{15464963}{46497203}
\pgfsyspdfmark {pgfid1455}{17316351}{46497203}
\pgfsyspdfmark {pgfid1456}{19167739}{46497203}
\pgfsyspdfmark {pgfid1457}{14172266}{45954067}
\pgfsyspdfmark {pgfid1458}{14172266}{45954067}
\pgfsyspdfmark {pgfid1459}{16023654}{45954067}
\pgfsyspdfmark {pgfid1460}{17875042}{45954067}
\pgfsyspdfmark {pgfid1461}{19726430}{45954067}
\savepicturepage{pgfid1462}{6}
\pgfsyspdfmark {pgfid1462}{20224505}{48387914}
\pgfsyspdfmark {pgfid1463}{22939964}{51385369}
\pgfsyspdfmark {pgfid1464}{24001650}{50118071}
\pgfsyspdfmark {pgfid1465}{24232661}{50118071}
\pgfsyspdfmark {pgfid1466}{25717046}{50118071}
\pgfsyspdfmark {pgfid1467}{27568434}{50118071}
\pgfsyspdfmark {pgfid1468}{22939964}{49574935}
\pgfsyspdfmark {pgfid1469}{23267644}{48307637}
\pgfsyspdfmark {pgfid1470}{23865658}{48307637}
\pgfsyspdfmark {pgfid1471}{25717046}{48307637}
\pgfsyspdfmark {pgfid1472}{27568434}{48307637}
\pgfsyspdfmark {pgfid1473}{22939964}{47764501}
\pgfsyspdfmark {pgfid1474}{24001650}{46497203}
\pgfsyspdfmark {pgfid1475}{24232661}{46497203}
\pgfsyspdfmark {pgfid1476}{26084049}{46497203}
\pgfsyspdfmark {pgfid1477}{27935437}{46497203}
\pgfsyspdfmark {pgfid1478}{22939964}{45954067}
\pgfsyspdfmark {pgfid1479}{22939964}{45954067}
\pgfsyspdfmark {pgfid1480}{24791352}{45954067}
\pgfsyspdfmark {pgfid1481}{26642740}{45954067}
\pgfsyspdfmark {pgfid1482}{28494128}{45954067}
\savepicturepage{pgfid1483}{6}
\pgfsyspdfmark {pgfid1483}{28992203}{48387914}
\pgfsyspdfmark {pgfid1484}{31805431}{51385369}
\pgfsyspdfmark {pgfid1485}{32867117}{50118071}
\pgfsyspdfmark {pgfid1486}{33098128}{50118071}
\pgfsyspdfmark {pgfid1487}{34582513}{50118071}
\pgfsyspdfmark {pgfid1488}{36433901}{50118071}
\pgfsyspdfmark {pgfid1489}{31805431}{49574935}
\pgfsyspdfmark {pgfid1490}{32133111}{48307637}
\pgfsyspdfmark {pgfid1491}{32731125}{48307637}
\pgfsyspdfmark {pgfid1492}{34582513}{48307637}
\pgfsyspdfmark {pgfid1493}{36433901}{48307637}
\pgfsyspdfmark {pgfid1494}{31805431}{47764501}
\pgfsyspdfmark {pgfid1495}{32133111}{46497203}
\pgfsyspdfmark {pgfid1496}{32731125}{46497203}
\pgfsyspdfmark {pgfid1497}{34949516}{46497203}
\pgfsyspdfmark {pgfid1498}{36800904}{46497203}
\pgfsyspdfmark {pgfid1499}{31805431}{45954067}
\pgfsyspdfmark {pgfid1500}{31805431}{45954067}
\pgfsyspdfmark {pgfid1501}{33656819}{45954067}
\pgfsyspdfmark {pgfid1502}{35508207}{45954067}
\pgfsyspdfmark {pgfid1503}{37359595}{45954067}
\savepicturepage{pgfid1504}{6}
\pgfsyspdfmark {pgfid1504}{37857670}{48387914}
\@writefile{toc}{\defcounter {refsection}{0}\relax }\@writefile{toc}{\contentsline {section}{\numberline {4}Задание №4.15-4.25}{6}{section.4}\protected@file@percent }
\pgfsyspdfmark {pgfid1938}{8849646}{36534232}
\pgfsyspdfmark {pgfid1939}{9177326}{35266934}
\pgfsyspdfmark {pgfid1940}{9408337}{35266934}
\pgfsyspdfmark {pgfid1941}{11259725}{35266934}
\pgfsyspdfmark {pgfid1942}{8849646}{34723798}
\pgfsyspdfmark {pgfid1943}{9177326}{33456500}
\pgfsyspdfmark {pgfid1944}{9408337}{33456500}
\pgfsyspdfmark {pgfid1945}{10892722}{33456500}
\pgfsyspdfmark {pgfid1946}{8849646}{32913364}
\pgfsyspdfmark {pgfid1947}{8849646}{32913364}
\pgfsyspdfmark {pgfid1948}{9967028}{32913364}
\pgfsyspdfmark {pgfid1949}{11818416}{32913364}
\savepicturepage{pgfid1950}{6}
\pgfsyspdfmark {pgfid1950}{12316491}{34441994}
\pgfsyspdfmark {pgfid1952}{20712559}{36534232}
\pgfsyspdfmark {pgfid1953}{21040239}{35266934}
\pgfsyspdfmark {pgfid1954}{21271250}{35266934}
\pgfsyspdfmark {pgfid1955}{22850656}{35266934}
\pgfsyspdfmark {pgfid1956}{20712559}{34723798}
\pgfsyspdfmark {pgfid1957}{21040239}{33456500}
\pgfsyspdfmark {pgfid1958}{21271250}{33456500}
\pgfsyspdfmark {pgfid1959}{22619644}{33456500}
\pgfsyspdfmark {pgfid1960}{20712559}{32913364}
\pgfsyspdfmark {pgfid1961}{20712559}{32913364}
\pgfsyspdfmark {pgfid1962}{21829941}{32913364}
\pgfsyspdfmark {pgfid1963}{23409347}{32913364}
\savepicturepage{pgfid1964}{6}
\pgfsyspdfmark {pgfid1964}{23907422}{34441994}
\pgfsyspdfmark {pgfid1966}{8849646}{32651220}
\pgfsyspdfmark {pgfid1967}{9177326}{31383922}
\pgfsyspdfmark {pgfid1968}{9408337}{31383922}
\pgfsyspdfmark {pgfid1969}{10599114}{31383922}
\pgfsyspdfmark {pgfid1970}{8849646}{30840786}
\pgfsyspdfmark {pgfid1971}{9324116}{29573488}
\pgfsyspdfmark {pgfid1972}{9481732}{29573488}
\pgfsyspdfmark {pgfid1973}{10525719}{29573488}
\pgfsyspdfmark {pgfid1974}{8849646}{29030352}
\pgfsyspdfmark {pgfid1975}{8849646}{29030352}
\pgfsyspdfmark {pgfid1976}{9967028}{29030352}
\pgfsyspdfmark {pgfid1977}{11084410}{29030352}
\savepicturepage{pgfid1978}{6}
\pgfsyspdfmark {pgfid1978}{11582485}{30558982}
\pgfsyspdfmark {pgfid1980}{20611636}{32651220}
\pgfsyspdfmark {pgfid1981}{20939316}{31383922}
\pgfsyspdfmark {pgfid1982}{22001942}{31383922}
\pgfsyspdfmark {pgfid1983}{24790205}{31383922}
\pgfsyspdfmark {pgfid1984}{20611636}{30840786}
\pgfsyspdfmark {pgfid1985}{22539466}{29573488}
\pgfsyspdfmark {pgfid1986}{22802017}{29573488}
\pgfsyspdfmark {pgfid1987}{24797856}{29573488}
\pgfsyspdfmark {pgfid1988}{20611636}{29030352}
\pgfsyspdfmark {pgfid1989}{20611636}{29030352}
\pgfsyspdfmark {pgfid1990}{23392248}{29030352}
\pgfsyspdfmark {pgfid1991}{26188162}{29030352}
\savepicturepage{pgfid1992}{6}
\pgfsyspdfmark {pgfid1992}{26686237}{30558982}
\pgfsyspdfmark {pgfid1994}{8849646}{28652679}
\pgfsyspdfmark {pgfid1995}{9177326}{27385381}
\pgfsyspdfmark {pgfid1996}{9408337}{27385381}
\pgfsyspdfmark {pgfid1997}{10525719}{27385381}
\pgfsyspdfmark {pgfid1998}{11643101}{27385381}
\pgfsyspdfmark {pgfid1999}{8849646}{26842245}
\pgfsyspdfmark {pgfid2000}{9177326}{25574947}
\pgfsyspdfmark {pgfid2001}{9408337}{25574947}
\pgfsyspdfmark {pgfid2002}{10525719}{25574947}
\pgfsyspdfmark {pgfid2003}{11643101}{25574947}
\pgfsyspdfmark {pgfid2004}{8849646}{25031811}
\pgfsyspdfmark {pgfid2005}{9177326}{23764513}
\pgfsyspdfmark {pgfid2006}{9408337}{23764513}
\pgfsyspdfmark {pgfid2007}{10525719}{23764513}
\pgfsyspdfmark {pgfid2008}{11643101}{23764513}
\pgfsyspdfmark {pgfid2009}{8849646}{23221377}
\pgfsyspdfmark {pgfid2010}{8849646}{23221377}
\pgfsyspdfmark {pgfid2011}{9967028}{23221377}
\pgfsyspdfmark {pgfid2012}{11084410}{23221377}
\pgfsyspdfmark {pgfid2013}{12201792}{23221377}
\savepicturepage{pgfid2014}{6}
\pgfsyspdfmark {pgfid2014}{12699867}{25655224}
\pgfsyspdfmark {pgfid2016}{8849646}{22728175}
\pgfsyspdfmark {pgfid2017}{9639350}{21460877}
\pgfsyspdfmark {pgfid2018}{9870361}{21460877}
\pgfsyspdfmark {pgfid2019}{10987743}{21460877}
\pgfsyspdfmark {pgfid2020}{12567149}{21460877}
\pgfsyspdfmark {pgfid2021}{8849646}{20917741}
\pgfsyspdfmark {pgfid2022}{9177326}{19650443}
\pgfsyspdfmark {pgfid2023}{9639349}{19650443}
\pgfsyspdfmark {pgfid2024}{10987743}{19650443}
\pgfsyspdfmark {pgfid2025}{12336137}{19650443}
\pgfsyspdfmark {pgfid2026}{8849646}{19107307}
\pgfsyspdfmark {pgfid2027}{9639350}{17840009}
\pgfsyspdfmark {pgfid2028}{9870361}{17840009}
\pgfsyspdfmark {pgfid2029}{10987743}{17840009}
\pgfsyspdfmark {pgfid2030}{12567149}{17840009}
\pgfsyspdfmark {pgfid2031}{8849646}{17296873}
\pgfsyspdfmark {pgfid2032}{8849646}{17296873}
\pgfsyspdfmark {pgfid2033}{10429052}{17296873}
\pgfsyspdfmark {pgfid2034}{11546434}{17296873}
\pgfsyspdfmark {pgfid2035}{13125840}{17296873}
\savepicturepage{pgfid2036}{6}
\pgfsyspdfmark {pgfid2036}{13623915}{19730720}
\pgfsyspdfmark {pgfid2038}{8849646}{16803671}
\pgfsyspdfmark {pgfid2039}{9177326}{15536373}
\pgfsyspdfmark {pgfid2040}{9408337}{15536373}
\pgfsyspdfmark {pgfid2041}{10525719}{15536373}
\pgfsyspdfmark {pgfid2042}{12377107}{15536373}
\pgfsyspdfmark {pgfid2043}{8849646}{14993237}
\pgfsyspdfmark {pgfid2044}{9177326}{13725939}
\pgfsyspdfmark {pgfid2045}{9408337}{13725939}
\pgfsyspdfmark {pgfid2046}{10525719}{13725939}
\pgfsyspdfmark {pgfid2047}{12010104}{13725939}
\pgfsyspdfmark {pgfid2048}{8849646}{13182803}
\pgfsyspdfmark {pgfid2049}{9177326}{11915505}
\pgfsyspdfmark {pgfid2050}{9408337}{11915505}
\pgfsyspdfmark {pgfid2051}{10525719}{11915505}
\pgfsyspdfmark {pgfid2052}{12377107}{11915505}
\pgfsyspdfmark {pgfid2053}{8849646}{11372369}
\pgfsyspdfmark {pgfid2054}{8849646}{11372369}
\pgfsyspdfmark {pgfid2055}{9967028}{11372369}
\pgfsyspdfmark {pgfid2056}{11084410}{11372369}
\pgfsyspdfmark {pgfid2057}{12935798}{11372369}
\savepicturepage{pgfid2058}{6}
\pgfsyspdfmark {pgfid2058}{13433873}{13806216}
\pgfsyspdfmark {pgfid2060}{8849646}{10879167}
\pgfsyspdfmark {pgfid2061}{9177326}{9611869}
\pgfsyspdfmark {pgfid2062}{9439877}{9611869}
\pgfsyspdfmark {pgfid2063}{10640355}{9611869}
\pgfsyspdfmark {pgfid2064}{12514789}{9611869}
\pgfsyspdfmark {pgfid2065}{8849646}{9068733}
\pgfsyspdfmark {pgfid2066}{9217358}{7801435}
\pgfsyspdfmark {pgfid2067}{9459893}{7801435}
\pgfsyspdfmark {pgfid2068}{10620339}{7801435}
\pgfsyspdfmark {pgfid2069}{12147787}{7801435}
\pgfsyspdfmark {pgfid2070}{8849646}{7258299}
\pgfsyspdfmark {pgfid2071}{9217358}{5991001}
\pgfsyspdfmark {pgfid2072}{9459893}{5991001}
\pgfsyspdfmark {pgfid2073}{10640355}{5991001}
\pgfsyspdfmark {pgfid2074}{12494773}{5991001}
\pgfsyspdfmark {pgfid2075}{8849646}{5447865}
\pgfsyspdfmark {pgfid2076}{8849646}{5447865}
\pgfsyspdfmark {pgfid2077}{10030108}{5447865}
\pgfsyspdfmark {pgfid2078}{11210570}{5447865}
\pgfsyspdfmark {pgfid2079}{13085004}{5447865}
\savepicturepage{pgfid2080}{6}
\pgfsyspdfmark {pgfid2080}{13583079}{7881712}
\newlabel{LastPage}{{}{6}{}{page.6}{}}
\xdef\lastpage@lastpage{6}
\xdef\lastpage@lastpageHy{6}
\gdef \@abspage@last{6}
