\boolfalse {citerequest}\boolfalse {citetracker}\boolfalse {pagetracker}\boolfalse {backtracker}\relax 
\babel@toc {russian}{}
\defcounter {refsection}{0}\relax 
\contentsline {section}{\numberline {1}Задание №5.44}{3}{section.1}%
\defcounter {refsection}{0}\relax 
\contentsline {section}{\numberline {2}Задание №5.44}{4}{section.2}%
\defcounter {refsection}{0}\relax 
\contentsline {section}{\numberline {3}Задание №4.29}{5}{section.3}%
\defcounter {refsection}{0}\relax 
\contentsline {subsection}{\numberline {3.1}Задание №4.29 a)}{5}{subsection.3.1}%
\defcounter {refsection}{0}\relax 
\contentsline {subsection}{\numberline {3.2}Задание №4.29 b)}{5}{subsection.3.2}%
\defcounter {refsection}{0}\relax 
\contentsline {section}{\numberline {4}Задание №4.15-4.25}{6}{section.4}%
