\babel@toc {russian}{}\relax 
\contentsline {section}{\numberline {1}Номер 1}{2}{section.1}%
\contentsline {subsection}{\numberline {1.1}Условие}{2}{subsection.1.1}%
\contentsline {subsection}{\numberline {1.2}Код}{2}{subsection.1.2}%
\contentsline {subsection}{\numberline {1.3}Ответ}{2}{subsection.1.3}%
\contentsline {section}{\numberline {2}Номер 2}{3}{section.2}%
\contentsline {subsection}{\numberline {2.1}Условие}{3}{subsection.2.1}%
\contentsline {subsection}{\numberline {2.2}Код}{3}{subsection.2.2}%
\contentsline {subsection}{\numberline {2.3}Ответ}{3}{subsection.2.3}%
\contentsline {section}{\numberline {3}Номер 3}{4}{section.3}%
\contentsline {subsection}{\numberline {3.1}Условие}{4}{subsection.3.1}%
\contentsline {subsection}{\numberline {3.2}Код}{4}{subsection.3.2}%
\contentsline {subsection}{\numberline {3.3}Ответ}{5}{subsection.3.3}%
\contentsline {section}{\numberline {4}Номер 4}{5}{section.4}%
\contentsline {subsection}{\numberline {4.1}Условие}{5}{subsection.4.1}%
\contentsline {subsection}{\numberline {4.2}Код}{5}{subsection.4.2}%
\contentsline {subsection}{\numberline {4.3}Ответ}{6}{subsection.4.3}%
\contentsline {section}{\numberline {5}Номер 5}{6}{section.5}%
\contentsline {subsection}{\numberline {5.1}Условие}{6}{subsection.5.1}%
\contentsline {subsection}{\numberline {5.2}Код}{6}{subsection.5.2}%
\contentsline {subsection}{\numberline {5.3}Ответ}{7}{subsection.5.3}%
\contentsline {section}{\numberline {6}Номер 6}{7}{section.6}%
\contentsline {subsection}{\numberline {6.1}Условие}{7}{subsection.6.1}%
\contentsline {subsection}{\numberline {6.2}Код}{7}{subsection.6.2}%
\contentsline {subsection}{\numberline {6.3}Ответ}{8}{subsection.6.3}%
\contentsline {section}{\numberline {7}Номер 7}{8}{section.7}%
\contentsline {subsection}{\numberline {7.1}Условие}{8}{subsection.7.1}%
\contentsline {subsection}{\numberline {7.2}Код}{8}{subsection.7.2}%
\contentsline {subsection}{\numberline {7.3}Ответ}{8}{subsection.7.3}%
\contentsline {section}{\numberline {8}Номер 8}{9}{section.8}%
\contentsline {subsection}{\numberline {8.1}Условие}{9}{subsection.8.1}%
\contentsline {subsection}{\numberline {8.2}Код}{9}{subsection.8.2}%
\contentsline {subsection}{\numberline {8.3}Ответ}{9}{subsection.8.3}%
\contentsline {section}{\numberline {9}Номер 9}{10}{section.9}%
\contentsline {subsection}{\numberline {9.1}Условие}{10}{subsection.9.1}%
\contentsline {subsection}{\numberline {9.2}Код}{10}{subsection.9.2}%
\contentsline {subsection}{\numberline {9.3}Ответ}{11}{subsection.9.3}%
\contentsline {section}{\numberline {10}Номер 10}{12}{section.10}%
\contentsline {subsection}{\numberline {10.1}Условие}{12}{subsection.10.1}%
\contentsline {subsection}{\numberline {10.2}Код}{12}{subsection.10.2}%
\contentsline {subsection}{\numberline {10.3}Ответ}{13}{subsection.10.3}%
