\relax 
\providecommand\hyper@newdestlabel[2]{}
\providecommand\babel@aux[2]{}
\@nameuse{bbl@beforestart}
\catcode `"\active 
\nicematrix@redefine@check@rerun 
\abx@aux@refcontext{nty/global//global/global}
\providecommand\HyperFirstAtBeginDocument{\AtBeginDocument}
\HyperFirstAtBeginDocument{\ifx\hyper@anchor\@undefined
\global\let\oldcontentsline\contentsline
\gdef\contentsline#1#2#3#4{\oldcontentsline{#1}{#2}{#3}}
\global\let\oldnewlabel\newlabel
\gdef\newlabel#1#2{\newlabelxx{#1}#2}
\gdef\newlabelxx#1#2#3#4#5#6{\oldnewlabel{#1}{{#2}{#3}}}
\AtEndDocument{\ifx\hyper@anchor\@undefined
\let\contentsline\oldcontentsline
\let\newlabel\oldnewlabel
\fi}
\fi}
\global\let\hyper@last\relax 
\gdef\HyperFirstAtBeginDocument#1{#1}
\providecommand\HyField@AuxAddToFields[1]{}
\providecommand\HyField@AuxAddToCoFields[2]{}
\providecommand\@newglossary[4]{}
\@newglossary{main}{glg}{gls}{glo}
\providecommand\@glsorder[1]{}
\providecommand\@istfilename[1]{}
\@istfilename{forth.xdy}
\@glsorder{word}
\babel@aux{russian}{}
\@writefile{toc}{\contentsline {section}{\numberline {1}Номер 1}{2}{section.1}\protected@file@percent }
\@writefile{toc}{\contentsline {subsection}{\numberline {1.1}Условие}{2}{subsection.1.1}\protected@file@percent }
\@writefile{toc}{\contentsline {subsection}{\numberline {1.2}Код}{2}{subsection.1.2}\protected@file@percent }
\@writefile{lof}{\contentsline {figure}{\numberline {1.1}{\ignorespaces Работа с R в №1\relax }}{2}{figure.caption.1}\protected@file@percent }
\providecommand*\caption@xref[2]{\@setref\relax\@undefined{#1}}
\newlabel{Работа с R в №1}{{1.1}{2}{Работа с R в №1\relax }{figure.caption.1}{}}
\@writefile{toc}{\contentsline {subsection}{\numberline {1.3}Ответ}{2}{subsection.1.3}\protected@file@percent }
\@writefile{toc}{\contentsline {section}{\numberline {2}Номер 2}{3}{section.2}\protected@file@percent }
\@writefile{toc}{\contentsline {subsection}{\numberline {2.1}Условие}{3}{subsection.2.1}\protected@file@percent }
\@writefile{toc}{\contentsline {subsection}{\numberline {2.2}Код}{3}{subsection.2.2}\protected@file@percent }
\@writefile{lof}{\contentsline {figure}{\numberline {2.1}{\ignorespaces Работа с R в №2\relax }}{3}{figure.caption.2}\protected@file@percent }
\newlabel{Работа с R в №2}{{2.1}{3}{Работа с R в №2\relax }{figure.caption.2}{}}
\@writefile{toc}{\contentsline {subsection}{\numberline {2.3}Ответ}{3}{subsection.2.3}\protected@file@percent }
\@writefile{toc}{\contentsline {section}{\numberline {3}Номер 3}{4}{section.3}\protected@file@percent }
\@writefile{toc}{\contentsline {subsection}{\numberline {3.1}Условие}{4}{subsection.3.1}\protected@file@percent }
\@writefile{toc}{\contentsline {subsection}{\numberline {3.2}Код}{4}{subsection.3.2}\protected@file@percent }
\@writefile{lof}{\contentsline {figure}{\numberline {3.1}{\ignorespaces Работа с R в №3\relax }}{4}{figure.caption.3}\protected@file@percent }
\newlabel{Работа с R в №3}{{3.1}{4}{Работа с R в №3\relax }{figure.caption.3}{}}
\@writefile{toc}{\contentsline {subsection}{\numberline {3.3}Ответ}{5}{subsection.3.3}\protected@file@percent }
\@writefile{toc}{\contentsline {section}{\numberline {4}Номер 4}{5}{section.4}\protected@file@percent }
\@writefile{toc}{\contentsline {subsection}{\numberline {4.1}Условие}{5}{subsection.4.1}\protected@file@percent }
\@writefile{toc}{\contentsline {subsection}{\numberline {4.2}Код}{5}{subsection.4.2}\protected@file@percent }
\@writefile{lof}{\contentsline {figure}{\numberline {4.1}{\ignorespaces Работа с R в №4\relax }}{5}{figure.caption.4}\protected@file@percent }
\newlabel{Работа с R в №4}{{4.1}{5}{Работа с R в №4\relax }{figure.caption.4}{}}
\@writefile{toc}{\contentsline {subsection}{\numberline {4.3}Ответ}{6}{subsection.4.3}\protected@file@percent }
\@writefile{toc}{\contentsline {section}{\numberline {5}Номер 5}{6}{section.5}\protected@file@percent }
\@writefile{toc}{\contentsline {subsection}{\numberline {5.1}Условие}{6}{subsection.5.1}\protected@file@percent }
\@writefile{toc}{\contentsline {subsection}{\numberline {5.2}Код}{6}{subsection.5.2}\protected@file@percent }
\@writefile{lof}{\contentsline {figure}{\numberline {5.1}{\ignorespaces Работа с R в №5\relax }}{6}{figure.caption.5}\protected@file@percent }
\newlabel{Работа с R в №5}{{5.1}{6}{Работа с R в №5\relax }{figure.caption.5}{}}
\@writefile{toc}{\contentsline {subsection}{\numberline {5.3}Ответ}{7}{subsection.5.3}\protected@file@percent }
\@writefile{toc}{\contentsline {section}{\numberline {6}Номер 6}{7}{section.6}\protected@file@percent }
\@writefile{toc}{\contentsline {subsection}{\numberline {6.1}Условие}{7}{subsection.6.1}\protected@file@percent }
\@writefile{toc}{\contentsline {subsection}{\numberline {6.2}Код}{7}{subsection.6.2}\protected@file@percent }
\@writefile{lof}{\contentsline {figure}{\numberline {6.1}{\ignorespaces Работа с R в №6\relax }}{7}{figure.caption.6}\protected@file@percent }
\newlabel{Работа с R в №6}{{6.1}{7}{Работа с R в №6\relax }{figure.caption.6}{}}
\@writefile{toc}{\contentsline {subsection}{\numberline {6.3}Ответ}{8}{subsection.6.3}\protected@file@percent }
\@writefile{toc}{\contentsline {section}{\numberline {7}Номер 7}{8}{section.7}\protected@file@percent }
\@writefile{toc}{\contentsline {subsection}{\numberline {7.1}Условие}{8}{subsection.7.1}\protected@file@percent }
\@writefile{toc}{\contentsline {subsection}{\numberline {7.2}Код}{8}{subsection.7.2}\protected@file@percent }
\@writefile{lof}{\contentsline {figure}{\numberline {7.1}{\ignorespaces Работа с R в №7\relax }}{8}{figure.caption.7}\protected@file@percent }
\newlabel{Работа с R в №7}{{7.1}{8}{Работа с R в №7\relax }{figure.caption.7}{}}
\@writefile{toc}{\contentsline {subsection}{\numberline {7.3}Ответ}{8}{subsection.7.3}\protected@file@percent }
\@writefile{toc}{\contentsline {section}{\numberline {8}Номер 8}{9}{section.8}\protected@file@percent }
\@writefile{toc}{\contentsline {subsection}{\numberline {8.1}Условие}{9}{subsection.8.1}\protected@file@percent }
\@writefile{toc}{\contentsline {subsection}{\numberline {8.2}Код}{9}{subsection.8.2}\protected@file@percent }
\@writefile{lof}{\contentsline {figure}{\numberline {8.1}{\ignorespaces Работа с R в №8\relax }}{9}{figure.caption.8}\protected@file@percent }
\newlabel{Работа с R в №8}{{8.1}{9}{Работа с R в №8\relax }{figure.caption.8}{}}
\@writefile{toc}{\contentsline {subsection}{\numberline {8.3}Ответ}{9}{subsection.8.3}\protected@file@percent }
\@writefile{toc}{\contentsline {section}{\numberline {9}Номер 9}{10}{section.9}\protected@file@percent }
\@writefile{toc}{\contentsline {subsection}{\numberline {9.1}Условие}{10}{subsection.9.1}\protected@file@percent }
\@writefile{toc}{\contentsline {subsection}{\numberline {9.2}Код}{10}{subsection.9.2}\protected@file@percent }
\@writefile{lof}{\contentsline {figure}{\numberline {9.1}{\ignorespaces Работа с R в №9\relax }}{11}{figure.caption.9}\protected@file@percent }
\newlabel{Работа с R в №9}{{9.1}{11}{Работа с R в №9\relax }{figure.caption.9}{}}
\@writefile{toc}{\contentsline {subsection}{\numberline {9.3}Ответ}{11}{subsection.9.3}\protected@file@percent }
\@writefile{toc}{\contentsline {section}{\numberline {10}Номер 10}{12}{section.10}\protected@file@percent }
\@writefile{toc}{\contentsline {subsection}{\numberline {10.1}Условие}{12}{subsection.10.1}\protected@file@percent }
\@writefile{toc}{\contentsline {subsection}{\numberline {10.2}Код}{12}{subsection.10.2}\protected@file@percent }
\@writefile{lof}{\contentsline {figure}{\numberline {10.1}{\ignorespaces Работа с R в №10\relax }}{13}{figure.caption.10}\protected@file@percent }
\newlabel{Работа с R в №10}{{10.1}{13}{Работа с R в №10\relax }{figure.caption.10}{}}
\@writefile{toc}{\contentsline {subsection}{\numberline {10.3}Ответ}{13}{subsection.10.3}\protected@file@percent }
\newlabel{LastPage}{{}{16}{}{page.16}{}}
\xdef\lastpage@lastpage{16}
\xdef\lastpage@lastpageHy{16}
\abx@aux@read@bbl@mdfivesum{nobblfile}
\gdef \@abspage@last{16}
