> # №22
> s &lt;- function(N_var) {
<span foreground="red">+   set.seed(N_var); load("NEO")</span>
<span foreground="red">+   x &lt;- sample(names(NEO)[19:53][-c(1,8,15,22,29)],1)</span>
<span foreground="red">+ </span>
<span foreground="red">+   s &lt;- na.omit(subset(NEO</span>
<span foreground="red">+                     , select = eval(parse(text=x))</span>
<span foreground="red">+                     , subset = (ПОЛ == "ЖЕН")))[,1]</span>
<span foreground="red">+   ks.test(s,"pnorm")$p.value</span>
<span foreground="red">+ }</span>
> 
> s(1)
[1] 0
> s(2)
[1] 0
> s(3)
[1] 0
> s(4)
[1] 0
> s(5)
[1] 0
> s(6)
[1] 0
> s(7)
[1] 0
> s(8)
[1] 0
> s(9)
[1] 0
> s(10)
[1] 0
> s(11)
[1] 0
> 
