\boolfalse {citerequest}\boolfalse {citetracker}\boolfalse {pagetracker}\boolfalse {backtracker}\relax 
\babel@toc {russian}{}
\defcounter {refsection}{0}\relax 
\contentsline {section}{\numberline {1}Структуры, используемые в программе для эмуляции геометрических объектов}{2}{section.1}%
\defcounter {refsection}{0}\relax 
\contentsline {section}{\numberline {2}Задача 1}{3}{section.2}%
\defcounter {refsection}{0}\relax 
\contentsline {section}{\numberline {3}Задача 2}{5}{section.3}%
\defcounter {refsection}{0}\relax 
\contentsline {section}{\numberline {4}Задача 3}{7}{section.4}%
\defcounter {refsection}{0}\relax 
\contentsline {section}{\numberline {5}Задача 4}{8}{section.5}%
\defcounter {refsection}{0}\relax 
\contentsline {section}{\numberline {6}Задача 5}{9}{section.6}%
\defcounter {refsection}{0}\relax 
\contentsline {section}{\numberline {7}Задача 6}{10}{section.7}%
\defcounter {refsection}{0}\relax 
\contentsline {section}{\numberline {8}Задача 7}{12}{section.8}%
\defcounter {refsection}{0}\relax 
\contentsline {section}{\numberline {9}Задача 8}{14}{section.9}%
\defcounter {refsection}{0}\relax 
\contentsline {section}{\numberline {10}Задача 9}{16}{section.10}%
\defcounter {refsection}{0}\relax 
\contentsline {section}{\numberline {11}Задача 10}{17}{section.11}%
\defcounter {refsection}{0}\relax 
\contentsline {section}{\numberline {12}Вывод}{19}{section.12}%
