\relax 
\providecommand\hyper@newdestlabel[2]{}
\providecommand\babel@aux[2]{}
\@nameuse{bbl@beforestart}
\catcode `"\active 
\nicematrix@redefine@check@rerun 
\@writefile{toc}{\boolfalse {citerequest}\boolfalse {citetracker}\boolfalse {pagetracker}\boolfalse {backtracker}\relax }
\@writefile{lof}{\boolfalse {citerequest}\boolfalse {citetracker}\boolfalse {pagetracker}\boolfalse {backtracker}\relax }
\@writefile{lot}{\boolfalse {citerequest}\boolfalse {citetracker}\boolfalse {pagetracker}\boolfalse {backtracker}\relax }
\abx@aux@refcontext{nty/global//global/global}
\providecommand\HyperFirstAtBeginDocument{\AtBeginDocument}
\HyperFirstAtBeginDocument{\ifx\hyper@anchor\@undefined
\global\let\oldcontentsline\contentsline
\gdef\contentsline#1#2#3#4{\oldcontentsline{#1}{#2}{#3}}
\global\let\oldnewlabel\newlabel
\gdef\newlabel#1#2{\newlabelxx{#1}#2}
\gdef\newlabelxx#1#2#3#4#5#6{\oldnewlabel{#1}{{#2}{#3}}}
\AtEndDocument{\ifx\hyper@anchor\@undefined
\let\contentsline\oldcontentsline
\let\newlabel\oldnewlabel
\fi}
\fi}
\global\let\hyper@last\relax 
\gdef\HyperFirstAtBeginDocument#1{#1}
\providecommand\HyField@AuxAddToFields[1]{}
\providecommand\HyField@AuxAddToCoFields[2]{}
\providecommand\@newglossary[4]{}
\@newglossary{main}{glg}{gls}{glo}
\providecommand\@glsorder[1]{}
\providecommand\@istfilename[1]{}
\@istfilename{first.xdy}
\@glsorder{word}
\babel@aux{russian}{}
\@writefile{toc}{\defcounter {refsection}{0}\relax }\@writefile{toc}{\contentsline {section}{\numberline {1}Структуры, используемые в программе для эмуляции геометрических объектов}{2}{section.1}\protected@file@percent }
\@writefile{toc}{\defcounter {refsection}{0}\relax }\@writefile{toc}{\contentsline {section}{\numberline {2}Задача 1}{3}{section.2}\protected@file@percent }
\newlabel{fist:Задача 1}{{2}{3}{Задача 1}{section.2}{}}
\@writefile{lomylisting}{\defcounter {refsection}{0}\relax }\@writefile{lomylisting}{\contentsline {mylisting}{\numberline {2.1}{\ignorespaces Задача 1\relax }}{3}{mylisting.2.1}\protected@file@percent }
\@writefile{toc}{\defcounter {refsection}{0}\relax }\@writefile{toc}{\contentsline {section}{\numberline {3}Задача 2}{5}{section.3}\protected@file@percent }
\newlabel{fist:Задача 2}{{3}{5}{Задача 2}{section.3}{}}
\@writefile{lomylisting}{\defcounter {refsection}{0}\relax }\@writefile{lomylisting}{\contentsline {mylisting}{\numberline {3.1}{\ignorespaces Задача 2\relax }}{5}{mylisting.3.1}\protected@file@percent }
\@writefile{toc}{\defcounter {refsection}{0}\relax }\@writefile{toc}{\contentsline {section}{\numberline {4}Задача 3}{7}{section.4}\protected@file@percent }
\newlabel{fist:Задача 3}{{4}{7}{Задача 3}{section.4}{}}
\@writefile{lomylisting}{\defcounter {refsection}{0}\relax }\@writefile{lomylisting}{\contentsline {mylisting}{\numberline {4.1}{\ignorespaces Задача 3\relax }}{7}{mylisting.4.1}\protected@file@percent }
\@writefile{toc}{\defcounter {refsection}{0}\relax }\@writefile{toc}{\contentsline {section}{\numberline {5}Задача 4}{8}{section.5}\protected@file@percent }
\newlabel{fist:Задача 4}{{5}{8}{Задача 4}{section.5}{}}
\@writefile{lomylisting}{\defcounter {refsection}{0}\relax }\@writefile{lomylisting}{\contentsline {mylisting}{\numberline {5.1}{\ignorespaces Задача 4\relax }}{8}{mylisting.5.1}\protected@file@percent }
\@writefile{toc}{\defcounter {refsection}{0}\relax }\@writefile{toc}{\contentsline {section}{\numberline {6}Задача 5}{9}{section.6}\protected@file@percent }
\newlabel{fist:Задача 5}{{6}{9}{Задача 5}{section.6}{}}
\@writefile{lomylisting}{\defcounter {refsection}{0}\relax }\@writefile{lomylisting}{\contentsline {mylisting}{\numberline {6.1}{\ignorespaces Задача 5\relax }}{9}{mylisting.6.1}\protected@file@percent }
\@writefile{toc}{\defcounter {refsection}{0}\relax }\@writefile{toc}{\contentsline {section}{\numberline {7}Задача 6}{10}{section.7}\protected@file@percent }
\newlabel{fist:Задача 6}{{7}{10}{Задача 6}{Item.3}{}}
\@writefile{lomylisting}{\defcounter {refsection}{0}\relax }\@writefile{lomylisting}{\contentsline {mylisting}{\numberline {7.1}{\ignorespaces Задача 6\relax }}{10}{mylisting.7.1}\protected@file@percent }
\@writefile{toc}{\defcounter {refsection}{0}\relax }\@writefile{toc}{\contentsline {section}{\numberline {8}Задача 7}{12}{section.8}\protected@file@percent }
\newlabel{fist:Задача 7}{{8}{12}{Задача 7}{section.8}{}}
\@writefile{lomylisting}{\defcounter {refsection}{0}\relax }\@writefile{lomylisting}{\contentsline {mylisting}{\numberline {8.1}{\ignorespaces Задача 7\relax }}{12}{mylisting.8.1}\protected@file@percent }
\@writefile{toc}{\defcounter {refsection}{0}\relax }\@writefile{toc}{\contentsline {section}{\numberline {9}Задача 8}{14}{section.9}\protected@file@percent }
\newlabel{fist:Задача 8}{{9}{14}{Задача 8}{section.9}{}}
\@writefile{lomylisting}{\defcounter {refsection}{0}\relax }\@writefile{lomylisting}{\contentsline {mylisting}{\numberline {9.1}{\ignorespaces Задача 8\relax }}{14}{mylisting.9.1}\protected@file@percent }
\@writefile{toc}{\defcounter {refsection}{0}\relax }\@writefile{toc}{\contentsline {section}{\numberline {10}Задача 9}{16}{section.10}\protected@file@percent }
\newlabel{fist:Задача 9}{{10}{16}{Задача 9}{section.10}{}}
\@writefile{lomylisting}{\defcounter {refsection}{0}\relax }\@writefile{lomylisting}{\contentsline {mylisting}{\numberline {10.1}{\ignorespaces Задача 9\relax }}{16}{mylisting.10.1}\protected@file@percent }
\@writefile{toc}{\defcounter {refsection}{0}\relax }\@writefile{toc}{\contentsline {section}{\numberline {11}Задача 10}{17}{section.11}\protected@file@percent }
\newlabel{fist:Задача 10}{{11}{17}{Задача 10}{Item.7}{}}
\@writefile{lomylisting}{\defcounter {refsection}{0}\relax }\@writefile{lomylisting}{\contentsline {mylisting}{\numberline {11.1}{\ignorespaces Задача 10\relax }}{17}{mylisting.11.1}\protected@file@percent }
\@writefile{toc}{\defcounter {refsection}{0}\relax }\@writefile{toc}{\contentsline {section}{\numberline {12}Вывод}{19}{section.12}\protected@file@percent }
\gdef\minted@oldcachelist{,
  default-pyg-prefix.pygstyle,
  default.pygstyle,
  8A2DEB38C71466AE39EEF19A8B25E7932A28AE1177763E83F1700F857332DC08.pygtex,
  13A1212CCBE6A8F6E545E129CE50098A2A28AE1177763E83F1700F857332DC08.pygtex,
  03C1BBB8A3A90AF23CC506D14B3EF0782A28AE1177763E83F1700F857332DC08.pygtex,
  138947B66C23B8C7387A605594E864A42A28AE1177763E83F1700F857332DC08.pygtex,
  BD9F6253346A02C8591801F24E80E4BF2A28AE1177763E83F1700F857332DC08.pygtex,
  D0E7A1A81240EF74E225E2D6D41A1EDF2A28AE1177763E83F1700F857332DC08.pygtex,
  F22311E28FBC08D0CAA8F020338C0C6A2A28AE1177763E83F1700F857332DC08.pygtex,
  4219B6CDF28ABE08A175EE23902C67DA2A28AE1177763E83F1700F857332DC08.pygtex,
  DA04B5FFD89D63FC083A6AF84C2972E72A28AE1177763E83F1700F857332DC08.pygtex,
  E8ED6B9E66E8985D6AA5BA981451BF862A28AE1177763E83F1700F857332DC08.pygtex}
\newlabel{LastPage}{{}{21}{}{page.21}{}}
\xdef\lastpage@lastpage{21}
\xdef\lastpage@lastpageHy{21}
\gdef \@abspage@last{21}
