\relax 
\providecommand\hyper@newdestlabel[2]{}
\providecommand\babel@aux[2]{}
\@nameuse{bbl@beforestart}
\catcode `"\active 
\nicematrix@redefine@check@rerun 
\abx@aux@refcontext{nty/global//global/global}
\providecommand\HyperFirstAtBeginDocument{\AtBeginDocument}
\HyperFirstAtBeginDocument{\ifx\hyper@anchor\@undefined
\global\let\oldcontentsline\contentsline
\gdef\contentsline#1#2#3#4{\oldcontentsline{#1}{#2}{#3}}
\global\let\oldnewlabel\newlabel
\gdef\newlabel#1#2{\newlabelxx{#1}#2}
\gdef\newlabelxx#1#2#3#4#5#6{\oldnewlabel{#1}{{#2}{#3}}}
\AtEndDocument{\ifx\hyper@anchor\@undefined
\let\contentsline\oldcontentsline
\let\newlabel\oldnewlabel
\fi}
\fi}
\global\let\hyper@last\relax 
\gdef\HyperFirstAtBeginDocument#1{#1}
\providecommand\HyField@AuxAddToFields[1]{}
\providecommand\HyField@AuxAddToCoFields[2]{}
\babel@aux{russian}{}
\ExplSyntaxOn \cs_if_free:NT \pgfsyspdfmark {\cs_set_eq:NN \pgfsyspdfmark \@gobblethree }\ExplSyntaxOff 
\ExplSyntaxOn 
\char_set_catcode_space:n {32}
\tl_gset:cn {c__nicematrix_1_tl}{\seq_gset_from_clist:Nn \g__nicematrix_size_seq {1,5,5,1,3,3}}
\ExplSyntaxOff 
\@LN@col{1}
\@writefile{toc}{\contentsline {section}{\numberline {1}Задание №1}{3}{section.1}\protected@file@percent }
\@LN@col{1}
\@LN@col{1}
\@writefile{toc}{\contentsline {section}{\numberline {2}Задание №2}{3}{section.2}\protected@file@percent }
\@writefile{lot}{\contentsline {table}{\numberline {1}{\ignorespaces Задание №1\relax }}{4}{table.caption.1}\protected@file@percent }
\providecommand*\caption@xref[2]{\@setref\relax\@undefined{#1}}
\newlabel{myt:Задание №1}{{1}{4}{Задание №1\relax }{table.caption.1}{}}
\pgfsyspdfmark {nm-1-position}{18950775}{44651425}
\pgfsyspdfmark {pgfid4}{18950775}{44651425}
\pgfsyspdfmark {pgfid5}{18950775}{44651425}
\pgfsyspdfmark {nm-1-row-1}{18950775}{49007254}
\pgfsyspdfmark {pgfid7}{18950775}{49030191}
\pgfsyspdfmark {nm-1-row-1}{18950775}{49007254}
\pgfsyspdfmark {pgfid8}{18950775}{49030191}
\pgfsyspdfmark {pgfid9}{18997877}{47666496}
\pgfsyspdfmark {pgfid10}{19181786}{47666496}
\pgfsyspdfmark {pgfid11}{20441436}{47666496}
\pgfsyspdfmark {pgfid12}{21794065}{47666496}
\pgfsyspdfmark {nm-1-row-2}{18950775}{47209050}
\pgfsyspdfmark {pgfid13}{18950775}{47231987}
\pgfsyspdfmark {nm-1-row-2}{18950775}{47040216}
\pgfsyspdfmark {pgfid14}{18950775}{47063153}
\pgfsyspdfmark {pgfid15}{18950775}{45768403}
\pgfsyspdfmark {pgfid16}{19181786}{45768403}
\pgfsyspdfmark {pgfid17}{20441436}{45768403}
\pgfsyspdfmark {pgfid18}{21794065}{45768403}
\pgfsyspdfmark {nm-1-row-3}{18950775}{45310957}
\pgfsyspdfmark {pgfid19}{18950775}{45333894}
\pgfsyspdfmark {pgfid20}{18950775}{44320055}
\pgfsyspdfmark {pgfid21}{19181786}{44320055}
\pgfsyspdfmark {pgfid22}{20441436}{44320055}
\pgfsyspdfmark {pgfid23}{21794065}{44320055}
\pgfsyspdfmark {nm-1-row-4}{18950775}{43862609}
\pgfsyspdfmark {pgfid24}{18950775}{43885546}
\pgfsyspdfmark {pgfid25}{18950775}{42871707}
\pgfsyspdfmark {pgfid26}{19181786}{42871707}
\pgfsyspdfmark {pgfid27}{20441436}{42871707}
\pgfsyspdfmark {pgfid28}{21794065}{42871707}
\pgfsyspdfmark {nm-1-row-5}{18950775}{42414261}
\pgfsyspdfmark {pgfid29}{18950775}{42437198}
\pgfsyspdfmark {pgfid30}{18950775}{41423359}
\pgfsyspdfmark {pgfid31}{19181786}{41423359}
\pgfsyspdfmark {pgfid32}{20441436}{41423359}
\pgfsyspdfmark {pgfid33}{21794065}{41423359}
\pgfsyspdfmark {nm-1-row-6}{18950775}{40965913}
\pgfsyspdfmark {pgfid34}{18950775}{40988850}
\pgfsyspdfmark {nm-1-row-6}{18950775}{40797079}
\pgfsyspdfmark {pgfid35}{18950775}{40820016}
\pgfsyspdfmark {nm-1-col-1}{18973712}{40744517}
\pgfsyspdfmark {pgfid36}{18950775}{40744517}
\pgfsyspdfmark {nm-1-col-2}{19783076}{40744517}
\pgfsyspdfmark {pgfid37}{19806013}{40744517}
\pgfsyspdfmark {nm-1-col-3}{21099797}{40744517}
\pgfsyspdfmark {pgfid38}{21122734}{40744517}
\pgfsyspdfmark {nm-1-col-4}{22049243}{40744517}
\pgfsyspdfmark {pgfid39}{22072180}{40744517}
\pgfsyspdfmark {pgfid40}{22072180}{44651425}
\savepicturepage{pgfid42}{4}
\pgfsyspdfmark {pgfid42}{22072180}{44651425}
\pgfsyspdfmark {pgfid43}{22072180}{44651425}
\@LN@col{1}
\@LN@col{1}
\ExplSyntaxOn 
\char_set_catcode_space:n {32}
\tl_gset:cn {c__nicematrix_2_tl}{\seq_gset_from_clist:Nn \g__nicematrix_size_seq {1,9,9,1,5,5}}
\ExplSyntaxOff 
\@writefile{lot}{\contentsline {table}{\numberline {2}{\ignorespaces Задание №2\relax }}{5}{table.caption.2}\protected@file@percent }
\newlabel{myt:Задание №2}{{2}{5}{Задание №2\relax }{table.caption.2}{}}
\pgfsyspdfmark {nm-2-position}{17379709}{41529856}
\pgfsyspdfmark {pgfid46}{17379709}{41529856}
\pgfsyspdfmark {pgfid47}{17379709}{41529856}
\pgfsyspdfmark {nm-2-row-1}{17379709}{49007254}
\pgfsyspdfmark {pgfid49}{17379709}{49030191}
\pgfsyspdfmark {nm-2-row-1}{17379709}{49007254}
\pgfsyspdfmark {pgfid50}{17379709}{49030191}
\pgfsyspdfmark {pgfid51}{17379709}{47666496}
\pgfsyspdfmark {pgfid52}{17681565}{47666496}
\pgfsyspdfmark {pgfid53}{19012060}{47666496}
\pgfsyspdfmark {pgfid54}{20276353}{47666496}
\pgfsyspdfmark {pgfid55}{21776850}{47666496}
\pgfsyspdfmark {pgfid56}{23365133}{47666496}
\pgfsyspdfmark {nm-2-row-2}{17379709}{47209050}
\pgfsyspdfmark {pgfid57}{17379709}{47231987}
\pgfsyspdfmark {nm-2-row-2}{17379709}{47040216}
\pgfsyspdfmark {pgfid58}{17379709}{47063153}
\pgfsyspdfmark {pgfid59}{17379709}{45768403}
\pgfsyspdfmark {pgfid60}{17615638}{45768403}
\pgfsyspdfmark {pgfid61}{19005782}{45768403}
\pgfsyspdfmark {pgfid62}{20276628}{45768403}
\pgfsyspdfmark {pgfid63}{21776850}{45768403}
\pgfsyspdfmark {pgfid64}{23322947}{45768403}
\pgfsyspdfmark {nm-2-row-3}{17379709}{45310957}
\pgfsyspdfmark {pgfid65}{17379709}{45333894}
\pgfsyspdfmark {pgfid66}{17379709}{44320055}
\pgfsyspdfmark {pgfid67}{17615638}{44320055}
\pgfsyspdfmark {pgfid68}{19005782}{44320055}
\pgfsyspdfmark {pgfid69}{20276628}{44320055}
\pgfsyspdfmark {pgfid70}{21776850}{44320055}
\pgfsyspdfmark {pgfid71}{23322947}{44320055}
\pgfsyspdfmark {nm-2-row-4}{17379709}{43862609}
\pgfsyspdfmark {pgfid72}{17379709}{43885546}
\pgfsyspdfmark {pgfid73}{17379709}{42871707}
\pgfsyspdfmark {pgfid74}{17615638}{42871707}
\pgfsyspdfmark {pgfid75}{19005782}{42871707}
\pgfsyspdfmark {pgfid76}{20276628}{42871707}
\pgfsyspdfmark {pgfid77}{21776850}{42871707}
\pgfsyspdfmark {pgfid78}{23322947}{42871707}
\pgfsyspdfmark {nm-2-row-5}{17379709}{42414261}
\pgfsyspdfmark {pgfid79}{17379709}{42437198}
\pgfsyspdfmark {pgfid80}{17379709}{41423359}
\pgfsyspdfmark {pgfid81}{17615638}{41423359}
\pgfsyspdfmark {pgfid82}{19005782}{41423359}
\pgfsyspdfmark {pgfid83}{20276628}{41423359}
\pgfsyspdfmark {pgfid84}{21776850}{41423359}
\pgfsyspdfmark {pgfid85}{23322947}{41423359}
\pgfsyspdfmark {nm-2-row-6}{17379709}{40965913}
\pgfsyspdfmark {pgfid86}{17379709}{40988850}
\pgfsyspdfmark {nm-2-row-6}{17379709}{40797079}
\pgfsyspdfmark {pgfid87}{17379709}{40820016}
\pgfsyspdfmark {pgfid88}{17379709}{39525266}
\pgfsyspdfmark {pgfid89}{17615638}{39525266}
\pgfsyspdfmark {pgfid90}{19005782}{39525266}
\pgfsyspdfmark {pgfid91}{20276628}{39525266}
\pgfsyspdfmark {pgfid92}{21776850}{39525266}
\pgfsyspdfmark {pgfid93}{23322947}{39525266}
\pgfsyspdfmark {nm-2-row-7}{17379709}{39067820}
\pgfsyspdfmark {pgfid94}{17379709}{39090757}
\pgfsyspdfmark {pgfid95}{17379709}{38076918}
\pgfsyspdfmark {pgfid96}{17615638}{38076918}
\pgfsyspdfmark {pgfid97}{19005782}{38076918}
\pgfsyspdfmark {pgfid98}{20276628}{38076918}
\pgfsyspdfmark {pgfid99}{21776850}{38076918}
\pgfsyspdfmark {pgfid100}{23322947}{38076918}
\pgfsyspdfmark {nm-2-row-8}{17379709}{37619472}
\pgfsyspdfmark {pgfid101}{17379709}{37642409}
\pgfsyspdfmark {pgfid102}{17379709}{36628570}
\pgfsyspdfmark {pgfid103}{17615638}{36628570}
\pgfsyspdfmark {pgfid104}{19005782}{36628570}
\pgfsyspdfmark {pgfid105}{20276628}{36628570}
\pgfsyspdfmark {pgfid106}{21776850}{36628570}
\pgfsyspdfmark {pgfid107}{23322947}{36628570}
\pgfsyspdfmark {nm-2-row-9}{17379709}{36171124}
\pgfsyspdfmark {pgfid108}{17379709}{36194061}
\pgfsyspdfmark {pgfid109}{17379709}{35180222}
\pgfsyspdfmark {pgfid110}{17615638}{35180222}
\pgfsyspdfmark {pgfid111}{19005782}{35180222}
\pgfsyspdfmark {pgfid112}{20276628}{35180222}
\pgfsyspdfmark {pgfid113}{21776850}{35180222}
\pgfsyspdfmark {pgfid114}{23322947}{35180222}
\pgfsyspdfmark {nm-2-row-10}{17379709}{34722776}
\pgfsyspdfmark {pgfid115}{17379709}{34745713}
\pgfsyspdfmark {nm-2-row-10}{17379709}{34553942}
\pgfsyspdfmark {pgfid116}{17379709}{34576879}
\pgfsyspdfmark {nm-2-col-1}{17402646}{34501380}
\pgfsyspdfmark {pgfid117}{17379709}{34501380}
\pgfsyspdfmark {nm-2-col-2}{18353700}{34501380}
\pgfsyspdfmark {pgfid118}{18376637}{34501380}
\pgfsyspdfmark {nm-2-col-3}{19624546}{34501380}
\pgfsyspdfmark {pgfid119}{19647483}{34501380}
\pgfsyspdfmark {nm-2-col-4}{20882836}{34501380}
\pgfsyspdfmark {pgfid120}{20905773}{34501380}
\pgfsyspdfmark {nm-2-col-5}{22670865}{34501380}
\pgfsyspdfmark {pgfid121}{22693802}{34501380}
\pgfsyspdfmark {nm-2-col-6}{23620311}{34501380}
\pgfsyspdfmark {pgfid122}{23643248}{34501380}
\pgfsyspdfmark {pgfid123}{23643248}{41529856}
\savepicturepage{pgfid125}{5}
\pgfsyspdfmark {pgfid125}{23643248}{41529856}
\pgfsyspdfmark {pgfid126}{23643248}{41529856}
\@LN@col{1}
\@LN@col{1}
\@writefile{toc}{\contentsline {section}{\numberline {3}Задание №3}{5}{section.3}\protected@file@percent }
\@LN@col{1}
\@LN@col{1}
\ExplSyntaxOn 
\char_set_catcode_space:n {32}
\tl_gset:cn {c__nicematrix_3_tl}{\seq_gset_from_clist:Nn \g__nicematrix_size_seq {1,4,4,1,6,6}}
\ExplSyntaxOff 
\ExplSyntaxOn 
\char_set_catcode_space:n {32}
\tl_gset:cn {c__nicematrix_4_tl}{\seq_gset_from_clist:Nn \g__nicematrix_size_seq {1,9,9,1,6,6}}
\ExplSyntaxOff 
\@writefile{lot}{\contentsline {table}{\numberline {3}{\ignorespaces Задание №3\relax }}{6}{table.caption.3}\protected@file@percent }
\newlabel{myt:Задание №3}{{3}{6}{Задание №3\relax }{table.caption.3}{}}
\pgfsyspdfmark {pgfid128}{14645671}{49030191}
\pgfsyspdfmark {pgfid129}{14645671}{49030191}
\pgfsyspdfmark {pgfid130}{14645671}{47666496}
\pgfsyspdfmark {pgfid131}{18914949}{47666496}
\pgfsyspdfmark {pgfid132}{20645155}{47666496}
\pgfsyspdfmark {pgfid133}{22235961}{47666496}
\pgfsyspdfmark {pgfid134}{23968897}{47666496}
\pgfsyspdfmark {pgfid135}{25881019}{47666496}
\pgfsyspdfmark {pgfid136}{14645671}{47231987}
\pgfsyspdfmark {pgfid137}{14645671}{47063153}
\pgfsyspdfmark {pgfid138}{14645671}{45768403}
\pgfsyspdfmark {pgfid139}{14876682}{45768403}
\pgfsyspdfmark {pgfid140}{18935815}{45768403}
\pgfsyspdfmark {pgfid141}{20666021}{45768403}
\pgfsyspdfmark {pgfid142}{22396227}{45768403}
\pgfsyspdfmark {pgfid143}{25856639}{45768403}
\pgfsyspdfmark {pgfid144}{14645671}{45333894}
\pgfsyspdfmark {pgfid145}{14645671}{44320055}
\pgfsyspdfmark {pgfid146}{15150429}{44320055}
\pgfsyspdfmark {pgfid147}{18935815}{44320055}
\pgfsyspdfmark {pgfid148}{24126433}{44320055}
\pgfsyspdfmark {pgfid149}{25856639}{44320055}
\pgfsyspdfmark {pgfid150}{14645671}{43885546}
\pgfsyspdfmark {pgfid151}{14645671}{42871707}
\pgfsyspdfmark {pgfid152}{16138646}{42871707}
\pgfsyspdfmark {pgfid153}{18935815}{42871707}
\pgfsyspdfmark {pgfid154}{25856639}{42871707}
\pgfsyspdfmark {pgfid155}{14645671}{42437198}
\pgfsyspdfmark {pgfid156}{14645671}{42268364}
\pgfsyspdfmark {pgfid157}{14645671}{42192865}
\pgfsyspdfmark {pgfid158}{18070712}{42192865}
\pgfsyspdfmark {pgfid159}{19800918}{42192865}
\pgfsyspdfmark {pgfid160}{21531124}{42192865}
\pgfsyspdfmark {pgfid161}{23261330}{42192865}
\pgfsyspdfmark {pgfid162}{24991536}{42192865}
\pgfsyspdfmark {pgfid163}{26377286}{42192865}
\pgfsyspdfmark {pgfid164}{26377286}{45375599}
\savepicturepage{pgfid166}{6}
\pgfsyspdfmark {pgfid166}{26377286}{45375599}
\pgfsyspdfmark {pgfid167}{26377286}{45375599}
\@LN@col{1}
\@LN@col{1}
\@writefile{lot}{\contentsline {table}{\numberline {4}{\ignorespaces Задание №3, 3-я функция\relax }}{7}{table.caption.4}\protected@file@percent }
\newlabel{myt:Задание №3, 3-я функция}{{4}{7}{Задание №3, 3-я функция\relax }{table.caption.4}{}}
\pgfsyspdfmark {nm-4-position}{16723941}{26668134}
\pgfsyspdfmark {pgfid169}{16723941}{26668134}
\pgfsyspdfmark {pgfid170}{16723941}{26668134}
\pgfsyspdfmark {nm-4-row-1}{16723941}{34145532}
\pgfsyspdfmark {pgfid172}{16723941}{34168469}
\pgfsyspdfmark {nm-4-row-1}{16723941}{34145532}
\pgfsyspdfmark {pgfid173}{16723941}{34168469}
\pgfsyspdfmark {pgfid174}{16723941}{32804774}
\pgfsyspdfmark {pgfid175}{17025797}{32804774}
\pgfsyspdfmark {pgfid176}{18356292}{32804774}
\pgfsyspdfmark {pgfid177}{19620585}{32804774}
\pgfsyspdfmark {pgfid178}{20905772}{32804774}
\pgfsyspdfmark {pgfid179}{22432616}{32804774}
\pgfsyspdfmark {pgfid180}{24020899}{32804774}
\pgfsyspdfmark {nm-4-row-2}{16723941}{32347328}
\pgfsyspdfmark {pgfid181}{16723941}{32370265}
\pgfsyspdfmark {nm-4-row-2}{16723941}{32178494}
\pgfsyspdfmark {pgfid182}{16723941}{32201431}
\pgfsyspdfmark {pgfid183}{16723941}{30906681}
\pgfsyspdfmark {pgfid184}{16959870}{30906681}
\pgfsyspdfmark {pgfid185}{18350014}{30906681}
\pgfsyspdfmark {pgfid186}{19620860}{30906681}
\pgfsyspdfmark {pgfid187}{20905772}{30906681}
\pgfsyspdfmark {pgfid188}{22432616}{30906681}
\pgfsyspdfmark {pgfid189}{23978713}{30906681}
\pgfsyspdfmark {nm-4-row-3}{16723941}{30449235}
\pgfsyspdfmark {pgfid190}{16723941}{30472172}
\pgfsyspdfmark {pgfid191}{16723941}{29458333}
\pgfsyspdfmark {pgfid192}{16959870}{29458333}
\pgfsyspdfmark {pgfid193}{18350014}{29458333}
\pgfsyspdfmark {pgfid194}{19620860}{29458333}
\pgfsyspdfmark {pgfid195}{20905772}{29458333}
\pgfsyspdfmark {pgfid196}{22432616}{29458333}
\pgfsyspdfmark {pgfid197}{23978713}{29458333}
\pgfsyspdfmark {nm-4-row-4}{16723941}{29000887}
\pgfsyspdfmark {pgfid198}{16723941}{29023824}
\pgfsyspdfmark {pgfid199}{16723941}{28009985}
\pgfsyspdfmark {pgfid200}{16959870}{28009985}
\pgfsyspdfmark {pgfid201}{18350014}{28009985}
\pgfsyspdfmark {pgfid202}{19620860}{28009985}
\pgfsyspdfmark {pgfid203}{20905772}{28009985}
\pgfsyspdfmark {pgfid204}{22432616}{28009985}
\pgfsyspdfmark {pgfid205}{23978713}{28009985}
\pgfsyspdfmark {nm-4-row-5}{16723941}{27552539}
\pgfsyspdfmark {pgfid206}{16723941}{27575476}
\pgfsyspdfmark {pgfid207}{16723941}{26561637}
\pgfsyspdfmark {pgfid208}{16959870}{26561637}
\pgfsyspdfmark {pgfid209}{18350014}{26561637}
\pgfsyspdfmark {pgfid210}{19620860}{26561637}
\pgfsyspdfmark {pgfid211}{20905772}{26561637}
\pgfsyspdfmark {pgfid212}{22432616}{26561637}
\pgfsyspdfmark {pgfid213}{23978713}{26561637}
\pgfsyspdfmark {nm-4-row-6}{16723941}{26104191}
\pgfsyspdfmark {pgfid214}{16723941}{26127128}
\pgfsyspdfmark {nm-4-row-6}{16723941}{25935357}
\pgfsyspdfmark {pgfid215}{16723941}{25958294}
\pgfsyspdfmark {pgfid216}{16723941}{24663544}
\pgfsyspdfmark {pgfid217}{16959870}{24663544}
\pgfsyspdfmark {pgfid218}{18350014}{24663544}
\pgfsyspdfmark {pgfid219}{19620860}{24663544}
\pgfsyspdfmark {pgfid220}{20905772}{24663544}
\pgfsyspdfmark {pgfid221}{22432616}{24663544}
\pgfsyspdfmark {pgfid222}{23978713}{24663544}
\pgfsyspdfmark {nm-4-row-7}{16723941}{24206098}
\pgfsyspdfmark {pgfid223}{16723941}{24229035}
\pgfsyspdfmark {pgfid224}{16723941}{23215196}
\pgfsyspdfmark {pgfid225}{16959870}{23215196}
\pgfsyspdfmark {pgfid226}{18350014}{23215196}
\pgfsyspdfmark {pgfid227}{19620860}{23215196}
\pgfsyspdfmark {pgfid228}{20905772}{23215196}
\pgfsyspdfmark {pgfid229}{22432616}{23215196}
\pgfsyspdfmark {pgfid230}{23978713}{23215196}
\pgfsyspdfmark {nm-4-row-8}{16723941}{22757750}
\pgfsyspdfmark {pgfid231}{16723941}{22780687}
\pgfsyspdfmark {pgfid232}{16723941}{21766848}
\pgfsyspdfmark {pgfid233}{16959870}{21766848}
\pgfsyspdfmark {pgfid234}{18350014}{21766848}
\pgfsyspdfmark {pgfid235}{19620860}{21766848}
\pgfsyspdfmark {pgfid236}{20905772}{21766848}
\pgfsyspdfmark {pgfid237}{22432616}{21766848}
\pgfsyspdfmark {pgfid238}{23978713}{21766848}
\pgfsyspdfmark {nm-4-row-9}{16723941}{21309402}
\pgfsyspdfmark {pgfid239}{16723941}{21332339}
\pgfsyspdfmark {pgfid240}{16723941}{20318500}
\pgfsyspdfmark {pgfid241}{16959870}{20318500}
\pgfsyspdfmark {pgfid242}{18350014}{20318500}
\pgfsyspdfmark {pgfid243}{19620860}{20318500}
\pgfsyspdfmark {pgfid244}{20905772}{20318500}
\pgfsyspdfmark {pgfid245}{22432616}{20318500}
\pgfsyspdfmark {pgfid246}{23978713}{20318500}
\pgfsyspdfmark {nm-4-row-10}{16723941}{19861054}
\pgfsyspdfmark {pgfid247}{16723941}{19883991}
\pgfsyspdfmark {nm-4-row-10}{16723941}{19692220}
\pgfsyspdfmark {pgfid248}{16723941}{19715157}
\pgfsyspdfmark {nm-4-col-1}{16746878}{19639658}
\pgfsyspdfmark {pgfid249}{16723941}{19639658}
\pgfsyspdfmark {nm-4-col-2}{17697932}{19639658}
\pgfsyspdfmark {pgfid250}{17720869}{19639658}
\pgfsyspdfmark {nm-4-col-3}{18968778}{19639658}
\pgfsyspdfmark {pgfid251}{18991715}{19639658}
\pgfsyspdfmark {nm-4-col-4}{20227068}{19639658}
\pgfsyspdfmark {pgfid252}{20250005}{19639658}
\pgfsyspdfmark {nm-4-col-5}{21538602}{19639658}
\pgfsyspdfmark {pgfid253}{21561539}{19639658}
\pgfsyspdfmark {nm-4-col-6}{23326631}{19639658}
\pgfsyspdfmark {pgfid254}{23349568}{19639658}
\pgfsyspdfmark {nm-4-col-7}{24276077}{19639658}
\pgfsyspdfmark {pgfid255}{24299014}{19639658}
\pgfsyspdfmark {pgfid256}{24299014}{26668134}
\savepicturepage{pgfid258}{7}
\pgfsyspdfmark {pgfid258}{24299014}{26668134}
\pgfsyspdfmark {pgfid259}{24299014}{26668134}
\newlabel{LastPage}{{}{7}{}{page.7}{}}
\xdef\lastpage@lastpage{7}
\xdef\lastpage@lastpageHy{7}
\abx@aux@read@bbl@mdfivesum{nobblfile}
\gdef \@abspage@last{7}
