\babel@toc {russian}{}\relax 
\contentsline {section}{\numberline {1}Задание №1}{3}{section.1}%
\contentsline {section}{\numberline {2}Задание №2}{3}{section.2}%
\contentsline {section}{\numberline {3}Задание №3}{5}{section.3}%
