\babel@toc {russian}{}\relax 
\contentsline {figure}{\numberline {1.1}{\ignorespaces Код номера 1\relax }}{2}{figure.caption.1}%
\contentsline {figure}{\numberline {1.2}{\ignorespaces Вывод номера 1\relax }}{2}{figure.caption.2}%
\contentsline {figure}{\numberline {2.1}{\ignorespaces Код номера 2\relax }}{3}{figure.caption.3}%
\contentsline {figure}{\numberline {2.2}{\ignorespaces Вывод номера 2\relax }}{3}{figure.caption.4}%
\contentsline {figure}{\numberline {3.1}{\ignorespaces Код номера 3\relax }}{4}{figure.caption.5}%
\contentsline {figure}{\numberline {3.2}{\ignorespaces Вывод номера 3\relax }}{4}{figure.caption.6}%
\contentsline {figure}{\numberline {4.1}{\ignorespaces Код номера 4\relax }}{5}{figure.caption.7}%
\contentsline {figure}{\numberline {4.2}{\ignorespaces Вывод номера 4\relax }}{6}{figure.caption.8}%
\contentsline {figure}{\numberline {5.1}{\ignorespaces Код номера 5\relax }}{7}{figure.caption.9}%
\contentsline {figure}{\numberline {5.2}{\ignorespaces Вывод номера 5\relax }}{7}{figure.caption.10}%
\contentsline {figure}{\numberline {6.1}{\ignorespaces Код номера 6\relax }}{8}{figure.caption.11}%
\contentsline {figure}{\numberline {6.2}{\ignorespaces Вывод номера 6\relax }}{8}{figure.caption.12}%
\contentsline {figure}{\numberline {7.1}{\ignorespaces Код номера 7\relax }}{9}{figure.caption.13}%
\contentsline {figure}{\numberline {7.2}{\ignorespaces Вывод номера 7\relax }}{9}{figure.caption.14}%
\contentsline {figure}{\numberline {8.1}{\ignorespaces Код номера 8\relax }}{10}{figure.caption.15}%
\contentsline {figure}{\numberline {8.2}{\ignorespaces Вывод номера 8\relax }}{10}{figure.caption.16}%
\contentsline {figure}{\numberline {9.1}{\ignorespaces Код номера 9\relax }}{11}{figure.caption.17}%
\contentsline {figure}{\numberline {9.2}{\ignorespaces Вывод номера 9\relax }}{11}{figure.caption.18}%
\contentsline {figure}{\numberline {10.1}{\ignorespaces Код номера 10\relax }}{12}{figure.caption.19}%
\contentsline {figure}{\numberline {10.2}{\ignorespaces Вывод номера 10\relax }}{12}{figure.caption.20}%
