\boolfalse {citerequest}\boolfalse {citetracker}\boolfalse {pagetracker}\boolfalse {backtracker}\relax 
\babel@toc {russian}{}
\defcounter {refsection}{0}\relax 
\contentsline {chapter}{\numberline {1}Задание}{3}{chapter.1}%
\defcounter {refsection}{0}\relax 
\contentsline {chapter}{\numberline {2}Unit 8}{4}{chapter.2}%
\defcounter {refsection}{0}\relax 
\contentsline {section}{\numberline {2.1}Infotech Workbook}{4}{section.2.1}%
\defcounter {refsection}{0}\relax 
\contentsline {subsection}{\numberline {2.1.1}Exercise 1}{4}{subsection.2.1.1}%
\defcounter {refsection}{0}\relax 
\contentsline {subsection}{\numberline {2.1.2}Exercise 2}{5}{subsection.2.1.2}%
\defcounter {refsection}{0}\relax 
\contentsline {subsection}{\numberline {2.1.3}Exercise 3}{6}{subsection.2.1.3}%
\defcounter {refsection}{0}\relax 
\contentsline {subsection}{\numberline {2.1.4}Exercise 4}{7}{subsection.2.1.4}%
\defcounter {refsection}{0}\relax 
\contentsline {subsection}{\numberline {2.1.5}Exercise 5}{8}{subsection.2.1.5}%
\defcounter {refsection}{0}\relax 
\contentsline {subsection}{\numberline {2.1.6}Exercise 6}{9}{subsection.2.1.6}%
\defcounter {refsection}{0}\relax 
\contentsline {subsection}{\numberline {2.1.7}Exercise 7}{10}{subsection.2.1.7}%
\defcounter {refsection}{0}\relax 
\contentsline {chapter}{\numberline {3}Unit 9}{10}{chapter.3}%
\defcounter {refsection}{0}\relax 
\contentsline {section}{\numberline {3.1}Infotech Workbook}{10}{section.3.1}%
\defcounter {refsection}{0}\relax 
\contentsline {subsection}{\numberline {3.1.1}Exercise 1}{10}{subsection.3.1.1}%
\defcounter {refsection}{0}\relax 
\contentsline {subsection}{\numberline {3.1.2}Exercise 2}{11}{subsection.3.1.2}%
\defcounter {refsection}{0}\relax 
\contentsline {subsection}{\numberline {3.1.3}Exercise 3,4}{12}{subsection.3.1.3}%
\defcounter {refsection}{0}\relax 
\contentsline {subsection}{\numberline {3.1.4}Exercise 5}{13}{subsection.3.1.4}%
\defcounter {refsection}{0}\relax 
\contentsline {subsubsection}{Digital camera}{13}{subsubsection*.2}%
\defcounter {refsection}{0}\relax 
\contentsline {subsubsection}{Colour ink-jet printer}{13}{subsubsection*.3}%
\defcounter {refsection}{0}\relax 
\contentsline {subsubsection}{Webcam}{13}{subsubsection*.4}%
