[0] Config.pm:312> INFO - This is Biber 2.15
[0] Config.pm:315> INFO - Logfile is 'fifth.blg'
[70] biber:330> INFO - === Sun Dec 13, 2020, 14:39:57
[83] Biber.pm:415> INFO - Reading 'fifth.bcf'
[142] Utils.pm:395> WARN - No data sources defined!
