\boolfalse {citerequest}\boolfalse {citetracker}\boolfalse {pagetracker}\boolfalse {backtracker}\relax 
\babel@toc {russian}{}
\defcounter {refsection}{0}\relax 
\contentsline {chapter}{\numberline {1}Задание}{3}{chapter.1}%
\defcounter {refsection}{0}\relax 
\contentsline {chapter}{\numberline {2}Infotech Workbook: Unit 5}{4}{chapter.2}%
\defcounter {refsection}{0}\relax 
\contentsline {section}{\numberline {2.1}Exercise 1}{4}{section.2.1}%
\defcounter {refsection}{0}\relax 
\contentsline {section}{\numberline {2.2}Exercise 2}{5}{section.2.2}%
\defcounter {refsection}{0}\relax 
\contentsline {section}{\numberline {2.3}Exercise 3}{6}{section.2.3}%
\defcounter {refsection}{0}\relax 
\contentsline {section}{\numberline {2.4}Exercise 4}{7}{section.2.4}%
\defcounter {refsection}{0}\relax 
\contentsline {section}{\numberline {2.5}Exercise 5}{8}{section.2.5}%
\defcounter {refsection}{0}\relax 
\contentsline {section}{\numberline {2.6}Exercise 6}{9}{section.2.6}%
