[1] "№1"
[1] "P-value, H1 = 'не отл. от нормального закона':"
[1] 0.042
[1] "Меньше 0.05; Не принимается"
[1] ""
[1] ""
[1] ""
[1] "№2"
[1] "P-value, H1 = 'не отл. значительно от нормального закона'"
[1] 0.087
[1] "Больше 0.05; Принимается"
[1] ""
[1] ""
[1] ""
[1] "№3"
[1] "P-value, H1 = 'M=27'"
[1] 0
[1] "Меньше 0.05; Не принимается"
[1] ""
[1] ""
[1] ""
[1] "№4"
[1] "P-value, H1 = 'для Депрессивность, M(Девушек)=M(Парней)'"
[1] 0.007
[1] "Меньше 0.05; Не принимается"
[1] ""
[1] ""
[1] ""
[1] "№5"
[1] "P-value, H1 = 'для Факультета \"A\" M(Депрессивность)=27'"
[1] 0
[1] "Меньше 0.05; Не принимается"
[1] ""
[1] ""
[1] ""
[1] "№6"
[1] "P-value, H1 = 'уровни СЛАБ. РЕЛ и СИЛЬН. РЕЛ равны'"
[1] 0.436
[1] "Больше 0.05; Принимается"
[1] ""
[1] ""
[1] ""
[1] "№7"
[1] "P-value, H1 = 'в факультетах А и Б равные доли согласившихся'"
[1] 0.104
[1] "Больше 0.05; Принимается"
[1] ""
[1] ""
[1] ""
[1] "№8"
[1] "P-value, H1 = 'степень религиозности не влияет на вопрос П_33'"
[1] 0.564
[1] "Больше 0.05; Принимается"
[1] ""
[1] ""
[1] ""
[1] "№9"
[1] "P-value, H1 = 'M(Депрессивность) не зависит от сеймейного дохода'"
[1] 0.561
[1] "Больше 0.05; Принимается"
[1] ""
[1] ""
[1] ""
[1] "№10"
[1] "P-value, H1 = 'M(Депрессивность) не зависит от сеймейного дохода'"
[1] 0.303
[1] "Больше 0.05; Принимается"
