\boolfalse {citerequest}\boolfalse {citetracker}\boolfalse {pagetracker}\boolfalse {backtracker}\relax 
\babel@toc {russian}{}
\defcounter {refsection}{0}\relax 
\contentsline {section}{\numberline {1}Задание №1}{3}{section.1}%
\defcounter {refsection}{0}\relax 
\contentsline {section}{\numberline {2}Задание №2}{3}{section.2}%
\defcounter {refsection}{0}\relax 
\contentsline {section}{\numberline {3}Задание №3}{4}{section.3}%
\defcounter {refsection}{0}\relax 
\contentsline {section}{\numberline {4}Задание №4}{6}{section.4}%
