\relax 
\providecommand\hyper@newdestlabel[2]{}
\providecommand\babel@aux[2]{}
\@nameuse{bbl@beforestart}
\catcode `"\active 
\nicematrix@redefine@check@rerun 
\@writefile{toc}{\boolfalse {citerequest}\boolfalse {citetracker}\boolfalse {pagetracker}\boolfalse {backtracker}\relax }
\@writefile{lof}{\boolfalse {citerequest}\boolfalse {citetracker}\boolfalse {pagetracker}\boolfalse {backtracker}\relax }
\@writefile{lot}{\boolfalse {citerequest}\boolfalse {citetracker}\boolfalse {pagetracker}\boolfalse {backtracker}\relax }
\abx@aux@refcontext{nty/global//global/global}
\providecommand\HyperFirstAtBeginDocument{\AtBeginDocument}
\HyperFirstAtBeginDocument{\ifx\hyper@anchor\@undefined
\global\let\oldcontentsline\contentsline
\gdef\contentsline#1#2#3#4{\oldcontentsline{#1}{#2}{#3}}
\global\let\oldnewlabel\newlabel
\gdef\newlabel#1#2{\newlabelxx{#1}#2}
\gdef\newlabelxx#1#2#3#4#5#6{\oldnewlabel{#1}{{#2}{#3}}}
\AtEndDocument{\ifx\hyper@anchor\@undefined
\let\contentsline\oldcontentsline
\let\newlabel\oldnewlabel
\fi}
\fi}
\global\let\hyper@last\relax 
\gdef\HyperFirstAtBeginDocument#1{#1}
\providecommand\HyField@AuxAddToFields[1]{}
\providecommand\HyField@AuxAddToCoFields[2]{}
\babel@aux{russian}{}
\ExplSyntaxOn \cs_if_free:NT \pgfsyspdfmark {\cs_set_eq:NN \pgfsyspdfmark \@gobblethree }\ExplSyntaxOff 
\@LN@col{1}
\@writefile{toc}{\defcounter {refsection}{0}\relax }\@writefile{toc}{\contentsline {section}{\numberline {1}Задание №1}{3}{section.1}\protected@file@percent }
\@LN@col{1}
\@LN@col{1}
\@writefile{toc}{\defcounter {refsection}{0}\relax }\@writefile{toc}{\contentsline {section}{\numberline {2}Задание №2}{3}{section.2}\protected@file@percent }
\@LN@col{1}
\@LN@col{1}
\@writefile{toc}{\defcounter {refsection}{0}\relax }\@writefile{toc}{\contentsline {section}{\numberline {3}Задание №3}{4}{section.3}\protected@file@percent }
\@LN@col{1}
\@LN@col{1}
\@writefile{lot}{\defcounter {refsection}{0}\relax }\@writefile{lot}{\contentsline {table}{\numberline {1}{\ignorespaces Задание №1\relax }}{5}{table.caption.1}\protected@file@percent }
\providecommand*\caption@xref[2]{\@setref\relax\@undefined{#1}}
\newlabel{myt:Задание №1}{{1}{5}{Задание №1\relax }{table.caption.1}{}}
\pgfsyspdfmark {pgfid3}{17781095}{46856826}
\pgfsyspdfmark {pgfid4}{17781095}{46856826}
\pgfsyspdfmark {pgfid5}{17781095}{45493131}
\pgfsyspdfmark {pgfid6}{18145228}{45493131}
\pgfsyspdfmark {pgfid7}{19738568}{45493131}
\pgfsyspdfmark {pgfid8}{21410550}{45493131}
\pgfsyspdfmark {pgfid9}{22963747}{45493131}
\pgfsyspdfmark {pgfid10}{17781095}{45058622}
\pgfsyspdfmark {pgfid11}{17781095}{44889788}
\pgfsyspdfmark {pgfid12}{17781095}{43595038}
\pgfsyspdfmark {pgfid13}{18012106}{43595038}
\pgfsyspdfmark {pgfid14}{19526804}{43595038}
\pgfsyspdfmark {pgfid15}{21198786}{43595038}
\pgfsyspdfmark {pgfid16}{22916643}{43595038}
\pgfsyspdfmark {pgfid17}{17781095}{43160529}
\pgfsyspdfmark {pgfid18}{17781095}{42146690}
\pgfsyspdfmark {pgfid19}{18012106}{42146690}
\pgfsyspdfmark {pgfid20}{19526804}{42146690}
\pgfsyspdfmark {pgfid21}{21198786}{42146690}
\pgfsyspdfmark {pgfid22}{22916643}{42146690}
\pgfsyspdfmark {pgfid23}{17781095}{41712181}
\pgfsyspdfmark {pgfid24}{17781095}{40698342}
\pgfsyspdfmark {pgfid25}{18012106}{40698342}
\pgfsyspdfmark {pgfid26}{19526804}{40698342}
\pgfsyspdfmark {pgfid27}{21198786}{40698342}
\pgfsyspdfmark {pgfid28}{22916643}{40698342}
\pgfsyspdfmark {pgfid29}{17781095}{40263833}
\pgfsyspdfmark {pgfid30}{17781095}{39249994}
\pgfsyspdfmark {pgfid31}{18012106}{39249994}
\pgfsyspdfmark {pgfid32}{19526804}{39249994}
\pgfsyspdfmark {pgfid33}{21198786}{39249994}
\pgfsyspdfmark {pgfid34}{22916643}{39249994}
\pgfsyspdfmark {pgfid35}{17781095}{38815485}
\pgfsyspdfmark {pgfid36}{17781095}{38646651}
\pgfsyspdfmark {pgfid37}{17781095}{37351901}
\pgfsyspdfmark {pgfid38}{18012106}{37351901}
\pgfsyspdfmark {pgfid39}{19526804}{37351901}
\pgfsyspdfmark {pgfid40}{21198786}{37351901}
\pgfsyspdfmark {pgfid41}{22916643}{37351901}
\pgfsyspdfmark {pgfid42}{17781095}{36917392}
\pgfsyspdfmark {pgfid43}{17781095}{35903553}
\pgfsyspdfmark {pgfid44}{18012106}{35903553}
\pgfsyspdfmark {pgfid45}{19526804}{35903553}
\pgfsyspdfmark {pgfid46}{21198786}{35903553}
\pgfsyspdfmark {pgfid47}{22916643}{35903553}
\pgfsyspdfmark {pgfid48}{17781095}{35469044}
\pgfsyspdfmark {pgfid49}{17781095}{34455205}
\pgfsyspdfmark {pgfid50}{18012106}{34455205}
\pgfsyspdfmark {pgfid51}{19526804}{34455205}
\pgfsyspdfmark {pgfid52}{21198786}{34455205}
\pgfsyspdfmark {pgfid53}{22916643}{34455205}
\pgfsyspdfmark {pgfid54}{17781095}{34020696}
\pgfsyspdfmark {pgfid55}{17781095}{33006857}
\pgfsyspdfmark {pgfid56}{18012106}{33006857}
\pgfsyspdfmark {pgfid57}{19526804}{33006857}
\pgfsyspdfmark {pgfid58}{21198786}{33006857}
\pgfsyspdfmark {pgfid59}{22916643}{33006857}
\pgfsyspdfmark {pgfid60}{17781095}{32572348}
\pgfsyspdfmark {pgfid61}{17781095}{31558509}
\pgfsyspdfmark {pgfid62}{17781095}{31124000}
\pgfsyspdfmark {pgfid63}{17781095}{30955166}
\pgfsyspdfmark {pgfid64}{17781095}{30879667}
\pgfsyspdfmark {pgfid65}{18902577}{30879667}
\pgfsyspdfmark {pgfid66}{20574559}{30879667}
\pgfsyspdfmark {pgfid67}{22292416}{30879667}
\pgfsyspdfmark {pgfid68}{23241862}{30879667}
\savepicturepage{pgfid69}{5}
\pgfsyspdfmark {pgfid69}{23241862}{38632317}
\pgfsyspdfmark {pgfid70}{23241862}{38632317}
\@writefile{lot}{\defcounter {refsection}{0}\relax }\@writefile{lot}{\contentsline {table}{\numberline {2}{\ignorespaces Задание №3\relax }}{5}{table.caption.2}\protected@file@percent }
\newlabel{myt:Задание №3}{{2}{5}{Задание №3\relax }{table.caption.2}{}}
\pgfsyspdfmark {pgfid73}{17781095}{22535242}
\pgfsyspdfmark {pgfid74}{17781095}{22535242}
\pgfsyspdfmark {pgfid75}{17781095}{21171547}
\pgfsyspdfmark {pgfid76}{18145228}{21171547}
\pgfsyspdfmark {pgfid77}{19738568}{21171547}
\pgfsyspdfmark {pgfid78}{21410550}{21171547}
\pgfsyspdfmark {pgfid79}{22963747}{21171547}
\pgfsyspdfmark {pgfid80}{17781095}{20737038}
\pgfsyspdfmark {pgfid81}{17781095}{20568204}
\pgfsyspdfmark {pgfid82}{17781095}{19273454}
\pgfsyspdfmark {pgfid83}{18012106}{19273454}
\pgfsyspdfmark {pgfid84}{19526804}{19273454}
\pgfsyspdfmark {pgfid85}{21198786}{19273454}
\pgfsyspdfmark {pgfid86}{22916643}{19273454}
\pgfsyspdfmark {pgfid87}{17781095}{18838945}
\pgfsyspdfmark {pgfid88}{17781095}{17825106}
\pgfsyspdfmark {pgfid89}{18012106}{17825106}
\pgfsyspdfmark {pgfid90}{19526804}{17825106}
\pgfsyspdfmark {pgfid91}{21198786}{17825106}
\pgfsyspdfmark {pgfid92}{22916643}{17825106}
\pgfsyspdfmark {pgfid93}{17781095}{17390597}
\pgfsyspdfmark {pgfid94}{17781095}{16376758}
\pgfsyspdfmark {pgfid95}{18012106}{16376758}
\pgfsyspdfmark {pgfid96}{19526804}{16376758}
\pgfsyspdfmark {pgfid97}{21198786}{16376758}
\pgfsyspdfmark {pgfid98}{22916643}{16376758}
\pgfsyspdfmark {pgfid99}{17781095}{15942249}
\pgfsyspdfmark {pgfid100}{17781095}{14928410}
\pgfsyspdfmark {pgfid101}{18012106}{14928410}
\pgfsyspdfmark {pgfid102}{19526804}{14928410}
\pgfsyspdfmark {pgfid103}{21198786}{14928410}
\pgfsyspdfmark {pgfid104}{22916643}{14928410}
\pgfsyspdfmark {pgfid105}{17781095}{14493901}
\pgfsyspdfmark {pgfid106}{17781095}{14325067}
\pgfsyspdfmark {pgfid107}{17781095}{13030317}
\pgfsyspdfmark {pgfid108}{18012106}{13030317}
\pgfsyspdfmark {pgfid109}{19526804}{13030317}
\pgfsyspdfmark {pgfid110}{21198786}{13030317}
\pgfsyspdfmark {pgfid111}{22916643}{13030317}
\pgfsyspdfmark {pgfid112}{17781095}{12595808}
\pgfsyspdfmark {pgfid113}{17781095}{11581969}
\pgfsyspdfmark {pgfid114}{18012106}{11581969}
\pgfsyspdfmark {pgfid115}{19526804}{11581969}
\pgfsyspdfmark {pgfid116}{21198786}{11581969}
\pgfsyspdfmark {pgfid117}{22916643}{11581969}
\pgfsyspdfmark {pgfid118}{17781095}{11147460}
\pgfsyspdfmark {pgfid119}{17781095}{10133621}
\pgfsyspdfmark {pgfid120}{18012106}{10133621}
\pgfsyspdfmark {pgfid121}{19526804}{10133621}
\pgfsyspdfmark {pgfid122}{21198786}{10133621}
\pgfsyspdfmark {pgfid123}{22916643}{10133621}
\pgfsyspdfmark {pgfid124}{17781095}{9699112}
\pgfsyspdfmark {pgfid125}{17781095}{8685273}
\pgfsyspdfmark {pgfid126}{18012106}{8685273}
\pgfsyspdfmark {pgfid127}{19526804}{8685273}
\pgfsyspdfmark {pgfid128}{21198786}{8685273}
\pgfsyspdfmark {pgfid129}{22916643}{8685273}
\pgfsyspdfmark {pgfid130}{17781095}{8250764}
\pgfsyspdfmark {pgfid131}{17781095}{7236925}
\pgfsyspdfmark {pgfid132}{17781095}{6802416}
\pgfsyspdfmark {pgfid133}{17781095}{6633582}
\pgfsyspdfmark {pgfid134}{17781095}{6558083}
\pgfsyspdfmark {pgfid135}{18902577}{6558083}
\pgfsyspdfmark {pgfid136}{20574559}{6558083}
\pgfsyspdfmark {pgfid137}{22292416}{6558083}
\pgfsyspdfmark {pgfid138}{23241862}{6558083}
\savepicturepage{pgfid139}{5}
\pgfsyspdfmark {pgfid139}{23241862}{14310733}
\pgfsyspdfmark {pgfid140}{23241862}{14310733}
\@writefile{toc}{\defcounter {refsection}{0}\relax }\@writefile{toc}{\contentsline {section}{\numberline {4}Задание №4}{6}{section.4}\protected@file@percent }
\@LN@col{1}
\@LN@col{1}
\newlabel{LastPage}{{}{6}{}{page.6}{}}
\xdef\lastpage@lastpage{6}
\xdef\lastpage@lastpageHy{6}
\gdef \@abspage@last{6}
