[0] Config.pm:312> INFO - This is Biber 2.15
[0] Config.pm:315> INFO - Logfile is 'logic.blg'
[70] biber:330> INFO - === Thu Mar  4, 2021, 11:57:36
[82] Biber.pm:415> INFO - Reading 'logic.bcf'
[147] Utils.pm:395> WARN - No data sources defined!
