\relax 
\providecommand\hyper@newdestlabel[2]{}
\providecommand\HyperFirstAtBeginDocument{\AtBeginDocument}
\HyperFirstAtBeginDocument{\ifx\hyper@anchor\@undefined
\global\let\oldcontentsline\contentsline
\gdef\contentsline#1#2#3#4{\oldcontentsline{#1}{#2}{#3}}
\global\let\oldnewlabel\newlabel
\gdef\newlabel#1#2{\newlabelxx{#1}#2}
\gdef\newlabelxx#1#2#3#4#5#6{\oldnewlabel{#1}{{#2}{#3}}}
\AtEndDocument{\ifx\hyper@anchor\@undefined
\let\contentsline\oldcontentsline
\let\newlabel\oldnewlabel
\fi}
\fi}
\global\let\hyper@last\relax 
\gdef\HyperFirstAtBeginDocument#1{#1}
\providecommand\HyField@AuxAddToFields[1]{}
\providecommand\HyField@AuxAddToCoFields[2]{}
\@nameuse{bbl@beforestart}
\catcode `"\active 
\nicematrix@redefine@check@rerun 
\abx@aux@refcontext{nty/global//global/global}
\@writefile{toc}{\boolfalse {citerequest}\boolfalse {citetracker}\boolfalse {pagetracker}\boolfalse {backtracker}\relax }
\@writefile{lof}{\boolfalse {citerequest}\boolfalse {citetracker}\boolfalse {pagetracker}\boolfalse {backtracker}\relax }
\@writefile{lot}{\boolfalse {citerequest}\boolfalse {citetracker}\boolfalse {pagetracker}\boolfalse {backtracker}\relax }
\babel@aux{russian}{}
\@writefile{nav}{\defcounter {refsection}{0}\relax }\@writefile{nav}{\headcommand {\slideentry {0}{0}{1}{1/1}{}{0}}}
\@writefile{nav}{\defcounter {refsection}{0}\relax }\@writefile{nav}{\headcommand {\beamer@framepages {1}{1}}}
\abx@aux@cite{litvinova}
\abx@aux@segm{0}{0}{litvinova}
\@writefile{toc}{\defcounter {refsection}{0}\relax }\@writefile{toc}{\beamer@sectionintoc {1}{Понятие устаревших слов}{2}{0}{1}}
\@writefile{nav}{\defcounter {refsection}{0}\relax }\@writefile{nav}{\headcommand {\beamer@sectionpages {1}{1}}}
\@writefile{nav}{\defcounter {refsection}{0}\relax }\@writefile{nav}{\headcommand {\beamer@subsectionpages {1}{1}}}
\@writefile{nav}{\defcounter {refsection}{0}\relax }\@writefile{nav}{\headcommand {\sectionentry {1}{Понятие устаревших слов}{2}{Понятие устаревших слов}{0}}}
\@writefile{nav}{\defcounter {refsection}{0}\relax }\@writefile{nav}{\headcommand {\slideentry {1}{0}{1}{2/2}{}{0}}}
\@writefile{nav}{\defcounter {refsection}{0}\relax }\@writefile{nav}{\headcommand {\beamer@framepages {2}{2}}}
\abx@aux@cite{litvinova}
\abx@aux@segm{0}{0}{litvinova}
\@writefile{nav}{\defcounter {refsection}{0}\relax }\@writefile{nav}{\headcommand {\slideentry {1}{0}{2}{3/3}{}{0}}}
\@writefile{nav}{\defcounter {refsection}{0}\relax }\@writefile{nav}{\headcommand {\beamer@framepages {3}{3}}}
\abx@aux@cite{litvinova}
\abx@aux@segm{0}{0}{litvinova}
\@writefile{nav}{\defcounter {refsection}{0}\relax }\@writefile{nav}{\headcommand {\slideentry {1}{0}{3}{4/4}{}{0}}}
\@writefile{nav}{\defcounter {refsection}{0}\relax }\@writefile{nav}{\headcommand {\beamer@framepages {4}{4}}}
\abx@aux@cite{litvinova}
\abx@aux@segm{0}{0}{litvinova}
\newlabel{Мундир}{{5}{5}{Понятие устаревших слов}{Doc-Start}{}}
\@writefile{snm}{\defcounter {refsection}{0}\relax }\@writefile{snm}{\beamer@slide {Мундир}{5}}
\@writefile{nav}{\defcounter {refsection}{0}\relax }\@writefile{nav}{\headcommand {\slideentry {1}{0}{4}{5/5}{}{0}}}
\@writefile{nav}{\defcounter {refsection}{0}\relax }\@writefile{nav}{\headcommand {\beamer@framepages {5}{5}}}
\abx@aux@cite{arhAndSub}
\abx@aux@segm{0}{0}{arhAndSub}
\@writefile{toc}{\defcounter {refsection}{0}\relax }\@writefile{toc}{\beamer@sectionintoc {2}{Архаизмы}{6}{0}{2}}
\@writefile{nav}{\defcounter {refsection}{0}\relax }\@writefile{nav}{\headcommand {\beamer@sectionpages {2}{5}}}
\@writefile{nav}{\defcounter {refsection}{0}\relax }\@writefile{nav}{\headcommand {\beamer@subsectionpages {2}{5}}}
\@writefile{nav}{\defcounter {refsection}{0}\relax }\@writefile{nav}{\headcommand {\sectionentry {2}{Архаизмы}{6}{Архаизмы}{0}}}
\@writefile{toc}{\defcounter {refsection}{0}\relax }\@writefile{toc}{\beamer@subsectionintoc {2}{1}{Архаизмы. Основные типы}{6}{0}{2}}
\@writefile{nav}{\defcounter {refsection}{0}\relax }\@writefile{nav}{\headcommand {\beamer@subsectionpages {6}{5}}}
\@writefile{nav}{\defcounter {refsection}{0}\relax }\@writefile{nav}{\headcommand {\beamer@subsectionentry {0}{2}{1}{6}{Архаизмы. Основные типы}}}
\@writefile{nav}{\defcounter {refsection}{0}\relax }\@writefile{nav}{\headcommand {\slideentry {2}{1}{1}{6/6}{Архаизмы. Основные типы}{0}}}
\@writefile{nav}{\defcounter {refsection}{0}\relax }\@writefile{nav}{\headcommand {\beamer@framepages {6}{6}}}
\@writefile{nav}{\defcounter {refsection}{0}\relax }\@writefile{nav}{\headcommand {\slideentry {2}{1}{2}{7/7}{Архаизмы. Основные типы}{0}}}
\@writefile{nav}{\defcounter {refsection}{0}\relax }\@writefile{nav}{\headcommand {\beamer@framepages {7}{7}}}
\abx@aux@cite{arhAndSub}
\abx@aux@segm{0}{0}{arhAndSub}
\@writefile{toc}{\defcounter {refsection}{0}\relax }\@writefile{toc}{\beamer@subsectionintoc {2}{2}{Субстракты}{8}{0}{2}}
\@writefile{nav}{\defcounter {refsection}{0}\relax }\@writefile{nav}{\headcommand {\beamer@subsectionpages {6}{7}}}
\@writefile{nav}{\defcounter {refsection}{0}\relax }\@writefile{nav}{\headcommand {\beamer@subsectionentry {0}{2}{2}{8}{Субстракты}}}
\@writefile{nav}{\defcounter {refsection}{0}\relax }\@writefile{nav}{\headcommand {\slideentry {2}{2}{0}{8/8}{Архаизмы. Основные типы}{0}}}
\@writefile{nav}{\defcounter {refsection}{0}\relax }\@writefile{nav}{\headcommand {\beamer@framepages {8}{8}}}
\abx@aux@cite{prilArh}
\abx@aux@segm{0}{0}{prilArh}
\@writefile{toc}{\defcounter {refsection}{0}\relax }\@writefile{toc}{\beamer@subsectionintoc {2}{3}{Практическая часть}{9}{0}{2}}
\@writefile{nav}{\defcounter {refsection}{0}\relax }\@writefile{nav}{\headcommand {\beamer@subsectionpages {6}{8}}}
\@writefile{nav}{\defcounter {refsection}{0}\relax }\@writefile{nav}{\headcommand {\beamer@subsectionentry {0}{2}{3}{9}{Практическая часть}}}
\abx@aux@cite{prilArh}
\abx@aux@segm{0}{0}{prilArh}
\@writefile{nav}{\defcounter {refsection}{0}\relax }\@writefile{nav}{\headcommand {\slideentry {2}{3}{1}{9/10}{Практическая часть}{0}}}
\@writefile{nav}{\defcounter {refsection}{0}\relax }\@writefile{nav}{\headcommand {\beamer@framepages {9}{10}}}
\@writefile{nav}{\defcounter {refsection}{0}\relax }\@writefile{nav}{\headcommand {\slideentry {2}{3}{2}{11/12}{Практическая часть}{0}}}
\@writefile{nav}{\defcounter {refsection}{0}\relax }\@writefile{nav}{\headcommand {\beamer@framepages {11}{12}}}
\abx@aux@cite{lecArh}
\abx@aux@segm{0}{0}{lecArh}
\@writefile{toc}{\defcounter {refsection}{0}\relax }\@writefile{toc}{\beamer@subsectionintoc {2}{4}{Становление лексических архаизмов}{13}{0}{2}}
\@writefile{nav}{\defcounter {refsection}{0}\relax }\@writefile{nav}{\headcommand {\beamer@subsectionpages {9}{12}}}
\@writefile{nav}{\defcounter {refsection}{0}\relax }\@writefile{nav}{\headcommand {\beamer@subsectionentry {0}{2}{4}{13}{Становление лексических архаизмов}}}
\@writefile{nav}{\defcounter {refsection}{0}\relax }\@writefile{nav}{\headcommand {\slideentry {2}{4}{1}{13/13}{Становление лексических архаизмов}{0}}}
\@writefile{nav}{\defcounter {refsection}{0}\relax }\@writefile{nav}{\headcommand {\beamer@framepages {13}{13}}}
\abx@aux@cite{arhAndSub}
\abx@aux@segm{0}{0}{arhAndSub}
\abx@aux@cite{lecArh}
\abx@aux@segm{0}{0}{lecArh}
\@writefile{toc}{\defcounter {refsection}{0}\relax }\@writefile{toc}{\beamer@sectionintoc {3}{Наше время}{14}{0}{3}}
\@writefile{nav}{\defcounter {refsection}{0}\relax }\@writefile{nav}{\headcommand {\beamer@sectionpages {6}{13}}}
\@writefile{nav}{\defcounter {refsection}{0}\relax }\@writefile{nav}{\headcommand {\beamer@subsectionpages {13}{13}}}
\@writefile{nav}{\defcounter {refsection}{0}\relax }\@writefile{nav}{\headcommand {\sectionentry {3}{Наше время}{14}{Наше время}{0}}}
\@writefile{toc}{\defcounter {refsection}{0}\relax }\@writefile{toc}{\beamer@subsectionintoc {3}{1}{Изменение значения}{14}{0}{3}}
\@writefile{nav}{\defcounter {refsection}{0}\relax }\@writefile{nav}{\headcommand {\beamer@subsectionpages {14}{13}}}
\@writefile{nav}{\defcounter {refsection}{0}\relax }\@writefile{nav}{\headcommand {\beamer@subsectionentry {0}{3}{1}{14}{Изменение значения}}}
\@writefile{nav}{\defcounter {refsection}{0}\relax }\@writefile{nav}{\headcommand {\slideentry {3}{1}{1}{14/14}{Изменение значения}{0}}}
\@writefile{nav}{\defcounter {refsection}{0}\relax }\@writefile{nav}{\headcommand {\beamer@framepages {14}{14}}}
\abx@aux@cite{socLec}
\abx@aux@segm{0}{0}{socLec}
\@writefile{nav}{\defcounter {refsection}{0}\relax }\@writefile{nav}{\headcommand {\slideentry {3}{1}{2}{15/15}{Изменение значения}{0}}}
\@writefile{nav}{\defcounter {refsection}{0}\relax }\@writefile{nav}{\headcommand {\beamer@framepages {15}{15}}}
\@writefile{toc}{\defcounter {refsection}{0}\relax }\@writefile{toc}{\beamer@subsectionintoc {3}{2}{Словари архаизмов и историзмов}{16}{0}{3}}
\@writefile{nav}{\defcounter {refsection}{0}\relax }\@writefile{nav}{\headcommand {\beamer@subsectionpages {14}{15}}}
\@writefile{nav}{\defcounter {refsection}{0}\relax }\@writefile{nav}{\headcommand {\beamer@subsectionentry {0}{3}{2}{16}{Словари архаизмов и историзмов}}}
\@writefile{nav}{\defcounter {refsection}{0}\relax }\@writefile{nav}{\headcommand {\slideentry {3}{2}{1}{16/16}{Словари архаизмов и историзмов}{0}}}
\@writefile{nav}{\defcounter {refsection}{0}\relax }\@writefile{nav}{\headcommand {\beamer@framepages {16}{16}}}
\@writefile{nav}{\defcounter {refsection}{0}\relax }\@writefile{nav}{\headcommand {\slideentry {3}{2}{2}{17/17}{Словари архаизмов и историзмов}{0}}}
\@writefile{nav}{\defcounter {refsection}{0}\relax }\@writefile{nav}{\headcommand {\beamer@framepages {17}{17}}}
\@writefile{nav}{\defcounter {refsection}{0}\relax }\@writefile{nav}{\headcommand {\beamer@sectionpages {14}{17}}}
\@writefile{nav}{\defcounter {refsection}{0}\relax }\@writefile{nav}{\headcommand {\beamer@subsectionpages {16}{17}}}
\@writefile{nav}{\defcounter {refsection}{0}\relax }\@writefile{nav}{\headcommand {\sectionentry {4}{Список литературы}{18}{Список литературы}{0}}}
\@writefile{nav}{\defcounter {refsection}{0}\relax }\@writefile{nav}{\headcommand {\slideentry {4}{0}{0}{18/18}{Словари архаизмов и историзмов}{0}}}
\@writefile{nav}{\defcounter {refsection}{0}\relax }\@writefile{nav}{\headcommand {\beamer@framepages {18}{18}}}
\@writefile{nav}{\defcounter {refsection}{0}\relax }\@writefile{nav}{\headcommand {\slideentry {4}{0}{0}{18/19}{Словари архаизмов и историзмов}{0}}}
\@writefile{nav}{\defcounter {refsection}{0}\relax }\@writefile{nav}{\headcommand {\beamer@framepages {18}{19}}}
\@writefile{nav}{\defcounter {refsection}{0}\relax }\@writefile{nav}{\headcommand {\slideentry {4}{0}{0}{18/20}{Словари архаизмов и историзмов}{0}}}
\@writefile{nav}{\defcounter {refsection}{0}\relax }\@writefile{nav}{\headcommand {\beamer@framepages {18}{20}}}
\@writefile{nav}{\defcounter {refsection}{0}\relax }\@writefile{nav}{\headcommand {\slideentry {4}{0}{0}{18/21}{Словари архаизмов и историзмов}{0}}}
\@writefile{nav}{\defcounter {refsection}{0}\relax }\@writefile{nav}{\headcommand {\beamer@framepages {18}{21}}}
\@writefile{nav}{\defcounter {refsection}{0}\relax }\@writefile{nav}{\headcommand {\beamer@sectionpages {14}{21}}}
\@writefile{nav}{\defcounter {refsection}{0}\relax }\@writefile{nav}{\headcommand {\beamer@subsectionpages {16}{21}}}
\@writefile{nav}{\defcounter {refsection}{0}\relax }\@writefile{nav}{\headcommand {\sectionentry {5}{Список источников}{22}{Список источников}{0}}}
\@writefile{nav}{\defcounter {refsection}{0}\relax }\@writefile{nav}{\headcommand {\slideentry {5}{0}{0}{22/22}{Словари архаизмов и историзмов}{0}}}
\@writefile{nav}{\defcounter {refsection}{0}\relax }\@writefile{nav}{\headcommand {\beamer@framepages {22}{22}}}
\@writefile{nav}{\headcommand {\beamer@partpages {1}{22}}}
\@writefile{nav}{\headcommand {\beamer@subsectionpages {16}{22}}}
\@writefile{nav}{\headcommand {\beamer@sectionpages {14}{22}}}
\@writefile{nav}{\headcommand {\beamer@documentpages {22}}}
\@writefile{nav}{\headcommand {\gdef \inserttotalframenumber {20}}}
\abx@aux@refcontextdefaultsdone
\abx@aux@defaultrefcontext{0}{arhAndSub}{nty/global//global/global}
\abx@aux@defaultrefcontext{0}{socLec}{nty/global//global/global}
\abx@aux@defaultrefcontext{0}{litvinova}{nty/global//global/global}
\abx@aux@defaultrefcontext{0}{lecArh}{nty/global//global/global}
\abx@aux@defaultrefcontext{0}{prilArh}{nty/global//global/global}
\newlabel{LastPage}{{}{22}{}{page.22}{}}
\xdef\lastpage@lastpage{22}
\xdef\lastpage@lastpageHy{22}
