\relax 
\providecommand\hyper@newdestlabel[2]{}
\providecommand\babel@aux[2]{}
\@nameuse{bbl@beforestart}
\catcode `"\active 
\nicematrix@redefine@check@rerun 
\@writefile{toc}{\boolfalse {citerequest}\boolfalse {citetracker}\boolfalse {pagetracker}\boolfalse {backtracker}\relax }
\@writefile{lof}{\boolfalse {citerequest}\boolfalse {citetracker}\boolfalse {pagetracker}\boolfalse {backtracker}\relax }
\@writefile{lot}{\boolfalse {citerequest}\boolfalse {citetracker}\boolfalse {pagetracker}\boolfalse {backtracker}\relax }
\abx@aux@refcontext{nty/global//global/global}
\providecommand\HyperFirstAtBeginDocument{\AtBeginDocument}
\HyperFirstAtBeginDocument{\ifx\hyper@anchor\@undefined
\global\let\oldcontentsline\contentsline
\gdef\contentsline#1#2#3#4{\oldcontentsline{#1}{#2}{#3}}
\global\let\oldnewlabel\newlabel
\gdef\newlabel#1#2{\newlabelxx{#1}#2}
\gdef\newlabelxx#1#2#3#4#5#6{\oldnewlabel{#1}{{#2}{#3}}}
\AtEndDocument{\ifx\hyper@anchor\@undefined
\let\contentsline\oldcontentsline
\let\newlabel\oldnewlabel
\fi}
\fi}
\global\let\hyper@last\relax 
\gdef\HyperFirstAtBeginDocument#1{#1}
\providecommand\HyField@AuxAddToFields[1]{}
\providecommand\HyField@AuxAddToCoFields[2]{}
\providecommand\@newglossary[4]{}
\@newglossary{main}{glg}{gls}{glo}
\providecommand\@glsorder[1]{}
\providecommand\@istfilename[1]{}
\@istfilename{dz.xdy}
\@glsorder{word}
\babel@aux{russian}{}
\pp@pagectr{footnote}{1}{3}{3}
\@writefile{toc}{\defcounter {refsection}{0}\relax }\@writefile{toc}{\contentsline {chapter}{\numberline {1}Раздел 1}{3}{chapter.1}\protected@file@percent }
\@writefile{lof}{\defcounter {refsection}{0}\relax }\@writefile{lof}{\addvspace {10\p@ }}
\@writefile{lot}{\defcounter {refsection}{0}\relax }\@writefile{lot}{\addvspace {10\p@ }}
\@writefile{lomylisting}{\defcounter {refsection}{0}\relax }\@writefile{lomylisting}{\addvspace {10\p@ }}
\@writefile{lomygraphic}{\defcounter {refsection}{0}\relax }\@writefile{lomygraphic}{\addvspace {10\p@ }}
\@writefile{lomyscheme}{\defcounter {refsection}{0}\relax }\@writefile{lomyscheme}{\addvspace {10\p@ }}
\@writefile{lomydiagram}{\defcounter {refsection}{0}\relax }\@writefile{lomydiagram}{\addvspace {10\p@ }}
\@writefile{toc}{\defcounter {refsection}{0}\relax }\@writefile{toc}{\contentsline {section}{\numberline {1.1}Лемма о произведении}{3}{section.1.1}\protected@file@percent }
\newlabel{Лемма о произведении}{{1.1}{3}{Лемма о произведении}{section.1.1}{}}
\@writefile{toc}{\defcounter {refsection}{0}\relax }\@writefile{toc}{\contentsline {section}{\numberline {1.2}Лемма о корне}{3}{section.1.2}\protected@file@percent }
\newlabel{Лемма о корне}{{1.2}{3}{Лемма о корне}{section.1.2}{}}
\@writefile{toc}{\defcounter {refsection}{0}\relax }\@writefile{toc}{\contentsline {section}{\numberline {1.3}Задача №1.6}{4}{section.1.3}\protected@file@percent }
\@writefile{toc}{\defcounter {refsection}{0}\relax }\@writefile{toc}{\contentsline {section}{\numberline {1.4}Задача №1.7}{5}{section.1.4}\protected@file@percent }
\@writefile{toc}{\defcounter {refsection}{0}\relax }\@writefile{toc}{\contentsline {section}{\numberline {1.5}Задача №1.97}{5}{section.1.5}\protected@file@percent }
\@writefile{toc}{\defcounter {refsection}{0}\relax }\@writefile{toc}{\contentsline {section}{\numberline {1.6}Задача №1.115}{6}{section.1.6}\protected@file@percent }
\@writefile{toc}{\defcounter {refsection}{0}\relax }\@writefile{toc}{\contentsline {section}{\numberline {1.7}Задача №1.254(a)}{6}{section.1.7}\protected@file@percent }
\@writefile{toc}{\defcounter {refsection}{0}\relax }\@writefile{toc}{\contentsline {section}{\numberline {1.8}Задача №1.284}{7}{section.1.8}\protected@file@percent }
\@writefile{toc}{\defcounter {refsection}{0}\relax }\@writefile{toc}{\contentsline {section}{\numberline {1.9}Задача №1.318}{8}{section.1.9}\protected@file@percent }
\@writefile{toc}{\defcounter {refsection}{0}\relax }\@writefile{toc}{\contentsline {section}{\numberline {1.10}Задача №1.318}{8}{section.1.10}\protected@file@percent }
\@writefile{toc}{\defcounter {refsection}{0}\relax }\@writefile{toc}{\contentsline {section}{\numberline {1.11}Задача №1.522}{9}{section.1.11}\protected@file@percent }
\pp@pagectr{footnote}{2}{11}{11}
\@writefile{toc}{\defcounter {refsection}{0}\relax }\@writefile{toc}{\contentsline {chapter}{\numberline {2}Раздел 2}{11}{chapter.2}\protected@file@percent }
\@writefile{lof}{\defcounter {refsection}{0}\relax }\@writefile{lof}{\addvspace {10\p@ }}
\@writefile{lot}{\defcounter {refsection}{0}\relax }\@writefile{lot}{\addvspace {10\p@ }}
\@writefile{lomylisting}{\defcounter {refsection}{0}\relax }\@writefile{lomylisting}{\addvspace {10\p@ }}
\@writefile{lomygraphic}{\defcounter {refsection}{0}\relax }\@writefile{lomygraphic}{\addvspace {10\p@ }}
\@writefile{lomyscheme}{\defcounter {refsection}{0}\relax }\@writefile{lomyscheme}{\addvspace {10\p@ }}
\@writefile{lomydiagram}{\defcounter {refsection}{0}\relax }\@writefile{lomydiagram}{\addvspace {10\p@ }}
\@writefile{toc}{\defcounter {refsection}{0}\relax }\@writefile{toc}{\contentsline {section}{\numberline {2.1}Задача №2.47}{11}{section.2.1}\protected@file@percent }
\ExplSyntaxOn \cs_if_free:NT \pgfsyspdfmark {\cs_set_eq:NN \pgfsyspdfmark \@gobblethree }\ExplSyntaxOff 
\pp@pagectr{footnote}{3}{13}{13}
\@writefile{toc}{\defcounter {refsection}{0}\relax }\@writefile{toc}{\contentsline {chapter}{\numberline {3}Раздел 3}{13}{chapter.3}\protected@file@percent }
\@writefile{lof}{\defcounter {refsection}{0}\relax }\@writefile{lof}{\addvspace {10\p@ }}
\@writefile{lot}{\defcounter {refsection}{0}\relax }\@writefile{lot}{\addvspace {10\p@ }}
\@writefile{lomylisting}{\defcounter {refsection}{0}\relax }\@writefile{lomylisting}{\addvspace {10\p@ }}
\@writefile{lomygraphic}{\defcounter {refsection}{0}\relax }\@writefile{lomygraphic}{\addvspace {10\p@ }}
\@writefile{lomyscheme}{\defcounter {refsection}{0}\relax }\@writefile{lomyscheme}{\addvspace {10\p@ }}
\@writefile{lomydiagram}{\defcounter {refsection}{0}\relax }\@writefile{lomydiagram}{\addvspace {10\p@ }}
\@writefile{toc}{\defcounter {refsection}{0}\relax }\@writefile{toc}{\contentsline {section}{\numberline {3.1}Задача №3.92}{13}{section.3.1}\protected@file@percent }
\pgfsyspdfmark {pgfid2}{24315900}{39733911}
\pgfsyspdfmark {pgfid3}{24643580}{38466613}
\pgfsyspdfmark {pgfid4}{24874591}{38466613}
\pgfsyspdfmark {pgfid5}{26358976}{38466613}
\pgfsyspdfmark {pgfid6}{27843361}{38466613}
\pgfsyspdfmark {pgfid7}{24315900}{37923477}
\pgfsyspdfmark {pgfid8}{24643580}{36656179}
\pgfsyspdfmark {pgfid9}{24874591}{36656179}
\pgfsyspdfmark {pgfid10}{26358976}{36656179}
\pgfsyspdfmark {pgfid11}{27843361}{36656179}
\pgfsyspdfmark {pgfid12}{24315900}{36113043}
\pgfsyspdfmark {pgfid13}{24643580}{34845745}
\pgfsyspdfmark {pgfid14}{24874591}{34845745}
\pgfsyspdfmark {pgfid15}{26358976}{34845745}
\pgfsyspdfmark {pgfid16}{27843361}{34845745}
\pgfsyspdfmark {pgfid17}{24315900}{34302609}
\pgfsyspdfmark {pgfid18}{24315900}{34302609}
\pgfsyspdfmark {pgfid19}{25433282}{34302609}
\pgfsyspdfmark {pgfid20}{27284670}{34302609}
\pgfsyspdfmark {pgfid21}{28402052}{34302609}
\savepicturepage{pgfid22}{13}
\pgfsyspdfmark {pgfid22}{28900127}{36736456}
\pgfsyspdfmark {pgfid296}{5048808}{32155852}
\pgfsyspdfmark {pgfid297}{5376488}{30888554}
\pgfsyspdfmark {pgfid298}{5607499}{30888554}
\pgfsyspdfmark {pgfid299}{7091884}{30888554}
\pgfsyspdfmark {pgfid300}{8576269}{30888554}
\pgfsyspdfmark {pgfid301}{5048808}{30345418}
\pgfsyspdfmark {pgfid302}{5376488}{29078120}
\pgfsyspdfmark {pgfid303}{5607499}{29078120}
\pgfsyspdfmark {pgfid304}{7091884}{29078120}
\pgfsyspdfmark {pgfid305}{8576269}{29078120}
\pgfsyspdfmark {pgfid306}{5048808}{28534984}
\pgfsyspdfmark {pgfid307}{5376488}{27267686}
\pgfsyspdfmark {pgfid308}{5607499}{27267686}
\pgfsyspdfmark {pgfid309}{7091884}{27267686}
\pgfsyspdfmark {pgfid310}{8576269}{27267686}
\pgfsyspdfmark {pgfid311}{5048808}{26724550}
\pgfsyspdfmark {pgfid312}{5048808}{26724550}
\pgfsyspdfmark {pgfid313}{6166190}{26724550}
\pgfsyspdfmark {pgfid314}{8017578}{26724550}
\pgfsyspdfmark {pgfid315}{9134960}{26724550}
\savepicturepage{pgfid316}{13}
\pgfsyspdfmark {pgfid316}{9633035}{29158397}
\pgfsyspdfmark {pgfid317}{11284539}{32155852}
\pgfsyspdfmark {pgfid318}{11612219}{30888554}
\pgfsyspdfmark {pgfid319}{11843230}{30888554}
\pgfsyspdfmark {pgfid320}{13327615}{30888554}
\pgfsyspdfmark {pgfid321}{14812000}{30888554}
\pgfsyspdfmark {pgfid322}{11284539}{30345418}
\pgfsyspdfmark {pgfid323}{11612219}{29078120}
\pgfsyspdfmark {pgfid324}{11843230}{29078120}
\pgfsyspdfmark {pgfid325}{13327615}{29078120}
\pgfsyspdfmark {pgfid326}{14812000}{29078120}
\pgfsyspdfmark {pgfid327}{11284539}{28534984}
\pgfsyspdfmark {pgfid328}{11612219}{27267686}
\pgfsyspdfmark {pgfid329}{11843230}{27267686}
\pgfsyspdfmark {pgfid330}{13327615}{27267686}
\pgfsyspdfmark {pgfid331}{14812000}{27267686}
\pgfsyspdfmark {pgfid332}{11284539}{26724550}
\pgfsyspdfmark {pgfid333}{11284539}{26724550}
\pgfsyspdfmark {pgfid334}{12401921}{26724550}
\pgfsyspdfmark {pgfid335}{14253309}{26724550}
\pgfsyspdfmark {pgfid336}{15370691}{26724550}
\savepicturepage{pgfid337}{13}
\pgfsyspdfmark {pgfid337}{15868766}{29158397}
\pgfsyspdfmark {pgfid338}{4852200}{26231348}
\pgfsyspdfmark {pgfid339}{5376488}{24964050}
\pgfsyspdfmark {pgfid340}{9649389}{24964050}
\pgfsyspdfmark {pgfid341}{21422828}{24964050}
\pgfsyspdfmark {pgfid342}{32624472}{24964050}
\pgfsyspdfmark {pgfid343}{4852200}{24420914}
\pgfsyspdfmark {pgfid344}{5376488}{23153616}
\pgfsyspdfmark {pgfid345}{9649389}{23153616}
\pgfsyspdfmark {pgfid346}{21422828}{23153616}
\pgfsyspdfmark {pgfid347}{32624472}{23153616}
\pgfsyspdfmark {pgfid348}{4852200}{22610480}
\pgfsyspdfmark {pgfid349}{5376488}{21343182}
\pgfsyspdfmark {pgfid350}{9649389}{21343182}
\pgfsyspdfmark {pgfid351}{21422828}{21343182}
\pgfsyspdfmark {pgfid352}{32624472}{21343182}
\pgfsyspdfmark {pgfid353}{4852200}{20800046}
\pgfsyspdfmark {pgfid354}{4852200}{20800046}
\pgfsyspdfmark {pgfid355}{14446578}{20800046}
\pgfsyspdfmark {pgfid356}{28399078}{20800046}
\pgfsyspdfmark {pgfid357}{36849866}{20800046}
\savepicturepage{pgfid358}{13}
\pgfsyspdfmark {pgfid358}{37151333}{23233893}
\pgfsyspdfmark {pgfid359}{6291791}{20306844}
\pgfsyspdfmark {pgfid360}{6986474}{19039546}
\pgfsyspdfmark {pgfid361}{7217485}{19039546}
\pgfsyspdfmark {pgfid362}{9068873}{19039546}
\pgfsyspdfmark {pgfid363}{10553258}{19039546}
\pgfsyspdfmark {pgfid364}{6291791}{18496410}
\pgfsyspdfmark {pgfid365}{6619471}{17229112}
\pgfsyspdfmark {pgfid366}{7217485}{17229112}
\pgfsyspdfmark {pgfid367}{9068873}{17229112}
\pgfsyspdfmark {pgfid368}{10553258}{17229112}
\pgfsyspdfmark {pgfid369}{6291791}{16685976}
\pgfsyspdfmark {pgfid370}{6619471}{15418678}
\pgfsyspdfmark {pgfid371}{7217485}{15418678}
\pgfsyspdfmark {pgfid372}{9068873}{15418678}
\pgfsyspdfmark {pgfid373}{10553258}{15418678}
\pgfsyspdfmark {pgfid374}{6291791}{14875542}
\pgfsyspdfmark {pgfid375}{6291791}{14875542}
\pgfsyspdfmark {pgfid376}{8143179}{14875542}
\pgfsyspdfmark {pgfid377}{9994567}{14875542}
\pgfsyspdfmark {pgfid378}{11111949}{14875542}
\savepicturepage{pgfid379}{13}
\pgfsyspdfmark {pgfid379}{11610024}{17309389}
\pgfsyspdfmark {pgfid380}{5772971}{14382340}
\pgfsyspdfmark {pgfid381}{6467654}{13115042}
\pgfsyspdfmark {pgfid382}{6698665}{13115042}
\pgfsyspdfmark {pgfid383}{8550053}{13115042}
\pgfsyspdfmark {pgfid384}{10034438}{13115042}
\pgfsyspdfmark {pgfid385}{5772971}{12571906}
\pgfsyspdfmark {pgfid386}{6100651}{11304608}
\pgfsyspdfmark {pgfid387}{6698665}{11304608}
\pgfsyspdfmark {pgfid388}{8550053}{11304608}
\pgfsyspdfmark {pgfid389}{10034438}{11304608}
\pgfsyspdfmark {pgfid390}{5772971}{10761472}
\pgfsyspdfmark {pgfid391}{6100651}{9494174}
\pgfsyspdfmark {pgfid392}{6698665}{9494174}
\pgfsyspdfmark {pgfid393}{8550053}{9494174}
\pgfsyspdfmark {pgfid394}{10034438}{9494174}
\pgfsyspdfmark {pgfid395}{5772971}{8951038}
\pgfsyspdfmark {pgfid396}{5772971}{8951038}
\pgfsyspdfmark {pgfid397}{7624359}{8951038}
\pgfsyspdfmark {pgfid398}{9475747}{8951038}
\pgfsyspdfmark {pgfid399}{10593129}{8951038}
\savepicturepage{pgfid400}{13}
\pgfsyspdfmark {pgfid400}{11091204}{11384885}
\pgfsyspdfmark {pgfid401}{12832262}{14382340}
\pgfsyspdfmark {pgfid402}{13295933}{13115042}
\pgfsyspdfmark {pgfid403}{13757956}{13115042}
\pgfsyspdfmark {pgfid404}{15840355}{13115042}
\pgfsyspdfmark {pgfid405}{17786763}{13115042}
\pgfsyspdfmark {pgfid406}{12832262}{12571906}
\pgfsyspdfmark {pgfid407}{13159942}{11304608}
\pgfsyspdfmark {pgfid408}{13757956}{11304608}
\pgfsyspdfmark {pgfid409}{15840355}{11304608}
\pgfsyspdfmark {pgfid410}{17786763}{11304608}
\pgfsyspdfmark {pgfid411}{12832262}{10761472}
\pgfsyspdfmark {pgfid412}{13159942}{9494174}
\pgfsyspdfmark {pgfid413}{13757956}{9494174}
\pgfsyspdfmark {pgfid414}{15840355}{9494174}
\pgfsyspdfmark {pgfid415}{17786763}{9494174}
\pgfsyspdfmark {pgfid416}{12832262}{8951038}
\pgfsyspdfmark {pgfid417}{12832262}{8951038}
\pgfsyspdfmark {pgfid418}{14683650}{8951038}
\pgfsyspdfmark {pgfid419}{16997060}{8951038}
\pgfsyspdfmark {pgfid420}{18576466}{8951038}
\savepicturepage{pgfid421}{13}
\pgfsyspdfmark {pgfid421}{19074541}{11384885}
\pgfsyspdfmark {pgfid422}{5772971}{51581977}
\pgfsyspdfmark {pgfid423}{6100651}{50314679}
\pgfsyspdfmark {pgfid424}{6331662}{50314679}
\pgfsyspdfmark {pgfid425}{7816047}{50314679}
\pgfsyspdfmark {pgfid426}{9300432}{50314679}
\pgfsyspdfmark {pgfid427}{5772971}{49771543}
\pgfsyspdfmark {pgfid428}{6100651}{48504245}
\pgfsyspdfmark {pgfid429}{6331662}{48504245}
\pgfsyspdfmark {pgfid430}{7816047}{48504245}
\pgfsyspdfmark {pgfid431}{9300432}{48504245}
\pgfsyspdfmark {pgfid432}{5772971}{47961109}
\pgfsyspdfmark {pgfid433}{6100651}{46693811}
\pgfsyspdfmark {pgfid434}{6331662}{46693811}
\pgfsyspdfmark {pgfid435}{7816047}{46693811}
\pgfsyspdfmark {pgfid436}{9300432}{46693811}
\pgfsyspdfmark {pgfid437}{5772971}{46150675}
\pgfsyspdfmark {pgfid438}{5772971}{46150675}
\pgfsyspdfmark {pgfid439}{6890353}{46150675}
\pgfsyspdfmark {pgfid440}{8741741}{46150675}
\pgfsyspdfmark {pgfid441}{9859123}{46150675}
\savepicturepage{pgfid442}{14}
\pgfsyspdfmark {pgfid442}{10357198}{48584522}
\pgfsyspdfmark {pgfid443}{12098256}{51581977}
\pgfsyspdfmark {pgfid444}{12425936}{50314679}
\pgfsyspdfmark {pgfid445}{12656947}{50314679}
\pgfsyspdfmark {pgfid446}{14372343}{50314679}
\pgfsyspdfmark {pgfid447}{16087739}{50314679}
\pgfsyspdfmark {pgfid448}{12098256}{49771543}
\pgfsyspdfmark {pgfid449}{12425936}{48504245}
\pgfsyspdfmark {pgfid450}{12656947}{48504245}
\pgfsyspdfmark {pgfid451}{14372343}{48504245}
\pgfsyspdfmark {pgfid452}{16087739}{48504245}
\pgfsyspdfmark {pgfid453}{12098256}{47961109}
\pgfsyspdfmark {pgfid454}{12425936}{46693811}
\pgfsyspdfmark {pgfid455}{12656947}{46693811}
\pgfsyspdfmark {pgfid456}{14372343}{46693811}
\pgfsyspdfmark {pgfid457}{16087739}{46693811}
\pgfsyspdfmark {pgfid458}{12098256}{46150675}
\pgfsyspdfmark {pgfid459}{12098256}{46150675}
\pgfsyspdfmark {pgfid460}{13215638}{46150675}
\pgfsyspdfmark {pgfid461}{15529048}{46150675}
\pgfsyspdfmark {pgfid462}{16646430}{46150675}
\savepicturepage{pgfid463}{14}
\pgfsyspdfmark {pgfid463}{17144505}{48584522}
\pgfsyspdfmark {pgfid464}{5772971}{45657473}
\pgfsyspdfmark {pgfid465}{6236642}{44390175}
\pgfsyspdfmark {pgfid466}{6698665}{44390175}
\pgfsyspdfmark {pgfid467}{8781064}{44390175}
\pgfsyspdfmark {pgfid468}{10727472}{44390175}
\pgfsyspdfmark {pgfid469}{5772971}{43847039}
\pgfsyspdfmark {pgfid470}{6100651}{42579741}
\pgfsyspdfmark {pgfid471}{6698665}{42579741}
\pgfsyspdfmark {pgfid472}{8781064}{42579741}
\pgfsyspdfmark {pgfid473}{10727472}{42579741}
\pgfsyspdfmark {pgfid474}{5772971}{42036605}
\pgfsyspdfmark {pgfid475}{6100651}{40769307}
\pgfsyspdfmark {pgfid476}{6698665}{40769307}
\pgfsyspdfmark {pgfid477}{8781064}{40769307}
\pgfsyspdfmark {pgfid478}{10727472}{40769307}
\pgfsyspdfmark {pgfid479}{5772971}{40226171}
\pgfsyspdfmark {pgfid480}{5772971}{40226171}
\pgfsyspdfmark {pgfid481}{7624359}{40226171}
\pgfsyspdfmark {pgfid482}{9937769}{40226171}
\pgfsyspdfmark {pgfid483}{11517175}{40226171}
\savepicturepage{pgfid484}{14}
\pgfsyspdfmark {pgfid484}{12015250}{42660018}
\pgfsyspdfmark {pgfid485}{13666754}{45657473}
\pgfsyspdfmark {pgfid486}{13994434}{44390175}
\pgfsyspdfmark {pgfid487}{14225445}{44390175}
\pgfsyspdfmark {pgfid488}{15940841}{44390175}
\pgfsyspdfmark {pgfid489}{17656237}{44390175}
\pgfsyspdfmark {pgfid490}{13666754}{43847039}
\pgfsyspdfmark {pgfid491}{13994434}{42579741}
\pgfsyspdfmark {pgfid492}{14225445}{42579741}
\pgfsyspdfmark {pgfid493}{15940841}{42579741}
\pgfsyspdfmark {pgfid494}{17656237}{42579741}
\pgfsyspdfmark {pgfid495}{13666754}{42036605}
\pgfsyspdfmark {pgfid496}{13994434}{40769307}
\pgfsyspdfmark {pgfid497}{14225445}{40769307}
\pgfsyspdfmark {pgfid498}{15940841}{40769307}
\pgfsyspdfmark {pgfid499}{17656237}{40769307}
\pgfsyspdfmark {pgfid500}{13666754}{40226171}
\pgfsyspdfmark {pgfid501}{13666754}{40226171}
\pgfsyspdfmark {pgfid502}{14784136}{40226171}
\pgfsyspdfmark {pgfid503}{17097546}{40226171}
\pgfsyspdfmark {pgfid504}{18214928}{40226171}
\savepicturepage{pgfid505}{14}
\pgfsyspdfmark {pgfid505}{18713003}{42660018}
\pgfsyspdfmark {pgfid506}{20454061}{45657473}
\pgfsyspdfmark {pgfid507}{21148743}{44390175}
\pgfsyspdfmark {pgfid508}{21610766}{44390175}
\pgfsyspdfmark {pgfid509}{23924176}{44390175}
\pgfsyspdfmark {pgfid510}{25870584}{44390175}
\pgfsyspdfmark {pgfid511}{20454061}{43847039}
\pgfsyspdfmark {pgfid512}{20781741}{42579741}
\pgfsyspdfmark {pgfid513}{21610766}{42579741}
\pgfsyspdfmark {pgfid514}{23924176}{42579741}
\pgfsyspdfmark {pgfid515}{25870584}{42579741}
\pgfsyspdfmark {pgfid516}{20454061}{42036605}
\pgfsyspdfmark {pgfid517}{21012752}{40769307}
\pgfsyspdfmark {pgfid518}{21610766}{40769307}
\pgfsyspdfmark {pgfid519}{23924176}{40769307}
\pgfsyspdfmark {pgfid520}{25870584}{40769307}
\pgfsyspdfmark {pgfid521}{20454061}{40226171}
\pgfsyspdfmark {pgfid522}{20454061}{40226171}
\pgfsyspdfmark {pgfid523}{22767471}{40226171}
\pgfsyspdfmark {pgfid524}{25080881}{40226171}
\pgfsyspdfmark {pgfid525}{26660287}{40226171}
\savepicturepage{pgfid526}{14}
\pgfsyspdfmark {pgfid526}{27158362}{42660018}
\pgfsyspdfmark {pgfid527}{5048808}{39732969}
\pgfsyspdfmark {pgfid528}{5743490}{38465671}
\pgfsyspdfmark {pgfid529}{6205513}{38465671}
\pgfsyspdfmark {pgfid530}{8518923}{38465671}
\pgfsyspdfmark {pgfid531}{10465331}{38465671}
\pgfsyspdfmark {pgfid532}{5048808}{37922535}
\pgfsyspdfmark {pgfid533}{5376488}{36655237}
\pgfsyspdfmark {pgfid534}{6205513}{36655237}
\pgfsyspdfmark {pgfid535}{8518923}{36655237}
\pgfsyspdfmark {pgfid536}{10465331}{36655237}
\pgfsyspdfmark {pgfid537}{5048808}{36112101}
\pgfsyspdfmark {pgfid538}{5607499}{34844803}
\pgfsyspdfmark {pgfid539}{6205513}{34844803}
\pgfsyspdfmark {pgfid540}{8518923}{34844803}
\pgfsyspdfmark {pgfid541}{10465331}{34844803}
\pgfsyspdfmark {pgfid542}{5048808}{34301667}
\pgfsyspdfmark {pgfid543}{5048808}{34301667}
\pgfsyspdfmark {pgfid544}{7362218}{34301667}
\pgfsyspdfmark {pgfid545}{9675628}{34301667}
\pgfsyspdfmark {pgfid546}{11255034}{34301667}
\savepicturepage{pgfid547}{14}
\pgfsyspdfmark {pgfid547}{11753109}{36735514}
\pgfsyspdfmark {pgfid548}{15094317}{39732969}
\pgfsyspdfmark {pgfid549}{15788999}{38465671}
\pgfsyspdfmark {pgfid550}{16251022}{38465671}
\pgfsyspdfmark {pgfid551}{18564432}{38465671}
\pgfsyspdfmark {pgfid552}{20510840}{38465671}
\pgfsyspdfmark {pgfid553}{15094317}{37922535}
\pgfsyspdfmark {pgfid554}{15421997}{36655237}
\pgfsyspdfmark {pgfid555}{16251022}{36655237}
\pgfsyspdfmark {pgfid556}{18564432}{36655237}
\pgfsyspdfmark {pgfid557}{20510840}{36655237}
\pgfsyspdfmark {pgfid558}{15094317}{36112101}
\pgfsyspdfmark {pgfid559}{15653008}{34844803}
\pgfsyspdfmark {pgfid560}{16251022}{34844803}
\pgfsyspdfmark {pgfid561}{18564432}{34844803}
\pgfsyspdfmark {pgfid562}{20510840}{34844803}
\pgfsyspdfmark {pgfid563}{15094317}{34301667}
\pgfsyspdfmark {pgfid564}{15094317}{34301667}
\pgfsyspdfmark {pgfid565}{17407727}{34301667}
\pgfsyspdfmark {pgfid566}{19721137}{34301667}
\pgfsyspdfmark {pgfid567}{21300543}{34301667}
\savepicturepage{pgfid568}{14}
\pgfsyspdfmark {pgfid568}{21798618}{36735514}
\newlabel{LastPage}{{}{14}{}{page.14}{}}
\xdef\lastpage@lastpage{14}
\xdef\lastpage@lastpageHy{14}
\gdef \@abspage@last{14}
