\boolfalse {citerequest}\boolfalse {citetracker}\boolfalse {pagetracker}\boolfalse {backtracker}\relax 
\babel@toc {russian}{}
\defcounter {refsection}{0}\relax 
\contentsline {chapter}{\numberline {1}Раздел 1}{3}{chapter.1}%
\defcounter {refsection}{0}\relax 
\contentsline {section}{\numberline {1.1}Лемма о произведении}{3}{section.1.1}%
\defcounter {refsection}{0}\relax 
\contentsline {section}{\numberline {1.2}Лемма о корне}{3}{section.1.2}%
\defcounter {refsection}{0}\relax 
\contentsline {section}{\numberline {1.3}Задача №1.6}{4}{section.1.3}%
\defcounter {refsection}{0}\relax 
\contentsline {section}{\numberline {1.4}Задача №1.7}{5}{section.1.4}%
\defcounter {refsection}{0}\relax 
\contentsline {section}{\numberline {1.5}Задача №1.97}{5}{section.1.5}%
\defcounter {refsection}{0}\relax 
\contentsline {section}{\numberline {1.6}Задача №1.115}{6}{section.1.6}%
\defcounter {refsection}{0}\relax 
\contentsline {section}{\numberline {1.7}Задача №1.254(a)}{6}{section.1.7}%
\defcounter {refsection}{0}\relax 
\contentsline {section}{\numberline {1.8}Задача №1.284}{7}{section.1.8}%
\defcounter {refsection}{0}\relax 
\contentsline {section}{\numberline {1.9}Задача №1.318}{8}{section.1.9}%
\defcounter {refsection}{0}\relax 
\contentsline {section}{\numberline {1.10}Задача №1.318}{8}{section.1.10}%
\defcounter {refsection}{0}\relax 
\contentsline {section}{\numberline {1.11}Задача №1.522}{9}{section.1.11}%
\defcounter {refsection}{0}\relax 
\contentsline {chapter}{\numberline {2}Раздел 2}{11}{chapter.2}%
\defcounter {refsection}{0}\relax 
\contentsline {section}{\numberline {2.1}Задача №2.47}{11}{section.2.1}%
\defcounter {refsection}{0}\relax 
\contentsline {chapter}{\numberline {3}Раздел 3}{13}{chapter.3}%
\defcounter {refsection}{0}\relax 
\contentsline {section}{\numberline {3.1}Задача №3.92}{13}{section.3.1}%
