\relax 
\providecommand\hyper@newdestlabel[2]{}
\providecommand\babel@aux[2]{}
\@nameuse{bbl@beforestart}
\catcode `"\active 
\nicematrix@redefine@check@rerun 
\@writefile{toc}{\boolfalse {citerequest}\boolfalse {citetracker}\boolfalse {pagetracker}\boolfalse {backtracker}\relax }
\@writefile{lof}{\boolfalse {citerequest}\boolfalse {citetracker}\boolfalse {pagetracker}\boolfalse {backtracker}\relax }
\@writefile{lot}{\boolfalse {citerequest}\boolfalse {citetracker}\boolfalse {pagetracker}\boolfalse {backtracker}\relax }
\abx@aux@refcontext{nty/global//global/global}
\providecommand\HyperFirstAtBeginDocument{\AtBeginDocument}
\HyperFirstAtBeginDocument{\ifx\hyper@anchor\@undefined
\global\let\oldcontentsline\contentsline
\gdef\contentsline#1#2#3#4{\oldcontentsline{#1}{#2}{#3}}
\global\let\oldnewlabel\newlabel
\gdef\newlabel#1#2{\newlabelxx{#1}#2}
\gdef\newlabelxx#1#2#3#4#5#6{\oldnewlabel{#1}{{#2}{#3}}}
\AtEndDocument{\ifx\hyper@anchor\@undefined
\let\contentsline\oldcontentsline
\let\newlabel\oldnewlabel
\fi}
\fi}
\global\let\hyper@last\relax 
\gdef\HyperFirstAtBeginDocument#1{#1}
\providecommand\HyField@AuxAddToFields[1]{}
\providecommand\HyField@AuxAddToCoFields[2]{}
\babel@aux{russian}{}
\ExplSyntaxOn \cs_if_free:NT \pgfsyspdfmark {\cs_set_eq:NN \pgfsyspdfmark \@gobblethree }\ExplSyntaxOff 
\@writefile{toc}{\defcounter {refsection}{0}\relax }\@writefile{toc}{\contentsline {section}{\numberline {1}Задание №1}{3}{section.1}\protected@file@percent }
\@LN@col{1}
\@LN@col{1}
\@writefile{toc}{\defcounter {refsection}{0}\relax }\@writefile{toc}{\contentsline {section}{\numberline {2}Задание №2}{3}{section.2}\protected@file@percent }
\@LN@col{1}
\@LN@col{1}
\@LN@col{1}
\@LN@col{1}
\@writefile{toc}{\defcounter {refsection}{0}\relax }\@writefile{toc}{\contentsline {section}{\numberline {3}Задание №3}{4}{section.3}\protected@file@percent }
\@LN@col{1}
\@LN@col{1}
\@writefile{lot}{\defcounter {refsection}{0}\relax }\@writefile{lot}{\contentsline {table}{\numberline {1}{\ignorespaces Задание №2\relax }}{5}{table.caption.1}\protected@file@percent }
\providecommand*\caption@xref[2]{\@setref\relax\@undefined{#1}}
\newlabel{myt:Задание №2}{{1}{5}{Задание №2\relax }{table.caption.1}{}}
\pgfsyspdfmark {pgfid3}{18250785}{44571868}
\pgfsyspdfmark {pgfid4}{18250785}{44571868}
\pgfsyspdfmark {pgfid5}{18250785}{43208173}
\pgfsyspdfmark {pgfid6}{18552641}{43208173}
\pgfsyspdfmark {pgfid7}{19883136}{43208173}
\pgfsyspdfmark {pgfid8}{21147429}{43208173}
\pgfsyspdfmark {pgfid9}{22494055}{43208173}
\pgfsyspdfmark {pgfid10}{18250785}{42773664}
\pgfsyspdfmark {pgfid11}{18250785}{42604830}
\pgfsyspdfmark {pgfid12}{18250785}{41310080}
\pgfsyspdfmark {pgfid13}{18486714}{41310080}
\pgfsyspdfmark {pgfid14}{19876858}{41310080}
\pgfsyspdfmark {pgfid15}{21147704}{41310080}
\pgfsyspdfmark {pgfid16}{22451869}{41310080}
\pgfsyspdfmark {pgfid17}{18250785}{40875571}
\pgfsyspdfmark {pgfid18}{18250785}{39861732}
\pgfsyspdfmark {pgfid19}{18486714}{39861732}
\pgfsyspdfmark {pgfid20}{19876858}{39861732}
\pgfsyspdfmark {pgfid21}{21147704}{39861732}
\pgfsyspdfmark {pgfid22}{22451869}{39861732}
\pgfsyspdfmark {pgfid23}{18250785}{39427223}
\pgfsyspdfmark {pgfid24}{18250785}{38413384}
\pgfsyspdfmark {pgfid25}{18486714}{38413384}
\pgfsyspdfmark {pgfid26}{19876858}{38413384}
\pgfsyspdfmark {pgfid27}{21147704}{38413384}
\pgfsyspdfmark {pgfid28}{22451869}{38413384}
\pgfsyspdfmark {pgfid29}{18250785}{37978875}
\pgfsyspdfmark {pgfid30}{18250785}{36965036}
\pgfsyspdfmark {pgfid31}{18486714}{36965036}
\pgfsyspdfmark {pgfid32}{19876858}{36965036}
\pgfsyspdfmark {pgfid33}{21147704}{36965036}
\pgfsyspdfmark {pgfid34}{22451869}{36965036}
\pgfsyspdfmark {pgfid35}{18250785}{36530527}
\pgfsyspdfmark {pgfid36}{18250785}{36361693}
\pgfsyspdfmark {pgfid37}{18250785}{35066943}
\pgfsyspdfmark {pgfid38}{18486714}{35066943}
\pgfsyspdfmark {pgfid39}{19876858}{35066943}
\pgfsyspdfmark {pgfid40}{21147704}{35066943}
\pgfsyspdfmark {pgfid41}{22451869}{35066943}
\pgfsyspdfmark {pgfid42}{18250785}{34632434}
\pgfsyspdfmark {pgfid43}{18250785}{33618595}
\pgfsyspdfmark {pgfid44}{18486714}{33618595}
\pgfsyspdfmark {pgfid45}{19876858}{33618595}
\pgfsyspdfmark {pgfid46}{21147704}{33618595}
\pgfsyspdfmark {pgfid47}{22451869}{33618595}
\pgfsyspdfmark {pgfid48}{18250785}{33184086}
\pgfsyspdfmark {pgfid49}{18250785}{32170247}
\pgfsyspdfmark {pgfid50}{18486714}{32170247}
\pgfsyspdfmark {pgfid51}{19876858}{32170247}
\pgfsyspdfmark {pgfid52}{21147704}{32170247}
\pgfsyspdfmark {pgfid53}{22451869}{32170247}
\pgfsyspdfmark {pgfid54}{18250785}{31735738}
\pgfsyspdfmark {pgfid55}{18250785}{30721899}
\pgfsyspdfmark {pgfid56}{18486714}{30721899}
\pgfsyspdfmark {pgfid57}{19876858}{30721899}
\pgfsyspdfmark {pgfid58}{21147704}{30721899}
\pgfsyspdfmark {pgfid59}{22451869}{30721899}
\pgfsyspdfmark {pgfid60}{18250785}{30287390}
\pgfsyspdfmark {pgfid61}{18250785}{30118556}
\pgfsyspdfmark {pgfid62}{18250785}{30043057}
\pgfsyspdfmark {pgfid63}{19247713}{30043057}
\pgfsyspdfmark {pgfid64}{20518559}{30043057}
\pgfsyspdfmark {pgfid65}{21822724}{30043057}
\pgfsyspdfmark {pgfid66}{22772170}{30043057}
\savepicturepage{pgfid67}{5}
\pgfsyspdfmark {pgfid67}{22772170}{37071533}
\pgfsyspdfmark {pgfid68}{22772170}{37071533}
\@writefile{lot}{\defcounter {refsection}{0}\relax }\@writefile{lot}{\contentsline {table}{\numberline {2}{\ignorespaces Задание №3\relax }}{5}{table.caption.2}\protected@file@percent }
\newlabel{myt:Задание №3}{{2}{5}{Задание №3\relax }{table.caption.2}{}}
\pgfsyspdfmark {pgfid71}{14349663}{17128715}
\pgfsyspdfmark {pgfid72}{14349663}{17128715}
\pgfsyspdfmark {pgfid73}{14349663}{15765020}
\pgfsyspdfmark {pgfid74}{19210957}{15765020}
\pgfsyspdfmark {pgfid75}{20941163}{15765020}
\pgfsyspdfmark {pgfid76}{22531969}{15765020}
\pgfsyspdfmark {pgfid77}{24264905}{15765020}
\pgfsyspdfmark {pgfid78}{26177027}{15765020}
\pgfsyspdfmark {pgfid79}{14349663}{15330511}
\pgfsyspdfmark {pgfid80}{14349663}{15161677}
\pgfsyspdfmark {pgfid81}{14349663}{13866927}
\pgfsyspdfmark {pgfid82}{14580674}{13866927}
\pgfsyspdfmark {pgfid83}{19231823}{13866927}
\pgfsyspdfmark {pgfid84}{20962029}{13866927}
\pgfsyspdfmark {pgfid85}{22692235}{13866927}
\pgfsyspdfmark {pgfid86}{24422441}{13866927}
\pgfsyspdfmark {pgfid87}{26152647}{13866927}
\pgfsyspdfmark {pgfid88}{14349663}{13432418}
\pgfsyspdfmark {pgfid89}{14349663}{12418579}
\pgfsyspdfmark {pgfid90}{14854421}{12418579}
\pgfsyspdfmark {pgfid91}{19231823}{12418579}
\pgfsyspdfmark {pgfid92}{20962029}{12418579}
\pgfsyspdfmark {pgfid93}{22692235}{12418579}
\pgfsyspdfmark {pgfid94}{24422441}{12418579}
\pgfsyspdfmark {pgfid95}{26152647}{12418579}
\pgfsyspdfmark {pgfid96}{14349663}{11984070}
\pgfsyspdfmark {pgfid97}{14349663}{10970231}
\pgfsyspdfmark {pgfid98}{16138646}{10970231}
\pgfsyspdfmark {pgfid99}{19231823}{10970231}
\pgfsyspdfmark {pgfid100}{20962029}{10970231}
\pgfsyspdfmark {pgfid101}{22692235}{10970231}
\pgfsyspdfmark {pgfid102}{24422441}{10970231}
\pgfsyspdfmark {pgfid103}{26152647}{10970231}
\pgfsyspdfmark {pgfid104}{14349663}{10535722}
\pgfsyspdfmark {pgfid105}{14349663}{9521883}
\pgfsyspdfmark {pgfid106}{15431136}{9521883}
\pgfsyspdfmark {pgfid107}{19231823}{9521883}
\pgfsyspdfmark {pgfid108}{20962029}{9521883}
\pgfsyspdfmark {pgfid109}{22692235}{9521883}
\pgfsyspdfmark {pgfid110}{24422441}{9521883}
\pgfsyspdfmark {pgfid111}{26152647}{9521883}
\pgfsyspdfmark {pgfid112}{14349663}{9087374}
\pgfsyspdfmark {pgfid113}{14349663}{8918540}
\pgfsyspdfmark {pgfid114}{14349663}{8843041}
\pgfsyspdfmark {pgfid115}{18366720}{8843041}
\pgfsyspdfmark {pgfid116}{20096926}{8843041}
\pgfsyspdfmark {pgfid117}{21827132}{8843041}
\pgfsyspdfmark {pgfid118}{23557338}{8843041}
\pgfsyspdfmark {pgfid119}{25287544}{8843041}
\pgfsyspdfmark {pgfid120}{26673294}{8843041}
\savepicturepage{pgfid121}{5}
\pgfsyspdfmark {pgfid121}{26673294}{12749949}
\pgfsyspdfmark {pgfid122}{26673294}{12749949}
\newlabel{LastPage}{{}{5}{}{page.5}{}}
\xdef\lastpage@lastpage{5}
\xdef\lastpage@lastpageHy{5}
\gdef \@abspage@last{5}
