\relax 
\providecommand\hyper@newdestlabel[2]{}
\providecommand\babel@aux[2]{}
\@nameuse{bbl@beforestart}
\catcode `"\active 
\nicematrix@redefine@check@rerun 
\@writefile{toc}{\boolfalse {citerequest}\boolfalse {citetracker}\boolfalse {pagetracker}\boolfalse {backtracker}\relax }
\@writefile{lof}{\boolfalse {citerequest}\boolfalse {citetracker}\boolfalse {pagetracker}\boolfalse {backtracker}\relax }
\@writefile{lot}{\boolfalse {citerequest}\boolfalse {citetracker}\boolfalse {pagetracker}\boolfalse {backtracker}\relax }
\abx@aux@refcontext{nty/global//global/global}
\providecommand\HyperFirstAtBeginDocument{\AtBeginDocument}
\HyperFirstAtBeginDocument{\ifx\hyper@anchor\@undefined
\global\let\oldcontentsline\contentsline
\gdef\contentsline#1#2#3#4{\oldcontentsline{#1}{#2}{#3}}
\global\let\oldnewlabel\newlabel
\gdef\newlabel#1#2{\newlabelxx{#1}#2}
\gdef\newlabelxx#1#2#3#4#5#6{\oldnewlabel{#1}{{#2}{#3}}}
\AtEndDocument{\ifx\hyper@anchor\@undefined
\let\contentsline\oldcontentsline
\let\newlabel\oldnewlabel
\fi}
\fi}
\global\let\hyper@last\relax 
\gdef\HyperFirstAtBeginDocument#1{#1}
\providecommand\HyField@AuxAddToFields[1]{}
\providecommand\HyField@AuxAddToCoFields[2]{}
\babel@aux{russian}{}
\ExplSyntaxOn \cs_if_free:NT \pgfsyspdfmark {\cs_set_eq:NN \pgfsyspdfmark \@gobblethree }\ExplSyntaxOff 
\ExplSyntaxOn 
\seq_clear_new:c {__nicematrix_size_1_seq}
\seq_gset_from_clist:cn {__nicematrix_size_1_seq}{1,10,1,8}\seq_gset_from_clist:cn {c__nicematrix_pos_of_blocks_1_seq}{}
\ExplSyntaxOff 
\@writefile{toc}{\defcounter {refsection}{0}\relax }\@writefile{toc}{\contentsline {section}{\numberline {1}Задание №1}{3}{section.1}\protected@file@percent }
\@LN@col{1}
\@LN@col{1}
\@writefile{toc}{\defcounter {refsection}{0}\relax }\@writefile{toc}{\contentsline {section}{\numberline {2}Задание №2}{3}{section.2}\protected@file@percent }
\@LN@col{1}
\@LN@col{1}
\@writefile{toc}{\defcounter {refsection}{0}\relax }\@writefile{toc}{\contentsline {section}{\numberline {3}Задание №3}{3}{section.3}\protected@file@percent }
\@LN@col{1}
\@LN@col{1}
\@writefile{lot}{\defcounter {refsection}{0}\relax }\@writefile{lot}{\contentsline {table}{\numberline {1}{\ignorespaces Задание 3\relax }}{4}{table.caption.1}\protected@file@percent }
\providecommand*\caption@xref[2]{\@setref\relax\@undefined{#1}}
\newlabel{myt:Задание 3}{{1}{4}{Задание 3\relax }{table.caption.1}{}}
\pgfsyspdfmark {nm-1-position}{7978077}{40609074}
\pgfsyspdfmark {nm-1-row-1}{7978077}{48810646}
\pgfsyspdfmark {pgfid7}{7978077}{48833583}
\pgfsyspdfmark {nm-1-row-1}{7978077}{48810646}
\pgfsyspdfmark {pgfid8}{7978077}{48833583}
\pgfsyspdfmark {pgfid9}{7978077}{47469888}
\pgfsyspdfmark {pgfid10}{12204833}{47469888}
\pgfsyspdfmark {pgfid11}{20884925}{47469888}
\pgfsyspdfmark {nm-1-row-2}{7978077}{47012442}
\pgfsyspdfmark {pgfid12}{7978077}{47035379}
\pgfsyspdfmark {pgfid13}{7978077}{46021540}
\pgfsyspdfmark {pgfid14}{8240628}{46021540}
\pgfsyspdfmark {pgfid15}{9531818}{46021540}
\pgfsyspdfmark {pgfid16}{10796111}{46021540}
\pgfsyspdfmark {pgfid17}{13075933}{46021540}
\pgfsyspdfmark {pgfid18}{17406059}{46021540}
\pgfsyspdfmark {pgfid19}{21573027}{46021540}
\pgfsyspdfmark {pgfid20}{24358562}{46021540}
\pgfsyspdfmark {pgfid21}{29593074}{46021540}
\pgfsyspdfmark {nm-1-row-3}{7978077}{45564094}
\pgfsyspdfmark {pgfid22}{7978077}{45587031}
\pgfsyspdfmark {nm-1-row-3}{7978077}{45395260}
\pgfsyspdfmark {pgfid23}{7978077}{45418197}
\pgfsyspdfmark {pgfid24}{7978077}{44123447}
\pgfsyspdfmark {pgfid25}{8209088}{44123447}
\pgfsyspdfmark {pgfid26}{9520622}{44123447}
\pgfsyspdfmark {pgfid27}{10791468}{44123447}
\pgfsyspdfmark {pgfid28}{12095083}{44123447}
\pgfsyspdfmark {pgfid29}{15305237}{44123447}
\pgfsyspdfmark {pgfid30}{20801210}{44123447}
\pgfsyspdfmark {pgfid31}{23593298}{44123447}
\pgfsyspdfmark {pgfid32}{26372280}{44123447}
\pgfsyspdfmark {nm-1-row-4}{7978077}{43666001}
\pgfsyspdfmark {pgfid33}{7978077}{43688938}
\pgfsyspdfmark {pgfid34}{7978077}{42675099}
\pgfsyspdfmark {pgfid35}{8209088}{42675099}
\pgfsyspdfmark {pgfid36}{9520622}{42675099}
\pgfsyspdfmark {pgfid37}{10791468}{42675099}
\pgfsyspdfmark {pgfid38}{12095083}{42675099}
\pgfsyspdfmark {pgfid39}{15305237}{42675099}
\pgfsyspdfmark {pgfid40}{20801210}{42675099}
\pgfsyspdfmark {pgfid41}{23593298}{42675099}
\pgfsyspdfmark {pgfid42}{26372280}{42675099}
\pgfsyspdfmark {nm-1-row-5}{7978077}{42217653}
\pgfsyspdfmark {pgfid43}{7978077}{42240590}
\pgfsyspdfmark {pgfid44}{7978077}{41226751}
\pgfsyspdfmark {pgfid45}{8209088}{41226751}
\pgfsyspdfmark {pgfid46}{9520622}{41226751}
\pgfsyspdfmark {pgfid47}{10791468}{41226751}
\pgfsyspdfmark {pgfid48}{12095083}{41226751}
\pgfsyspdfmark {pgfid49}{15305237}{41226751}
\pgfsyspdfmark {pgfid50}{20801210}{41226751}
\pgfsyspdfmark {pgfid51}{23593298}{41226751}
\pgfsyspdfmark {pgfid52}{26372280}{41226751}
\pgfsyspdfmark {nm-1-row-6}{7978077}{40769305}
\pgfsyspdfmark {pgfid53}{7978077}{40792242}
\pgfsyspdfmark {pgfid54}{7978077}{39778403}
\pgfsyspdfmark {pgfid55}{8209088}{39778403}
\pgfsyspdfmark {pgfid56}{9520622}{39778403}
\pgfsyspdfmark {pgfid57}{10791468}{39778403}
\pgfsyspdfmark {pgfid58}{12095083}{39778403}
\pgfsyspdfmark {pgfid59}{15305237}{39778403}
\pgfsyspdfmark {pgfid60}{20801210}{39778403}
\pgfsyspdfmark {pgfid61}{23593298}{39778403}
\pgfsyspdfmark {pgfid62}{26372280}{39778403}
\pgfsyspdfmark {nm-1-row-7}{7978077}{39320957}
\pgfsyspdfmark {pgfid63}{7978077}{39343894}
\pgfsyspdfmark {nm-1-row-7}{7978077}{39152123}
\pgfsyspdfmark {pgfid64}{7978077}{39175060}
\pgfsyspdfmark {pgfid65}{7978077}{37880310}
\pgfsyspdfmark {pgfid66}{8209088}{37880310}
\pgfsyspdfmark {pgfid67}{9520622}{37880310}
\pgfsyspdfmark {pgfid68}{10791468}{37880310}
\pgfsyspdfmark {pgfid69}{12095083}{37880310}
\pgfsyspdfmark {pgfid70}{15305237}{37880310}
\pgfsyspdfmark {pgfid71}{20801210}{37880310}
\pgfsyspdfmark {pgfid72}{23593298}{37880310}
\pgfsyspdfmark {pgfid73}{26372280}{37880310}
\pgfsyspdfmark {nm-1-row-8}{7978077}{37422864}
\pgfsyspdfmark {pgfid74}{7978077}{37445801}
\pgfsyspdfmark {pgfid75}{7978077}{36431962}
\pgfsyspdfmark {pgfid76}{8209088}{36431962}
\pgfsyspdfmark {pgfid77}{9520622}{36431962}
\pgfsyspdfmark {pgfid78}{10791468}{36431962}
\pgfsyspdfmark {pgfid79}{12095083}{36431962}
\pgfsyspdfmark {pgfid80}{15305237}{36431962}
\pgfsyspdfmark {pgfid81}{20801210}{36431962}
\pgfsyspdfmark {pgfid82}{23593298}{36431962}
\pgfsyspdfmark {pgfid83}{26372280}{36431962}
\pgfsyspdfmark {nm-1-row-9}{7978077}{35974516}
\pgfsyspdfmark {pgfid84}{7978077}{35997453}
\pgfsyspdfmark {pgfid85}{7978077}{34983614}
\pgfsyspdfmark {pgfid86}{8209088}{34983614}
\pgfsyspdfmark {pgfid87}{9520622}{34983614}
\pgfsyspdfmark {pgfid88}{10791468}{34983614}
\pgfsyspdfmark {pgfid89}{12095083}{34983614}
\pgfsyspdfmark {pgfid90}{15305237}{34983614}
\pgfsyspdfmark {pgfid91}{20801210}{34983614}
\pgfsyspdfmark {pgfid92}{23593298}{34983614}
\pgfsyspdfmark {pgfid93}{26372280}{34983614}
\pgfsyspdfmark {nm-1-row-10}{7978077}{34526168}
\pgfsyspdfmark {pgfid94}{7978077}{34549105}
\pgfsyspdfmark {pgfid95}{7978077}{33535266}
\pgfsyspdfmark {pgfid96}{8209088}{33535266}
\pgfsyspdfmark {pgfid97}{9520622}{33535266}
\pgfsyspdfmark {pgfid98}{10791468}{33535266}
\pgfsyspdfmark {pgfid99}{12095083}{33535266}
\pgfsyspdfmark {pgfid100}{15305237}{33535266}
\pgfsyspdfmark {pgfid101}{20801210}{33535266}
\pgfsyspdfmark {pgfid102}{23593298}{33535266}
\pgfsyspdfmark {pgfid103}{26372280}{33535266}
\pgfsyspdfmark {nm-1-row-11}{7978077}{33077820}
\pgfsyspdfmark {pgfid104}{7978077}{33100757}
\pgfsyspdfmark {nm-1-row-11}{7978077}{32908986}
\pgfsyspdfmark {pgfid105}{7978077}{32931923}
\pgfsyspdfmark {nm-1-col-1}{8001014}{32856424}
\pgfsyspdfmark {pgfid106}{7978077}{32856424}
\pgfsyspdfmark {nm-1-col-2}{8873458}{32856424}
\pgfsyspdfmark {pgfid107}{8896395}{32856424}
\pgfsyspdfmark {nm-1-col-3}{10144304}{32856424}
\pgfsyspdfmark {pgfid108}{10167241}{32856424}
\pgfsyspdfmark {nm-1-col-4}{11447919}{32856424}
\pgfsyspdfmark {pgfid109}{11470856}{32856424}
\pgfsyspdfmark {nm-1-col-5}{14658073}{32856424}
\pgfsyspdfmark {pgfid110}{14681010}{32856424}
\pgfsyspdfmark {nm-1-col-6}{20154046}{32856424}
\pgfsyspdfmark {pgfid111}{20176983}{32856424}
\pgfsyspdfmark {nm-1-col-7}{22946134}{32856424}
\pgfsyspdfmark {pgfid112}{22969071}{32856424}
\pgfsyspdfmark {nm-1-col-8}{25725116}{32856424}
\pgfsyspdfmark {pgfid113}{25748053}{32856424}
\pgfsyspdfmark {nm-1-col-9}{33021942}{32856424}
\pgfsyspdfmark {pgfid114}{33044879}{32856424}
\savepicturepage{pgfid115}{4}
\pgfsyspdfmark {pgfid115}{33044879}{40609074}
\pgfsyspdfmark {pgfid116}{33044879}{40609074}
\pgfsyspdfmark {pgfid117}{33044879}{40609074}
\@writefile{toc}{\defcounter {refsection}{0}\relax }\@writefile{toc}{\contentsline {section}{\numberline {4}Задание №4}{4}{section.4}\protected@file@percent }
\@LN@col{1}
\@LN@col{1}
\@writefile{lot}{\defcounter {refsection}{0}\relax }\@writefile{lot}{\contentsline {table}{\numberline {2}{\ignorespaces Задание 4, $f_1,f_2$\relax }}{5}{table.caption.2}\protected@file@percent }
\newlabel{myt:Задание 4, $f_1,f_2$}{{2}{5}{Задание 4, $f_1,f_2$\relax }{table.caption.2}{}}
\pgfsyspdfmark {pgfid119}{17390885}{44571868}
\pgfsyspdfmark {pgfid120}{17390885}{44571868}
\pgfsyspdfmark {pgfid121}{17390885}{43208173}
\pgfsyspdfmark {pgfid122}{17574794}{43208173}
\pgfsyspdfmark {pgfid123}{18881546}{43208173}
\pgfsyspdfmark {pgfid124}{20145839}{43208173}
\pgfsyspdfmark {pgfid125}{21621760}{43208173}
\pgfsyspdfmark {pgfid126}{23224112}{43208173}
\pgfsyspdfmark {pgfid127}{17390885}{42773664}
\pgfsyspdfmark {pgfid128}{17390885}{42604830}
\pgfsyspdfmark {pgfid129}{17390885}{41310080}
\pgfsyspdfmark {pgfid130}{17621896}{41310080}
\pgfsyspdfmark {pgfid131}{18870350}{41310080}
\pgfsyspdfmark {pgfid132}{20141196}{41310080}
\pgfsyspdfmark {pgfid133}{21444811}{41310080}
\pgfsyspdfmark {pgfid134}{23047163}{41310080}
\pgfsyspdfmark {pgfid135}{17390885}{40875571}
\pgfsyspdfmark {pgfid136}{17390885}{39861732}
\pgfsyspdfmark {pgfid137}{17621896}{39861732}
\pgfsyspdfmark {pgfid138}{18870350}{39861732}
\pgfsyspdfmark {pgfid139}{20141196}{39861732}
\pgfsyspdfmark {pgfid140}{21444811}{39861732}
\pgfsyspdfmark {pgfid141}{23047163}{39861732}
\pgfsyspdfmark {pgfid142}{17390885}{39427223}
\pgfsyspdfmark {pgfid143}{17390885}{38413384}
\pgfsyspdfmark {pgfid144}{17621896}{38413384}
\pgfsyspdfmark {pgfid145}{18870350}{38413384}
\pgfsyspdfmark {pgfid146}{20141196}{38413384}
\pgfsyspdfmark {pgfid147}{21444811}{38413384}
\pgfsyspdfmark {pgfid148}{23047163}{38413384}
\pgfsyspdfmark {pgfid149}{17390885}{37978875}
\pgfsyspdfmark {pgfid150}{17390885}{36965036}
\pgfsyspdfmark {pgfid151}{17621896}{36965036}
\pgfsyspdfmark {pgfid152}{18870350}{36965036}
\pgfsyspdfmark {pgfid153}{20141196}{36965036}
\pgfsyspdfmark {pgfid154}{21444811}{36965036}
\pgfsyspdfmark {pgfid155}{23047163}{36965036}
\pgfsyspdfmark {pgfid156}{17390885}{36530527}
\pgfsyspdfmark {pgfid157}{17390885}{36361693}
\pgfsyspdfmark {pgfid158}{17390885}{35066943}
\pgfsyspdfmark {pgfid159}{17621896}{35066943}
\pgfsyspdfmark {pgfid160}{18870350}{35066943}
\pgfsyspdfmark {pgfid161}{20141196}{35066943}
\pgfsyspdfmark {pgfid162}{21444811}{35066943}
\pgfsyspdfmark {pgfid163}{23047163}{35066943}
\pgfsyspdfmark {pgfid164}{17390885}{34632434}
\pgfsyspdfmark {pgfid165}{17390885}{33618595}
\pgfsyspdfmark {pgfid166}{17621896}{33618595}
\pgfsyspdfmark {pgfid167}{18870350}{33618595}
\pgfsyspdfmark {pgfid168}{20141196}{33618595}
\pgfsyspdfmark {pgfid169}{21444811}{33618595}
\pgfsyspdfmark {pgfid170}{23047163}{33618595}
\pgfsyspdfmark {pgfid171}{17390885}{33184086}
\pgfsyspdfmark {pgfid172}{17390885}{32170247}
\pgfsyspdfmark {pgfid173}{17621896}{32170247}
\pgfsyspdfmark {pgfid174}{18870350}{32170247}
\pgfsyspdfmark {pgfid175}{20141196}{32170247}
\pgfsyspdfmark {pgfid176}{21444811}{32170247}
\pgfsyspdfmark {pgfid177}{23047163}{32170247}
\pgfsyspdfmark {pgfid178}{17390885}{31735738}
\pgfsyspdfmark {pgfid179}{17390885}{30721899}
\pgfsyspdfmark {pgfid180}{17621896}{30721899}
\pgfsyspdfmark {pgfid181}{18870350}{30721899}
\pgfsyspdfmark {pgfid182}{20141196}{30721899}
\pgfsyspdfmark {pgfid183}{21444811}{30721899}
\pgfsyspdfmark {pgfid184}{23047163}{30721899}
\pgfsyspdfmark {pgfid185}{17390885}{30287390}
\pgfsyspdfmark {pgfid186}{17390885}{30118556}
\pgfsyspdfmark {pgfid187}{17390885}{30043057}
\pgfsyspdfmark {pgfid188}{18246123}{30043057}
\pgfsyspdfmark {pgfid189}{19516969}{30043057}
\pgfsyspdfmark {pgfid190}{20820584}{30043057}
\pgfsyspdfmark {pgfid191}{22422936}{30043057}
\pgfsyspdfmark {pgfid192}{23632072}{30043057}
\savepicturepage{pgfid193}{5}
\pgfsyspdfmark {pgfid193}{23632072}{37071533}
\pgfsyspdfmark {pgfid194}{23632072}{37071533}
\@writefile{lot}{\defcounter {refsection}{0}\relax }\@writefile{lot}{\contentsline {table}{\numberline {3}{\ignorespaces Задание 4, $g$\relax }}{5}{table.caption.3}\protected@file@percent }
\newlabel{myt:Задание 4, $g$}{{3}{5}{Задание 4, $g$\relax }{table.caption.3}{}}
\pgfsyspdfmark {pgfid195}{18990725}{17128715}
\pgfsyspdfmark {pgfid196}{18990725}{17128715}
\pgfsyspdfmark {pgfid197}{18990725}{15765020}
\pgfsyspdfmark {pgfid198}{19174634}{15765020}
\pgfsyspdfmark {pgfid199}{20481386}{15765020}
\pgfsyspdfmark {pgfid200}{21794066}{15765020}
\pgfsyspdfmark {pgfid201}{18990725}{15330511}
\pgfsyspdfmark {pgfid202}{18990725}{15161677}
\pgfsyspdfmark {pgfid203}{18990725}{13866927}
\pgfsyspdfmark {pgfid204}{19221736}{13866927}
\pgfsyspdfmark {pgfid205}{20470190}{13866927}
\pgfsyspdfmark {pgfid206}{21786911}{13866927}
\pgfsyspdfmark {pgfid207}{18990725}{13432418}
\pgfsyspdfmark {pgfid208}{18990725}{12418579}
\pgfsyspdfmark {pgfid209}{19221736}{12418579}
\pgfsyspdfmark {pgfid210}{20470190}{12418579}
\pgfsyspdfmark {pgfid211}{21786911}{12418579}
\pgfsyspdfmark {pgfid212}{18990725}{11984070}
\pgfsyspdfmark {pgfid213}{18990725}{10970231}
\pgfsyspdfmark {pgfid214}{19221736}{10970231}
\pgfsyspdfmark {pgfid215}{20470190}{10970231}
\pgfsyspdfmark {pgfid216}{21786911}{10970231}
\pgfsyspdfmark {pgfid217}{18990725}{10535722}
\pgfsyspdfmark {pgfid218}{18990725}{9521883}
\pgfsyspdfmark {pgfid219}{19221736}{9521883}
\pgfsyspdfmark {pgfid220}{20470190}{9521883}
\pgfsyspdfmark {pgfid221}{21786911}{9521883}
\pgfsyspdfmark {pgfid222}{18990725}{9087374}
\pgfsyspdfmark {pgfid223}{18990725}{8918540}
\pgfsyspdfmark {pgfid224}{18990725}{8843041}
\pgfsyspdfmark {pgfid225}{19845963}{8843041}
\pgfsyspdfmark {pgfid226}{21162684}{8843041}
\pgfsyspdfmark {pgfid227}{22032232}{8843041}
\savepicturepage{pgfid228}{5}
\pgfsyspdfmark {pgfid228}{22032232}{12749949}
\pgfsyspdfmark {pgfid229}{22032232}{12749949}
\pgfsyspdfmark {pgfid231}{9528753}{51455023}
\pgfsyspdfmark {pgfid232}{9528753}{51455023}
\pgfsyspdfmark {pgfid233}{9921969}{50091328}
\pgfsyspdfmark {pgfid234}{10184520}{50091328}
\pgfsyspdfmark {pgfid235}{11475710}{50091328}
\pgfsyspdfmark {pgfid236}{12740278}{50091328}
\pgfsyspdfmark {pgfid237}{14040754}{50091328}
\pgfsyspdfmark {pgfid238}{9528753}{49656819}
\pgfsyspdfmark {pgfid239}{9528753}{49487985}
\pgfsyspdfmark {pgfid240}{9948591}{48193235}
\pgfsyspdfmark {pgfid241}{10184520}{48193235}
\pgfsyspdfmark {pgfid242}{11475710}{48193235}
\pgfsyspdfmark {pgfid243}{12740278}{48193235}
\pgfsyspdfmark {pgfid244}{14040754}{48193235}
\pgfsyspdfmark {pgfid245}{9528753}{47758726}
\pgfsyspdfmark {pgfid246}{9948591}{46744887}
\pgfsyspdfmark {pgfid247}{10184520}{46744887}
\pgfsyspdfmark {pgfid248}{11475710}{46744887}
\pgfsyspdfmark {pgfid249}{12740278}{46744887}
\pgfsyspdfmark {pgfid250}{14040754}{46744887}
\pgfsyspdfmark {pgfid251}{9528753}{46310378}
\pgfsyspdfmark {pgfid252}{9948591}{45296539}
\pgfsyspdfmark {pgfid253}{10184520}{45296539}
\pgfsyspdfmark {pgfid254}{11475710}{45296539}
\pgfsyspdfmark {pgfid255}{12740278}{45296539}
\pgfsyspdfmark {pgfid256}{14040754}{45296539}
\pgfsyspdfmark {pgfid257}{9528753}{44862030}
\pgfsyspdfmark {pgfid258}{9948591}{43848191}
\pgfsyspdfmark {pgfid259}{10184520}{43848191}
\pgfsyspdfmark {pgfid260}{11475710}{43848191}
\pgfsyspdfmark {pgfid261}{12740278}{43848191}
\pgfsyspdfmark {pgfid262}{14040754}{43848191}
\pgfsyspdfmark {pgfid263}{9528753}{43413682}
\pgfsyspdfmark {pgfid264}{9528753}{43244848}
\pgfsyspdfmark {pgfid265}{9948591}{41950098}
\pgfsyspdfmark {pgfid266}{10184520}{41950098}
\pgfsyspdfmark {pgfid267}{11475710}{41950098}
\pgfsyspdfmark {pgfid268}{12740278}{41950098}
\pgfsyspdfmark {pgfid269}{14040754}{41950098}
\pgfsyspdfmark {pgfid270}{9528753}{41515589}
\pgfsyspdfmark {pgfid271}{9948591}{40501750}
\pgfsyspdfmark {pgfid272}{10184520}{40501750}
\pgfsyspdfmark {pgfid273}{11475710}{40501750}
\pgfsyspdfmark {pgfid274}{12740278}{40501750}
\pgfsyspdfmark {pgfid275}{14040754}{40501750}
\pgfsyspdfmark {pgfid276}{9528753}{40067241}
\pgfsyspdfmark {pgfid277}{9948591}{39053402}
\pgfsyspdfmark {pgfid278}{10184520}{39053402}
\pgfsyspdfmark {pgfid279}{11475710}{39053402}
\pgfsyspdfmark {pgfid280}{12740278}{39053402}
\pgfsyspdfmark {pgfid281}{14040754}{39053402}
\pgfsyspdfmark {pgfid282}{9528753}{38618893}
\pgfsyspdfmark {pgfid283}{9948591}{37605054}
\pgfsyspdfmark {pgfid284}{10184520}{37605054}
\pgfsyspdfmark {pgfid285}{11475710}{37605054}
\pgfsyspdfmark {pgfid286}{12740278}{37605054}
\pgfsyspdfmark {pgfid287}{14040754}{37605054}
\pgfsyspdfmark {pgfid288}{9528753}{37170545}
\pgfsyspdfmark {pgfid289}{9528753}{37001711}
\pgfsyspdfmark {pgfid290}{9528753}{36926212}
\pgfsyspdfmark {pgfid291}{10840287}{36926212}
\pgfsyspdfmark {pgfid292}{12111133}{36926212}
\pgfsyspdfmark {pgfid293}{13369423}{36926212}
\pgfsyspdfmark {pgfid294}{14712085}{36926212}
\savepicturepage{pgfid295}{6}
\pgfsyspdfmark {pgfid295}{14712085}{43954688}
\pgfsyspdfmark {pgfid296}{27123926}{48558327}
\pgfsyspdfmark {pgfid297}{27123926}{48558327}
\pgfsyspdfmark {pgfid298}{27517142}{47194632}
\pgfsyspdfmark {pgfid299}{27759349}{47194632}
\pgfsyspdfmark {pgfid300}{29023917}{47194632}
\pgfsyspdfmark {pgfid301}{30324393}{47194632}
\pgfsyspdfmark {pgfid302}{27123926}{46760123}
\pgfsyspdfmark {pgfid303}{27123926}{46591289}
\pgfsyspdfmark {pgfid304}{27523420}{45296539}
\pgfsyspdfmark {pgfid305}{27759349}{45296539}
\pgfsyspdfmark {pgfid306}{29023917}{45296539}
\pgfsyspdfmark {pgfid307}{30324393}{45296539}
\pgfsyspdfmark {pgfid308}{27123926}{44862030}
\pgfsyspdfmark {pgfid309}{27523420}{43848191}
\pgfsyspdfmark {pgfid310}{27759349}{43848191}
\pgfsyspdfmark {pgfid311}{29023917}{43848191}
\pgfsyspdfmark {pgfid312}{30324393}{43848191}
\pgfsyspdfmark {pgfid313}{27123926}{43413682}
\pgfsyspdfmark {pgfid314}{27123926}{43244848}
\pgfsyspdfmark {pgfid315}{27523420}{41950098}
\pgfsyspdfmark {pgfid316}{27759349}{41950098}
\pgfsyspdfmark {pgfid317}{29023917}{41950098}
\pgfsyspdfmark {pgfid318}{30324393}{41950098}
\pgfsyspdfmark {pgfid319}{27123926}{41515589}
\pgfsyspdfmark {pgfid320}{27523420}{40501750}
\pgfsyspdfmark {pgfid321}{27759349}{40501750}
\pgfsyspdfmark {pgfid322}{29023917}{40501750}
\pgfsyspdfmark {pgfid323}{30324393}{40501750}
\pgfsyspdfmark {pgfid324}{27123926}{40067241}
\pgfsyspdfmark {pgfid325}{27123926}{39898407}
\pgfsyspdfmark {pgfid326}{27123926}{39822908}
\pgfsyspdfmark {pgfid327}{28394772}{39822908}
\pgfsyspdfmark {pgfid328}{29653062}{39822908}
\pgfsyspdfmark {pgfid329}{30995724}{39822908}
\savepicturepage{pgfid330}{6}
\pgfsyspdfmark {pgfid330}{30995724}{43954688}
\@writefile{lot}{\defcounter {refsection}{0}\relax }\@writefile{lot}{\contentsline {table}{\numberline {4}{\ignorespaces Задание 5\relax }}{6}{table.caption.4}\protected@file@percent }
\newlabel{myt:Задание 5}{{4}{6}{Задание 5\relax }{table.caption.4}{}}
\@writefile{toc}{\defcounter {refsection}{0}\relax }\@writefile{toc}{\contentsline {section}{\numberline {5}Задание №5}{6}{section.5}\protected@file@percent }
\@LN@col{1}
\@LN@col{1}
\@writefile{lomyscheme}{\defcounter {refsection}{0}\relax }\@writefile{lomyscheme}{\contentsline {myscheme}{\numberline {7.1}{\ignorespaces Задание 7\relax }}{7}{myscheme.caption.5}\protected@file@percent }
\newlabel{gr:Задание 7}{{7.1}{7}{Задание 7\relax }{myscheme.caption.5}{}}
\@writefile{toc}{\defcounter {refsection}{0}\relax }\@writefile{toc}{\contentsline {section}{\numberline {6}Задание №6}{7}{section.6}\protected@file@percent }
\@LN@col{1}
\@LN@col{1}
\@writefile{toc}{\defcounter {refsection}{0}\relax }\@writefile{toc}{\contentsline {section}{\numberline {7}Задание №7}{7}{section.7}\protected@file@percent }
\@LN@col{1}
\@LN@col{1}
\newlabel{LastPage}{{}{7}{}{page.7}{}}
\xdef\lastpage@lastpage{7}
\xdef\lastpage@lastpageHy{7}
\gdef \@abspage@last{7}
