\boolfalse {citerequest}\boolfalse {citetracker}\boolfalse {pagetracker}\boolfalse {backtracker}\relax 
\babel@toc {russian}{}
\defcounter {refsection}{0}\relax 
\contentsline {section}{\numberline {1}Задание №1}{3}{section.1}%
\defcounter {refsection}{0}\relax 
\contentsline {section}{\numberline {2}Задание №2}{3}{section.2}%
\defcounter {refsection}{0}\relax 
\contentsline {section}{\numberline {3}Задание №3}{3}{section.3}%
\defcounter {refsection}{0}\relax 
\contentsline {section}{\numberline {4}Задание №4}{4}{section.4}%
\defcounter {refsection}{0}\relax 
\contentsline {section}{\numberline {5}Задание №5}{6}{section.5}%
\defcounter {refsection}{0}\relax 
\contentsline {section}{\numberline {6}Задание №6}{7}{section.6}%
\defcounter {refsection}{0}\relax 
\contentsline {section}{\numberline {7}Задание №7}{7}{section.7}%
