[0] Config.pm:312> INFO - This is Biber 2.15
[0] Config.pm:315> INFO - Logfile is 'logic.blg'
[86] biber:330> INFO - === Tue Feb 23, 2021, 19:48:22
[98] Biber.pm:415> INFO - Reading 'logic.bcf'
[166] Utils.pm:395> WARN - No data sources defined!
