[0] Config.pm:312> INFO - This is Biber 2.15
[0] Config.pm:315> INFO - Logfile is 'logic.blg'
[69] biber:330> INFO - === Tue Feb 23, 2021, 15:55:37
[81] Biber.pm:415> INFO - Reading 'logic.bcf'
[145] Utils.pm:395> WARN - No data sources defined!
