\relax 
\providecommand\hyper@newdestlabel[2]{}
\providecommand\babel@aux[2]{}
\@nameuse{bbl@beforestart}
\catcode `"\active 
\nicematrix@redefine@check@rerun 
\@writefile{toc}{\boolfalse {citerequest}\boolfalse {citetracker}\boolfalse {pagetracker}\boolfalse {backtracker}\relax }
\@writefile{lof}{\boolfalse {citerequest}\boolfalse {citetracker}\boolfalse {pagetracker}\boolfalse {backtracker}\relax }
\@writefile{lot}{\boolfalse {citerequest}\boolfalse {citetracker}\boolfalse {pagetracker}\boolfalse {backtracker}\relax }
\abx@aux@refcontext{nty/global//global/global}
\providecommand\HyperFirstAtBeginDocument{\AtBeginDocument}
\HyperFirstAtBeginDocument{\ifx\hyper@anchor\@undefined
\global\let\oldcontentsline\contentsline
\gdef\contentsline#1#2#3#4{\oldcontentsline{#1}{#2}{#3}}
\global\let\oldnewlabel\newlabel
\gdef\newlabel#1#2{\newlabelxx{#1}#2}
\gdef\newlabelxx#1#2#3#4#5#6{\oldnewlabel{#1}{{#2}{#3}}}
\AtEndDocument{\ifx\hyper@anchor\@undefined
\let\contentsline\oldcontentsline
\let\newlabel\oldnewlabel
\fi}
\fi}
\global\let\hyper@last\relax 
\gdef\HyperFirstAtBeginDocument#1{#1}
\providecommand\HyField@AuxAddToFields[1]{}
\providecommand\HyField@AuxAddToCoFields[2]{}
\babel@aux{russian}{}
\pp@pagectr{footnote}{1}{3}{3}
\@writefile{toc}{\defcounter {refsection}{0}\relax }\@writefile{toc}{\contentsline {chapter}{\numberline {1}Необходимость чёткого языка в математике}{3}{chapter.1}\protected@file@percent }
\@writefile{lof}{\defcounter {refsection}{0}\relax }\@writefile{lof}{\addvspace {10\p@ }}
\@writefile{lot}{\defcounter {refsection}{0}\relax }\@writefile{lot}{\addvspace {10\p@ }}
\@writefile{toc}{\defcounter {refsection}{0}\relax }\@writefile{toc}{\contentsline {section}{\numberline {1.1}Причины появления}{3}{section.1.1}\protected@file@percent }
\newlabel{Математика}{{1}{3}{Причины появления}{defi.1.1}{}}
\newlabel{Точно сформулированное высказывание}{{2}{4}{Причины появления}{defi.1.2}{}}
\newlabel{Основная задача математики}{{3}{4}{Причины появления}{defi.1.3}{}}
\newlabel{Основная задача логической семантики}{{4}{4}{Причины появления}{defi.1.4}{}}
\ExplSyntaxOn \cs_if_free:NT \pgfsyspdfmark {\cs_set_eq:NN \pgfsyspdfmark \@gobblethree }\ExplSyntaxOff 
\pp@pagectr{footnote}{2}{5}{5}
\@writefile{toc}{\defcounter {refsection}{0}\relax }\@writefile{toc}{\contentsline {chapter}{\numberline {2}Высказывания}{5}{chapter.2}\protected@file@percent }
\@writefile{lof}{\defcounter {refsection}{0}\relax }\@writefile{lof}{\addvspace {10\p@ }}
\@writefile{lot}{\defcounter {refsection}{0}\relax }\@writefile{lot}{\addvspace {10\p@ }}
\@writefile{toc}{\defcounter {refsection}{0}\relax }\@writefile{toc}{\contentsline {section}{\numberline {2.1}Свойства}{5}{section.2.1}\protected@file@percent }
\@writefile{toc}{\defcounter {refsection}{0}\relax }\@writefile{toc}{\contentsline {section}{\numberline {2.2}Логические операции}{5}{section.2.2}\protected@file@percent }
\@writefile{lot}{\defcounter {refsection}{0}\relax }\@writefile{lot}{\contentsline {table}{\numberline {2.1}{\ignorespaces Отрицание\relax }}{5}{table.caption.2}\protected@file@percent }
\providecommand*\caption@xref[2]{\@setref\relax\@undefined{#1}}
\newlabel{myt:Отрицание}{{2.1}{5}{Отрицание\relax }{table.caption.2}{}}
\pgfsyspdfmark {pgfid2}{19386248}{10749868}
\pgfsyspdfmark {pgfid3}{19386248}{10749868}
\pgfsyspdfmark {pgfid4}{19386248}{9386173}
\pgfsyspdfmark {pgfid5}{19771908}{9386173}
\pgfsyspdfmark {pgfid6}{21290354}{9386173}
\pgfsyspdfmark {pgfid7}{19386248}{8951664}
\pgfsyspdfmark {pgfid8}{19386248}{7937825}
\pgfsyspdfmark {pgfid9}{19622177}{7937825}
\pgfsyspdfmark {pgfid10}{21179929}{7937825}
\pgfsyspdfmark {pgfid11}{19386248}{7503316}
\pgfsyspdfmark {pgfid12}{19386248}{6489477}
\pgfsyspdfmark {pgfid13}{19622177}{6489477}
\pgfsyspdfmark {pgfid14}{21179929}{6489477}
\pgfsyspdfmark {pgfid15}{19386248}{6054968}
\pgfsyspdfmark {pgfid16}{19386248}{5886134}
\pgfsyspdfmark {pgfid17}{19386248}{5810635}
\pgfsyspdfmark {pgfid18}{20550784}{5810635}
\pgfsyspdfmark {pgfid19}{21636708}{5810635}
\savepicturepage{pgfid20}{5}
\pgfsyspdfmark {pgfid20}{21636708}{8044322}
\@writefile{lot}{\defcounter {refsection}{0}\relax }\@writefile{lot}{\contentsline {table}{\numberline {2.2}{\ignorespaces Конъюнкция\relax }}{6}{table.caption.3}\protected@file@percent }
\newlabel{myt:Конъюнкция}{{2.2}{6}{Конъюнкция\relax }{table.caption.3}{}}
\pgfsyspdfmark {pgfid21}{17902632}{49593851}
\pgfsyspdfmark {pgfid22}{17902632}{49593851}
\pgfsyspdfmark {pgfid23}{17902632}{48230156}
\pgfsyspdfmark {pgfid24}{18288292}{48230156}
\pgfsyspdfmark {pgfid25}{19835192}{48230156}
\pgfsyspdfmark {pgfid26}{22058378}{48230156}
\pgfsyspdfmark {pgfid27}{17902632}{47795647}
\pgfsyspdfmark {pgfid28}{17902632}{47626813}
\pgfsyspdfmark {pgfid29}{17902632}{46332063}
\pgfsyspdfmark {pgfid30}{18138561}{46332063}
\pgfsyspdfmark {pgfid31}{19696313}{46332063}
\pgfsyspdfmark {pgfid32}{21232361}{46332063}
\pgfsyspdfmark {pgfid33}{17902632}{45897554}
\pgfsyspdfmark {pgfid34}{17902632}{44883715}
\pgfsyspdfmark {pgfid35}{18138561}{44883715}
\pgfsyspdfmark {pgfid36}{19696313}{44883715}
\pgfsyspdfmark {pgfid37}{21232361}{44883715}
\pgfsyspdfmark {pgfid38}{17902632}{44449206}
\pgfsyspdfmark {pgfid39}{17902632}{43435367}
\pgfsyspdfmark {pgfid40}{18138561}{43435367}
\pgfsyspdfmark {pgfid41}{19696313}{43435367}
\pgfsyspdfmark {pgfid42}{21232361}{43435367}
\pgfsyspdfmark {pgfid43}{17902632}{43000858}
\pgfsyspdfmark {pgfid44}{17902632}{41987019}
\pgfsyspdfmark {pgfid45}{18138561}{41987019}
\pgfsyspdfmark {pgfid46}{19696313}{41987019}
\pgfsyspdfmark {pgfid47}{21232361}{41987019}
\pgfsyspdfmark {pgfid48}{17902632}{41552510}
\pgfsyspdfmark {pgfid49}{17902632}{41383676}
\pgfsyspdfmark {pgfid50}{17902632}{41308177}
\pgfsyspdfmark {pgfid51}{19067168}{41308177}
\pgfsyspdfmark {pgfid52}{20603216}{41308177}
\pgfsyspdfmark {pgfid53}{23120324}{41308177}
\savepicturepage{pgfid54}{6}
\pgfsyspdfmark {pgfid54}{23120324}{45215085}
\@writefile{lot}{\defcounter {refsection}{0}\relax }\@writefile{lot}{\contentsline {table}{\numberline {2.3}{\ignorespaces Дизъюнкция\relax }}{6}{table.caption.4}\protected@file@percent }
\newlabel{myt:Дизъюнкция}{{2.3}{6}{Дизъюнкция\relax }{table.caption.4}{}}
\pgfsyspdfmark {pgfid55}{17719130}{37433059}
\pgfsyspdfmark {pgfid56}{17719130}{37433059}
\pgfsyspdfmark {pgfid57}{17719130}{36069364}
\pgfsyspdfmark {pgfid58}{18104790}{36069364}
\pgfsyspdfmark {pgfid59}{19651690}{36069364}
\pgfsyspdfmark {pgfid60}{22058378}{36069364}
\pgfsyspdfmark {pgfid61}{17719130}{35634855}
\pgfsyspdfmark {pgfid62}{17719130}{35466021}
\pgfsyspdfmark {pgfid63}{17719130}{34171271}
\pgfsyspdfmark {pgfid64}{17955059}{34171271}
\pgfsyspdfmark {pgfid65}{19512811}{34171271}
\pgfsyspdfmark {pgfid66}{21048859}{34171271}
\pgfsyspdfmark {pgfid67}{17719130}{33736762}
\pgfsyspdfmark {pgfid68}{17719130}{32722923}
\pgfsyspdfmark {pgfid69}{17955059}{32722923}
\pgfsyspdfmark {pgfid70}{19512811}{32722923}
\pgfsyspdfmark {pgfid71}{21048859}{32722923}
\pgfsyspdfmark {pgfid72}{17719130}{32288414}
\pgfsyspdfmark {pgfid73}{17719130}{31274575}
\pgfsyspdfmark {pgfid74}{17955059}{31274575}
\pgfsyspdfmark {pgfid75}{19512811}{31274575}
\pgfsyspdfmark {pgfid76}{21048859}{31274575}
\pgfsyspdfmark {pgfid77}{17719130}{30840066}
\pgfsyspdfmark {pgfid78}{17719130}{29826227}
\pgfsyspdfmark {pgfid79}{17955059}{29826227}
\pgfsyspdfmark {pgfid80}{19512811}{29826227}
\pgfsyspdfmark {pgfid81}{21048859}{29826227}
\pgfsyspdfmark {pgfid82}{17719130}{29391718}
\pgfsyspdfmark {pgfid83}{17719130}{29222884}
\pgfsyspdfmark {pgfid84}{17719130}{29147385}
\pgfsyspdfmark {pgfid85}{18883666}{29147385}
\pgfsyspdfmark {pgfid86}{20419714}{29147385}
\pgfsyspdfmark {pgfid87}{23303826}{29147385}
\savepicturepage{pgfid88}{6}
\pgfsyspdfmark {pgfid88}{23303826}{33054293}
\@writefile{lot}{\defcounter {refsection}{0}\relax }\@writefile{lot}{\contentsline {table}{\numberline {2.4}{\ignorespaces Импликация\relax }}{6}{table.caption.5}\protected@file@percent }
\newlabel{myt:Импликация}{{2.4}{6}{Импликация\relax }{table.caption.5}{}}
\pgfsyspdfmark {pgfid89}{17509416}{25272267}
\pgfsyspdfmark {pgfid90}{17509416}{25272267}
\pgfsyspdfmark {pgfid91}{17509416}{23908572}
\pgfsyspdfmark {pgfid92}{17895076}{23908572}
\pgfsyspdfmark {pgfid93}{19441976}{23908572}
\pgfsyspdfmark {pgfid94}{22058378}{23908572}
\pgfsyspdfmark {pgfid95}{17509416}{23474063}
\pgfsyspdfmark {pgfid96}{17509416}{23305229}
\pgfsyspdfmark {pgfid97}{17509416}{22010479}
\pgfsyspdfmark {pgfid98}{17745345}{22010479}
\pgfsyspdfmark {pgfid99}{19303097}{22010479}
\pgfsyspdfmark {pgfid100}{20839145}{22010479}
\pgfsyspdfmark {pgfid101}{17509416}{21575970}
\pgfsyspdfmark {pgfid102}{17509416}{20562131}
\pgfsyspdfmark {pgfid103}{17745345}{20562131}
\pgfsyspdfmark {pgfid104}{19303097}{20562131}
\pgfsyspdfmark {pgfid105}{20839145}{20562131}
\pgfsyspdfmark {pgfid106}{17509416}{20127622}
\pgfsyspdfmark {pgfid107}{17509416}{19113783}
\pgfsyspdfmark {pgfid108}{17745345}{19113783}
\pgfsyspdfmark {pgfid109}{19303097}{19113783}
\pgfsyspdfmark {pgfid110}{20839145}{19113783}
\pgfsyspdfmark {pgfid111}{17509416}{18679274}
\pgfsyspdfmark {pgfid112}{17509416}{17665435}
\pgfsyspdfmark {pgfid113}{17745345}{17665435}
\pgfsyspdfmark {pgfid114}{19303097}{17665435}
\pgfsyspdfmark {pgfid115}{20839145}{17665435}
\pgfsyspdfmark {pgfid116}{17509416}{17230926}
\pgfsyspdfmark {pgfid117}{17509416}{17062092}
\pgfsyspdfmark {pgfid118}{17509416}{16986593}
\pgfsyspdfmark {pgfid119}{18673952}{16986593}
\pgfsyspdfmark {pgfid120}{20210000}{16986593}
\pgfsyspdfmark {pgfid121}{23513540}{16986593}
\savepicturepage{pgfid122}{6}
\pgfsyspdfmark {pgfid122}{23513540}{20893501}
\@writefile{lot}{\defcounter {refsection}{0}\relax }\@writefile{lot}{\contentsline {table}{\numberline {2.5}{\ignorespaces Эквивалентность\relax }}{6}{table.caption.6}\protected@file@percent }
\newlabel{myt:Эквивалентность}{{2.5}{6}{Эквивалентность\relax }{table.caption.6}{}}
\pgfsyspdfmark {pgfid123}{16854058}{13111475}
\pgfsyspdfmark {pgfid124}{16854058}{13111475}
\pgfsyspdfmark {pgfid125}{16854058}{11747780}
\pgfsyspdfmark {pgfid126}{17239718}{11747780}
\pgfsyspdfmark {pgfid127}{18786618}{11747780}
\pgfsyspdfmark {pgfid128}{22058378}{11747780}
\pgfsyspdfmark {pgfid129}{16854058}{11313271}
\pgfsyspdfmark {pgfid130}{16854058}{11144437}
\pgfsyspdfmark {pgfid131}{16854058}{9849687}
\pgfsyspdfmark {pgfid132}{17089987}{9849687}
\pgfsyspdfmark {pgfid133}{18647739}{9849687}
\pgfsyspdfmark {pgfid134}{20183787}{9849687}
\pgfsyspdfmark {pgfid135}{16854058}{9415178}
\pgfsyspdfmark {pgfid136}{16854058}{8401339}
\pgfsyspdfmark {pgfid137}{17089987}{8401339}
\pgfsyspdfmark {pgfid138}{18647739}{8401339}
\pgfsyspdfmark {pgfid139}{20183787}{8401339}
\pgfsyspdfmark {pgfid140}{16854058}{7966830}
\pgfsyspdfmark {pgfid141}{16854058}{6952991}
\pgfsyspdfmark {pgfid142}{17089987}{6952991}
\pgfsyspdfmark {pgfid143}{18647739}{6952991}
\pgfsyspdfmark {pgfid144}{20183787}{6952991}
\pgfsyspdfmark {pgfid145}{16854058}{6518482}
\pgfsyspdfmark {pgfid146}{16854058}{5504643}
\pgfsyspdfmark {pgfid147}{17089987}{5504643}
\pgfsyspdfmark {pgfid148}{18647739}{5504643}
\pgfsyspdfmark {pgfid149}{20183787}{5504643}
\pgfsyspdfmark {pgfid150}{16854058}{5070134}
\pgfsyspdfmark {pgfid151}{16854058}{4901300}
\pgfsyspdfmark {pgfid152}{16854058}{4825801}
\pgfsyspdfmark {pgfid153}{18018594}{4825801}
\pgfsyspdfmark {pgfid154}{19554642}{4825801}
\pgfsyspdfmark {pgfid155}{24168898}{4825801}
\savepicturepage{pgfid156}{6}
\pgfsyspdfmark {pgfid156}{24168898}{8732709}
\@writefile{lot}{\defcounter {refsection}{0}\relax }\@writefile{lot}{\contentsline {table}{\numberline {2.6}{\ignorespaces Сумма по модулю два\relax }}{7}{table.caption.7}\protected@file@percent }
\newlabel{myt:Сумма по модулю два}{{2.6}{7}{Сумма по модулю два\relax }{table.caption.7}{}}
\pgfsyspdfmark {pgfid157}{17666701}{45661199}
\pgfsyspdfmark {pgfid158}{17666701}{45661199}
\pgfsyspdfmark {pgfid159}{17666701}{44297504}
\pgfsyspdfmark {pgfid160}{18052361}{44297504}
\pgfsyspdfmark {pgfid161}{19599261}{44297504}
\pgfsyspdfmark {pgfid162}{22058378}{44297504}
\pgfsyspdfmark {pgfid163}{17666701}{43862995}
\pgfsyspdfmark {pgfid164}{17666701}{43694161}
\pgfsyspdfmark {pgfid165}{17666701}{42399411}
\pgfsyspdfmark {pgfid166}{17902630}{42399411}
\pgfsyspdfmark {pgfid167}{19460382}{42399411}
\pgfsyspdfmark {pgfid168}{20996430}{42399411}
\pgfsyspdfmark {pgfid169}{17666701}{41964902}
\pgfsyspdfmark {pgfid170}{17666701}{40951063}
\pgfsyspdfmark {pgfid171}{17902630}{40951063}
\pgfsyspdfmark {pgfid172}{19460382}{40951063}
\pgfsyspdfmark {pgfid173}{20996430}{40951063}
\pgfsyspdfmark {pgfid174}{17666701}{40516554}
\pgfsyspdfmark {pgfid175}{17666701}{39502715}
\pgfsyspdfmark {pgfid176}{17902630}{39502715}
\pgfsyspdfmark {pgfid177}{19460382}{39502715}
\pgfsyspdfmark {pgfid178}{20996430}{39502715}
\pgfsyspdfmark {pgfid179}{17666701}{39068206}
\pgfsyspdfmark {pgfid180}{17666701}{38054367}
\pgfsyspdfmark {pgfid181}{17902630}{38054367}
\pgfsyspdfmark {pgfid182}{19460382}{38054367}
\pgfsyspdfmark {pgfid183}{20996430}{38054367}
\pgfsyspdfmark {pgfid184}{17666701}{37619858}
\pgfsyspdfmark {pgfid185}{17666701}{37451024}
\pgfsyspdfmark {pgfid186}{17666701}{37375525}
\pgfsyspdfmark {pgfid187}{18831237}{37375525}
\pgfsyspdfmark {pgfid188}{20367285}{37375525}
\pgfsyspdfmark {pgfid189}{23356255}{37375525}
\savepicturepage{pgfid190}{7}
\pgfsyspdfmark {pgfid190}{23356255}{41282433}
\@writefile{lot}{\defcounter {refsection}{0}\relax }\@writefile{lot}{\contentsline {table}{\numberline {2.7}{\ignorespaces Сложение по модулю 3\relax }}{7}{table.caption.8}\protected@file@percent }
\newlabel{myt:Сложение по модулю 3}{{2.7}{7}{Сложение по модулю 3\relax }{table.caption.8}{}}
\pgfsyspdfmark {pgfid191}{17486477}{25635103}
\pgfsyspdfmark {pgfid192}{17486477}{25635103}
\pgfsyspdfmark {pgfid193}{17486477}{24271408}
\pgfsyspdfmark {pgfid194}{17872137}{24271408}
\pgfsyspdfmark {pgfid195}{19419037}{24271408}
\pgfsyspdfmark {pgfid196}{22058378}{24271408}
\pgfsyspdfmark {pgfid197}{17486477}{23836899}
\pgfsyspdfmark {pgfid198}{17486477}{23668065}
\pgfsyspdfmark {pgfid199}{17486477}{22373315}
\pgfsyspdfmark {pgfid200}{17722406}{22373315}
\pgfsyspdfmark {pgfid201}{19280158}{22373315}
\pgfsyspdfmark {pgfid202}{20816206}{22373315}
\pgfsyspdfmark {pgfid203}{17486477}{21938806}
\pgfsyspdfmark {pgfid204}{17486477}{20924967}
\pgfsyspdfmark {pgfid205}{17722406}{20924967}
\pgfsyspdfmark {pgfid206}{19280158}{20924967}
\pgfsyspdfmark {pgfid207}{20816206}{20924967}
\pgfsyspdfmark {pgfid208}{17486477}{20490458}
\pgfsyspdfmark {pgfid209}{17486477}{19476619}
\pgfsyspdfmark {pgfid210}{17722406}{19476619}
\pgfsyspdfmark {pgfid211}{19280158}{19476619}
\pgfsyspdfmark {pgfid212}{20816206}{19476619}
\pgfsyspdfmark {pgfid213}{17486477}{19042110}
\pgfsyspdfmark {pgfid214}{17486477}{18873276}
\pgfsyspdfmark {pgfid215}{17486477}{17578526}
\pgfsyspdfmark {pgfid216}{17722406}{17578526}
\pgfsyspdfmark {pgfid217}{19280158}{17578526}
\pgfsyspdfmark {pgfid218}{20816206}{17578526}
\pgfsyspdfmark {pgfid219}{17486477}{17144017}
\pgfsyspdfmark {pgfid220}{17486477}{16130178}
\pgfsyspdfmark {pgfid221}{17722406}{16130178}
\pgfsyspdfmark {pgfid222}{19280158}{16130178}
\pgfsyspdfmark {pgfid223}{20816206}{16130178}
\pgfsyspdfmark {pgfid224}{17486477}{15695669}
\pgfsyspdfmark {pgfid225}{17486477}{14681830}
\pgfsyspdfmark {pgfid226}{17722406}{14681830}
\pgfsyspdfmark {pgfid227}{19280158}{14681830}
\pgfsyspdfmark {pgfid228}{20816206}{14681830}
\pgfsyspdfmark {pgfid229}{17486477}{14247321}
\pgfsyspdfmark {pgfid230}{17486477}{14078487}
\pgfsyspdfmark {pgfid231}{17486477}{12783737}
\pgfsyspdfmark {pgfid232}{17722406}{12783737}
\pgfsyspdfmark {pgfid233}{19280158}{12783737}
\pgfsyspdfmark {pgfid234}{20816206}{12783737}
\pgfsyspdfmark {pgfid235}{17486477}{12349228}
\pgfsyspdfmark {pgfid236}{17486477}{11335389}
\pgfsyspdfmark {pgfid237}{17722406}{11335389}
\pgfsyspdfmark {pgfid238}{19280158}{11335389}
\pgfsyspdfmark {pgfid239}{20816206}{11335389}
\pgfsyspdfmark {pgfid240}{17486477}{10900880}
\pgfsyspdfmark {pgfid241}{17486477}{10732046}
\pgfsyspdfmark {pgfid242}{17486477}{9437296}
\pgfsyspdfmark {pgfid243}{17722406}{9437296}
\pgfsyspdfmark {pgfid244}{19280158}{9437296}
\pgfsyspdfmark {pgfid245}{20816206}{9437296}
\pgfsyspdfmark {pgfid246}{17486477}{9002787}
\pgfsyspdfmark {pgfid247}{17486477}{8833953}
\pgfsyspdfmark {pgfid248}{17486477}{8758454}
\pgfsyspdfmark {pgfid249}{18651013}{8758454}
\pgfsyspdfmark {pgfid250}{20187061}{8758454}
\pgfsyspdfmark {pgfid251}{23536479}{8758454}
\savepicturepage{pgfid252}{7}
\pgfsyspdfmark {pgfid252}{23536479}{16960849}
\@writefile{toc}{\defcounter {refsection}{0}\relax }\@writefile{toc}{\contentsline {section}{\numberline {2.3}Формулы алгебры высказываний}{8}{section.2.3}\protected@file@percent }
\pp@pagectr{footnote}{3}{8}{8}
\@writefile{lomyscheme}{\defcounter {refsection}{0}\relax }\@writefile{lomyscheme}{\contentsline {myscheme}{\numberline {2.1}{\ignorespaces Строение формулы\relax }}{9}{myscheme.caption.9}\protected@file@percent }
\newlabel{gr:Строение формулы}{{2.1}{9}{Строение формулы\relax }{myscheme.caption.9}{}}
\@writefile{toc}{\defcounter {refsection}{0}\relax }\@writefile{toc}{\contentsline {section}{\numberline {2.4}Булевы функции}{9}{section.2.4}\protected@file@percent }
\@writefile{lomyscheme}{\defcounter {refsection}{0}\relax }\@writefile{lomyscheme}{\contentsline {myscheme}{\numberline {2.2}{\ignorespaces Булев куб\relax }}{10}{myscheme.caption.10}\protected@file@percent }
\newlabel{gr:Булев куб}{{2.2}{10}{Булев куб\relax }{myscheme.caption.10}{}}
\@writefile{lot}{\defcounter {refsection}{0}\relax }\@writefile{lot}{\contentsline {table}{\numberline {2.8}{\ignorespaces Булевы функции одной переменной\relax }}{11}{table.caption.11}\protected@file@percent }
\newlabel{myt:Булевы функции одной переменной}{{2.8}{11}{Булевы функции одной переменной\relax }{table.caption.11}{}}
\pgfsyspdfmark {pgfid255}{16981981}{49860242}
\pgfsyspdfmark {pgfid256}{16981981}{49860242}
\pgfsyspdfmark {pgfid257}{16981981}{48496547}
\pgfsyspdfmark {pgfid258}{17283837}{48496547}
\pgfsyspdfmark {pgfid259}{18825960}{48496547}
\pgfsyspdfmark {pgfid260}{20428312}{48496547}
\pgfsyspdfmark {pgfid261}{22030664}{48496547}
\pgfsyspdfmark {pgfid262}{23633016}{48496547}
\pgfsyspdfmark {pgfid263}{16981981}{48062038}
\pgfsyspdfmark {pgfid264}{16981981}{47893204}
\pgfsyspdfmark {pgfid265}{16981981}{46598454}
\pgfsyspdfmark {pgfid266}{17212992}{46598454}
\pgfsyspdfmark {pgfid267}{18649011}{46598454}
\pgfsyspdfmark {pgfid268}{20251363}{46598454}
\pgfsyspdfmark {pgfid269}{21853715}{46598454}
\pgfsyspdfmark {pgfid270}{23456067}{46598454}
\pgfsyspdfmark {pgfid271}{16981981}{46163945}
\pgfsyspdfmark {pgfid272}{16981981}{45150106}
\pgfsyspdfmark {pgfid273}{17212992}{45150106}
\pgfsyspdfmark {pgfid274}{18649011}{45150106}
\pgfsyspdfmark {pgfid275}{20251363}{45150106}
\pgfsyspdfmark {pgfid276}{21853715}{45150106}
\pgfsyspdfmark {pgfid277}{23456067}{45150106}
\pgfsyspdfmark {pgfid278}{16981981}{44715597}
\pgfsyspdfmark {pgfid279}{16981981}{44546763}
\pgfsyspdfmark {pgfid280}{16981981}{44471264}
\pgfsyspdfmark {pgfid281}{18024784}{44471264}
\pgfsyspdfmark {pgfid282}{19627136}{44471264}
\pgfsyspdfmark {pgfid283}{21229488}{44471264}
\pgfsyspdfmark {pgfid284}{22831840}{44471264}
\pgfsyspdfmark {pgfid285}{24040976}{44471264}
\savepicturepage{pgfid286}{11}
\pgfsyspdfmark {pgfid286}{24040976}{46929824}
\pgfsyspdfmark {pgfid287}{24040976}{46929824}
\@writefile{toc}{\defcounter {refsection}{0}\relax }\@writefile{toc}{\contentsline {subsection}{\numberline {2.4.1}Конкретные булевы функции}{11}{subsection.2.4.1}\protected@file@percent }
\@writefile{lot}{\defcounter {refsection}{0}\relax }\@writefile{lot}{\contentsline {table}{\numberline {2.9}{\ignorespaces Булевы функции двух переменных\relax }}{12}{table.caption.12}\protected@file@percent }
\newlabel{myt:Булевы функции двух переменных}{{2.9}{12}{Булевы функции двух переменных\relax }{table.caption.12}{}}
\pgfsyspdfmark {pgfid288}{5493816}{49860242}
\pgfsyspdfmark {pgfid289}{5493816}{49860242}
\pgfsyspdfmark {pgfid290}{5493816}{48496547}
\pgfsyspdfmark {pgfid291}{5795672}{48496547}
\pgfsyspdfmark {pgfid292}{7172042}{48496547}
\pgfsyspdfmark {pgfid293}{8654516}{48496547}
\pgfsyspdfmark {pgfid294}{10256868}{48496547}
\pgfsyspdfmark {pgfid295}{11859220}{48496547}
\pgfsyspdfmark {pgfid296}{13461572}{48496547}
\pgfsyspdfmark {pgfid297}{15109799}{48496547}
\pgfsyspdfmark {pgfid298}{16712151}{48496547}
\pgfsyspdfmark {pgfid299}{18314503}{48496547}
\pgfsyspdfmark {pgfid300}{19916855}{48496547}
\pgfsyspdfmark {pgfid301}{21565082}{48496547}
\pgfsyspdfmark {pgfid302}{23331274}{48496547}
\pgfsyspdfmark {pgfid303}{25261306}{48496547}
\pgfsyspdfmark {pgfid304}{27191338}{48496547}
\pgfsyspdfmark {pgfid305}{29167245}{48496547}
\pgfsyspdfmark {pgfid306}{31097277}{48496547}
\pgfsyspdfmark {pgfid307}{33027309}{48496547}
\pgfsyspdfmark {pgfid308}{34957341}{48496547}
\pgfsyspdfmark {pgfid309}{5493816}{48062038}
\pgfsyspdfmark {pgfid310}{5493816}{47893204}
\pgfsyspdfmark {pgfid311}{5493816}{46598454}
\pgfsyspdfmark {pgfid312}{5724827}{46598454}
\pgfsyspdfmark {pgfid313}{7160846}{46598454}
\pgfsyspdfmark {pgfid314}{8477567}{46598454}
\pgfsyspdfmark {pgfid315}{10079919}{46598454}
\pgfsyspdfmark {pgfid316}{11682271}{46598454}
\pgfsyspdfmark {pgfid317}{13284623}{46598454}
\pgfsyspdfmark {pgfid318}{14932850}{46598454}
\pgfsyspdfmark {pgfid319}{16535202}{46598454}
\pgfsyspdfmark {pgfid320}{18137554}{46598454}
\pgfsyspdfmark {pgfid321}{19739906}{46598454}
\pgfsyspdfmark {pgfid322}{21388133}{46598454}
\pgfsyspdfmark {pgfid323}{22990485}{46598454}
\pgfsyspdfmark {pgfid324}{24920517}{46598454}
\pgfsyspdfmark {pgfid325}{26850549}{46598454}
\pgfsyspdfmark {pgfid326}{28826456}{46598454}
\pgfsyspdfmark {pgfid327}{30756488}{46598454}
\pgfsyspdfmark {pgfid328}{32686520}{46598454}
\pgfsyspdfmark {pgfid329}{34616552}{46598454}
\pgfsyspdfmark {pgfid330}{5493816}{46163945}
\pgfsyspdfmark {pgfid331}{5493816}{45150106}
\pgfsyspdfmark {pgfid332}{5724827}{45150106}
\pgfsyspdfmark {pgfid333}{7160846}{45150106}
\pgfsyspdfmark {pgfid334}{8477567}{45150106}
\pgfsyspdfmark {pgfid335}{10079919}{45150106}
\pgfsyspdfmark {pgfid336}{11682271}{45150106}
\pgfsyspdfmark {pgfid337}{13284623}{45150106}
\pgfsyspdfmark {pgfid338}{14932850}{45150106}
\pgfsyspdfmark {pgfid339}{16535202}{45150106}
\pgfsyspdfmark {pgfid340}{18137554}{45150106}
\pgfsyspdfmark {pgfid341}{19739906}{45150106}
\pgfsyspdfmark {pgfid342}{21388133}{45150106}
\pgfsyspdfmark {pgfid343}{22990485}{45150106}
\pgfsyspdfmark {pgfid344}{24920517}{45150106}
\pgfsyspdfmark {pgfid345}{26850549}{45150106}
\pgfsyspdfmark {pgfid346}{28826456}{45150106}
\pgfsyspdfmark {pgfid347}{30756488}{45150106}
\pgfsyspdfmark {pgfid348}{32686520}{45150106}
\pgfsyspdfmark {pgfid349}{34616552}{45150106}
\pgfsyspdfmark {pgfid350}{5493816}{44715597}
\pgfsyspdfmark {pgfid351}{5493816}{44546763}
\pgfsyspdfmark {pgfid352}{5493816}{43252013}
\pgfsyspdfmark {pgfid353}{5724827}{43252013}
\pgfsyspdfmark {pgfid354}{7160846}{43252013}
\pgfsyspdfmark {pgfid355}{8477567}{43252013}
\pgfsyspdfmark {pgfid356}{10079919}{43252013}
\pgfsyspdfmark {pgfid357}{11682271}{43252013}
\pgfsyspdfmark {pgfid358}{13284623}{43252013}
\pgfsyspdfmark {pgfid359}{14932850}{43252013}
\pgfsyspdfmark {pgfid360}{16535202}{43252013}
\pgfsyspdfmark {pgfid361}{18137554}{43252013}
\pgfsyspdfmark {pgfid362}{19739906}{43252013}
\pgfsyspdfmark {pgfid363}{21388133}{43252013}
\pgfsyspdfmark {pgfid364}{22990485}{43252013}
\pgfsyspdfmark {pgfid365}{24920517}{43252013}
\pgfsyspdfmark {pgfid366}{26850549}{43252013}
\pgfsyspdfmark {pgfid367}{28826456}{43252013}
\pgfsyspdfmark {pgfid368}{30756488}{43252013}
\pgfsyspdfmark {pgfid369}{32686520}{43252013}
\pgfsyspdfmark {pgfid370}{34616552}{43252013}
\pgfsyspdfmark {pgfid371}{5493816}{42817504}
\pgfsyspdfmark {pgfid372}{5493816}{41803665}
\pgfsyspdfmark {pgfid373}{5724827}{41803665}
\pgfsyspdfmark {pgfid374}{7160846}{41803665}
\pgfsyspdfmark {pgfid375}{8477567}{41803665}
\pgfsyspdfmark {pgfid376}{10079919}{41803665}
\pgfsyspdfmark {pgfid377}{11682271}{41803665}
\pgfsyspdfmark {pgfid378}{13284623}{41803665}
\pgfsyspdfmark {pgfid379}{14932850}{41803665}
\pgfsyspdfmark {pgfid380}{16535202}{41803665}
\pgfsyspdfmark {pgfid381}{18137554}{41803665}
\pgfsyspdfmark {pgfid382}{19739906}{41803665}
\pgfsyspdfmark {pgfid383}{21388133}{41803665}
\pgfsyspdfmark {pgfid384}{22990485}{41803665}
\pgfsyspdfmark {pgfid385}{24920517}{41803665}
\pgfsyspdfmark {pgfid386}{26850549}{41803665}
\pgfsyspdfmark {pgfid387}{28826456}{41803665}
\pgfsyspdfmark {pgfid388}{30756488}{41803665}
\pgfsyspdfmark {pgfid389}{32686520}{41803665}
\pgfsyspdfmark {pgfid390}{34616552}{41803665}
\pgfsyspdfmark {pgfid391}{5493816}{41369156}
\pgfsyspdfmark {pgfid392}{5493816}{41200322}
\pgfsyspdfmark {pgfid393}{5493816}{41124823}
\pgfsyspdfmark {pgfid394}{6536619}{41124823}
\pgfsyspdfmark {pgfid395}{7853340}{41124823}
\pgfsyspdfmark {pgfid396}{9455692}{41124823}
\pgfsyspdfmark {pgfid397}{11058044}{41124823}
\pgfsyspdfmark {pgfid398}{12660396}{41124823}
\pgfsyspdfmark {pgfid399}{14308623}{41124823}
\pgfsyspdfmark {pgfid400}{15910975}{41124823}
\pgfsyspdfmark {pgfid401}{17513327}{41124823}
\pgfsyspdfmark {pgfid402}{19115679}{41124823}
\pgfsyspdfmark {pgfid403}{20763906}{41124823}
\pgfsyspdfmark {pgfid404}{22366258}{41124823}
\pgfsyspdfmark {pgfid405}{24296290}{41124823}
\pgfsyspdfmark {pgfid406}{26226322}{41124823}
\pgfsyspdfmark {pgfid407}{28202229}{41124823}
\pgfsyspdfmark {pgfid408}{30132261}{41124823}
\pgfsyspdfmark {pgfid409}{32062293}{41124823}
\pgfsyspdfmark {pgfid410}{33992325}{41124823}
\pgfsyspdfmark {pgfid411}{35529141}{41124823}
\savepicturepage{pgfid412}{12}
\pgfsyspdfmark {pgfid412}{35529141}{45256603}
\pgfsyspdfmark {pgfid413}{35529141}{45256603}
\pgfsyspdfmark {pgfid414}{35529141}{45256603}
\pgfsyspdfmark {pgfid415}{35529141}{45256603}
\pgfsyspdfmark {pgfid416}{35529141}{45256603}
\pgfsyspdfmark {pgfid417}{35529141}{45256603}
\@writefile{toc}{\defcounter {refsection}{0}\relax }\@writefile{toc}{\contentsline {subsection}{\numberline {2.4.2}Равносильность (эквивалентность) формул}{12}{subsection.2.4.2}\protected@file@percent }
\@writefile{toc}{\defcounter {refsection}{0}\relax }\@writefile{toc}{\contentsline {subsection}{\numberline {2.4.3}Понятие суперпозиции}{13}{subsection.2.4.3}\protected@file@percent }
\newlabel{Суперпозиция булевых функций}{{1}{13}{Понятие суперпозиции}{defi.2.1}{}}
\pp@pagectr{footnote}{4}{14}{14}
\@writefile{lomyscheme}{\defcounter {refsection}{0}\relax }\@writefile{lomyscheme}{\contentsline {myscheme}{\numberline {2.3}{\ignorespaces Гаврилов, №1.10\relax }}{15}{myscheme.caption.13}\protected@file@percent }
\newlabel{gr:Гаврилов, №1.10}{{2.3}{15}{Гаврилов, №1.10\relax }{myscheme.caption.13}{}}
\@writefile{lot}{\defcounter {refsection}{0}\relax }\@writefile{lot}{\contentsline {table}{\numberline {2.10}{\ignorespaces Гаврилов, №1.18\relax }}{16}{table.caption.14}\protected@file@percent }
\newlabel{myt:Гаврилов, №1.18}{{2.10}{16}{Гаврилов, №1.18\relax }{table.caption.14}{}}
\pgfsyspdfmark {pgfid419}{18325871}{49860242}
\pgfsyspdfmark {pgfid420}{18325871}{49860242}
\pgfsyspdfmark {pgfid421}{18325871}{48496547}
\pgfsyspdfmark {pgfid422}{18601106}{48496547}
\pgfsyspdfmark {pgfid423}{19898702}{48496547}
\pgfsyspdfmark {pgfid424}{21124070}{48496547}
\pgfsyspdfmark {pgfid425}{22461157}{48496547}
\pgfsyspdfmark {pgfid426}{18325871}{48062038}
\pgfsyspdfmark {pgfid427}{18325871}{47893204}
\pgfsyspdfmark {pgfid428}{18325871}{46598454}
\pgfsyspdfmark {pgfid429}{18561800}{46598454}
\pgfsyspdfmark {pgfid430}{19898702}{46598454}
\pgfsyspdfmark {pgfid431}{21202867}{46598454}
\pgfsyspdfmark {pgfid432}{22461157}{46598454}
\pgfsyspdfmark {pgfid433}{18325871}{46163945}
\pgfsyspdfmark {pgfid434}{18325871}{45150106}
\pgfsyspdfmark {pgfid435}{18561800}{45150106}
\pgfsyspdfmark {pgfid436}{19898702}{45150106}
\pgfsyspdfmark {pgfid437}{21202867}{45150106}
\pgfsyspdfmark {pgfid438}{22461157}{45150106}
\pgfsyspdfmark {pgfid439}{18325871}{44715597}
\pgfsyspdfmark {pgfid440}{18325871}{44546763}
\pgfsyspdfmark {pgfid441}{18325871}{43252013}
\pgfsyspdfmark {pgfid442}{18561800}{43252013}
\pgfsyspdfmark {pgfid443}{19898702}{43252013}
\pgfsyspdfmark {pgfid444}{21202867}{43252013}
\pgfsyspdfmark {pgfid445}{22461157}{43252013}
\pgfsyspdfmark {pgfid446}{18325871}{42817504}
\pgfsyspdfmark {pgfid447}{18325871}{41803665}
\pgfsyspdfmark {pgfid448}{18561800}{41803665}
\pgfsyspdfmark {pgfid449}{19898702}{41803665}
\pgfsyspdfmark {pgfid450}{21202867}{41803665}
\pgfsyspdfmark {pgfid451}{22461157}{41803665}
\pgfsyspdfmark {pgfid452}{18325871}{41369156}
\pgfsyspdfmark {pgfid453}{18325871}{41200322}
\pgfsyspdfmark {pgfid454}{18325871}{41124823}
\pgfsyspdfmark {pgfid455}{19269557}{41124823}
\pgfsyspdfmark {pgfid456}{20573722}{41124823}
\pgfsyspdfmark {pgfid457}{21832012}{41124823}
\pgfsyspdfmark {pgfid458}{22697086}{41124823}
\savepicturepage{pgfid459}{16}
\pgfsyspdfmark {pgfid459}{22697086}{45256603}
\pgfsyspdfmark {pgfid460}{22697086}{45256603}
\@writefile{toc}{\defcounter {refsection}{0}\relax }\@writefile{toc}{\contentsline {section}{\numberline {2.5}Двойственные функции}{16}{section.2.5}\protected@file@percent }
\newlabel{Двойственные функции}{{2}{16}{Двойственные функции}{defi.2.2}{}}
\@writefile{toc}{\defcounter {refsection}{0}\relax }\@writefile{toc}{\contentsline {section}{\numberline {2.6}Фиктивные и существенные переменные}{17}{section.2.6}\protected@file@percent }
\newlabel{Существенные переменные}{{3}{17}{Фиктивные и существенные переменные}{defi.2.3}{}}
\newlabel{Фиктивные переменные}{{4}{17}{Фиктивные и существенные переменные}{defi.2.4}{}}
\pgfsyspdfmark {pgfid463}{5252194}{44253215}
\pgfsyspdfmark {pgfid464}{5252194}{44253215}
\pgfsyspdfmark {pgfid465}{5645410}{42889520}
\pgfsyspdfmark {pgfid466}{6088185}{42889520}
\pgfsyspdfmark {pgfid467}{7760167}{42889520}
\pgfsyspdfmark {pgfid468}{9432149}{42889520}
\pgfsyspdfmark {pgfid469}{11104131}{42889520}
\pgfsyspdfmark {pgfid470}{12611453}{42889520}
\pgfsyspdfmark {pgfid471}{5252194}{42455011}
\pgfsyspdfmark {pgfid472}{5252194}{42286177}
\pgfsyspdfmark {pgfid473}{5852256}{40991427}
\pgfsyspdfmark {pgfid474}{6088185}{40991427}
\pgfsyspdfmark {pgfid475}{7760167}{40991427}
\pgfsyspdfmark {pgfid476}{9432149}{40991427}
\pgfsyspdfmark {pgfid477}{11104131}{40991427}
\pgfsyspdfmark {pgfid478}{12611453}{40991427}
\pgfsyspdfmark {pgfid479}{5252194}{40556918}
\pgfsyspdfmark {pgfid480}{5852256}{39543079}
\pgfsyspdfmark {pgfid481}{6088185}{39543079}
\pgfsyspdfmark {pgfid482}{7760167}{39543079}
\pgfsyspdfmark {pgfid483}{9432149}{39543079}
\pgfsyspdfmark {pgfid484}{11104131}{39543079}
\pgfsyspdfmark {pgfid485}{12611453}{39543079}
\pgfsyspdfmark {pgfid486}{5252194}{39108570}
\pgfsyspdfmark {pgfid487}{5852256}{38094731}
\pgfsyspdfmark {pgfid488}{6088185}{38094731}
\pgfsyspdfmark {pgfid489}{7760167}{38094731}
\pgfsyspdfmark {pgfid490}{9432149}{38094731}
\pgfsyspdfmark {pgfid491}{11104131}{38094731}
\pgfsyspdfmark {pgfid492}{12611453}{38094731}
\pgfsyspdfmark {pgfid493}{5252194}{37660222}
\pgfsyspdfmark {pgfid494}{5852256}{36646383}
\pgfsyspdfmark {pgfid495}{6088185}{36646383}
\pgfsyspdfmark {pgfid496}{7760167}{36646383}
\pgfsyspdfmark {pgfid497}{9432149}{36646383}
\pgfsyspdfmark {pgfid498}{11104131}{36646383}
\pgfsyspdfmark {pgfid499}{12611453}{36646383}
\pgfsyspdfmark {pgfid500}{5252194}{36211874}
\pgfsyspdfmark {pgfid501}{5252194}{36043040}
\pgfsyspdfmark {pgfid502}{5852256}{34748290}
\pgfsyspdfmark {pgfid503}{6088185}{34748290}
\pgfsyspdfmark {pgfid504}{7760167}{34748290}
\pgfsyspdfmark {pgfid505}{9432149}{34748290}
\pgfsyspdfmark {pgfid506}{11104131}{34748290}
\pgfsyspdfmark {pgfid507}{12611453}{34748290}
\pgfsyspdfmark {pgfid508}{5252194}{34313781}
\pgfsyspdfmark {pgfid509}{5852256}{33299942}
\pgfsyspdfmark {pgfid510}{6088185}{33299942}
\pgfsyspdfmark {pgfid511}{7760167}{33299942}
\pgfsyspdfmark {pgfid512}{9432149}{33299942}
\pgfsyspdfmark {pgfid513}{11104131}{33299942}
\pgfsyspdfmark {pgfid514}{12611453}{33299942}
\pgfsyspdfmark {pgfid515}{5252194}{32865433}
\pgfsyspdfmark {pgfid516}{5852256}{31851594}
\pgfsyspdfmark {pgfid517}{6088185}{31851594}
\pgfsyspdfmark {pgfid518}{7760167}{31851594}
\pgfsyspdfmark {pgfid519}{9432149}{31851594}
\pgfsyspdfmark {pgfid520}{11104131}{31851594}
\pgfsyspdfmark {pgfid521}{12611453}{31851594}
\pgfsyspdfmark {pgfid522}{5252194}{31417085}
\pgfsyspdfmark {pgfid523}{5852256}{30403246}
\pgfsyspdfmark {pgfid524}{6088185}{30403246}
\pgfsyspdfmark {pgfid525}{7760167}{30403246}
\pgfsyspdfmark {pgfid526}{9432149}{30403246}
\pgfsyspdfmark {pgfid527}{11104131}{30403246}
\pgfsyspdfmark {pgfid528}{12611453}{30403246}
\pgfsyspdfmark {pgfid529}{5252194}{29968737}
\pgfsyspdfmark {pgfid530}{5252194}{29799903}
\pgfsyspdfmark {pgfid531}{5852256}{28505153}
\pgfsyspdfmark {pgfid532}{6088185}{28505153}
\pgfsyspdfmark {pgfid533}{7760167}{28505153}
\pgfsyspdfmark {pgfid534}{9432149}{28505153}
\pgfsyspdfmark {pgfid535}{11104131}{28505153}
\pgfsyspdfmark {pgfid536}{12611453}{28505153}
\pgfsyspdfmark {pgfid537}{5252194}{28070644}
\pgfsyspdfmark {pgfid538}{5852256}{27056805}
\pgfsyspdfmark {pgfid539}{6088185}{27056805}
\pgfsyspdfmark {pgfid540}{7760167}{27056805}
\pgfsyspdfmark {pgfid541}{9432149}{27056805}
\pgfsyspdfmark {pgfid542}{11104131}{27056805}
\pgfsyspdfmark {pgfid543}{12611453}{27056805}
\pgfsyspdfmark {pgfid544}{5252194}{26622296}
\pgfsyspdfmark {pgfid545}{5852256}{25608457}
\pgfsyspdfmark {pgfid546}{6088185}{25608457}
\pgfsyspdfmark {pgfid547}{7760167}{25608457}
\pgfsyspdfmark {pgfid548}{9432149}{25608457}
\pgfsyspdfmark {pgfid549}{11104131}{25608457}
\pgfsyspdfmark {pgfid550}{12611453}{25608457}
\pgfsyspdfmark {pgfid551}{5252194}{25173948}
\pgfsyspdfmark {pgfid552}{5852256}{24160109}
\pgfsyspdfmark {pgfid553}{6088185}{24160109}
\pgfsyspdfmark {pgfid554}{7760167}{24160109}
\pgfsyspdfmark {pgfid555}{9432149}{24160109}
\pgfsyspdfmark {pgfid556}{11104131}{24160109}
\pgfsyspdfmark {pgfid557}{12611453}{24160109}
\pgfsyspdfmark {pgfid558}{5252194}{23725600}
\pgfsyspdfmark {pgfid559}{5252194}{23556766}
\pgfsyspdfmark {pgfid560}{5852256}{22262016}
\pgfsyspdfmark {pgfid561}{6088185}{22262016}
\pgfsyspdfmark {pgfid562}{7760167}{22262016}
\pgfsyspdfmark {pgfid563}{9432149}{22262016}
\pgfsyspdfmark {pgfid564}{11104131}{22262016}
\pgfsyspdfmark {pgfid565}{12611453}{22262016}
\pgfsyspdfmark {pgfid566}{5252194}{21827507}
\pgfsyspdfmark {pgfid567}{5852256}{20813668}
\pgfsyspdfmark {pgfid568}{6088185}{20813668}
\pgfsyspdfmark {pgfid569}{7760167}{20813668}
\pgfsyspdfmark {pgfid570}{9432149}{20813668}
\pgfsyspdfmark {pgfid571}{11104131}{20813668}
\pgfsyspdfmark {pgfid572}{12611453}{20813668}
\pgfsyspdfmark {pgfid573}{5252194}{20379159}
\pgfsyspdfmark {pgfid574}{5852256}{19365320}
\pgfsyspdfmark {pgfid575}{6088185}{19365320}
\pgfsyspdfmark {pgfid576}{7760167}{19365320}
\pgfsyspdfmark {pgfid577}{9432149}{19365320}
\pgfsyspdfmark {pgfid578}{11104131}{19365320}
\pgfsyspdfmark {pgfid579}{12611453}{19365320}
\pgfsyspdfmark {pgfid580}{5252194}{18930811}
\pgfsyspdfmark {pgfid581}{5852256}{17916972}
\pgfsyspdfmark {pgfid582}{6088185}{17916972}
\pgfsyspdfmark {pgfid583}{7760167}{17916972}
\pgfsyspdfmark {pgfid584}{9432149}{17916972}
\pgfsyspdfmark {pgfid585}{11104131}{17916972}
\pgfsyspdfmark {pgfid586}{12611453}{17916972}
\pgfsyspdfmark {pgfid587}{5252194}{17482463}
\pgfsyspdfmark {pgfid588}{5252194}{17313629}
\pgfsyspdfmark {pgfid589}{5252194}{17238130}
\pgfsyspdfmark {pgfid590}{6924176}{17238130}
\pgfsyspdfmark {pgfid591}{8596158}{17238130}
\pgfsyspdfmark {pgfid592}{10268140}{17238130}
\pgfsyspdfmark {pgfid593}{11940122}{17238130}
\pgfsyspdfmark {pgfid594}{13282784}{17238130}
\savepicturepage{pgfid595}{18}
\pgfsyspdfmark {pgfid595}{13282784}{30509743}
\pgfsyspdfmark {pgfid596}{17332174}{38010078}
\pgfsyspdfmark {pgfid597}{17332174}{38010078}
\pgfsyspdfmark {pgfid598}{17725390}{36646383}
\pgfsyspdfmark {pgfid599}{18168165}{36646383}
\pgfsyspdfmark {pgfid600}{19840147}{36646383}
\pgfsyspdfmark {pgfid601}{21512129}{36646383}
\pgfsyspdfmark {pgfid602}{23019451}{36646383}
\pgfsyspdfmark {pgfid603}{17332174}{36211874}
\pgfsyspdfmark {pgfid604}{17332174}{36043040}
\pgfsyspdfmark {pgfid605}{17932236}{34748290}
\pgfsyspdfmark {pgfid606}{18168165}{34748290}
\pgfsyspdfmark {pgfid607}{19840147}{34748290}
\pgfsyspdfmark {pgfid608}{21512129}{34748290}
\pgfsyspdfmark {pgfid609}{23019451}{34748290}
\pgfsyspdfmark {pgfid610}{17332174}{34313781}
\pgfsyspdfmark {pgfid611}{17932236}{33299942}
\pgfsyspdfmark {pgfid612}{18168165}{33299942}
\pgfsyspdfmark {pgfid613}{19840147}{33299942}
\pgfsyspdfmark {pgfid614}{21512129}{33299942}
\pgfsyspdfmark {pgfid615}{23019451}{33299942}
\pgfsyspdfmark {pgfid616}{17332174}{32865433}
\pgfsyspdfmark {pgfid617}{17932236}{31851594}
\pgfsyspdfmark {pgfid618}{18168165}{31851594}
\pgfsyspdfmark {pgfid619}{19840147}{31851594}
\pgfsyspdfmark {pgfid620}{21512129}{31851594}
\pgfsyspdfmark {pgfid621}{23019451}{31851594}
\pgfsyspdfmark {pgfid622}{17332174}{31417085}
\pgfsyspdfmark {pgfid623}{17932236}{30403246}
\pgfsyspdfmark {pgfid624}{18168165}{30403246}
\pgfsyspdfmark {pgfid625}{19840147}{30403246}
\pgfsyspdfmark {pgfid626}{21512129}{30403246}
\pgfsyspdfmark {pgfid627}{23019451}{30403246}
\pgfsyspdfmark {pgfid628}{17332174}{29968737}
\pgfsyspdfmark {pgfid629}{17332174}{29799903}
\pgfsyspdfmark {pgfid630}{17932236}{28505153}
\pgfsyspdfmark {pgfid631}{18168165}{28505153}
\pgfsyspdfmark {pgfid632}{19840147}{28505153}
\pgfsyspdfmark {pgfid633}{21512129}{28505153}
\pgfsyspdfmark {pgfid634}{23019451}{28505153}
\pgfsyspdfmark {pgfid635}{17332174}{28070644}
\pgfsyspdfmark {pgfid636}{17932236}{27056805}
\pgfsyspdfmark {pgfid637}{18168165}{27056805}
\pgfsyspdfmark {pgfid638}{19840147}{27056805}
\pgfsyspdfmark {pgfid639}{21512129}{27056805}
\pgfsyspdfmark {pgfid640}{23019451}{27056805}
\pgfsyspdfmark {pgfid641}{17332174}{26622296}
\pgfsyspdfmark {pgfid642}{17932236}{25608457}
\pgfsyspdfmark {pgfid643}{18168165}{25608457}
\pgfsyspdfmark {pgfid644}{19840147}{25608457}
\pgfsyspdfmark {pgfid645}{21512129}{25608457}
\pgfsyspdfmark {pgfid646}{23019451}{25608457}
\pgfsyspdfmark {pgfid647}{17332174}{25173948}
\pgfsyspdfmark {pgfid648}{17932236}{24160109}
\pgfsyspdfmark {pgfid649}{18168165}{24160109}
\pgfsyspdfmark {pgfid650}{19840147}{24160109}
\pgfsyspdfmark {pgfid651}{21512129}{24160109}
\pgfsyspdfmark {pgfid652}{23019451}{24160109}
\pgfsyspdfmark {pgfid653}{17332174}{23725600}
\pgfsyspdfmark {pgfid654}{17332174}{23556766}
\pgfsyspdfmark {pgfid655}{17332174}{23481267}
\pgfsyspdfmark {pgfid656}{19004156}{23481267}
\pgfsyspdfmark {pgfid657}{20676138}{23481267}
\pgfsyspdfmark {pgfid658}{22348120}{23481267}
\pgfsyspdfmark {pgfid659}{23690782}{23481267}
\savepicturepage{pgfid660}{18}
\pgfsyspdfmark {pgfid660}{23690782}{30509743}
\pgfsyspdfmark {pgfid661}{29412155}{35113382}
\pgfsyspdfmark {pgfid662}{29412155}{35113382}
\pgfsyspdfmark {pgfid663}{29805371}{33749687}
\pgfsyspdfmark {pgfid664}{30248146}{33749687}
\pgfsyspdfmark {pgfid665}{31920128}{33749687}
\pgfsyspdfmark {pgfid666}{33427450}{33749687}
\pgfsyspdfmark {pgfid667}{29412155}{33315178}
\pgfsyspdfmark {pgfid668}{29412155}{33146344}
\pgfsyspdfmark {pgfid669}{30012217}{31851594}
\pgfsyspdfmark {pgfid670}{30248146}{31851594}
\pgfsyspdfmark {pgfid671}{31920128}{31851594}
\pgfsyspdfmark {pgfid672}{33427450}{31851594}
\pgfsyspdfmark {pgfid673}{29412155}{31417085}
\pgfsyspdfmark {pgfid674}{30012217}{30403246}
\pgfsyspdfmark {pgfid675}{30248146}{30403246}
\pgfsyspdfmark {pgfid676}{31920128}{30403246}
\pgfsyspdfmark {pgfid677}{33427450}{30403246}
\pgfsyspdfmark {pgfid678}{29412155}{29968737}
\pgfsyspdfmark {pgfid679}{29412155}{29799903}
\pgfsyspdfmark {pgfid680}{30012217}{28505153}
\pgfsyspdfmark {pgfid681}{30248146}{28505153}
\pgfsyspdfmark {pgfid682}{31920128}{28505153}
\pgfsyspdfmark {pgfid683}{33427450}{28505153}
\pgfsyspdfmark {pgfid684}{29412155}{28070644}
\pgfsyspdfmark {pgfid685}{30012217}{27056805}
\pgfsyspdfmark {pgfid686}{30248146}{27056805}
\pgfsyspdfmark {pgfid687}{31920128}{27056805}
\pgfsyspdfmark {pgfid688}{33427450}{27056805}
\pgfsyspdfmark {pgfid689}{29412155}{26622296}
\pgfsyspdfmark {pgfid690}{29412155}{26453462}
\pgfsyspdfmark {pgfid691}{29412155}{26377963}
\pgfsyspdfmark {pgfid692}{31084137}{26377963}
\pgfsyspdfmark {pgfid693}{32756119}{26377963}
\pgfsyspdfmark {pgfid694}{34098781}{26377963}
\savepicturepage{pgfid695}{18}
\pgfsyspdfmark {pgfid695}{34098781}{30509743}
\@writefile{lot}{\defcounter {refsection}{0}\relax }\@writefile{lot}{\contentsline {table}{\numberline {2.11}{\ignorespaces Пример фиктивных переменных\relax }}{18}{table.caption.15}\protected@file@percent }
\newlabel{myt:Пример фиктивных переменных}{{2.11}{18}{Пример фиктивных переменных\relax }{table.caption.15}{}}
\newlabel{LastPage}{{}{18}{}{page.18}{}}
\xdef\lastpage@lastpage{18}
\xdef\lastpage@lastpageHy{18}
\gdef \@abspage@last{18}
