\BOOKMARK [1][-]{section.1}{\376\377\004\035\004\076\004\074\004\065\004\100\000\040\0001}{}% 1
\BOOKMARK [2][-]{subsection.1.1}{\376\377\004\043\004\101\004\073\004\076\004\062\004\070\004\065}{section.1}% 2
\BOOKMARK [2][-]{subsection.1.2}{\376\377\004\032\004\076\004\064}{section.1}% 3
\BOOKMARK [2][-]{subsection.1.3}{\376\377\004\022\004\113\004\062\004\076\004\064}{section.1}% 4
\BOOKMARK [1][-]{section.2}{\376\377\004\035\004\076\004\074\004\065\004\100\000\040\0002}{}% 5
\BOOKMARK [2][-]{subsection.2.1}{\376\377\004\043\004\101\004\073\004\076\004\062\004\070\004\065}{section.2}% 6
\BOOKMARK [2][-]{subsection.2.2}{\376\377\004\032\004\076\004\064}{section.2}% 7
\BOOKMARK [2][-]{subsection.2.3}{\376\377\004\022\004\113\004\062\004\076\004\064}{section.2}% 8
\BOOKMARK [1][-]{section.3}{\376\377\004\035\004\076\004\074\004\065\004\100\000\040\0003}{}% 9
\BOOKMARK [2][-]{subsection.3.1}{\376\377\004\043\004\101\004\073\004\076\004\062\004\070\004\065}{section.3}% 10
\BOOKMARK [2][-]{subsection.3.2}{\376\377\004\032\004\076\004\064}{section.3}% 11
\BOOKMARK [2][-]{subsection.3.3}{\376\377\004\022\004\113\004\062\004\076\004\064}{section.3}% 12
\BOOKMARK [1][-]{section.4}{\376\377\004\035\004\076\004\074\004\065\004\100\000\040\0004}{}% 13
\BOOKMARK [2][-]{subsection.4.1}{\376\377\004\043\004\101\004\073\004\076\004\062\004\070\004\065}{section.4}% 14
\BOOKMARK [2][-]{subsection.4.2}{\376\377\004\032\004\076\004\064}{section.4}% 15
\BOOKMARK [2][-]{subsection.4.3}{\376\377\004\022\004\113\004\062\004\076\004\064}{section.4}% 16
\BOOKMARK [1][-]{section.5}{\376\377\004\035\004\076\004\074\004\065\004\100\000\040\0005}{}% 17
\BOOKMARK [2][-]{subsection.5.1}{\376\377\004\043\004\101\004\073\004\076\004\062\004\070\004\065}{section.5}% 18
\BOOKMARK [2][-]{subsection.5.2}{\376\377\004\032\004\076\004\064}{section.5}% 19
\BOOKMARK [2][-]{subsection.5.3}{\376\377\004\022\004\113\004\062\004\076\004\064}{section.5}% 20
\BOOKMARK [1][-]{section.6}{\376\377\004\035\004\076\004\074\004\065\004\100\000\040\0006}{}% 21
\BOOKMARK [2][-]{subsection.6.1}{\376\377\004\043\004\101\004\073\004\076\004\062\004\070\004\065}{section.6}% 22
\BOOKMARK [2][-]{subsection.6.2}{\376\377\004\032\004\076\004\064}{section.6}% 23
\BOOKMARK [2][-]{subsection.6.3}{\376\377\004\022\004\113\004\062\004\076\004\064}{section.6}% 24
\BOOKMARK [1][-]{section.7}{\376\377\004\035\004\076\004\074\004\065\004\100\000\040\0007}{}% 25
\BOOKMARK [2][-]{subsection.7.1}{\376\377\004\043\004\101\004\073\004\076\004\062\004\070\004\065}{section.7}% 26
\BOOKMARK [2][-]{subsection.7.2}{\376\377\004\032\004\076\004\064}{section.7}% 27
\BOOKMARK [2][-]{subsection.7.3}{\376\377\004\022\004\113\004\062\004\076\004\064}{section.7}% 28
\BOOKMARK [1][-]{section.8}{\376\377\004\035\004\076\004\074\004\065\004\100\000\040\0008}{}% 29
\BOOKMARK [2][-]{subsection.8.1}{\376\377\004\043\004\101\004\073\004\076\004\062\004\070\004\065}{section.8}% 30
\BOOKMARK [2][-]{subsection.8.2}{\376\377\004\032\004\076\004\064}{section.8}% 31
\BOOKMARK [2][-]{subsection.8.3}{\376\377\004\022\004\113\004\062\004\076\004\064}{section.8}% 32
\BOOKMARK [1][-]{section.9}{\376\377\004\035\004\076\004\074\004\065\004\100\000\040\0009}{}% 33
\BOOKMARK [2][-]{subsection.9.1}{\376\377\004\043\004\101\004\073\004\076\004\062\004\070\004\065}{section.9}% 34
\BOOKMARK [2][-]{subsection.9.2}{\376\377\004\032\004\076\004\064}{section.9}% 35
\BOOKMARK [2][-]{subsection.9.3}{\376\377\004\022\004\113\004\062\004\076\004\064}{section.9}% 36
\BOOKMARK [1][-]{section.10}{\376\377\004\035\004\076\004\074\004\065\004\100\000\040\0001\0000}{}% 37
\BOOKMARK [2][-]{subsection.10.1}{\376\377\004\043\004\101\004\073\004\076\004\062\004\070\004\065}{section.10}% 38
\BOOKMARK [2][-]{subsection.10.2}{\376\377\004\032\004\076\004\064}{section.10}% 39
\BOOKMARK [2][-]{subsection.10.3}{\376\377\004\022\004\113\004\062\004\076\004\064}{section.10}% 40
