\boolfalse {citerequest}\boolfalse {citetracker}\boolfalse {pagetracker}\boolfalse {backtracker}\relax 
\babel@toc {russian}{}
\defcounter {refsection}{0}\relax 
\contentsline {chapter}{\numberline {1}Задание}{3}{chapter.1}%
\defcounter {refsection}{0}\relax 
\contentsline {chapter}{\numberline {2}Unit 2. Computer essentials}{4}{chapter.2}%
\defcounter {refsection}{0}\relax 
\contentsline {section}{\numberline {2.1}Assignment I}{4}{section.2.1}%
\defcounter {refsection}{0}\relax 
\contentsline {section}{\numberline {2.2}Assignment II}{6}{section.2.2}%
\defcounter {refsection}{0}\relax 
\contentsline {section}{\numberline {2.3}Assignment III}{7}{section.2.3}%
\defcounter {refsection}{0}\relax 
\contentsline {section}{\numberline {2.4}Assignment IV}{9}{section.2.4}%
\defcounter {refsection}{0}\relax 
\contentsline {section}{\numberline {2.5}Vocabulary Test}{11}{section.2.5}%
\defcounter {refsection}{0}\relax 
\contentsline {chapter}{\numberline {3}Infotech Workbook}{13}{chapter.3}%
\defcounter {refsection}{0}\relax 
\contentsline {section}{\numberline {3.1}Exercise 1}{13}{section.3.1}%
\defcounter {refsection}{0}\relax 
\contentsline {section}{\numberline {3.2}Exercise 2}{14}{section.3.2}%
\defcounter {refsection}{0}\relax 
\contentsline {section}{\numberline {3.3}Exercise 3}{15}{section.3.3}%
\defcounter {refsection}{0}\relax 
\contentsline {section}{\numberline {3.4}Exercise 4}{16}{section.3.4}%
\defcounter {refsection}{0}\relax 
\contentsline {section}{\numberline {3.5}Exercise 5}{17}{section.3.5}%
