\relax 
\providecommand\hyper@newdestlabel[2]{}
\@nameuse{bbl@beforestart}
\catcode `"\active 
\nicematrix@redefine@check@rerun 
\abx@aux@refcontext{nty/global//global/global}
\providecommand\HyperFirstAtBeginDocument{\AtBeginDocument}
\HyperFirstAtBeginDocument{\ifx\hyper@anchor\@undefined
\global\let\oldcontentsline\contentsline
\gdef\contentsline#1#2#3#4{\oldcontentsline{#1}{#2}{#3}}
\global\let\oldnewlabel\newlabel
\gdef\newlabel#1#2{\newlabelxx{#1}#2}
\gdef\newlabelxx#1#2#3#4#5#6{\oldnewlabel{#1}{{#2}{#3}}}
\AtEndDocument{\ifx\hyper@anchor\@undefined
\let\contentsline\oldcontentsline
\let\newlabel\oldnewlabel
\fi}
\fi}
\global\let\hyper@last\relax 
\gdef\HyperFirstAtBeginDocument#1{#1}
\providecommand\HyField@AuxAddToFields[1]{}
\providecommand\HyField@AuxAddToCoFields[2]{}
\providecommand\@newglossary[4]{}
\@newglossary{main}{glg}{gls}{glo}
\providecommand\@glsorder[1]{}
\providecommand\@istfilename[1]{}
\@istfilename{second.xdy}
\@glsorder{word}
\@writefile{toc}{\boolfalse {citerequest}\boolfalse {citetracker}\boolfalse {pagetracker}\boolfalse {backtracker}\relax }
\@writefile{lof}{\boolfalse {citerequest}\boolfalse {citetracker}\boolfalse {pagetracker}\boolfalse {backtracker}\relax }
\@writefile{lot}{\boolfalse {citerequest}\boolfalse {citetracker}\boolfalse {pagetracker}\boolfalse {backtracker}\relax }
\babel@aux{russian}{}
\pp@pagectr{footnote}{1}{3}{3}
\@writefile{toc}{\defcounter {refsection}{0}\relax }\@writefile{toc}{\contentsline {chapter}{\numberline {1}Задание}{3}{chapter.1}\protected@file@percent }
\@writefile{lof}{\defcounter {refsection}{0}\relax }\@writefile{lof}{\addvspace {10\p@ }}
\@writefile{lot}{\defcounter {refsection}{0}\relax }\@writefile{lot}{\addvspace {10\p@ }}
\ExplSyntaxOn \cs_if_free:NT \pgfsyspdfmark {\cs_set_eq:NN \pgfsyspdfmark \use:nnn }\ExplSyntaxOff 
\pp@pagectr{footnote}{2}{4}{4}
\@writefile{toc}{\defcounter {refsection}{0}\relax }\@writefile{toc}{\contentsline {chapter}{\numberline {2}Unit 2. Computer essentials}{4}{chapter.2}\protected@file@percent }
\@writefile{lof}{\defcounter {refsection}{0}\relax }\@writefile{lof}{\addvspace {10\p@ }}
\@writefile{lot}{\defcounter {refsection}{0}\relax }\@writefile{lot}{\addvspace {10\p@ }}
\@writefile{toc}{\defcounter {refsection}{0}\relax }\@writefile{toc}{\contentsline {section}{\numberline {2.1}Assignment I}{4}{section.2.1}\protected@file@percent }
\@writefile{lot}{\defcounter {refsection}{0}\relax }\@writefile{lot}{\contentsline {table}{\numberline {2.1}{\ignorespaces Assignment I a\relax }}{4}{table.caption.2}\protected@file@percent }
\providecommand*\caption@xref[2]{\@setref\relax\@undefined{#1}}
\newlabel{Assignment I a}{{2.1}{4}{Assignment I a\relax }{table.caption.2}{}}
\pgfsyspdfmark {pgfid2}{6381917}{34173424}
\pgfsyspdfmark {pgfid3}{6381917}{34173424}
\pgfsyspdfmark {pgfid4}{6381917}{32809729}
\pgfsyspdfmark {pgfid5}{14193807}{32809729}
\pgfsyspdfmark {pgfid6}{28087439}{32809729}
\pgfsyspdfmark {pgfid7}{6381917}{32375220}
\pgfsyspdfmark {pgfid8}{6381917}{32206386}
\pgfsyspdfmark {pgfid9}{6381917}{30911636}
\pgfsyspdfmark {pgfid10}{6617846}{30911636}
\pgfsyspdfmark {pgfid11}{14193807}{30911636}
\pgfsyspdfmark {pgfid12}{28087439}{30911636}
\pgfsyspdfmark {pgfid13}{6381917}{30477127}
\pgfsyspdfmark {pgfid14}{6381917}{29463288}
\pgfsyspdfmark {pgfid15}{6617846}{29463288}
\pgfsyspdfmark {pgfid16}{14193807}{29463288}
\pgfsyspdfmark {pgfid17}{28087439}{29463288}
\pgfsyspdfmark {pgfid18}{6381917}{29028779}
\pgfsyspdfmark {pgfid19}{6381917}{28014940}
\pgfsyspdfmark {pgfid20}{6617846}{28014940}
\pgfsyspdfmark {pgfid21}{14193807}{28014940}
\pgfsyspdfmark {pgfid22}{28087439}{28014940}
\pgfsyspdfmark {pgfid23}{6381917}{27580431}
\pgfsyspdfmark {pgfid24}{6381917}{26566592}
\pgfsyspdfmark {pgfid25}{6617846}{26566592}
\pgfsyspdfmark {pgfid26}{14193807}{26566592}
\pgfsyspdfmark {pgfid27}{28087439}{26566592}
\pgfsyspdfmark {pgfid28}{6381917}{26132083}
\pgfsyspdfmark {pgfid29}{6381917}{25118244}
\pgfsyspdfmark {pgfid30}{6617846}{25118244}
\pgfsyspdfmark {pgfid31}{14193807}{25118244}
\pgfsyspdfmark {pgfid32}{28087439}{25118244}
\pgfsyspdfmark {pgfid33}{6381917}{23169851}
\pgfsyspdfmark {pgfid34}{6381917}{22156012}
\pgfsyspdfmark {pgfid35}{6617846}{22156012}
\pgfsyspdfmark {pgfid36}{14193807}{22156012}
\pgfsyspdfmark {pgfid37}{28087439}{22156012}
\pgfsyspdfmark {pgfid38}{6381917}{21721503}
\pgfsyspdfmark {pgfid39}{6381917}{20707664}
\pgfsyspdfmark {pgfid40}{6617846}{20707664}
\pgfsyspdfmark {pgfid41}{14193807}{20707664}
\pgfsyspdfmark {pgfid42}{28087439}{20707664}
\pgfsyspdfmark {pgfid43}{6381917}{20273155}
\pgfsyspdfmark {pgfid44}{6381917}{19259316}
\pgfsyspdfmark {pgfid45}{6617846}{19259316}
\pgfsyspdfmark {pgfid46}{14193807}{19259316}
\pgfsyspdfmark {pgfid47}{28087439}{19259316}
\pgfsyspdfmark {pgfid48}{6381917}{18824807}
\pgfsyspdfmark {pgfid49}{6381917}{17810968}
\pgfsyspdfmark {pgfid50}{6617846}{17810968}
\pgfsyspdfmark {pgfid51}{14193807}{17810968}
\pgfsyspdfmark {pgfid52}{28087439}{17810968}
\pgfsyspdfmark {pgfid53}{6381917}{14979298}
\pgfsyspdfmark {pgfid54}{6381917}{13965459}
\pgfsyspdfmark {pgfid55}{6381917}{13530950}
\pgfsyspdfmark {pgfid56}{6381917}{13362116}
\pgfsyspdfmark {pgfid57}{6381917}{13286617}
\pgfsyspdfmark {pgfid58}{7246991}{13286617}
\pgfsyspdfmark {pgfid59}{21140623}{13286617}
\pgfsyspdfmark {pgfid60}{34641039}{13286617}
\savepicturepage{pgfid61}{4}
\pgfsyspdfmark {pgfid61}{34641039}{23494091}
\@writefile{lot}{\defcounter {refsection}{0}\relax }\@writefile{lot}{\contentsline {table}{\numberline {2.2}{\ignorespaces Assignment I b\relax }}{5}{table.caption.3}\protected@file@percent }
\newlabel{Assignment I b}{{2.2}{5}{Assignment I b\relax }{table.caption.3}{}}
\pgfsyspdfmark {pgfid62}{6106682}{50078767}
\pgfsyspdfmark {pgfid63}{6106682}{50078767}
\pgfsyspdfmark {pgfid64}{6106682}{48715072}
\pgfsyspdfmark {pgfid65}{6617846}{48715072}
\pgfsyspdfmark {pgfid66}{14469042}{48715072}
\pgfsyspdfmark {pgfid67}{28362674}{48715072}
\pgfsyspdfmark {pgfid68}{6106682}{48280563}
\pgfsyspdfmark {pgfid69}{6106682}{47266724}
\pgfsyspdfmark {pgfid70}{6578541}{47266724}
\pgfsyspdfmark {pgfid71}{14469042}{47266724}
\pgfsyspdfmark {pgfid72}{28362674}{47266724}
\pgfsyspdfmark {pgfid73}{6106682}{45318331}
\pgfsyspdfmark {pgfid74}{6106682}{44304492}
\pgfsyspdfmark {pgfid75}{6578541}{44304492}
\pgfsyspdfmark {pgfid76}{14469042}{44304492}
\pgfsyspdfmark {pgfid77}{28362674}{44304492}
\pgfsyspdfmark {pgfid78}{6106682}{42356099}
\pgfsyspdfmark {pgfid79}{6106682}{41342260}
\pgfsyspdfmark {pgfid80}{6578541}{41342260}
\pgfsyspdfmark {pgfid81}{14469042}{41342260}
\pgfsyspdfmark {pgfid82}{28362674}{41342260}
\pgfsyspdfmark {pgfid83}{6106682}{40907751}
\pgfsyspdfmark {pgfid84}{6106682}{39893912}
\pgfsyspdfmark {pgfid85}{6578541}{39893912}
\pgfsyspdfmark {pgfid86}{14469042}{39893912}
\pgfsyspdfmark {pgfid87}{28362674}{39893912}
\pgfsyspdfmark {pgfid88}{6106682}{39459403}
\pgfsyspdfmark {pgfid89}{6106682}{38445564}
\pgfsyspdfmark {pgfid90}{6578541}{38445564}
\pgfsyspdfmark {pgfid91}{14469042}{38445564}
\pgfsyspdfmark {pgfid92}{28362674}{38445564}
\pgfsyspdfmark {pgfid93}{6106682}{38011055}
\pgfsyspdfmark {pgfid94}{6106682}{36997216}
\pgfsyspdfmark {pgfid95}{6578541}{36997216}
\pgfsyspdfmark {pgfid96}{14469042}{36997216}
\pgfsyspdfmark {pgfid97}{28362674}{36997216}
\pgfsyspdfmark {pgfid98}{6106682}{36562707}
\pgfsyspdfmark {pgfid99}{6106682}{35548868}
\pgfsyspdfmark {pgfid100}{6578541}{35548868}
\pgfsyspdfmark {pgfid101}{14469042}{35548868}
\pgfsyspdfmark {pgfid102}{28362674}{35548868}
\pgfsyspdfmark {pgfid103}{6106682}{35114359}
\pgfsyspdfmark {pgfid104}{6106682}{34100520}
\pgfsyspdfmark {pgfid105}{6578541}{34100520}
\pgfsyspdfmark {pgfid106}{14469042}{34100520}
\pgfsyspdfmark {pgfid107}{28362674}{34100520}
\pgfsyspdfmark {pgfid108}{6106682}{33666011}
\pgfsyspdfmark {pgfid109}{6106682}{32652172}
\pgfsyspdfmark {pgfid110}{6578541}{32652172}
\pgfsyspdfmark {pgfid111}{14469042}{32652172}
\pgfsyspdfmark {pgfid112}{28362674}{32652172}
\pgfsyspdfmark {pgfid113}{6106682}{32217663}
\pgfsyspdfmark {pgfid114}{6106682}{31203824}
\pgfsyspdfmark {pgfid115}{6578541}{31203824}
\pgfsyspdfmark {pgfid116}{14469042}{31203824}
\pgfsyspdfmark {pgfid117}{28362674}{31203824}
\pgfsyspdfmark {pgfid118}{6106682}{30769315}
\pgfsyspdfmark {pgfid119}{6106682}{29755476}
\pgfsyspdfmark {pgfid120}{6578541}{29755476}
\pgfsyspdfmark {pgfid121}{14469042}{29755476}
\pgfsyspdfmark {pgfid122}{28362674}{29755476}
\pgfsyspdfmark {pgfid123}{6106682}{29320967}
\pgfsyspdfmark {pgfid124}{6106682}{28307128}
\pgfsyspdfmark {pgfid125}{6578541}{28307128}
\pgfsyspdfmark {pgfid126}{14469042}{28307128}
\pgfsyspdfmark {pgfid127}{28362674}{28307128}
\pgfsyspdfmark {pgfid128}{6106682}{26358735}
\pgfsyspdfmark {pgfid129}{6106682}{25344896}
\pgfsyspdfmark {pgfid130}{6578541}{25344896}
\pgfsyspdfmark {pgfid131}{14469042}{25344896}
\pgfsyspdfmark {pgfid132}{28362674}{25344896}
\pgfsyspdfmark {pgfid133}{6106682}{24910387}
\pgfsyspdfmark {pgfid134}{6106682}{23896548}
\pgfsyspdfmark {pgfid135}{6578541}{23896548}
\pgfsyspdfmark {pgfid136}{14469042}{23896548}
\pgfsyspdfmark {pgfid137}{28362674}{23896548}
\pgfsyspdfmark {pgfid138}{6106682}{23462039}
\pgfsyspdfmark {pgfid139}{6106682}{22448200}
\pgfsyspdfmark {pgfid140}{6578541}{22448200}
\pgfsyspdfmark {pgfid141}{14469042}{22448200}
\pgfsyspdfmark {pgfid142}{28362674}{22448200}
\pgfsyspdfmark {pgfid143}{6106682}{20499807}
\pgfsyspdfmark {pgfid144}{6106682}{19485968}
\pgfsyspdfmark {pgfid145}{6578541}{19485968}
\pgfsyspdfmark {pgfid146}{14469042}{19485968}
\pgfsyspdfmark {pgfid147}{28362674}{19485968}
\pgfsyspdfmark {pgfid148}{6106682}{19051459}
\pgfsyspdfmark {pgfid149}{6106682}{18037620}
\pgfsyspdfmark {pgfid150}{6578541}{18037620}
\pgfsyspdfmark {pgfid151}{14469042}{18037620}
\pgfsyspdfmark {pgfid152}{28362674}{18037620}
\pgfsyspdfmark {pgfid153}{6106682}{17603111}
\pgfsyspdfmark {pgfid154}{6106682}{16589272}
\pgfsyspdfmark {pgfid155}{6578541}{16589272}
\pgfsyspdfmark {pgfid156}{14469042}{16589272}
\pgfsyspdfmark {pgfid157}{28362674}{16589272}
\pgfsyspdfmark {pgfid158}{6106682}{16154763}
\pgfsyspdfmark {pgfid159}{6106682}{15985929}
\pgfsyspdfmark {pgfid160}{6106682}{15910430}
\pgfsyspdfmark {pgfid161}{7522226}{15910430}
\pgfsyspdfmark {pgfid162}{21415858}{15910430}
\pgfsyspdfmark {pgfid163}{34916274}{15910430}
\savepicturepage{pgfid164}{5}
\pgfsyspdfmark {pgfid164}{34916274}{32758669}
\@writefile{toc}{\defcounter {refsection}{0}\relax }\@writefile{toc}{\contentsline {section}{\numberline {2.2}Assignment II}{6}{section.2.2}\protected@file@percent }
\@writefile{lot}{\defcounter {refsection}{0}\relax }\@writefile{lot}{\contentsline {table}{\numberline {2.3}{\ignorespaces Assignment II\relax }}{6}{table.caption.4}\protected@file@percent }
\newlabel{Assignment II}{{2.3}{6}{Assignment II\relax }{table.caption.4}{}}
\pgfsyspdfmark {pgfid165}{6381917}{43440221}
\pgfsyspdfmark {pgfid166}{6381917}{43440221}
\pgfsyspdfmark {pgfid167}{6381917}{42076526}
\pgfsyspdfmark {pgfid168}{14193807}{42076526}
\pgfsyspdfmark {pgfid169}{28087439}{42076526}
\pgfsyspdfmark {pgfid170}{6381917}{41642017}
\pgfsyspdfmark {pgfid171}{6381917}{41473183}
\pgfsyspdfmark {pgfid172}{6381917}{40178433}
\pgfsyspdfmark {pgfid173}{6617846}{40178433}
\pgfsyspdfmark {pgfid174}{14193807}{40178433}
\pgfsyspdfmark {pgfid175}{28087439}{40178433}
\pgfsyspdfmark {pgfid176}{6381917}{39743924}
\pgfsyspdfmark {pgfid177}{6381917}{38730085}
\pgfsyspdfmark {pgfid178}{6617846}{38730085}
\pgfsyspdfmark {pgfid179}{14193807}{38730085}
\pgfsyspdfmark {pgfid180}{28087439}{38730085}
\pgfsyspdfmark {pgfid181}{6381917}{38295576}
\pgfsyspdfmark {pgfid182}{6381917}{37281737}
\pgfsyspdfmark {pgfid183}{6617846}{37281737}
\pgfsyspdfmark {pgfid184}{14193807}{37281737}
\pgfsyspdfmark {pgfid185}{28087439}{37281737}
\pgfsyspdfmark {pgfid186}{6381917}{36847228}
\pgfsyspdfmark {pgfid187}{6381917}{35833389}
\pgfsyspdfmark {pgfid188}{6617846}{35833389}
\pgfsyspdfmark {pgfid189}{14193807}{35833389}
\pgfsyspdfmark {pgfid190}{28087439}{35833389}
\pgfsyspdfmark {pgfid191}{6381917}{35398880}
\pgfsyspdfmark {pgfid192}{6381917}{34385041}
\pgfsyspdfmark {pgfid193}{6617846}{34385041}
\pgfsyspdfmark {pgfid194}{14193807}{34385041}
\pgfsyspdfmark {pgfid195}{28087439}{34385041}
\pgfsyspdfmark {pgfid196}{6381917}{33950532}
\pgfsyspdfmark {pgfid197}{6381917}{32936693}
\pgfsyspdfmark {pgfid198}{6617846}{32936693}
\pgfsyspdfmark {pgfid199}{14193807}{32936693}
\pgfsyspdfmark {pgfid200}{28087439}{32936693}
\pgfsyspdfmark {pgfid201}{6381917}{32502184}
\pgfsyspdfmark {pgfid202}{6381917}{31488345}
\pgfsyspdfmark {pgfid203}{6617846}{31488345}
\pgfsyspdfmark {pgfid204}{14193807}{31488345}
\pgfsyspdfmark {pgfid205}{28087439}{31488345}
\pgfsyspdfmark {pgfid206}{6381917}{31053836}
\pgfsyspdfmark {pgfid207}{6381917}{30039997}
\pgfsyspdfmark {pgfid208}{6617846}{30039997}
\pgfsyspdfmark {pgfid209}{14193807}{30039997}
\pgfsyspdfmark {pgfid210}{28087439}{30039997}
\pgfsyspdfmark {pgfid211}{6381917}{29605488}
\pgfsyspdfmark {pgfid212}{6381917}{28591649}
\pgfsyspdfmark {pgfid213}{6617846}{28591649}
\pgfsyspdfmark {pgfid214}{14193807}{28591649}
\pgfsyspdfmark {pgfid215}{28087439}{28591649}
\pgfsyspdfmark {pgfid216}{6381917}{28157140}
\pgfsyspdfmark {pgfid217}{6381917}{27988306}
\pgfsyspdfmark {pgfid218}{6381917}{27912807}
\pgfsyspdfmark {pgfid219}{7246991}{27912807}
\pgfsyspdfmark {pgfid220}{21140623}{27912807}
\pgfsyspdfmark {pgfid221}{34641039}{27912807}
\savepicturepage{pgfid222}{6}
\pgfsyspdfmark {pgfid222}{34641039}{35440585}
\@writefile{toc}{\defcounter {refsection}{0}\relax }\@writefile{toc}{\contentsline {section}{\numberline {2.3}Assignment III}{7}{section.2.3}\protected@file@percent }
\@writefile{lot}{\defcounter {refsection}{0}\relax }\@writefile{lot}{\contentsline {table}{\numberline {2.4}{\ignorespaces Assignment III\relax }}{8}{table.caption.5}\protected@file@percent }
\newlabel{Assignment III}{{2.4}{8}{Assignment III\relax }{table.caption.5}{}}
\pgfsyspdfmark {pgfid223}{6381917}{49882159}
\pgfsyspdfmark {pgfid224}{6381917}{49882159}
\pgfsyspdfmark {pgfid225}{6381917}{48518464}
\pgfsyspdfmark {pgfid226}{14193807}{48518464}
\pgfsyspdfmark {pgfid227}{28087439}{48518464}
\pgfsyspdfmark {pgfid228}{6381917}{48083955}
\pgfsyspdfmark {pgfid229}{6381917}{47915121}
\pgfsyspdfmark {pgfid230}{6381917}{46620371}
\pgfsyspdfmark {pgfid231}{6617846}{46620371}
\pgfsyspdfmark {pgfid232}{14193807}{46620371}
\pgfsyspdfmark {pgfid233}{28087439}{46620371}
\pgfsyspdfmark {pgfid234}{6381917}{43788701}
\pgfsyspdfmark {pgfid235}{6381917}{42774862}
\pgfsyspdfmark {pgfid236}{14193807}{42774862}
\pgfsyspdfmark {pgfid237}{28087439}{42774862}
\pgfsyspdfmark {pgfid238}{6381917}{39945036}
\pgfsyspdfmark {pgfid239}{6381917}{38931197}
\pgfsyspdfmark {pgfid240}{14193807}{38931197}
\pgfsyspdfmark {pgfid241}{28087439}{38931197}
\pgfsyspdfmark {pgfid242}{6381917}{36982804}
\pgfsyspdfmark {pgfid243}{6381917}{35968965}
\pgfsyspdfmark {pgfid244}{14193807}{35968965}
\pgfsyspdfmark {pgfid245}{28087439}{35968965}
\pgfsyspdfmark {pgfid246}{6381917}{34020572}
\pgfsyspdfmark {pgfid247}{6381917}{33006733}
\pgfsyspdfmark {pgfid248}{6617846}{33006733}
\pgfsyspdfmark {pgfid249}{14193807}{33006733}
\pgfsyspdfmark {pgfid250}{28087439}{33006733}
\pgfsyspdfmark {pgfid251}{6381917}{32572224}
\pgfsyspdfmark {pgfid252}{6381917}{31558385}
\pgfsyspdfmark {pgfid253}{14193807}{31558385}
\pgfsyspdfmark {pgfid254}{28087439}{31558385}
\pgfsyspdfmark {pgfid255}{6381917}{29609992}
\pgfsyspdfmark {pgfid256}{6381917}{28596153}
\pgfsyspdfmark {pgfid257}{6617846}{28596153}
\pgfsyspdfmark {pgfid258}{14193807}{28596153}
\pgfsyspdfmark {pgfid259}{28087439}{28596153}
\pgfsyspdfmark {pgfid260}{6381917}{26647760}
\pgfsyspdfmark {pgfid261}{6381917}{25633921}
\pgfsyspdfmark {pgfid262}{14193807}{25633921}
\pgfsyspdfmark {pgfid263}{28087439}{25633921}
\pgfsyspdfmark {pgfid264}{6381917}{21734680}
\pgfsyspdfmark {pgfid265}{6381917}{20720841}
\pgfsyspdfmark {pgfid266}{14193807}{20720841}
\pgfsyspdfmark {pgfid267}{28087439}{20720841}
\pgfsyspdfmark {pgfid268}{6381917}{18772448}
\pgfsyspdfmark {pgfid269}{6381917}{17758609}
\pgfsyspdfmark {pgfid270}{6617846}{17758609}
\pgfsyspdfmark {pgfid271}{14193807}{17758609}
\pgfsyspdfmark {pgfid272}{28087439}{17758609}
\pgfsyspdfmark {pgfid273}{6381917}{15013570}
\pgfsyspdfmark {pgfid274}{6381917}{13999731}
\pgfsyspdfmark {pgfid275}{14193807}{13999731}
\pgfsyspdfmark {pgfid276}{28087439}{13999731}
\pgfsyspdfmark {pgfid277}{6381917}{11336998}
\pgfsyspdfmark {pgfid278}{6381917}{10323159}
\pgfsyspdfmark {pgfid279}{6617846}{10323159}
\pgfsyspdfmark {pgfid280}{14193807}{10323159}
\pgfsyspdfmark {pgfid281}{28087439}{10323159}
\pgfsyspdfmark {pgfid282}{6381917}{7493333}
\pgfsyspdfmark {pgfid283}{6381917}{6479494}
\pgfsyspdfmark {pgfid284}{6381917}{6044985}
\pgfsyspdfmark {pgfid285}{6381917}{5876151}
\pgfsyspdfmark {pgfid286}{6381917}{5800652}
\pgfsyspdfmark {pgfid287}{7246991}{5800652}
\pgfsyspdfmark {pgfid288}{21140623}{5800652}
\pgfsyspdfmark {pgfid289}{34641039}{5800652}
\savepicturepage{pgfid290}{8}
\pgfsyspdfmark {pgfid290}{34641039}{27605476}
\@writefile{toc}{\defcounter {refsection}{0}\relax }\@writefile{toc}{\contentsline {section}{\numberline {2.4}Assignment IV}{9}{section.2.4}\protected@file@percent }
\@writefile{lot}{\defcounter {refsection}{0}\relax }\@writefile{lot}{\contentsline {table}{\numberline {2.5}{\ignorespaces Assignment IV part 1\relax }}{9}{table.caption.6}\protected@file@percent }
\newlabel{Assignment IV part 1}{{2.5}{9}{Assignment IV part 1\relax }{table.caption.6}{}}
\pgfsyspdfmark {pgfid291}{6381917}{43632836}
\pgfsyspdfmark {pgfid292}{6381917}{43632836}
\pgfsyspdfmark {pgfid293}{6381917}{42269141}
\pgfsyspdfmark {pgfid294}{14193807}{42269141}
\pgfsyspdfmark {pgfid295}{28087439}{42269141}
\pgfsyspdfmark {pgfid296}{6381917}{41834632}
\pgfsyspdfmark {pgfid297}{6381917}{41665798}
\pgfsyspdfmark {pgfid298}{6381917}{40371048}
\pgfsyspdfmark {pgfid299}{6617846}{40371048}
\pgfsyspdfmark {pgfid300}{14193807}{40371048}
\pgfsyspdfmark {pgfid301}{28087439}{40371048}
\pgfsyspdfmark {pgfid302}{6381917}{38422655}
\pgfsyspdfmark {pgfid303}{6381917}{37408816}
\pgfsyspdfmark {pgfid304}{6617846}{37408816}
\pgfsyspdfmark {pgfid305}{14193807}{37408816}
\pgfsyspdfmark {pgfid306}{28087439}{37408816}
\pgfsyspdfmark {pgfid307}{6381917}{34578990}
\pgfsyspdfmark {pgfid308}{6381917}{33565151}
\pgfsyspdfmark {pgfid309}{6617846}{33565151}
\pgfsyspdfmark {pgfid310}{14193807}{33565151}
\pgfsyspdfmark {pgfid311}{28087439}{33565151}
\pgfsyspdfmark {pgfid312}{6381917}{31616758}
\pgfsyspdfmark {pgfid313}{6381917}{30602919}
\pgfsyspdfmark {pgfid314}{6617846}{30602919}
\pgfsyspdfmark {pgfid315}{14193807}{30602919}
\pgfsyspdfmark {pgfid316}{28087439}{30602919}
\pgfsyspdfmark {pgfid317}{6381917}{27773093}
\pgfsyspdfmark {pgfid318}{6381917}{26759254}
\pgfsyspdfmark {pgfid319}{6617846}{26759254}
\pgfsyspdfmark {pgfid320}{14193807}{26759254}
\pgfsyspdfmark {pgfid321}{28087439}{26759254}
\pgfsyspdfmark {pgfid322}{6381917}{23927584}
\pgfsyspdfmark {pgfid323}{6381917}{22913745}
\pgfsyspdfmark {pgfid324}{6617846}{22913745}
\pgfsyspdfmark {pgfid325}{14193807}{22913745}
\pgfsyspdfmark {pgfid326}{28087439}{22913745}
\pgfsyspdfmark {pgfid327}{6381917}{20965352}
\pgfsyspdfmark {pgfid328}{6381917}{19951513}
\pgfsyspdfmark {pgfid329}{6381917}{19517004}
\pgfsyspdfmark {pgfid330}{6381917}{19348170}
\pgfsyspdfmark {pgfid331}{6381917}{19272671}
\pgfsyspdfmark {pgfid332}{7246991}{19272671}
\pgfsyspdfmark {pgfid333}{21140623}{19272671}
\pgfsyspdfmark {pgfid334}{34641039}{19272671}
\savepicturepage{pgfid335}{9}
\pgfsyspdfmark {pgfid335}{34641039}{31216824}
\@writefile{lot}{\defcounter {refsection}{0}\relax }\@writefile{lot}{\contentsline {table}{\numberline {2.6}{\ignorespaces Assignment IV part 2\relax }}{10}{table.caption.7}\protected@file@percent }
\newlabel{Assignment IV part 2}{{2.6}{10}{Assignment IV part 2\relax }{table.caption.7}{}}
\pgfsyspdfmark {pgfid336}{6145987}{49882159}
\pgfsyspdfmark {pgfid337}{6145987}{49882159}
\pgfsyspdfmark {pgfid338}{6145987}{48518464}
\pgfsyspdfmark {pgfid339}{6421222}{48518464}
\pgfsyspdfmark {pgfid340}{14429737}{48518464}
\pgfsyspdfmark {pgfid341}{28323369}{48518464}
\pgfsyspdfmark {pgfid342}{6145987}{44572682}
\pgfsyspdfmark {pgfid343}{6145987}{43558843}
\pgfsyspdfmark {pgfid344}{6381916}{43558843}
\pgfsyspdfmark {pgfid345}{14429737}{43558843}
\pgfsyspdfmark {pgfid346}{28323369}{43558843}
\pgfsyspdfmark {pgfid347}{6145987}{40727173}
\pgfsyspdfmark {pgfid348}{6145987}{39713334}
\pgfsyspdfmark {pgfid349}{6381916}{39713334}
\pgfsyspdfmark {pgfid350}{14429737}{39713334}
\pgfsyspdfmark {pgfid351}{28323369}{39713334}
\pgfsyspdfmark {pgfid352}{6145987}{36881664}
\pgfsyspdfmark {pgfid353}{6145987}{35867825}
\pgfsyspdfmark {pgfid354}{6617846}{35867825}
\pgfsyspdfmark {pgfid355}{14429737}{35867825}
\pgfsyspdfmark {pgfid356}{28323369}{35867825}
\pgfsyspdfmark {pgfid357}{6145987}{33036155}
\pgfsyspdfmark {pgfid358}{6145987}{32022316}
\pgfsyspdfmark {pgfid359}{6617846}{32022316}
\pgfsyspdfmark {pgfid360}{14429737}{32022316}
\pgfsyspdfmark {pgfid361}{28323369}{32022316}
\pgfsyspdfmark {pgfid362}{6145987}{30073923}
\pgfsyspdfmark {pgfid363}{6145987}{29060084}
\pgfsyspdfmark {pgfid364}{6617846}{29060084}
\pgfsyspdfmark {pgfid365}{14429737}{29060084}
\pgfsyspdfmark {pgfid366}{28323369}{29060084}
\pgfsyspdfmark {pgfid367}{6145987}{25114302}
\pgfsyspdfmark {pgfid368}{6145987}{24945468}
\pgfsyspdfmark {pgfid369}{6145987}{24869969}
\pgfsyspdfmark {pgfid370}{7482921}{24869969}
\pgfsyspdfmark {pgfid371}{21376553}{24869969}
\pgfsyspdfmark {pgfid372}{34876969}{24869969}
\savepicturepage{pgfid373}{10}
\pgfsyspdfmark {pgfid373}{34876969}{37140135}
\@writefile{toc}{\defcounter {refsection}{0}\relax }\@writefile{toc}{\contentsline {section}{\numberline {2.5}Vocabulary Test}{11}{section.2.5}\protected@file@percent }
\@writefile{lot}{\defcounter {refsection}{0}\relax }\@writefile{lot}{\contentsline {table}{\numberline {2.7}{\ignorespaces Vocabulary Test, part 1\relax }}{11}{table.caption.8}\protected@file@percent }
\newlabel{Vocabulary Test, part 1}{{2.7}{11}{Vocabulary Test, part 1\relax }{table.caption.8}{}}
\pgfsyspdfmark {pgfid374}{6381917}{44832861}
\pgfsyspdfmark {pgfid375}{6381917}{44832861}
\pgfsyspdfmark {pgfid376}{6381917}{43469166}
\pgfsyspdfmark {pgfid377}{14193807}{43469166}
\pgfsyspdfmark {pgfid378}{28087439}{43469166}
\pgfsyspdfmark {pgfid379}{6381917}{43034657}
\pgfsyspdfmark {pgfid380}{6381917}{42865823}
\pgfsyspdfmark {pgfid381}{6381917}{41571073}
\pgfsyspdfmark {pgfid382}{6617846}{41571073}
\pgfsyspdfmark {pgfid383}{14193807}{41571073}
\pgfsyspdfmark {pgfid384}{28087439}{41571073}
\pgfsyspdfmark {pgfid385}{6381917}{35398911}
\pgfsyspdfmark {pgfid386}{6381917}{34385072}
\pgfsyspdfmark {pgfid387}{6617846}{34385072}
\pgfsyspdfmark {pgfid388}{14193807}{34385072}
\pgfsyspdfmark {pgfid389}{28087439}{34385072}
\pgfsyspdfmark {pgfid390}{6381917}{29327022}
\pgfsyspdfmark {pgfid391}{6381917}{28313183}
\pgfsyspdfmark {pgfid392}{6617846}{28313183}
\pgfsyspdfmark {pgfid393}{14193807}{28313183}
\pgfsyspdfmark {pgfid394}{28087439}{28313183}
\pgfsyspdfmark {pgfid395}{6381917}{25483357}
\pgfsyspdfmark {pgfid396}{6381917}{24469518}
\pgfsyspdfmark {pgfid397}{6617846}{24469518}
\pgfsyspdfmark {pgfid398}{14193807}{24469518}
\pgfsyspdfmark {pgfid399}{28087439}{24469518}
\pgfsyspdfmark {pgfid400}{6381917}{20525580}
\pgfsyspdfmark {pgfid401}{6381917}{19511741}
\pgfsyspdfmark {pgfid402}{6617846}{19511741}
\pgfsyspdfmark {pgfid403}{14193807}{19511741}
\pgfsyspdfmark {pgfid404}{28087439}{19511741}
\pgfsyspdfmark {pgfid405}{6381917}{13337735}
\pgfsyspdfmark {pgfid406}{6381917}{12323896}
\pgfsyspdfmark {pgfid407}{6617846}{12323896}
\pgfsyspdfmark {pgfid408}{14193807}{12323896}
\pgfsyspdfmark {pgfid409}{28087439}{12323896}
\pgfsyspdfmark {pgfid410}{6381917}{8378114}
\pgfsyspdfmark {pgfid411}{6381917}{8209280}
\pgfsyspdfmark {pgfid412}{6381917}{8133781}
\pgfsyspdfmark {pgfid413}{7246991}{8133781}
\pgfsyspdfmark {pgfid414}{21140623}{8133781}
\pgfsyspdfmark {pgfid415}{34641039}{8133781}
\savepicturepage{pgfid416}{11}
\pgfsyspdfmark {pgfid416}{34641039}{26247392}
\@writefile{lot}{\defcounter {refsection}{0}\relax }\@writefile{lot}{\contentsline {table}{\numberline {2.8}{\ignorespaces Vocabulary Test, part 2\relax }}{12}{table.caption.9}\protected@file@percent }
\newlabel{Vocabulary Test, part 2}{{2.8}{12}{Vocabulary Test, part 2\relax }{table.caption.9}{}}
\pgfsyspdfmark {pgfid417}{6145987}{49882159}
\pgfsyspdfmark {pgfid418}{6145987}{49882159}
\pgfsyspdfmark {pgfid419}{6145987}{48518464}
\pgfsyspdfmark {pgfid420}{14429737}{48518464}
\pgfsyspdfmark {pgfid421}{28323369}{48518464}
\pgfsyspdfmark {pgfid422}{6145987}{48083955}
\pgfsyspdfmark {pgfid423}{6145987}{47915121}
\pgfsyspdfmark {pgfid424}{6145987}{46620371}
\pgfsyspdfmark {pgfid425}{6381916}{46620371}
\pgfsyspdfmark {pgfid426}{14429737}{46620371}
\pgfsyspdfmark {pgfid427}{28323369}{46620371}
\pgfsyspdfmark {pgfid428}{6145987}{42676433}
\pgfsyspdfmark {pgfid429}{6145987}{41662594}
\pgfsyspdfmark {pgfid430}{6381916}{41662594}
\pgfsyspdfmark {pgfid431}{14429737}{41662594}
\pgfsyspdfmark {pgfid432}{28323369}{41662594}
\pgfsyspdfmark {pgfid433}{6145987}{38830924}
\pgfsyspdfmark {pgfid434}{6145987}{37817085}
\pgfsyspdfmark {pgfid435}{6381916}{37817085}
\pgfsyspdfmark {pgfid436}{14429737}{37817085}
\pgfsyspdfmark {pgfid437}{28323369}{37817085}
\pgfsyspdfmark {pgfid438}{6145987}{35072046}
\pgfsyspdfmark {pgfid439}{6145987}{34058207}
\pgfsyspdfmark {pgfid440}{6617846}{34058207}
\pgfsyspdfmark {pgfid441}{14429737}{34058207}
\pgfsyspdfmark {pgfid442}{28323369}{34058207}
\pgfsyspdfmark {pgfid443}{6145987}{31313168}
\pgfsyspdfmark {pgfid444}{6145987}{30299329}
\pgfsyspdfmark {pgfid445}{6617846}{30299329}
\pgfsyspdfmark {pgfid446}{14429737}{30299329}
\pgfsyspdfmark {pgfid447}{28323369}{30299329}
\pgfsyspdfmark {pgfid448}{6145987}{27467659}
\pgfsyspdfmark {pgfid449}{6145987}{26453820}
\pgfsyspdfmark {pgfid450}{6617846}{26453820}
\pgfsyspdfmark {pgfid451}{14429737}{26453820}
\pgfsyspdfmark {pgfid452}{28323369}{26453820}
\pgfsyspdfmark {pgfid453}{6145987}{22508038}
\pgfsyspdfmark {pgfid454}{6145987}{21494199}
\pgfsyspdfmark {pgfid455}{6617846}{21494199}
\pgfsyspdfmark {pgfid456}{14429737}{21494199}
\pgfsyspdfmark {pgfid457}{28323369}{21494199}
\pgfsyspdfmark {pgfid458}{6145987}{16436149}
\pgfsyspdfmark {pgfid459}{6145987}{16267315}
\pgfsyspdfmark {pgfid460}{6145987}{16191816}
\pgfsyspdfmark {pgfid461}{7482921}{16191816}
\pgfsyspdfmark {pgfid462}{21376553}{16191816}
\pgfsyspdfmark {pgfid463}{34876969}{16191816}
\savepicturepage{pgfid464}{12}
\pgfsyspdfmark {pgfid464}{34876969}{32801058}
\pp@pagectr{footnote}{3}{13}{13}
\@writefile{toc}{\defcounter {refsection}{0}\relax }\@writefile{toc}{\contentsline {chapter}{\numberline {3}Infotech Workbook}{13}{chapter.3}\protected@file@percent }
\@writefile{lof}{\defcounter {refsection}{0}\relax }\@writefile{lof}{\addvspace {10\p@ }}
\@writefile{lot}{\defcounter {refsection}{0}\relax }\@writefile{lot}{\addvspace {10\p@ }}
\@writefile{toc}{\defcounter {refsection}{0}\relax }\@writefile{toc}{\contentsline {section}{\numberline {3.1}Exercise 1}{13}{section.3.1}\protected@file@percent }
\@writefile{toc}{\defcounter {refsection}{0}\relax }\@writefile{toc}{\contentsline {section}{\numberline {3.2}Exercise 2}{14}{section.3.2}\protected@file@percent }
\@writefile{toc}{\defcounter {refsection}{0}\relax }\@writefile{toc}{\contentsline {section}{\numberline {3.3}Exercise 3}{15}{section.3.3}\protected@file@percent }
\@writefile{lot}{\defcounter {refsection}{0}\relax }\@writefile{lot}{\contentsline {table}{\numberline {3.1}{\ignorespaces Exercise 3\relax }}{15}{table.caption.10}\protected@file@percent }
\newlabel{Exercise 3}{{3.1}{15}{Exercise 3\relax }{table.caption.10}{}}
\pgfsyspdfmark {pgfid465}{7011062}{43632836}
\pgfsyspdfmark {pgfid466}{7011062}{43632836}
\pgfsyspdfmark {pgfid467}{7011062}{42269141}
\pgfsyspdfmark {pgfid468}{13564662}{42269141}
\pgfsyspdfmark {pgfid469}{27458294}{42269141}
\pgfsyspdfmark {pgfid470}{7011062}{41834632}
\pgfsyspdfmark {pgfid471}{7011062}{41665798}
\pgfsyspdfmark {pgfid472}{7011062}{40371048}
\pgfsyspdfmark {pgfid473}{13564662}{40371048}
\pgfsyspdfmark {pgfid474}{27458294}{40371048}
\pgfsyspdfmark {pgfid475}{7011062}{39936539}
\pgfsyspdfmark {pgfid476}{7011062}{38922700}
\pgfsyspdfmark {pgfid477}{13564662}{38922700}
\pgfsyspdfmark {pgfid478}{27458294}{38922700}
\pgfsyspdfmark {pgfid479}{7011062}{38488191}
\pgfsyspdfmark {pgfid480}{7011062}{37474352}
\pgfsyspdfmark {pgfid481}{13564662}{37474352}
\pgfsyspdfmark {pgfid482}{27458294}{37474352}
\pgfsyspdfmark {pgfid483}{7011062}{37039843}
\pgfsyspdfmark {pgfid484}{7011062}{36026004}
\pgfsyspdfmark {pgfid485}{13564662}{36026004}
\pgfsyspdfmark {pgfid486}{27458294}{36026004}
\pgfsyspdfmark {pgfid487}{7011062}{35591495}
\pgfsyspdfmark {pgfid488}{7011062}{35422661}
\pgfsyspdfmark {pgfid489}{7011062}{35347162}
\pgfsyspdfmark {pgfid490}{20511478}{35347162}
\pgfsyspdfmark {pgfid491}{34011894}{35347162}
\savepicturepage{pgfid492}{15}
\pgfsyspdfmark {pgfid492}{34011894}{39254070}
\@writefile{toc}{\defcounter {refsection}{0}\relax }\@writefile{toc}{\contentsline {section}{\numberline {3.4}Exercise 4}{16}{section.3.4}\protected@file@percent }
\@writefile{toc}{\defcounter {refsection}{0}\relax }\@writefile{toc}{\contentsline {section}{\numberline {3.5}Exercise 5}{17}{section.3.5}\protected@file@percent }
\newlabel{LastPage}{{}{17}{}{page.17}{}}
\xdef\lastpage@lastpage{17}
\xdef\lastpage@lastpageHy{17}
