\relax 
\providecommand\hyper@newdestlabel[2]{}
\providecommand\babel@aux[2]{}
\@nameuse{bbl@beforestart}
\catcode `"\active 
\nicematrix@redefine@check@rerun 
\@writefile{toc}{\boolfalse {citerequest}\boolfalse {citetracker}\boolfalse {pagetracker}\boolfalse {backtracker}\relax }
\@writefile{lof}{\boolfalse {citerequest}\boolfalse {citetracker}\boolfalse {pagetracker}\boolfalse {backtracker}\relax }
\@writefile{lot}{\boolfalse {citerequest}\boolfalse {citetracker}\boolfalse {pagetracker}\boolfalse {backtracker}\relax }
\abx@aux@refcontext{nty/global//global/global}
\providecommand\HyperFirstAtBeginDocument{\AtBeginDocument}
\HyperFirstAtBeginDocument{\ifx\hyper@anchor\@undefined
\global\let\oldcontentsline\contentsline
\gdef\contentsline#1#2#3#4{\oldcontentsline{#1}{#2}{#3}}
\global\let\oldnewlabel\newlabel
\gdef\newlabel#1#2{\newlabelxx{#1}#2}
\gdef\newlabelxx#1#2#3#4#5#6{\oldnewlabel{#1}{{#2}{#3}}}
\AtEndDocument{\ifx\hyper@anchor\@undefined
\let\contentsline\oldcontentsline
\let\newlabel\oldnewlabel
\fi}
\fi}
\global\let\hyper@last\relax 
\gdef\HyperFirstAtBeginDocument#1{#1}
\providecommand\HyField@AuxAddToFields[1]{}
\providecommand\HyField@AuxAddToCoFields[2]{}
\providecommand\@newglossary[4]{}
\@newglossary{main}{glg}{gls}{glo}
\providecommand\@glsorder[1]{}
\providecommand\@istfilename[1]{}
\@istfilename{second.xdy}
\@glsorder{word}
\babel@aux{russian}{}
\@writefile{toc}{\defcounter {refsection}{0}\relax }\@writefile{toc}{\contentsline {section}{\numberline {1}Задача 1}{2}{section.1}\protected@file@percent }
\newlabel{fist:Задача 1}{{1}{2}{Задача 1}{section.1}{}}
\@writefile{lomylisting}{\defcounter {refsection}{0}\relax }\@writefile{lomylisting}{\contentsline {mylisting}{\numberline {1.1}{\ignorespaces Задача 1\relax }}{2}{mylisting.1.1}\protected@file@percent }
\@writefile{toc}{\defcounter {refsection}{0}\relax }\@writefile{toc}{\contentsline {section}{\numberline {2}Задача 2}{5}{section.2}\protected@file@percent }
\newlabel{fist:Задача 2}{{2}{5}{Задача 2}{section.2}{}}
\@writefile{lomylisting}{\defcounter {refsection}{0}\relax }\@writefile{lomylisting}{\contentsline {mylisting}{\numberline {2.1}{\ignorespaces Задача 2\relax }}{5}{mylisting.2.1}\protected@file@percent }
\@writefile{toc}{\defcounter {refsection}{0}\relax }\@writefile{toc}{\contentsline {section}{\numberline {3}Задача 3}{8}{section.3}\protected@file@percent }
\newlabel{fist:Задача 3}{{3}{8}{Задача 3}{section.3}{}}
\@writefile{lomylisting}{\defcounter {refsection}{0}\relax }\@writefile{lomylisting}{\contentsline {mylisting}{\numberline {3.1}{\ignorespaces Задача 3\relax }}{8}{mylisting.3.1}\protected@file@percent }
\@writefile{toc}{\defcounter {refsection}{0}\relax }\@writefile{toc}{\contentsline {section}{\numberline {4}Задача 4}{11}{section.4}\protected@file@percent }
\newlabel{fist:Задача 4}{{4}{11}{Задача 4}{section.4}{}}
\@writefile{lomylisting}{\defcounter {refsection}{0}\relax }\@writefile{lomylisting}{\contentsline {mylisting}{\numberline {4.1}{\ignorespaces Задача 4\relax }}{11}{mylisting.4.1}\protected@file@percent }
\@writefile{toc}{\defcounter {refsection}{0}\relax }\@writefile{toc}{\contentsline {section}{\numberline {5}Задача 5}{14}{section.5}\protected@file@percent }
\newlabel{fist:Задача 5}{{5}{14}{Задача 5}{section.5}{}}
\@writefile{lomylisting}{\defcounter {refsection}{0}\relax }\@writefile{lomylisting}{\contentsline {mylisting}{\numberline {5.1}{\ignorespaces Задача 5\relax }}{14}{mylisting.5.1}\protected@file@percent }
\@writefile{toc}{\defcounter {refsection}{0}\relax }\@writefile{toc}{\contentsline {section}{\numberline {6}Вывод}{17}{section.6}\protected@file@percent }
\gdef\minted@oldcachelist{,
  default-pyg-prefix.pygstyle,
  default.pygstyle,
  D13DBFDE8DA5583912D3242691406E30FC1733610DDCA86AFDAA9C4F7B5EBEB8.pygtex,
  B5397B9AAADFE241B4FCE078F3164D39FC1733610DDCA86AFDAA9C4F7B5EBEB8.pygtex,
  3F14FDEDFE02F4ACAB9721ADA26F9A95FC1733610DDCA86AFDAA9C4F7B5EBEB8.pygtex,
  6656596EEC155590A2D6FD77E6598327FC1733610DDCA86AFDAA9C4F7B5EBEB8.pygtex,
  3FCD1D0701C157EDF434DE139B8837F4FC1733610DDCA86AFDAA9C4F7B5EBEB8.pygtex}
\blx@aux@read@bbl@mdfivesum{nobblfile}
\newlabel{LastPage}{{}{19}{}{page.19}{}}
\xdef\lastpage@lastpage{19}
\xdef\lastpage@lastpageHy{19}
\gdef \@abspage@last{19}
