\boolfalse {citerequest}\boolfalse {citetracker}\boolfalse {pagetracker}\boolfalse {backtracker}\relax 
\babel@toc {russian}{}
\defcounter {refsection}{0}\relax 
\contentsline {section}{\numberline {1}Задача 1}{2}{section.1}%
\defcounter {refsection}{0}\relax 
\contentsline {section}{\numberline {2}Задача 2}{5}{section.2}%
\defcounter {refsection}{0}\relax 
\contentsline {section}{\numberline {3}Задача 3}{8}{section.3}%
\defcounter {refsection}{0}\relax 
\contentsline {section}{\numberline {4}Задача 4}{11}{section.4}%
\defcounter {refsection}{0}\relax 
\contentsline {section}{\numberline {5}Задача 5}{14}{section.5}%
\defcounter {refsection}{0}\relax 
\contentsline {section}{\numberline {6}Вывод}{17}{section.6}%
