\relax 
\providecommand\hyper@newdestlabel[2]{}
\providecommand\HyperFirstAtBeginDocument{\AtBeginDocument}
\HyperFirstAtBeginDocument{\ifx\hyper@anchor\@undefined
\global\let\oldcontentsline\contentsline
\gdef\contentsline#1#2#3#4{\oldcontentsline{#1}{#2}{#3}}
\global\let\oldnewlabel\newlabel
\gdef\newlabel#1#2{\newlabelxx{#1}#2}
\gdef\newlabelxx#1#2#3#4#5#6{\oldnewlabel{#1}{{#2}{#3}}}
\AtEndDocument{\ifx\hyper@anchor\@undefined
\let\contentsline\oldcontentsline
\let\newlabel\oldnewlabel
\fi}
\fi}
\global\let\hyper@last\relax 
\gdef\HyperFirstAtBeginDocument#1{#1}
\providecommand\HyField@AuxAddToFields[1]{}
\providecommand\HyField@AuxAddToCoFields[2]{}
\providecommand\babel@aux[2]{}
\@nameuse{bbl@beforestart}
\catcode `"\active 
\nicematrix@redefine@check@rerun 
\babel@aux{russian}{}
\@writefile{nav}{\headcommand {\slideentry {0}{0}{1}{1/1}{}{0}}}
\@writefile{nav}{\headcommand {\beamer@framepages {1}{1}}}
\@writefile{toc}{\beamer@sectionintoc {1}{Системы координат на двумерном пространстве}{2}{0}{1}}
\@writefile{nav}{\headcommand {\beamer@sectionpages {1}{1}}}
\@writefile{nav}{\headcommand {\beamer@subsectionpages {1}{1}}}
\@writefile{nav}{\headcommand {\sectionentry {1}{Системы координат на двумерном пространстве}{2}{Системы координат на двумерном пространстве}{0}}}
\@writefile{nav}{\headcommand {\slideentry {1}{0}{1}{2/2}{}{0}}}
\@writefile{nav}{\headcommand {\beamer@framepages {2}{2}}}
\@writefile{toc}{\beamer@subsectionintoc {1}{1}{Прямоугольная система координат}{3}{0}{1}}
\@writefile{nav}{\headcommand {\beamer@subsectionpages {2}{2}}}
\@writefile{nav}{\headcommand {\beamer@subsectionentry {0}{1}{1}{3}{Прямоугольная система координат}}}
\@writefile{nav}{\headcommand {\slideentry {1}{1}{1}{3/3}{Прямоугольная система координат}{0}}}
\@writefile{nav}{\headcommand {\beamer@framepages {3}{3}}}
\newlabel{plot:x^2+6x+7}{{4}{4}{Прямоугольная система координат}{Doc-Start}{}}
\@writefile{snm}{\beamer@slide {plot:x^2+6x+7}{4}}
\@writefile{nav}{\headcommand {\slideentry {1}{1}{2}{4/4}{Прямоугольная система координат}{0}}}
\@writefile{nav}{\headcommand {\beamer@framepages {4}{4}}}
\newlabel{plot:x^2+6x+7}{{5}{5}{Прямоугольная система координат}{Doc-Start}{}}
\@writefile{snm}{\beamer@slide {plot:x^2+6x+7}{5}}
\@writefile{nav}{\headcommand {\slideentry {1}{1}{3}{5/5}{Прямоугольная система координат}{0}}}
\@writefile{nav}{\headcommand {\beamer@framepages {5}{5}}}
\newlabel{plot:ln x}{{6}{6}{Прямоугольная система координат}{Doc-Start}{}}
\@writefile{snm}{\beamer@slide {plot:ln x}{6}}
\newlabel{plot:ln x}{{6}{6}{Прямоугольная система координат}{Doc-Start}{}}
\@writefile{snm}{\beamer@slide {plot:ln x}{6}}
\@writefile{nav}{\headcommand {\slideentry {1}{1}{4}{6/6}{Прямоугольная система координат}{0}}}
\@writefile{nav}{\headcommand {\beamer@framepages {6}{6}}}
\@writefile{toc}{\beamer@subsectionintoc {1}{2}{Полярная система координат}{7}{0}{1}}
\@writefile{nav}{\headcommand {\beamer@subsectionpages {3}{6}}}
\@writefile{nav}{\headcommand {\beamer@subsectionentry {0}{1}{2}{7}{Полярная система координат}}}
\@writefile{nav}{\headcommand {\slideentry {1}{2}{1}{7/7}{Полярная система координат}{0}}}
\@writefile{nav}{\headcommand {\beamer@framepages {7}{7}}}
\newlabel{plot:pi/3}{{8}{8}{Полярная система координат}{Doc-Start}{}}
\@writefile{snm}{\beamer@slide {plot:pi/3}{8}}
\@writefile{nav}{\headcommand {\slideentry {1}{2}{2}{8/8}{Полярная система координат}{0}}}
\@writefile{nav}{\headcommand {\beamer@framepages {8}{8}}}
\@writefile{nav}{\headcommand {\slideentry {1}{2}{3}{9/9}{Полярная система координат}{0}}}
\@writefile{nav}{\headcommand {\beamer@framepages {9}{9}}}
\newlabel{plot:r=9}{{10}{10}{Полярная система координат}{Doc-Start}{}}
\@writefile{snm}{\beamer@slide {plot:r=9}{10}}
\@writefile{nav}{\headcommand {\slideentry {1}{2}{4}{10/10}{Полярная система координат}{0}}}
\@writefile{nav}{\headcommand {\beamer@framepages {10}{10}}}
\@writefile{toc}{\beamer@subsectionintoc {1}{3}{Параметрическое представление}{11}{0}{1}}
\@writefile{nav}{\headcommand {\beamer@subsectionpages {7}{10}}}
\@writefile{nav}{\headcommand {\beamer@subsectionentry {0}{1}{3}{11}{Параметрическое представление}}}
\newlabel{plot:Параметрическое}{{11}{11}{Параметрическое представление}{Doc-Start}{}}
\@writefile{snm}{\beamer@slide {plot:Параметрическое}{11}}
\@writefile{nav}{\headcommand {\slideentry {1}{3}{1}{11/11}{Параметрическое представление}{0}}}
\@writefile{nav}{\headcommand {\beamer@framepages {11}{11}}}
\@writefile{toc}{\beamer@sectionintoc {2}{Системы координат на трёхмерном пространстве}{12}{0}{2}}
\@writefile{nav}{\headcommand {\beamer@sectionpages {2}{11}}}
\@writefile{nav}{\headcommand {\beamer@subsectionpages {11}{11}}}
\@writefile{nav}{\headcommand {\sectionentry {2}{Системы координат на трёхмерном пространстве}{12}{Системы координат на трёхмерном пространстве}{0}}}
\@writefile{toc}{\beamer@subsectionintoc {2}{1}{Декартова трёхмерная система координат}{12}{0}{2}}
\@writefile{nav}{\headcommand {\beamer@subsectionpages {12}{11}}}
\@writefile{nav}{\headcommand {\beamer@subsectionentry {0}{2}{1}{12}{Декартова трёхмерная система координат}}}
\newlabel{plot:Праметрическое}{{12}{12}{Декартова трёхмерная система координат}{Doc-Start}{}}
\@writefile{snm}{\beamer@slide {plot:Праметрическое}{12}}
\@writefile{nav}{\headcommand {\slideentry {2}{1}{1}{12/12}{Декартова трёхмерная система координат}{0}}}
\@writefile{nav}{\headcommand {\beamer@framepages {12}{12}}}
\@writefile{toc}{\beamer@subsectionintoc {2}{2}{Цилиндрическая система координат}{13}{0}{2}}
\@writefile{nav}{\headcommand {\beamer@subsectionpages {12}{12}}}
\@writefile{nav}{\headcommand {\beamer@subsectionentry {0}{2}{2}{13}{Цилиндрическая система координат}}}
\@writefile{nav}{\headcommand {\slideentry {2}{2}{1}{13/13}{Цилиндрическая система координат}{0}}}
\@writefile{nav}{\headcommand {\beamer@framepages {13}{13}}}
\@writefile{nav}{\headcommand {\slideentry {2}{2}{2}{14/14}{Цилиндрическая система координат}{0}}}
\@writefile{nav}{\headcommand {\beamer@framepages {14}{14}}}
\@writefile{toc}{\beamer@subsectionintoc {2}{3}{Сферическая система координат}{15}{0}{2}}
\@writefile{nav}{\headcommand {\beamer@subsectionpages {13}{14}}}
\@writefile{nav}{\headcommand {\beamer@subsectionentry {0}{2}{3}{15}{Сферическая система координат}}}
\@writefile{nav}{\headcommand {\slideentry {2}{3}{1}{15/15}{Сферическая система координат}{0}}}
\@writefile{nav}{\headcommand {\beamer@framepages {15}{15}}}
\@writefile{nav}{\headcommand {\slideentry {2}{3}{2}{16/16}{Сферическая система координат}{0}}}
\@writefile{nav}{\headcommand {\beamer@framepages {16}{16}}}
\@writefile{nav}{\headcommand {\slideentry {2}{3}{3}{17/17}{Сферическая система координат}{0}}}
\@writefile{nav}{\headcommand {\beamer@framepages {17}{17}}}
\@writefile{toc}{\beamer@sectionintoc {3}{Многомерные системы координат}{18}{0}{3}}
\@writefile{nav}{\headcommand {\beamer@sectionpages {12}{17}}}
\@writefile{nav}{\headcommand {\beamer@subsectionpages {15}{17}}}
\@writefile{nav}{\headcommand {\sectionentry {3}{Многомерные системы координат}{18}{Многомерные системы координат}{0}}}
\@writefile{toc}{\beamer@subsectionintoc {3}{1}{Аффинная система координат}{18}{0}{3}}
\@writefile{nav}{\headcommand {\beamer@subsectionpages {18}{17}}}
\@writefile{nav}{\headcommand {\beamer@subsectionentry {0}{3}{1}{18}{Аффинная система координат}}}
\@writefile{nav}{\headcommand {\slideentry {3}{1}{1}{18/18}{Аффинная система координат}{0}}}
\@writefile{nav}{\headcommand {\beamer@framepages {18}{18}}}
\@writefile{nav}{\headcommand {\slideentry {3}{1}{2}{19/19}{Аффинная система координат}{0}}}
\@writefile{nav}{\headcommand {\beamer@framepages {19}{19}}}
\@writefile{nav}{\headcommand {\beamer@partpages {1}{19}}}
\@writefile{nav}{\headcommand {\beamer@subsectionpages {18}{19}}}
\@writefile{nav}{\headcommand {\beamer@sectionpages {18}{19}}}
\@writefile{nav}{\headcommand {\beamer@documentpages {19}}}
\@writefile{nav}{\headcommand {\gdef \inserttotalframenumber {19}}}
\gdef \@abspage@last{19}
