\boolfalse {citerequest}\boolfalse {citetracker}\boolfalse {pagetracker}\boolfalse {backtracker}\relax 
\babel@toc {russian}{}
\defcounter {refsection}{0}\relax 
\beamer@sectionintoc {1}{Общик сведения}{2}{0}{1}
\defcounter {refsection}{0}\relax 
\beamer@subsectionintoc {1}{1}{Определения}{2}{0}{1}
\defcounter {refsection}{0}\relax 
\beamer@subsectionintoc {1}{2}{РСЧС}{3}{0}{1}
\defcounter {refsection}{0}\relax 
\beamer@subsectionintoc {1}{3}{ГО}{4}{0}{1}
\defcounter {refsection}{0}\relax 
\beamer@sectionintoc {2}{Силы и средства}{5}{0}{2}
\defcounter {refsection}{0}\relax 
\beamer@subsectionintoc {2}{1}{Основные силы и средства}{5}{0}{2}
\defcounter {refsection}{0}\relax 
\beamer@subsectionintoc {2}{2}{Центроспас}{6}{0}{2}
\defcounter {refsection}{0}\relax 
\beamer@subsubsectionintoc {2}{2}{1}{Задачи}{6}{0}{2}
\defcounter {refsection}{0}\relax 
\beamer@subsubsectionintoc {2}{2}{2}{Силы}{7}{0}{2}
\defcounter {refsection}{0}\relax 
\beamer@subsectionintoc {2}{3}{ПСС}{8}{0}{2}
\defcounter {refsection}{0}\relax 
\beamer@subsubsectionintoc {2}{3}{1}{Задачи}{8}{0}{2}
\defcounter {refsection}{0}\relax 
\beamer@subsubsectionintoc {2}{3}{2}{Силы}{9}{0}{2}
\defcounter {refsection}{0}\relax 
\beamer@subsectionintoc {2}{4}{Центр специального назначения}{10}{0}{2}
\defcounter {refsection}{0}\relax 
\beamer@subsubsectionintoc {2}{4}{1}{Задачи}{10}{0}{2}
\defcounter {refsection}{0}\relax 
\beamer@subsubsectionintoc {2}{4}{2}{Силы}{11}{0}{2}
\defcounter {refsection}{0}\relax 
\beamer@subsectionintoc {2}{5}{Авиация МЧС России}{12}{0}{2}
\defcounter {refsection}{0}\relax 
\beamer@subsubsectionintoc {2}{5}{1}{Задачи}{12}{0}{2}
\defcounter {refsection}{0}\relax 
\beamer@subsubsectionintoc {2}{5}{2}{Силы}{13}{0}{2}
\defcounter {refsection}{0}\relax 
\beamer@subsectionintoc {2}{6}{Войска гражданской обороны}{14}{0}{2}
\defcounter {refsection}{0}\relax 
\beamer@subsubsectionintoc {2}{6}{1}{Задачи}{14}{0}{2}
\defcounter {refsection}{0}\relax 
\beamer@subsubsectionintoc {2}{6}{2}{Силы}{15}{0}{2}
