\relax 
\providecommand\hyper@newdestlabel[2]{}
\providecommand\babel@aux[2]{}
\@nameuse{bbl@beforestart}
\catcode `"\active 
\nicematrix@redefine@check@rerun 
\@writefile{toc}{\boolfalse {citerequest}\boolfalse {citetracker}\boolfalse {pagetracker}\boolfalse {backtracker}\relax }
\@writefile{lof}{\boolfalse {citerequest}\boolfalse {citetracker}\boolfalse {pagetracker}\boolfalse {backtracker}\relax }
\@writefile{lot}{\boolfalse {citerequest}\boolfalse {citetracker}\boolfalse {pagetracker}\boolfalse {backtracker}\relax }
\abx@aux@refcontext{nty/global//global/global}
\providecommand\HyperFirstAtBeginDocument{\AtBeginDocument}
\HyperFirstAtBeginDocument{\ifx\hyper@anchor\@undefined
\global\let\oldcontentsline\contentsline
\gdef\contentsline#1#2#3#4{\oldcontentsline{#1}{#2}{#3}}
\global\let\oldnewlabel\newlabel
\gdef\newlabel#1#2{\newlabelxx{#1}#2}
\gdef\newlabelxx#1#2#3#4#5#6{\oldnewlabel{#1}{{#2}{#3}}}
\AtEndDocument{\ifx\hyper@anchor\@undefined
\let\contentsline\oldcontentsline
\let\newlabel\oldnewlabel
\fi}
\fi}
\global\let\hyper@last\relax 
\gdef\HyperFirstAtBeginDocument#1{#1}
\providecommand\HyField@AuxAddToFields[1]{}
\providecommand\HyField@AuxAddToCoFields[2]{}
\providecommand\@newglossary[4]{}
\@newglossary{main}{glg}{gls}{glo}
\providecommand\@glsorder[1]{}
\providecommand\@istfilename[1]{}
\@istfilename{finite.xdy}
\@glsorder{word}
\babel@aux{russian}{}
\@writefile{toc}{\defcounter {refsection}{0}\relax }\@writefile{toc}{\contentsline {part}{I\hspace  {1em}Элементы теории множеств}{3}{part.1}\protected@file@percent }
\ExplSyntaxOn \cs_if_free:NT \pgfsyspdfmark {\cs_set_eq:NN \pgfsyspdfmark \@gobblethree }\ExplSyntaxOff 
\ExplSyntaxOn 
\seq_clear_new:c {__nicematrix_size_1_seq}
\seq_gset_from_clist:cn {__nicematrix_size_1_seq}{1,5,1,8}\seq_gset_from_clist:cn {c__nicematrix_pos_of_blocks_1_seq}{}
\ExplSyntaxOff 
\ExplSyntaxOn 
\seq_clear_new:c {__nicematrix_size_2_seq}
\seq_gset_from_clist:cn {__nicematrix_size_2_seq}{1,5,1,8}\seq_gset_from_clist:cn {c__nicematrix_pos_of_blocks_2_seq}{}
\ExplSyntaxOff 
\pp@pagectr{footnote}{1}{4}{4}
\@writefile{toc}{\defcounter {refsection}{0}\relax }\@writefile{toc}{\contentsline {chapter}{\numberline {1}Домашнее задание 1}{4}{chapter.1}\protected@file@percent }
\@writefile{lof}{\defcounter {refsection}{0}\relax }\@writefile{lof}{\addvspace {10\p@ }}
\@writefile{lot}{\defcounter {refsection}{0}\relax }\@writefile{lot}{\addvspace {10\p@ }}
\newlabel{Домашнее задание 1}{{1}{4}{Домашнее задание \thehomework }{chapter.1}{}}
\@writefile{toc}{\defcounter {refsection}{0}\relax }\@writefile{toc}{\contentsline {section}{\numberline {1.1}Законы Де Моргана}{4}{section.1.1}\protected@file@percent }
\@writefile{toc}{\defcounter {refsection}{0}\relax }\@writefile{toc}{\contentsline {section}{\numberline {1.2}Гисин, 1 глава, практикум}{4}{section.1.2}\protected@file@percent }
\@writefile{toc}{\defcounter {refsection}{0}\relax }\@writefile{toc}{\contentsline {subsection}{\numberline {1.2.1}Гисин, 1.7}{4}{subsection.1.2.1}\protected@file@percent }
\@writefile{lot}{\defcounter {refsection}{0}\relax }\@writefile{lot}{\contentsline {table}{\numberline {1.1}{\ignorespaces Доказательство 1-ого закона Де Моргана\relax }}{4}{table.caption.2}\protected@file@percent }
\providecommand*\caption@xref[2]{\@setref\relax\@undefined{#1}}
\newlabel{myt:Доказательство 1-ого закона Де Моргана}{{1.1}{4}{Доказательство 1-ого закона Де Моргана\relax }{table.caption.2}{}}
\pgfsyspdfmark {nm-1-position}{12326349}{9502979}
\pgfsyspdfmark {nm-1-row-1}{12326349}{13858808}
\pgfsyspdfmark {pgfid4}{12326349}{13881745}
\pgfsyspdfmark {nm-1-row-1}{12326349}{13858808}
\pgfsyspdfmark {pgfid5}{12326349}{13881745}
\pgfsyspdfmark {pgfid6}{12326349}{12518050}
\pgfsyspdfmark {pgfid7}{13967032}{12518050}
\pgfsyspdfmark {pgfid8}{15474626}{12518050}
\pgfsyspdfmark {pgfid9}{17881314}{12518050}
\pgfsyspdfmark {pgfid10}{21158642}{12518050}
\pgfsyspdfmark {pgfid11}{23536876}{12518050}
\pgfsyspdfmark {pgfid12}{25044470}{12518050}
\pgfsyspdfmark {pgfid13}{27451158}{12518050}
\pgfsyspdfmark {nm-1-row-2}{12326349}{12060604}
\pgfsyspdfmark {pgfid14}{12326349}{12083541}
\pgfsyspdfmark {nm-1-row-2}{12326349}{11891770}
\pgfsyspdfmark {pgfid15}{12326349}{11914707}
\pgfsyspdfmark {pgfid16}{12326349}{10619957}
\pgfsyspdfmark {pgfid17}{12557360}{10619957}
\pgfsyspdfmark {pgfid18}{13851689}{10619957}
\pgfsyspdfmark {pgfid19}{15330829}{10619957}
\pgfsyspdfmark {pgfid20}{16866877}{10619957}
\pgfsyspdfmark {pgfid21}{20144205}{10619957}
\pgfsyspdfmark {pgfid22}{23421533}{10619957}
\pgfsyspdfmark {pgfid23}{24900673}{10619957}
\pgfsyspdfmark {pgfid24}{28465595}{10619957}
\pgfsyspdfmark {nm-1-row-3}{12326349}{10162511}
\pgfsyspdfmark {pgfid25}{12326349}{10185448}
\pgfsyspdfmark {pgfid26}{12326349}{9171609}
\pgfsyspdfmark {pgfid27}{12557360}{9171609}
\pgfsyspdfmark {pgfid28}{13851689}{9171609}
\pgfsyspdfmark {pgfid29}{15330829}{9171609}
\pgfsyspdfmark {pgfid30}{16866877}{9171609}
\pgfsyspdfmark {pgfid31}{20144205}{9171609}
\pgfsyspdfmark {pgfid32}{23421533}{9171609}
\pgfsyspdfmark {pgfid33}{24900673}{9171609}
\pgfsyspdfmark {pgfid34}{28465595}{9171609}
\pgfsyspdfmark {nm-1-row-4}{12326349}{8714163}
\pgfsyspdfmark {pgfid35}{12326349}{8737100}
\pgfsyspdfmark {pgfid36}{12326349}{7723261}
\pgfsyspdfmark {pgfid37}{12557360}{7723261}
\pgfsyspdfmark {pgfid38}{13851689}{7723261}
\pgfsyspdfmark {pgfid39}{15330829}{7723261}
\pgfsyspdfmark {pgfid40}{16866877}{7723261}
\pgfsyspdfmark {pgfid41}{20144205}{7723261}
\pgfsyspdfmark {pgfid42}{23421533}{7723261}
\pgfsyspdfmark {pgfid43}{24900673}{7723261}
\pgfsyspdfmark {pgfid44}{28465595}{7723261}
\pgfsyspdfmark {nm-1-row-5}{12326349}{7265815}
\pgfsyspdfmark {pgfid45}{12326349}{7288752}
\pgfsyspdfmark {pgfid46}{12326349}{6274913}
\pgfsyspdfmark {pgfid47}{12557360}{6274913}
\pgfsyspdfmark {pgfid48}{13851689}{6274913}
\pgfsyspdfmark {pgfid49}{15330829}{6274913}
\pgfsyspdfmark {pgfid50}{16866877}{6274913}
\pgfsyspdfmark {pgfid51}{20144205}{6274913}
\pgfsyspdfmark {pgfid52}{23421533}{6274913}
\pgfsyspdfmark {pgfid53}{24900673}{6274913}
\pgfsyspdfmark {pgfid54}{28465595}{6274913}
\pgfsyspdfmark {nm-1-row-6}{12326349}{5817467}
\pgfsyspdfmark {pgfid55}{12326349}{5840404}
\pgfsyspdfmark {nm-1-row-6}{12326349}{5648633}
\pgfsyspdfmark {pgfid56}{12326349}{5671570}
\pgfsyspdfmark {nm-1-col-1}{12349286}{5596071}
\pgfsyspdfmark {pgfid57}{12326349}{5596071}
\pgfsyspdfmark {nm-1-col-2}{13204525}{5596071}
\pgfsyspdfmark {pgfid58}{13227462}{5596071}
\pgfsyspdfmark {nm-1-col-3}{14683665}{5596071}
\pgfsyspdfmark {pgfid59}{14706602}{5596071}
\pgfsyspdfmark {nm-1-col-4}{16219713}{5596071}
\pgfsyspdfmark {pgfid60}{16242650}{5596071}
\pgfsyspdfmark {nm-1-col-5}{19497041}{5596071}
\pgfsyspdfmark {pgfid61}{19519978}{5596071}
\pgfsyspdfmark {nm-1-col-6}{22774369}{5596071}
\pgfsyspdfmark {pgfid62}{22797306}{5596071}
\pgfsyspdfmark {nm-1-col-7}{24253509}{5596071}
\pgfsyspdfmark {pgfid63}{24276446}{5596071}
\pgfsyspdfmark {nm-1-col-8}{25789557}{5596071}
\pgfsyspdfmark {pgfid64}{25812494}{5596071}
\pgfsyspdfmark {nm-1-col-9}{28673669}{5596071}
\pgfsyspdfmark {pgfid65}{28696606}{5596071}
\savepicturepage{pgfid66}{4}
\pgfsyspdfmark {pgfid66}{28696606}{9502979}
\pgfsyspdfmark {pgfid67}{28696606}{9502979}
\@writefile{toc}{\defcounter {refsection}{0}\relax }\@writefile{toc}{\contentsline {subsection}{\numberline {1.2.2}Гисин, 1.8}{5}{subsection.1.2.2}\protected@file@percent }
\@writefile{lot}{\defcounter {refsection}{0}\relax }\@writefile{lot}{\contentsline {table}{\numberline {1.2}{\ignorespaces Доказательство 2-ого закона Де Моргана\relax }}{5}{table.caption.3}\protected@file@percent }
\newlabel{myt:Доказательство 2-ого закона Де Моргана}{{1.2}{5}{Доказательство 2-ого закона Де Моргана\relax }{table.caption.3}{}}
\pgfsyspdfmark {nm-2-position}{12326349}{9570287}
\pgfsyspdfmark {nm-2-row-1}{12326349}{13926116}
\pgfsyspdfmark {pgfid70}{12326349}{13949053}
\pgfsyspdfmark {nm-2-row-1}{12326349}{13926116}
\pgfsyspdfmark {pgfid71}{12326349}{13949053}
\pgfsyspdfmark {pgfid72}{12326349}{12585358}
\pgfsyspdfmark {pgfid73}{13967032}{12585358}
\pgfsyspdfmark {pgfid74}{15474626}{12585358}
\pgfsyspdfmark {pgfid75}{17881314}{12585358}
\pgfsyspdfmark {pgfid76}{21158642}{12585358}
\pgfsyspdfmark {pgfid77}{23536876}{12585358}
\pgfsyspdfmark {pgfid78}{25044470}{12585358}
\pgfsyspdfmark {pgfid79}{27451158}{12585358}
\pgfsyspdfmark {nm-2-row-2}{12326349}{12127912}
\pgfsyspdfmark {pgfid80}{12326349}{12150849}
\pgfsyspdfmark {nm-2-row-2}{12326349}{11959078}
\pgfsyspdfmark {pgfid81}{12326349}{11982015}
\pgfsyspdfmark {pgfid82}{12326349}{10687265}
\pgfsyspdfmark {pgfid83}{12557360}{10687265}
\pgfsyspdfmark {pgfid84}{13851689}{10687265}
\pgfsyspdfmark {pgfid85}{15330829}{10687265}
\pgfsyspdfmark {pgfid86}{16866877}{10687265}
\pgfsyspdfmark {pgfid87}{20144205}{10687265}
\pgfsyspdfmark {pgfid88}{23421533}{10687265}
\pgfsyspdfmark {pgfid89}{24900673}{10687265}
\pgfsyspdfmark {pgfid90}{28465595}{10687265}
\pgfsyspdfmark {nm-2-row-3}{12326349}{10229819}
\pgfsyspdfmark {pgfid91}{12326349}{10252756}
\pgfsyspdfmark {pgfid92}{12326349}{9238917}
\pgfsyspdfmark {pgfid93}{12557360}{9238917}
\pgfsyspdfmark {pgfid94}{13851689}{9238917}
\pgfsyspdfmark {pgfid95}{15330829}{9238917}
\pgfsyspdfmark {pgfid96}{16866877}{9238917}
\pgfsyspdfmark {pgfid97}{20144205}{9238917}
\pgfsyspdfmark {pgfid98}{23421533}{9238917}
\pgfsyspdfmark {pgfid99}{24900673}{9238917}
\pgfsyspdfmark {pgfid100}{28465595}{9238917}
\pgfsyspdfmark {nm-2-row-4}{12326349}{8781471}
\pgfsyspdfmark {pgfid101}{12326349}{8804408}
\pgfsyspdfmark {pgfid102}{12326349}{7790569}
\pgfsyspdfmark {pgfid103}{12557360}{7790569}
\pgfsyspdfmark {pgfid104}{13851689}{7790569}
\pgfsyspdfmark {pgfid105}{15330829}{7790569}
\pgfsyspdfmark {pgfid106}{16866877}{7790569}
\pgfsyspdfmark {pgfid107}{20144205}{7790569}
\pgfsyspdfmark {pgfid108}{23421533}{7790569}
\pgfsyspdfmark {pgfid109}{24900673}{7790569}
\pgfsyspdfmark {pgfid110}{28465595}{7790569}
\pgfsyspdfmark {nm-2-row-5}{12326349}{7333123}
\pgfsyspdfmark {pgfid111}{12326349}{7356060}
\pgfsyspdfmark {pgfid112}{12326349}{6342221}
\pgfsyspdfmark {pgfid113}{12557360}{6342221}
\pgfsyspdfmark {pgfid114}{13851689}{6342221}
\pgfsyspdfmark {pgfid115}{15330829}{6342221}
\pgfsyspdfmark {pgfid116}{16866877}{6342221}
\pgfsyspdfmark {pgfid117}{20144205}{6342221}
\pgfsyspdfmark {pgfid118}{23421533}{6342221}
\pgfsyspdfmark {pgfid119}{24900673}{6342221}
\pgfsyspdfmark {pgfid120}{28465595}{6342221}
\pgfsyspdfmark {nm-2-row-6}{12326349}{5884775}
\pgfsyspdfmark {pgfid121}{12326349}{5907712}
\pgfsyspdfmark {nm-2-row-6}{12326349}{5715941}
\pgfsyspdfmark {pgfid122}{12326349}{5738878}
\pgfsyspdfmark {nm-2-col-1}{12349286}{5663379}
\pgfsyspdfmark {pgfid123}{12326349}{5663379}
\pgfsyspdfmark {nm-2-col-2}{13204525}{5663379}
\pgfsyspdfmark {pgfid124}{13227462}{5663379}
\pgfsyspdfmark {nm-2-col-3}{14683665}{5663379}
\pgfsyspdfmark {pgfid125}{14706602}{5663379}
\pgfsyspdfmark {nm-2-col-4}{16219713}{5663379}
\pgfsyspdfmark {pgfid126}{16242650}{5663379}
\pgfsyspdfmark {nm-2-col-5}{19497041}{5663379}
\pgfsyspdfmark {pgfid127}{19519978}{5663379}
\pgfsyspdfmark {nm-2-col-6}{22774369}{5663379}
\pgfsyspdfmark {pgfid128}{22797306}{5663379}
\pgfsyspdfmark {nm-2-col-7}{24253509}{5663379}
\pgfsyspdfmark {pgfid129}{24276446}{5663379}
\pgfsyspdfmark {nm-2-col-8}{25789557}{5663379}
\pgfsyspdfmark {pgfid130}{25812494}{5663379}
\pgfsyspdfmark {nm-2-col-9}{28673669}{5663379}
\pgfsyspdfmark {pgfid131}{28696606}{5663379}
\savepicturepage{pgfid132}{5}
\pgfsyspdfmark {pgfid132}{28696606}{9570287}
\pgfsyspdfmark {pgfid133}{28696606}{9570287}
\@writefile{toc}{\defcounter {refsection}{0}\relax }\@writefile{toc}{\contentsline {subsection}{\numberline {1.2.3}Гисин, 1.9}{6}{subsection.1.2.3}\protected@file@percent }
\ExplSyntaxOn 
\seq_clear_new:c {__nicematrix_size_3_seq}
\seq_gset_from_clist:cn {__nicematrix_size_3_seq}{1,5,1,7}\seq_gset_from_clist:cn {c__nicematrix_pos_of_blocks_3_seq}{}
\ExplSyntaxOff 
\ExplSyntaxOn 
\seq_clear_new:c {__nicematrix_size_4_seq}
\seq_gset_from_clist:cn {__nicematrix_size_4_seq}{1,9,1,8}\seq_gset_from_clist:cn {c__nicematrix_pos_of_blocks_4_seq}{}
\ExplSyntaxOff 
\ExplSyntaxOn 
\seq_clear_new:c {__nicematrix_size_5_seq}
\seq_gset_from_clist:cn {__nicematrix_size_5_seq}{1,5,1,6}\seq_gset_from_clist:cn {c__nicematrix_pos_of_blocks_5_seq}{}
\ExplSyntaxOff 
\@writefile{lot}{\defcounter {refsection}{0}\relax }\@writefile{lot}{\contentsline {table}{\numberline {1.3}{\ignorespaces Гисин, 1.11 a\relax }}{7}{table.caption.4}\protected@file@percent }
\newlabel{myt:Гисин, 1.11 a}{{1.3}{7}{Гисин, 1.11 a\relax }{table.caption.4}{}}
\pgfsyspdfmark {nm-3-position}{10577485}{45503393}
\pgfsyspdfmark {nm-3-row-1}{10577485}{49859222}
\pgfsyspdfmark {pgfid136}{10577485}{49882159}
\pgfsyspdfmark {nm-3-row-1}{10577485}{49859222}
\pgfsyspdfmark {pgfid137}{10577485}{49882159}
\pgfsyspdfmark {pgfid138}{10577485}{48518464}
\pgfsyspdfmark {pgfid139}{12218168}{48518464}
\pgfsyspdfmark {pgfid140}{13725762}{48518464}
\pgfsyspdfmark {pgfid141}{15261810}{48518464}
\pgfsyspdfmark {pgfid142}{17668498}{48518464}
\pgfsyspdfmark {pgfid143}{20945826}{48518464}
\pgfsyspdfmark {pgfid144}{26711589}{48518464}
\pgfsyspdfmark {nm-3-row-2}{10577485}{48061018}
\pgfsyspdfmark {pgfid145}{10577485}{48083955}
\pgfsyspdfmark {nm-3-row-2}{10577485}{47892184}
\pgfsyspdfmark {pgfid146}{10577485}{47915121}
\pgfsyspdfmark {pgfid147}{10577485}{46620371}
\pgfsyspdfmark {pgfid148}{10808496}{46620371}
\pgfsyspdfmark {pgfid149}{12102825}{46620371}
\pgfsyspdfmark {pgfid150}{13581965}{46620371}
\pgfsyspdfmark {pgfid151}{15118013}{46620371}
\pgfsyspdfmark {pgfid152}{16654061}{46620371}
\pgfsyspdfmark {pgfid153}{19931389}{46620371}
\pgfsyspdfmark {pgfid154}{30214461}{46620371}
\pgfsyspdfmark {nm-3-row-3}{10577485}{46162925}
\pgfsyspdfmark {pgfid155}{10577485}{46185862}
\pgfsyspdfmark {pgfid156}{10577485}{45172023}
\pgfsyspdfmark {pgfid157}{10808496}{45172023}
\pgfsyspdfmark {pgfid158}{12102825}{45172023}
\pgfsyspdfmark {pgfid159}{13581965}{45172023}
\pgfsyspdfmark {pgfid160}{15118013}{45172023}
\pgfsyspdfmark {pgfid161}{16654061}{45172023}
\pgfsyspdfmark {pgfid162}{19931389}{45172023}
\pgfsyspdfmark {pgfid163}{30214461}{45172023}
\pgfsyspdfmark {nm-3-row-4}{10577485}{44714577}
\pgfsyspdfmark {pgfid164}{10577485}{44737514}
\pgfsyspdfmark {pgfid165}{10577485}{43723675}
\pgfsyspdfmark {pgfid166}{10808496}{43723675}
\pgfsyspdfmark {pgfid167}{12102825}{43723675}
\pgfsyspdfmark {pgfid168}{13581965}{43723675}
\pgfsyspdfmark {pgfid169}{15118013}{43723675}
\pgfsyspdfmark {pgfid170}{16654061}{43723675}
\pgfsyspdfmark {pgfid171}{19931389}{43723675}
\pgfsyspdfmark {pgfid172}{30214461}{43723675}
\pgfsyspdfmark {nm-3-row-5}{10577485}{43266229}
\pgfsyspdfmark {pgfid173}{10577485}{43289166}
\pgfsyspdfmark {pgfid174}{10577485}{42275327}
\pgfsyspdfmark {pgfid175}{10808496}{42275327}
\pgfsyspdfmark {pgfid176}{12102825}{42275327}
\pgfsyspdfmark {pgfid177}{13581965}{42275327}
\pgfsyspdfmark {pgfid178}{15118013}{42275327}
\pgfsyspdfmark {pgfid179}{16654061}{42275327}
\pgfsyspdfmark {pgfid180}{19931389}{42275327}
\pgfsyspdfmark {pgfid181}{30214461}{42275327}
\pgfsyspdfmark {nm-3-row-6}{10577485}{41817881}
\pgfsyspdfmark {pgfid182}{10577485}{41840818}
\pgfsyspdfmark {nm-3-row-6}{10577485}{41649047}
\pgfsyspdfmark {pgfid183}{10577485}{41671984}
\pgfsyspdfmark {nm-3-col-1}{10600422}{41596485}
\pgfsyspdfmark {pgfid184}{10577485}{41596485}
\pgfsyspdfmark {nm-3-col-2}{11455661}{41596485}
\pgfsyspdfmark {pgfid185}{11478598}{41596485}
\pgfsyspdfmark {nm-3-col-3}{12934801}{41596485}
\pgfsyspdfmark {pgfid186}{12957738}{41596485}
\pgfsyspdfmark {nm-3-col-4}{14470849}{41596485}
\pgfsyspdfmark {pgfid187}{14493786}{41596485}
\pgfsyspdfmark {nm-3-col-5}{16006897}{41596485}
\pgfsyspdfmark {pgfid188}{16029834}{41596485}
\pgfsyspdfmark {nm-3-col-6}{19284225}{41596485}
\pgfsyspdfmark {pgfid189}{19307162}{41596485}
\pgfsyspdfmark {nm-3-col-7}{22561553}{41596485}
\pgfsyspdfmark {pgfid190}{22584490}{41596485}
\pgfsyspdfmark {nm-3-col-8}{30422535}{41596485}
\pgfsyspdfmark {pgfid191}{30445472}{41596485}
\savepicturepage{pgfid192}{7}
\pgfsyspdfmark {pgfid192}{30445472}{45503393}
\pgfsyspdfmark {pgfid193}{30445472}{45503393}
\@writefile{lot}{\defcounter {refsection}{0}\relax }\@writefile{lot}{\contentsline {table}{\numberline {1.4}{\ignorespaces Гисин, 1.11 b\relax }}{7}{table.caption.5}\protected@file@percent }
\newlabel{myt:Гисин, 1.11 b}{{1.4}{7}{Гисин, 1.11 b\relax }{table.caption.5}{}}
\pgfsyspdfmark {nm-4-position}{8294234}{30782079}
\pgfsyspdfmark {nm-4-row-1}{8294234}{38034604}
\pgfsyspdfmark {pgfid196}{8294234}{38057541}
\pgfsyspdfmark {nm-4-row-1}{8294234}{38034604}
\pgfsyspdfmark {pgfid197}{8294234}{38057541}
\pgfsyspdfmark {pgfid198}{8294234}{36693846}
\pgfsyspdfmark {pgfid199}{9934917}{36693846}
\pgfsyspdfmark {pgfid200}{11442511}{36693846}
\pgfsyspdfmark {pgfid201}{12968193}{36693846}
\pgfsyspdfmark {pgfid202}{15469372}{36693846}
\pgfsyspdfmark {pgfid203}{20309350}{36693846}
\pgfsyspdfmark {pgfid204}{25167416}{36693846}
\pgfsyspdfmark {pgfid205}{30025482}{36693846}
\pgfsyspdfmark {nm-4-row-2}{8294234}{36236400}
\pgfsyspdfmark {pgfid206}{8294234}{36259337}
\pgfsyspdfmark {nm-4-row-2}{8294234}{36067566}
\pgfsyspdfmark {pgfid207}{8294234}{36090503}
\pgfsyspdfmark {pgfid208}{8294234}{34795753}
\pgfsyspdfmark {pgfid209}{8525245}{34795753}
\pgfsyspdfmark {pgfid210}{9819574}{34795753}
\pgfsyspdfmark {pgfid211}{11298714}{34795753}
\pgfsyspdfmark {pgfid212}{12834762}{34795753}
\pgfsyspdfmark {pgfid213}{14350078}{34795753}
\pgfsyspdfmark {pgfid214}{17837120}{34795753}
\pgfsyspdfmark {pgfid215}{24030034}{34795753}
\pgfsyspdfmark {pgfid216}{32497712}{34795753}
\pgfsyspdfmark {nm-4-row-3}{8294234}{34338307}
\pgfsyspdfmark {pgfid217}{8294234}{34361244}
\pgfsyspdfmark {pgfid218}{8294234}{33347405}
\pgfsyspdfmark {pgfid219}{8525245}{33347405}
\pgfsyspdfmark {pgfid220}{9819574}{33347405}
\pgfsyspdfmark {pgfid221}{11298714}{33347405}
\pgfsyspdfmark {pgfid222}{12834762}{33347405}
\pgfsyspdfmark {pgfid223}{14350078}{33347405}
\pgfsyspdfmark {pgfid224}{17837120}{33347405}
\pgfsyspdfmark {pgfid225}{24030034}{33347405}
\pgfsyspdfmark {pgfid226}{32497712}{33347405}
\pgfsyspdfmark {nm-4-row-4}{8294234}{32889959}
\pgfsyspdfmark {pgfid227}{8294234}{32912896}
\pgfsyspdfmark {pgfid228}{8294234}{31899057}
\pgfsyspdfmark {pgfid229}{8525245}{31899057}
\pgfsyspdfmark {pgfid230}{9819574}{31899057}
\pgfsyspdfmark {pgfid231}{11298714}{31899057}
\pgfsyspdfmark {pgfid232}{12834762}{31899057}
\pgfsyspdfmark {pgfid233}{14350078}{31899057}
\pgfsyspdfmark {pgfid234}{17837120}{31899057}
\pgfsyspdfmark {pgfid235}{24030034}{31899057}
\pgfsyspdfmark {pgfid236}{32497712}{31899057}
\pgfsyspdfmark {nm-4-row-5}{8294234}{31441611}
\pgfsyspdfmark {pgfid237}{8294234}{31464548}
\pgfsyspdfmark {pgfid238}{8294234}{30450709}
\pgfsyspdfmark {pgfid239}{8525245}{30450709}
\pgfsyspdfmark {pgfid240}{9819574}{30450709}
\pgfsyspdfmark {pgfid241}{11298714}{30450709}
\pgfsyspdfmark {pgfid242}{12834762}{30450709}
\pgfsyspdfmark {pgfid243}{14350078}{30450709}
\pgfsyspdfmark {pgfid244}{17837120}{30450709}
\pgfsyspdfmark {pgfid245}{24030034}{30450709}
\pgfsyspdfmark {pgfid246}{32497712}{30450709}
\pgfsyspdfmark {nm-4-row-6}{8294234}{29993263}
\pgfsyspdfmark {pgfid247}{8294234}{30016200}
\pgfsyspdfmark {pgfid248}{8294234}{29002361}
\pgfsyspdfmark {pgfid249}{8525245}{29002361}
\pgfsyspdfmark {pgfid250}{9819574}{29002361}
\pgfsyspdfmark {pgfid251}{11298714}{29002361}
\pgfsyspdfmark {pgfid252}{12834762}{29002361}
\pgfsyspdfmark {pgfid253}{14350078}{29002361}
\pgfsyspdfmark {pgfid254}{17837120}{29002361}
\pgfsyspdfmark {pgfid255}{24030034}{29002361}
\pgfsyspdfmark {pgfid256}{32497712}{29002361}
\pgfsyspdfmark {nm-4-row-7}{8294234}{28544915}
\pgfsyspdfmark {pgfid257}{8294234}{28567852}
\pgfsyspdfmark {pgfid258}{8294234}{27554013}
\pgfsyspdfmark {pgfid259}{8525245}{27554013}
\pgfsyspdfmark {pgfid260}{9819574}{27554013}
\pgfsyspdfmark {pgfid261}{11298714}{27554013}
\pgfsyspdfmark {pgfid262}{12834762}{27554013}
\pgfsyspdfmark {pgfid263}{14350078}{27554013}
\pgfsyspdfmark {pgfid264}{17837120}{27554013}
\pgfsyspdfmark {pgfid265}{24030034}{27554013}
\pgfsyspdfmark {pgfid266}{32497712}{27554013}
\pgfsyspdfmark {nm-4-row-8}{8294234}{27096567}
\pgfsyspdfmark {pgfid267}{8294234}{27119504}
\pgfsyspdfmark {pgfid268}{8294234}{26105665}
\pgfsyspdfmark {pgfid269}{8525245}{26105665}
\pgfsyspdfmark {pgfid270}{9819574}{26105665}
\pgfsyspdfmark {pgfid271}{11298714}{26105665}
\pgfsyspdfmark {pgfid272}{12834762}{26105665}
\pgfsyspdfmark {pgfid273}{14350078}{26105665}
\pgfsyspdfmark {pgfid274}{17837120}{26105665}
\pgfsyspdfmark {pgfid275}{24030034}{26105665}
\pgfsyspdfmark {pgfid276}{32497712}{26105665}
\pgfsyspdfmark {nm-4-row-9}{8294234}{25648219}
\pgfsyspdfmark {pgfid277}{8294234}{25671156}
\pgfsyspdfmark {pgfid278}{8294234}{24657317}
\pgfsyspdfmark {pgfid279}{8525245}{24657317}
\pgfsyspdfmark {pgfid280}{9819574}{24657317}
\pgfsyspdfmark {pgfid281}{11298714}{24657317}
\pgfsyspdfmark {pgfid282}{12834762}{24657317}
\pgfsyspdfmark {pgfid283}{14350078}{24657317}
\pgfsyspdfmark {pgfid284}{17837120}{24657317}
\pgfsyspdfmark {pgfid285}{24030034}{24657317}
\pgfsyspdfmark {pgfid286}{32497712}{24657317}
\pgfsyspdfmark {nm-4-row-10}{8294234}{24199871}
\pgfsyspdfmark {pgfid287}{8294234}{24222808}
\pgfsyspdfmark {nm-4-row-10}{8294234}{24031037}
\pgfsyspdfmark {pgfid288}{8294234}{24053974}
\pgfsyspdfmark {nm-4-col-1}{8317171}{23978475}
\pgfsyspdfmark {pgfid289}{8294234}{23978475}
\pgfsyspdfmark {nm-4-col-2}{9172410}{23978475}
\pgfsyspdfmark {pgfid290}{9195347}{23978475}
\pgfsyspdfmark {nm-4-col-3}{10651550}{23978475}
\pgfsyspdfmark {pgfid291}{10674487}{23978475}
\pgfsyspdfmark {nm-4-col-4}{12187598}{23978475}
\pgfsyspdfmark {pgfid292}{12210535}{23978475}
\pgfsyspdfmark {nm-4-col-5}{13702914}{23978475}
\pgfsyspdfmark {pgfid293}{13725851}{23978475}
\pgfsyspdfmark {nm-4-col-6}{17189956}{23978475}
\pgfsyspdfmark {pgfid294}{17212893}{23978475}
\pgfsyspdfmark {nm-4-col-7}{23382870}{23978475}
\pgfsyspdfmark {pgfid295}{23405807}{23978475}
\pgfsyspdfmark {nm-4-col-8}{26906088}{23978475}
\pgfsyspdfmark {pgfid296}{26929025}{23978475}
\pgfsyspdfmark {nm-4-col-9}{32705786}{23978475}
\pgfsyspdfmark {pgfid297}{32728723}{23978475}
\savepicturepage{pgfid298}{7}
\pgfsyspdfmark {pgfid298}{32728723}{30782079}
\pgfsyspdfmark {pgfid299}{32728723}{30782079}
\@writefile{toc}{\defcounter {refsection}{0}\relax }\@writefile{toc}{\contentsline {subsection}{\numberline {1.2.4}Гисин, 1.11}{7}{subsection.1.2.4}\protected@file@percent }
\ExplSyntaxOn 
\seq_clear_new:c {__nicematrix_size_6_seq}
\seq_gset_from_clist:cn {__nicematrix_size_6_seq}{1,5,1,7}\seq_gset_from_clist:cn {c__nicematrix_pos_of_blocks_6_seq}{}
\ExplSyntaxOff 
\ExplSyntaxOn 
\seq_clear_new:c {__nicematrix_size_7_seq}
\seq_gset_from_clist:cn {__nicematrix_size_7_seq}{1,5,1,9}\seq_gset_from_clist:cn {c__nicematrix_pos_of_blocks_7_seq}{}
\ExplSyntaxOff 
\@writefile{lot}{\defcounter {refsection}{0}\relax }\@writefile{lot}{\contentsline {table}{\numberline {1.5}{\ignorespaces Гисин, 1.11 c\relax }}{8}{table.caption.6}\protected@file@percent }
\newlabel{myt:Гисин, 1.11 c}{{1.5}{8}{Гисин, 1.11 c\relax }{table.caption.6}{}}
\pgfsyspdfmark {nm-5-position}{12839883}{45503393}
\pgfsyspdfmark {nm-5-row-1}{12839883}{49859222}
\pgfsyspdfmark {pgfid302}{12839883}{49882159}
\pgfsyspdfmark {nm-5-row-1}{12839883}{49859222}
\pgfsyspdfmark {pgfid303}{12839883}{49882159}
\pgfsyspdfmark {pgfid304}{12839883}{48518464}
\pgfsyspdfmark {pgfid305}{14480566}{48518464}
\pgfsyspdfmark {pgfid306}{15988160}{48518464}
\pgfsyspdfmark {pgfid307}{18316204}{48518464}
\pgfsyspdfmark {pgfid308}{22587592}{48518464}
\pgfsyspdfmark {pgfid309}{26937624}{48518464}
\pgfsyspdfmark {nm-5-row-2}{12839883}{48061018}
\pgfsyspdfmark {pgfid310}{12839883}{48083955}
\pgfsyspdfmark {nm-5-row-2}{12839883}{47892184}
\pgfsyspdfmark {pgfid311}{12839883}{47915121}
\pgfsyspdfmark {pgfid312}{12839883}{46620371}
\pgfsyspdfmark {pgfid313}{13070894}{46620371}
\pgfsyspdfmark {pgfid314}{14365223}{46620371}
\pgfsyspdfmark {pgfid315}{15844363}{46620371}
\pgfsyspdfmark {pgfid316}{17380411}{46620371}
\pgfsyspdfmark {pgfid317}{20500451}{46620371}
\pgfsyspdfmark {pgfid318}{27952061}{46620371}
\pgfsyspdfmark {nm-5-row-3}{12839883}{46162925}
\pgfsyspdfmark {pgfid319}{12839883}{46185862}
\pgfsyspdfmark {pgfid320}{12839883}{45172023}
\pgfsyspdfmark {pgfid321}{13070894}{45172023}
\pgfsyspdfmark {pgfid322}{14365223}{45172023}
\pgfsyspdfmark {pgfid323}{15844363}{45172023}
\pgfsyspdfmark {pgfid324}{17380411}{45172023}
\pgfsyspdfmark {pgfid325}{20500451}{45172023}
\pgfsyspdfmark {pgfid326}{27952061}{45172023}
\pgfsyspdfmark {nm-5-row-4}{12839883}{44714577}
\pgfsyspdfmark {pgfid327}{12839883}{44737514}
\pgfsyspdfmark {pgfid328}{12839883}{43723675}
\pgfsyspdfmark {pgfid329}{13070894}{43723675}
\pgfsyspdfmark {pgfid330}{14365223}{43723675}
\pgfsyspdfmark {pgfid331}{15844363}{43723675}
\pgfsyspdfmark {pgfid332}{17380411}{43723675}
\pgfsyspdfmark {pgfid333}{20500451}{43723675}
\pgfsyspdfmark {pgfid334}{27952061}{43723675}
\pgfsyspdfmark {nm-5-row-5}{12839883}{43266229}
\pgfsyspdfmark {pgfid335}{12839883}{43289166}
\pgfsyspdfmark {pgfid336}{12839883}{42275327}
\pgfsyspdfmark {pgfid337}{13070894}{42275327}
\pgfsyspdfmark {pgfid338}{14365223}{42275327}
\pgfsyspdfmark {pgfid339}{15844363}{42275327}
\pgfsyspdfmark {pgfid340}{17380411}{42275327}
\pgfsyspdfmark {pgfid341}{20500451}{42275327}
\pgfsyspdfmark {pgfid342}{27952061}{42275327}
\pgfsyspdfmark {nm-5-row-6}{12839883}{41817881}
\pgfsyspdfmark {pgfid343}{12839883}{41840818}
\pgfsyspdfmark {nm-5-row-6}{12839883}{41649047}
\pgfsyspdfmark {pgfid344}{12839883}{41671984}
\pgfsyspdfmark {nm-5-col-1}{12862820}{41596485}
\pgfsyspdfmark {pgfid345}{12839883}{41596485}
\pgfsyspdfmark {nm-5-col-2}{13718059}{41596485}
\pgfsyspdfmark {pgfid346}{13740996}{41596485}
\pgfsyspdfmark {nm-5-col-3}{15197199}{41596485}
\pgfsyspdfmark {pgfid347}{15220136}{41596485}
\pgfsyspdfmark {nm-5-col-4}{16733247}{41596485}
\pgfsyspdfmark {pgfid348}{16756184}{41596485}
\pgfsyspdfmark {nm-5-col-5}{19853287}{41596485}
\pgfsyspdfmark {pgfid349}{19876224}{41596485}
\pgfsyspdfmark {nm-5-col-6}{25276023}{41596485}
\pgfsyspdfmark {pgfid350}{25298960}{41596485}
\pgfsyspdfmark {nm-5-col-7}{28160135}{41596485}
\pgfsyspdfmark {pgfid351}{28183072}{41596485}
\savepicturepage{pgfid352}{8}
\pgfsyspdfmark {pgfid352}{28183072}{45503393}
\pgfsyspdfmark {pgfid353}{28183072}{45503393}
\@writefile{lot}{\defcounter {refsection}{0}\relax }\@writefile{lot}{\contentsline {table}{\numberline {1.6}{\ignorespaces Гисин, 1.11 d\relax }}{8}{table.caption.7}\protected@file@percent }
\newlabel{myt:Гисин, 1.11 d}{{1.6}{8}{Гисин, 1.11 d\relax }{table.caption.7}{}}
\pgfsyspdfmark {nm-6-position}{11864383}{33678775}
\pgfsyspdfmark {nm-6-row-1}{11864383}{38034604}
\pgfsyspdfmark {pgfid356}{11864383}{38057541}
\pgfsyspdfmark {nm-6-row-1}{11864383}{38034604}
\pgfsyspdfmark {pgfid357}{11864383}{38057541}
\pgfsyspdfmark {pgfid358}{11864383}{36693846}
\pgfsyspdfmark {pgfid359}{13505066}{36693846}
\pgfsyspdfmark {pgfid360}{15012660}{36693846}
\pgfsyspdfmark {pgfid361}{16520254}{36693846}
\pgfsyspdfmark {pgfid362}{18898488}{36693846}
\pgfsyspdfmark {pgfid363}{23405807}{36693846}
\pgfsyspdfmark {pgfid364}{27913126}{36693846}
\pgfsyspdfmark {nm-6-row-2}{11864383}{36236400}
\pgfsyspdfmark {pgfid365}{11864383}{36259337}
\pgfsyspdfmark {nm-6-row-2}{11864383}{36067566}
\pgfsyspdfmark {pgfid366}{11864383}{36090503}
\pgfsyspdfmark {pgfid367}{11864383}{34795753}
\pgfsyspdfmark {pgfid368}{12095394}{34795753}
\pgfsyspdfmark {pgfid369}{13389723}{34795753}
\pgfsyspdfmark {pgfid370}{14868863}{34795753}
\pgfsyspdfmark {pgfid371}{16404911}{34795753}
\pgfsyspdfmark {pgfid372}{17884051}{34795753}
\pgfsyspdfmark {pgfid373}{21161379}{34795753}
\pgfsyspdfmark {pgfid374}{28927563}{34795753}
\pgfsyspdfmark {nm-6-row-3}{11864383}{34338307}
\pgfsyspdfmark {pgfid375}{11864383}{34361244}
\pgfsyspdfmark {pgfid376}{11864383}{33347405}
\pgfsyspdfmark {pgfid377}{12095394}{33347405}
\pgfsyspdfmark {pgfid378}{13389723}{33347405}
\pgfsyspdfmark {pgfid379}{14868863}{33347405}
\pgfsyspdfmark {pgfid380}{16404911}{33347405}
\pgfsyspdfmark {pgfid381}{17884051}{33347405}
\pgfsyspdfmark {pgfid382}{21161379}{33347405}
\pgfsyspdfmark {pgfid383}{28927563}{33347405}
\pgfsyspdfmark {nm-6-row-4}{11864383}{32889959}
\pgfsyspdfmark {pgfid384}{11864383}{32912896}
\pgfsyspdfmark {pgfid385}{11864383}{31899057}
\pgfsyspdfmark {pgfid386}{12095394}{31899057}
\pgfsyspdfmark {pgfid387}{13389723}{31899057}
\pgfsyspdfmark {pgfid388}{14868863}{31899057}
\pgfsyspdfmark {pgfid389}{16404911}{31899057}
\pgfsyspdfmark {pgfid390}{17884051}{31899057}
\pgfsyspdfmark {pgfid391}{21161379}{31899057}
\pgfsyspdfmark {pgfid392}{28927563}{31899057}
\pgfsyspdfmark {nm-6-row-5}{11864383}{31441611}
\pgfsyspdfmark {pgfid393}{11864383}{31464548}
\pgfsyspdfmark {pgfid394}{11864383}{30450709}
\pgfsyspdfmark {pgfid395}{12095394}{30450709}
\pgfsyspdfmark {pgfid396}{13389723}{30450709}
\pgfsyspdfmark {pgfid397}{14868863}{30450709}
\pgfsyspdfmark {pgfid398}{16404911}{30450709}
\pgfsyspdfmark {pgfid399}{17884051}{30450709}
\pgfsyspdfmark {pgfid400}{21161379}{30450709}
\pgfsyspdfmark {pgfid401}{28927563}{30450709}
\pgfsyspdfmark {nm-6-row-6}{11864383}{29993263}
\pgfsyspdfmark {pgfid402}{11864383}{30016200}
\pgfsyspdfmark {nm-6-row-6}{11864383}{29824429}
\pgfsyspdfmark {pgfid403}{11864383}{29847366}
\pgfsyspdfmark {nm-6-col-1}{11887320}{29771867}
\pgfsyspdfmark {pgfid404}{11864383}{29771867}
\pgfsyspdfmark {nm-6-col-2}{12742559}{29771867}
\pgfsyspdfmark {pgfid405}{12765496}{29771867}
\pgfsyspdfmark {nm-6-col-3}{14221699}{29771867}
\pgfsyspdfmark {pgfid406}{14244636}{29771867}
\pgfsyspdfmark {nm-6-col-4}{15757747}{29771867}
\pgfsyspdfmark {pgfid407}{15780684}{29771867}
\pgfsyspdfmark {nm-6-col-5}{17236887}{29771867}
\pgfsyspdfmark {pgfid408}{17259824}{29771867}
\pgfsyspdfmark {nm-6-col-6}{20514215}{29771867}
\pgfsyspdfmark {pgfid409}{20537152}{29771867}
\pgfsyspdfmark {nm-6-col-7}{26251525}{29771867}
\pgfsyspdfmark {pgfid410}{26274462}{29771867}
\pgfsyspdfmark {nm-6-col-8}{29135637}{29771867}
\pgfsyspdfmark {pgfid411}{29158574}{29771867}
\savepicturepage{pgfid412}{8}
\pgfsyspdfmark {pgfid412}{29158574}{33678775}
\pgfsyspdfmark {pgfid413}{29158574}{33678775}
\@writefile{toc}{\defcounter {refsection}{0}\relax }\@writefile{toc}{\contentsline {section}{\numberline {1.3}Силезнёва, стр.\,9}{8}{section.1.3}\protected@file@percent }
\@writefile{toc}{\defcounter {refsection}{0}\relax }\@writefile{toc}{\contentsline {subsection}{\numberline {1.3.1}Силезнёва 1.3 5}{8}{subsection.1.3.1}\protected@file@percent }
\ExplSyntaxOn 
\seq_clear_new:c {__nicematrix_size_8_seq}
\seq_gset_from_clist:cn {__nicematrix_size_8_seq}{1,9,1,7}\seq_gset_from_clist:cn {c__nicematrix_pos_of_blocks_8_seq}{}
\ExplSyntaxOff 
\ExplSyntaxOn 
\seq_clear_new:c {__nicematrix_size_9_seq}
\seq_gset_from_clist:cn {__nicematrix_size_9_seq}{1,9,1,9}\seq_gset_from_clist:cn {c__nicematrix_pos_of_blocks_9_seq}{}
\ExplSyntaxOff 
\@writefile{lot}{\defcounter {refsection}{0}\relax }\@writefile{lot}{\contentsline {table}{\numberline {1.7}{\ignorespaces Силезнёва 1.3 5\relax }}{9}{table.caption.8}\protected@file@percent }
\newlabel{myt:Силезнёва 1.3 5}{{1.7}{9}{Силезнёва 1.3 5\relax }{table.caption.8}{}}
\pgfsyspdfmark {nm-7-position}{4334300}{45503393}
\pgfsyspdfmark {nm-7-row-1}{4334300}{49859222}
\pgfsyspdfmark {pgfid416}{4334300}{49882159}
\pgfsyspdfmark {nm-7-row-1}{4334300}{49859222}
\pgfsyspdfmark {pgfid417}{4334300}{49882159}
\pgfsyspdfmark {pgfid418}{4334300}{48518464}
\pgfsyspdfmark {pgfid419}{5974983}{48518464}
\pgfsyspdfmark {pgfid420}{7482577}{48518464}
\pgfsyspdfmark {pgfid421}{9810621}{48518464}
\pgfsyspdfmark {pgfid422}{12930661}{48518464}
\pgfsyspdfmark {pgfid423}{18460493}{48518464}
\pgfsyspdfmark {pgfid424}{24068969}{48518464}
\pgfsyspdfmark {pgfid425}{27346297}{48518464}
\pgfsyspdfmark {pgfid426}{33033417}{48518464}
\pgfsyspdfmark {nm-7-row-2}{4334300}{48061018}
\pgfsyspdfmark {pgfid427}{4334300}{48083955}
\pgfsyspdfmark {nm-7-row-2}{4334300}{47892184}
\pgfsyspdfmark {pgfid428}{4334300}{47915121}
\pgfsyspdfmark {pgfid429}{4334300}{46620371}
\pgfsyspdfmark {pgfid430}{4565311}{46620371}
\pgfsyspdfmark {pgfid431}{5859640}{46620371}
\pgfsyspdfmark {pgfid432}{7338780}{46620371}
\pgfsyspdfmark {pgfid433}{8874828}{46620371}
\pgfsyspdfmark {pgfid434}{11994868}{46620371}
\pgfsyspdfmark {pgfid435}{15114908}{46620371}
\pgfsyspdfmark {pgfid436}{23054532}{46620371}
\pgfsyspdfmark {pgfid437}{26331860}{46620371}
\pgfsyspdfmark {pgfid438}{36457646}{46620371}
\pgfsyspdfmark {nm-7-row-3}{4334300}{46162925}
\pgfsyspdfmark {pgfid439}{4334300}{46185862}
\pgfsyspdfmark {pgfid440}{4334300}{45172023}
\pgfsyspdfmark {pgfid441}{4565311}{45172023}
\pgfsyspdfmark {pgfid442}{5859640}{45172023}
\pgfsyspdfmark {pgfid443}{7338780}{45172023}
\pgfsyspdfmark {pgfid444}{8874828}{45172023}
\pgfsyspdfmark {pgfid445}{11994868}{45172023}
\pgfsyspdfmark {pgfid446}{15114908}{45172023}
\pgfsyspdfmark {pgfid447}{23054532}{45172023}
\pgfsyspdfmark {pgfid448}{26331860}{45172023}
\pgfsyspdfmark {pgfid449}{36457646}{45172023}
\pgfsyspdfmark {nm-7-row-4}{4334300}{44714577}
\pgfsyspdfmark {pgfid450}{4334300}{44737514}
\pgfsyspdfmark {pgfid451}{4334300}{43723675}
\pgfsyspdfmark {pgfid452}{4565311}{43723675}
\pgfsyspdfmark {pgfid453}{5859640}{43723675}
\pgfsyspdfmark {pgfid454}{7338780}{43723675}
\pgfsyspdfmark {pgfid455}{8874828}{43723675}
\pgfsyspdfmark {pgfid456}{11994868}{43723675}
\pgfsyspdfmark {pgfid457}{15114908}{43723675}
\pgfsyspdfmark {pgfid458}{23054532}{43723675}
\pgfsyspdfmark {pgfid459}{26331860}{43723675}
\pgfsyspdfmark {pgfid460}{36457646}{43723675}
\pgfsyspdfmark {nm-7-row-5}{4334300}{43266229}
\pgfsyspdfmark {pgfid461}{4334300}{43289166}
\pgfsyspdfmark {pgfid462}{4334300}{42275327}
\pgfsyspdfmark {pgfid463}{4565311}{42275327}
\pgfsyspdfmark {pgfid464}{5859640}{42275327}
\pgfsyspdfmark {pgfid465}{7338780}{42275327}
\pgfsyspdfmark {pgfid466}{8874828}{42275327}
\pgfsyspdfmark {pgfid467}{11994868}{42275327}
\pgfsyspdfmark {pgfid468}{15114908}{42275327}
\pgfsyspdfmark {pgfid469}{23054532}{42275327}
\pgfsyspdfmark {pgfid470}{26331860}{42275327}
\pgfsyspdfmark {pgfid471}{36457646}{42275327}
\pgfsyspdfmark {nm-7-row-6}{4334300}{41817881}
\pgfsyspdfmark {pgfid472}{4334300}{41840818}
\pgfsyspdfmark {nm-7-row-6}{4334300}{41649047}
\pgfsyspdfmark {pgfid473}{4334300}{41671984}
\pgfsyspdfmark {nm-7-col-1}{4357237}{41596485}
\pgfsyspdfmark {pgfid474}{4334300}{41596485}
\pgfsyspdfmark {nm-7-col-2}{5212476}{41596485}
\pgfsyspdfmark {pgfid475}{5235413}{41596485}
\pgfsyspdfmark {nm-7-col-3}{6691616}{41596485}
\pgfsyspdfmark {pgfid476}{6714553}{41596485}
\pgfsyspdfmark {nm-7-col-4}{8227664}{41596485}
\pgfsyspdfmark {pgfid477}{8250601}{41596485}
\pgfsyspdfmark {nm-7-col-5}{11347704}{41596485}
\pgfsyspdfmark {pgfid478}{11370641}{41596485}
\pgfsyspdfmark {nm-7-col-6}{14467744}{41596485}
\pgfsyspdfmark {pgfid479}{14490681}{41596485}
\pgfsyspdfmark {nm-7-col-7}{22407368}{41596485}
\pgfsyspdfmark {pgfid480}{22430305}{41596485}
\pgfsyspdfmark {nm-7-col-8}{25684696}{41596485}
\pgfsyspdfmark {pgfid481}{25707633}{41596485}
\pgfsyspdfmark {nm-7-col-9}{28962024}{41596485}
\pgfsyspdfmark {pgfid482}{28984961}{41596485}
\pgfsyspdfmark {nm-7-col-10}{36665720}{41596485}
\pgfsyspdfmark {pgfid483}{36688657}{41596485}
\savepicturepage{pgfid484}{9}
\pgfsyspdfmark {pgfid484}{36688657}{45503393}
\pgfsyspdfmark {pgfid485}{36688657}{45503393}
\@writefile{lot}{\defcounter {refsection}{0}\relax }\@writefile{lot}{\contentsline {table}{\numberline {1.8}{\ignorespaces Силезнёва 1.4 8\relax }}{9}{table.caption.9}\protected@file@percent }
\newlabel{myt:Силезнёва 1.4 8}{{1.8}{9}{Силезнёва 1.4 8\relax }{table.caption.9}{}}
\pgfsyspdfmark {nm-8-position}{11769921}{31006951}
\pgfsyspdfmark {nm-8-row-1}{11769921}{38034604}
\pgfsyspdfmark {pgfid488}{11769921}{38057541}
\pgfsyspdfmark {nm-8-row-1}{11769921}{38034604}
\pgfsyspdfmark {pgfid489}{11769921}{38057541}
\pgfsyspdfmark {pgfid490}{11769921}{36693846}
\pgfsyspdfmark {pgfid491}{13410604}{36693846}
\pgfsyspdfmark {pgfid492}{14918198}{36693846}
\pgfsyspdfmark {pgfid493}{16443880}{36693846}
\pgfsyspdfmark {pgfid494}{17959196}{36693846}
\pgfsyspdfmark {pgfid495}{20355518}{36693846}
\pgfsyspdfmark {pgfid496}{25820217}{36693846}
\pgfsyspdfmark {nm-8-row-2}{11769921}{36236400}
\pgfsyspdfmark {pgfid497}{11769921}{36259337}
\pgfsyspdfmark {pgfid498}{11769921}{35245498}
\pgfsyspdfmark {pgfid499}{12000932}{35245498}
\pgfsyspdfmark {pgfid500}{13295261}{35245498}
\pgfsyspdfmark {pgfid501}{14774401}{35245498}
\pgfsyspdfmark {pgfid502}{16310449}{35245498}
\pgfsyspdfmark {pgfid503}{17825765}{35245498}
\pgfsyspdfmark {pgfid504}{19341081}{35245498}
\pgfsyspdfmark {pgfid505}{29022025}{35245498}
\pgfsyspdfmark {nm-8-row-3}{11769921}{34788052}
\pgfsyspdfmark {pgfid506}{11769921}{34810989}
\pgfsyspdfmark {pgfid507}{11769921}{33797150}
\pgfsyspdfmark {pgfid508}{12000932}{33797150}
\pgfsyspdfmark {pgfid509}{13295261}{33797150}
\pgfsyspdfmark {pgfid510}{14774401}{33797150}
\pgfsyspdfmark {pgfid511}{16310449}{33797150}
\pgfsyspdfmark {pgfid512}{17825765}{33797150}
\pgfsyspdfmark {pgfid513}{19341081}{33797150}
\pgfsyspdfmark {pgfid514}{29022025}{33797150}
\pgfsyspdfmark {nm-8-row-4}{11769921}{33339704}
\pgfsyspdfmark {pgfid515}{11769921}{33362641}
\pgfsyspdfmark {pgfid516}{11769921}{32348802}
\pgfsyspdfmark {pgfid517}{12000932}{32348802}
\pgfsyspdfmark {pgfid518}{13295261}{32348802}
\pgfsyspdfmark {pgfid519}{14774401}{32348802}
\pgfsyspdfmark {pgfid520}{16310449}{32348802}
\pgfsyspdfmark {pgfid521}{17825765}{32348802}
\pgfsyspdfmark {pgfid522}{19341081}{32348802}
\pgfsyspdfmark {pgfid523}{29022025}{32348802}
\pgfsyspdfmark {nm-8-row-5}{11769921}{31891356}
\pgfsyspdfmark {pgfid524}{11769921}{31914293}
\pgfsyspdfmark {pgfid525}{11769921}{30900454}
\pgfsyspdfmark {pgfid526}{12000932}{30900454}
\pgfsyspdfmark {pgfid527}{13295261}{30900454}
\pgfsyspdfmark {pgfid528}{14774401}{30900454}
\pgfsyspdfmark {pgfid529}{16310449}{30900454}
\pgfsyspdfmark {pgfid530}{17825765}{30900454}
\pgfsyspdfmark {pgfid531}{19341081}{30900454}
\pgfsyspdfmark {pgfid532}{29022025}{30900454}
\pgfsyspdfmark {nm-8-row-6}{11769921}{30443008}
\pgfsyspdfmark {pgfid533}{11769921}{30465945}
\pgfsyspdfmark {pgfid534}{11769921}{29452106}
\pgfsyspdfmark {pgfid535}{12000932}{29452106}
\pgfsyspdfmark {pgfid536}{13295261}{29452106}
\pgfsyspdfmark {pgfid537}{14774401}{29452106}
\pgfsyspdfmark {pgfid538}{16310449}{29452106}
\pgfsyspdfmark {pgfid539}{17825765}{29452106}
\pgfsyspdfmark {pgfid540}{19341081}{29452106}
\pgfsyspdfmark {pgfid541}{29022025}{29452106}
\pgfsyspdfmark {nm-8-row-7}{11769921}{28994660}
\pgfsyspdfmark {pgfid542}{11769921}{29017597}
\pgfsyspdfmark {pgfid543}{11769921}{28003758}
\pgfsyspdfmark {pgfid544}{12000932}{28003758}
\pgfsyspdfmark {pgfid545}{13295261}{28003758}
\pgfsyspdfmark {pgfid546}{14774401}{28003758}
\pgfsyspdfmark {pgfid547}{16310449}{28003758}
\pgfsyspdfmark {pgfid548}{17825765}{28003758}
\pgfsyspdfmark {pgfid549}{19341081}{28003758}
\pgfsyspdfmark {pgfid550}{29022025}{28003758}
\pgfsyspdfmark {nm-8-row-8}{11769921}{27546312}
\pgfsyspdfmark {pgfid551}{11769921}{27569249}
\pgfsyspdfmark {pgfid552}{11769921}{26555410}
\pgfsyspdfmark {pgfid553}{12000932}{26555410}
\pgfsyspdfmark {pgfid554}{13295261}{26555410}
\pgfsyspdfmark {pgfid555}{14774401}{26555410}
\pgfsyspdfmark {pgfid556}{16310449}{26555410}
\pgfsyspdfmark {pgfid557}{17825765}{26555410}
\pgfsyspdfmark {pgfid558}{19341081}{26555410}
\pgfsyspdfmark {pgfid559}{29022025}{26555410}
\pgfsyspdfmark {nm-8-row-9}{11769921}{26097964}
\pgfsyspdfmark {pgfid560}{11769921}{26120901}
\pgfsyspdfmark {pgfid561}{11769921}{25107062}
\pgfsyspdfmark {pgfid562}{12000932}{25107062}
\pgfsyspdfmark {pgfid563}{13295261}{25107062}
\pgfsyspdfmark {pgfid564}{14774401}{25107062}
\pgfsyspdfmark {pgfid565}{16310449}{25107062}
\pgfsyspdfmark {pgfid566}{17825765}{25107062}
\pgfsyspdfmark {pgfid567}{19341081}{25107062}
\pgfsyspdfmark {pgfid568}{29022025}{25107062}
\pgfsyspdfmark {nm-8-row-10}{11769921}{24649616}
\pgfsyspdfmark {pgfid569}{11769921}{24672553}
\pgfsyspdfmark {nm-8-row-10}{11769921}{24480782}
\pgfsyspdfmark {pgfid570}{11769921}{24503719}
\pgfsyspdfmark {nm-8-col-1}{11792858}{24428220}
\pgfsyspdfmark {pgfid571}{11769921}{24428220}
\pgfsyspdfmark {nm-8-col-2}{12648097}{24428220}
\pgfsyspdfmark {pgfid572}{12671034}{24428220}
\pgfsyspdfmark {nm-8-col-3}{14127237}{24428220}
\pgfsyspdfmark {pgfid573}{14150174}{24428220}
\pgfsyspdfmark {nm-8-col-4}{15663285}{24428220}
\pgfsyspdfmark {pgfid574}{15686222}{24428220}
\pgfsyspdfmark {nm-8-col-5}{17178601}{24428220}
\pgfsyspdfmark {pgfid575}{17201538}{24428220}
\pgfsyspdfmark {nm-8-col-6}{18693917}{24428220}
\pgfsyspdfmark {pgfid576}{18716854}{24428220}
\pgfsyspdfmark {nm-8-col-7}{21971245}{24428220}
\pgfsyspdfmark {pgfid577}{21994182}{24428220}
\pgfsyspdfmark {nm-8-col-8}{29230099}{24428220}
\pgfsyspdfmark {pgfid578}{29253036}{24428220}
\savepicturepage{pgfid579}{9}
\pgfsyspdfmark {pgfid579}{29253036}{31006951}
\pgfsyspdfmark {pgfid580}{29253036}{31006951}
\@writefile{toc}{\defcounter {refsection}{0}\relax }\@writefile{toc}{\contentsline {subsection}{\numberline {1.3.2}Силезнёва 1.4 8}{9}{subsection.1.3.2}\protected@file@percent }
\@writefile{toc}{\defcounter {refsection}{0}\relax }\@writefile{toc}{\contentsline {subsection}{\numberline {1.3.3}Силезнёва 1.6 8}{9}{subsection.1.3.3}\protected@file@percent }
\@writefile{lot}{\defcounter {refsection}{0}\relax }\@writefile{lot}{\contentsline {table}{\numberline {1.9}{\ignorespaces Силезнёва 1.6 8\relax }}{10}{table.caption.10}\protected@file@percent }
\newlabel{myt:Силезнёва 1.6 8}{{1.9}{10}{Силезнёва 1.6 8\relax }{table.caption.10}{}}
\pgfsyspdfmark {nm-9-position}{6458308}{42831569}
\pgfsyspdfmark {nm-9-row-1}{6458308}{49859222}
\pgfsyspdfmark {pgfid583}{6458308}{49882159}
\pgfsyspdfmark {nm-9-row-1}{6458308}{49859222}
\pgfsyspdfmark {pgfid584}{6458308}{49882159}
\pgfsyspdfmark {pgfid585}{6458308}{48518464}
\pgfsyspdfmark {pgfid586}{8098991}{48518464}
\pgfsyspdfmark {pgfid587}{9606585}{48518464}
\pgfsyspdfmark {pgfid588}{11132267}{48518464}
\pgfsyspdfmark {pgfid589}{13546676}{48518464}
\pgfsyspdfmark {pgfid590}{18011526}{48518464}
\pgfsyspdfmark {pgfid591}{22379645}{48518464}
\pgfsyspdfmark {pgfid592}{25489319}{48518464}
\pgfsyspdfmark {pgfid593}{30998419}{48518464}
\pgfsyspdfmark {nm-9-row-2}{6458308}{48061018}
\pgfsyspdfmark {pgfid594}{6458308}{48083955}
\pgfsyspdfmark {pgfid595}{6458308}{47070116}
\pgfsyspdfmark {pgfid596}{6689319}{47070116}
\pgfsyspdfmark {pgfid597}{7983648}{47070116}
\pgfsyspdfmark {pgfid598}{9462788}{47070116}
\pgfsyspdfmark {pgfid599}{10998836}{47070116}
\pgfsyspdfmark {pgfid600}{12514152}{47070116}
\pgfsyspdfmark {pgfid601}{15827654}{47070116}
\pgfsyspdfmark {pgfid602}{21443852}{47070116}
\pgfsyspdfmark {pgfid603}{24563892}{47070116}
\pgfsyspdfmark {pgfid604}{34333638}{47070116}
\pgfsyspdfmark {nm-9-row-3}{6458308}{46612670}
\pgfsyspdfmark {pgfid605}{6458308}{46635607}
\pgfsyspdfmark {pgfid606}{6458308}{45621768}
\pgfsyspdfmark {pgfid607}{6689319}{45621768}
\pgfsyspdfmark {pgfid608}{7983648}{45621768}
\pgfsyspdfmark {pgfid609}{9462788}{45621768}
\pgfsyspdfmark {pgfid610}{10998836}{45621768}
\pgfsyspdfmark {pgfid611}{12514152}{45621768}
\pgfsyspdfmark {pgfid612}{15827654}{45621768}
\pgfsyspdfmark {pgfid613}{21443852}{45621768}
\pgfsyspdfmark {pgfid614}{24563892}{45621768}
\pgfsyspdfmark {pgfid615}{34333638}{45621768}
\pgfsyspdfmark {nm-9-row-4}{6458308}{45164322}
\pgfsyspdfmark {pgfid616}{6458308}{45187259}
\pgfsyspdfmark {pgfid617}{6458308}{44173420}
\pgfsyspdfmark {pgfid618}{6689319}{44173420}
\pgfsyspdfmark {pgfid619}{7983648}{44173420}
\pgfsyspdfmark {pgfid620}{9462788}{44173420}
\pgfsyspdfmark {pgfid621}{10998836}{44173420}
\pgfsyspdfmark {pgfid622}{12514152}{44173420}
\pgfsyspdfmark {pgfid623}{15827654}{44173420}
\pgfsyspdfmark {pgfid624}{21443852}{44173420}
\pgfsyspdfmark {pgfid625}{24563892}{44173420}
\pgfsyspdfmark {pgfid626}{34333638}{44173420}
\pgfsyspdfmark {nm-9-row-5}{6458308}{43715974}
\pgfsyspdfmark {pgfid627}{6458308}{43738911}
\pgfsyspdfmark {pgfid628}{6458308}{42725072}
\pgfsyspdfmark {pgfid629}{6689319}{42725072}
\pgfsyspdfmark {pgfid630}{7983648}{42725072}
\pgfsyspdfmark {pgfid631}{9462788}{42725072}
\pgfsyspdfmark {pgfid632}{10998836}{42725072}
\pgfsyspdfmark {pgfid633}{12514152}{42725072}
\pgfsyspdfmark {pgfid634}{15827654}{42725072}
\pgfsyspdfmark {pgfid635}{21443852}{42725072}
\pgfsyspdfmark {pgfid636}{24563892}{42725072}
\pgfsyspdfmark {pgfid637}{34333638}{42725072}
\pgfsyspdfmark {nm-9-row-6}{6458308}{42267626}
\pgfsyspdfmark {pgfid638}{6458308}{42290563}
\pgfsyspdfmark {pgfid639}{6458308}{41276724}
\pgfsyspdfmark {pgfid640}{6689319}{41276724}
\pgfsyspdfmark {pgfid641}{7983648}{41276724}
\pgfsyspdfmark {pgfid642}{9462788}{41276724}
\pgfsyspdfmark {pgfid643}{10998836}{41276724}
\pgfsyspdfmark {pgfid644}{12514152}{41276724}
\pgfsyspdfmark {pgfid645}{15827654}{41276724}
\pgfsyspdfmark {pgfid646}{21443852}{41276724}
\pgfsyspdfmark {pgfid647}{24563892}{41276724}
\pgfsyspdfmark {pgfid648}{34333638}{41276724}
\pgfsyspdfmark {nm-9-row-7}{6458308}{40819278}
\pgfsyspdfmark {pgfid649}{6458308}{40842215}
\pgfsyspdfmark {pgfid650}{6458308}{39828376}
\pgfsyspdfmark {pgfid651}{6689319}{39828376}
\pgfsyspdfmark {pgfid652}{7983648}{39828376}
\pgfsyspdfmark {pgfid653}{9462788}{39828376}
\pgfsyspdfmark {pgfid654}{10998836}{39828376}
\pgfsyspdfmark {pgfid655}{12514152}{39828376}
\pgfsyspdfmark {pgfid656}{15827654}{39828376}
\pgfsyspdfmark {pgfid657}{21443852}{39828376}
\pgfsyspdfmark {pgfid658}{24563892}{39828376}
\pgfsyspdfmark {pgfid659}{34333638}{39828376}
\pgfsyspdfmark {nm-9-row-8}{6458308}{39370930}
\pgfsyspdfmark {pgfid660}{6458308}{39393867}
\pgfsyspdfmark {pgfid661}{6458308}{38380028}
\pgfsyspdfmark {pgfid662}{6689319}{38380028}
\pgfsyspdfmark {pgfid663}{7983648}{38380028}
\pgfsyspdfmark {pgfid664}{9462788}{38380028}
\pgfsyspdfmark {pgfid665}{10998836}{38380028}
\pgfsyspdfmark {pgfid666}{12514152}{38380028}
\pgfsyspdfmark {pgfid667}{15827654}{38380028}
\pgfsyspdfmark {pgfid668}{21443852}{38380028}
\pgfsyspdfmark {pgfid669}{24563892}{38380028}
\pgfsyspdfmark {pgfid670}{34333638}{38380028}
\pgfsyspdfmark {nm-9-row-9}{6458308}{37922582}
\pgfsyspdfmark {pgfid671}{6458308}{37945519}
\pgfsyspdfmark {pgfid672}{6458308}{36931680}
\pgfsyspdfmark {pgfid673}{6689319}{36931680}
\pgfsyspdfmark {pgfid674}{7983648}{36931680}
\pgfsyspdfmark {pgfid675}{9462788}{36931680}
\pgfsyspdfmark {pgfid676}{10998836}{36931680}
\pgfsyspdfmark {pgfid677}{12514152}{36931680}
\pgfsyspdfmark {pgfid678}{15827654}{36931680}
\pgfsyspdfmark {pgfid679}{21443852}{36931680}
\pgfsyspdfmark {pgfid680}{24563892}{36931680}
\pgfsyspdfmark {pgfid681}{34333638}{36931680}
\pgfsyspdfmark {nm-9-row-10}{6458308}{36474234}
\pgfsyspdfmark {pgfid682}{6458308}{36497171}
\pgfsyspdfmark {nm-9-row-10}{6458308}{36305400}
\pgfsyspdfmark {pgfid683}{6458308}{36328337}
\pgfsyspdfmark {nm-9-col-1}{6481245}{36252838}
\pgfsyspdfmark {pgfid684}{6458308}{36252838}
\pgfsyspdfmark {nm-9-col-2}{7336484}{36252838}
\pgfsyspdfmark {pgfid685}{7359421}{36252838}
\pgfsyspdfmark {nm-9-col-3}{8815624}{36252838}
\pgfsyspdfmark {pgfid686}{8838561}{36252838}
\pgfsyspdfmark {nm-9-col-4}{10351672}{36252838}
\pgfsyspdfmark {pgfid687}{10374609}{36252838}
\pgfsyspdfmark {nm-9-col-5}{11866988}{36252838}
\pgfsyspdfmark {pgfid688}{11889925}{36252838}
\pgfsyspdfmark {nm-9-col-6}{15180490}{36252838}
\pgfsyspdfmark {pgfid689}{15203427}{36252838}
\pgfsyspdfmark {nm-9-col-7}{20796688}{36252838}
\pgfsyspdfmark {pgfid690}{20819625}{36252838}
\pgfsyspdfmark {nm-9-col-8}{23916728}{36252838}
\pgfsyspdfmark {pgfid691}{23939665}{36252838}
\pgfsyspdfmark {nm-9-col-9}{27016036}{36252838}
\pgfsyspdfmark {pgfid692}{27038973}{36252838}
\pgfsyspdfmark {nm-9-col-10}{34541712}{36252838}
\pgfsyspdfmark {pgfid693}{34564649}{36252838}
\savepicturepage{pgfid694}{10}
\pgfsyspdfmark {pgfid694}{34564649}{42831569}
\pgfsyspdfmark {pgfid695}{34564649}{42831569}
\pp@pagectr{footnote}{2}{10}{10}
\@writefile{toc}{\defcounter {refsection}{0}\relax }\@writefile{toc}{\contentsline {chapter}{\numberline {2}Домашнее задание 2}{10}{chapter.2}\protected@file@percent }
\@writefile{lof}{\defcounter {refsection}{0}\relax }\@writefile{lof}{\addvspace {10\p@ }}
\@writefile{lot}{\defcounter {refsection}{0}\relax }\@writefile{lot}{\addvspace {10\p@ }}
\newlabel{Домашнее задание 2}{{2}{10}{Домашнее задание \thehomework }{chapter.2}{}}
\@writefile{toc}{\defcounter {refsection}{0}\relax }\@writefile{toc}{\contentsline {section}{\numberline {2.1}Гисин. №3.4}{10}{section.2.1}\protected@file@percent }
\pgfsyspdfmark {pgfid1032}{21504314}{17110118}
\pgfsyspdfmark {pgfid1033}{21831994}{15842820}
\pgfsyspdfmark {pgfid1034}{22067923}{15842820}
\pgfsyspdfmark {pgfid1035}{23195141}{15842820}
\pgfsyspdfmark {pgfid1036}{24322359}{15842820}
\pgfsyspdfmark {pgfid1037}{25449577}{15842820}
\pgfsyspdfmark {pgfid1038}{26576795}{15842820}
\pgfsyspdfmark {pgfid1039}{21504314}{15299684}
\pgfsyspdfmark {pgfid1040}{21831994}{14032386}
\pgfsyspdfmark {pgfid1041}{20770310}{14032386}
\pgfsyspdfmark {pgfid1042}{22067923}{14032386}
\pgfsyspdfmark {pgfid1043}{23195141}{14032386}
\pgfsyspdfmark {pgfid1044}{24322359}{14032386}
\pgfsyspdfmark {pgfid1045}{25449577}{14032386}
\pgfsyspdfmark {pgfid1046}{26576795}{14032386}
\pgfsyspdfmark {pgfid1047}{21504314}{13489250}
\pgfsyspdfmark {pgfid1048}{21831994}{12221952}
\pgfsyspdfmark {pgfid1049}{20743814}{12221952}
\pgfsyspdfmark {pgfid1050}{22067923}{12221952}
\pgfsyspdfmark {pgfid1051}{23195141}{12221952}
\pgfsyspdfmark {pgfid1052}{24322359}{12221952}
\pgfsyspdfmark {pgfid1053}{25449577}{12221952}
\pgfsyspdfmark {pgfid1054}{26576795}{12221952}
\pgfsyspdfmark {pgfid1055}{21504314}{11678816}
\pgfsyspdfmark {pgfid1056}{21831994}{10411518}
\pgfsyspdfmark {pgfid1057}{20796806}{10411518}
\pgfsyspdfmark {pgfid1058}{22067923}{10411518}
\pgfsyspdfmark {pgfid1059}{23195141}{10411518}
\pgfsyspdfmark {pgfid1060}{24322359}{10411518}
\pgfsyspdfmark {pgfid1061}{25449577}{10411518}
\pgfsyspdfmark {pgfid1062}{26576795}{10411518}
\pgfsyspdfmark {pgfid1063}{21504314}{9868382}
\pgfsyspdfmark {pgfid1064}{21831994}{8601084}
\pgfsyspdfmark {pgfid1065}{20743814}{8601084}
\pgfsyspdfmark {pgfid1066}{22067923}{8601084}
\pgfsyspdfmark {pgfid1067}{23195141}{8601084}
\pgfsyspdfmark {pgfid1068}{24322359}{8601084}
\pgfsyspdfmark {pgfid1069}{25449577}{8601084}
\pgfsyspdfmark {pgfid1070}{26576795}{8601084}
\pgfsyspdfmark {pgfid1071}{21504314}{8057948}
\pgfsyspdfmark {pgfid1072}{21831994}{6790650}
\pgfsyspdfmark {pgfid1073}{20796806}{6790650}
\pgfsyspdfmark {pgfid1074}{22067923}{6790650}
\pgfsyspdfmark {pgfid1075}{23195141}{6790650}
\pgfsyspdfmark {pgfid1076}{24322359}{6790650}
\pgfsyspdfmark {pgfid1077}{25449577}{6790650}
\pgfsyspdfmark {pgfid1078}{26576795}{6790650}
\pgfsyspdfmark {pgfid1079}{21504314}{6247514}
\pgfsyspdfmark {pgfid1080}{20324103}{6247514}
\pgfsyspdfmark {pgfid1081}{21504314}{6247514}
\pgfsyspdfmark {pgfid1082}{22631532}{6247514}
\pgfsyspdfmark {pgfid1083}{23758750}{6247514}
\pgfsyspdfmark {pgfid1084}{24885968}{6247514}
\pgfsyspdfmark {pgfid1085}{26013186}{6247514}
\pgfsyspdfmark {pgfid1086}{27140404}{6247514}
\savepicturepage{pgfid1087}{10}
\pgfsyspdfmark {pgfid1087}{27638479}{10491795}
\pgfsyspdfmark {pgfid1088}{21504314}{51497095}
\pgfsyspdfmark {pgfid1089}{21831994}{50229797}
\pgfsyspdfmark {pgfid1090}{22067923}{50229797}
\pgfsyspdfmark {pgfid1091}{23195141}{50229797}
\pgfsyspdfmark {pgfid1092}{24322359}{50229797}
\pgfsyspdfmark {pgfid1093}{25449577}{50229797}
\pgfsyspdfmark {pgfid1094}{26576795}{50229797}
\pgfsyspdfmark {pgfid1095}{21504314}{49686661}
\pgfsyspdfmark {pgfid1096}{21831994}{48419363}
\pgfsyspdfmark {pgfid1097}{20770310}{48419363}
\pgfsyspdfmark {pgfid1098}{22067923}{48419363}
\pgfsyspdfmark {pgfid1099}{23195141}{48419363}
\pgfsyspdfmark {pgfid1100}{24322359}{48419363}
\pgfsyspdfmark {pgfid1101}{25449577}{48419363}
\pgfsyspdfmark {pgfid1102}{26576795}{48419363}
\pgfsyspdfmark {pgfid1103}{21504314}{47876227}
\pgfsyspdfmark {pgfid1104}{21831994}{46608929}
\pgfsyspdfmark {pgfid1105}{20743814}{46608929}
\pgfsyspdfmark {pgfid1106}{22067923}{46608929}
\pgfsyspdfmark {pgfid1107}{23195141}{46608929}
\pgfsyspdfmark {pgfid1108}{24322359}{46608929}
\pgfsyspdfmark {pgfid1109}{25449577}{46608929}
\pgfsyspdfmark {pgfid1110}{26576795}{46608929}
\pgfsyspdfmark {pgfid1111}{21504314}{46065793}
\pgfsyspdfmark {pgfid1112}{21831994}{44798495}
\pgfsyspdfmark {pgfid1113}{20796806}{44798495}
\pgfsyspdfmark {pgfid1114}{22067923}{44798495}
\pgfsyspdfmark {pgfid1115}{23195141}{44798495}
\pgfsyspdfmark {pgfid1116}{24322359}{44798495}
\pgfsyspdfmark {pgfid1117}{25449577}{44798495}
\pgfsyspdfmark {pgfid1118}{26576795}{44798495}
\pgfsyspdfmark {pgfid1119}{21504314}{44255359}
\pgfsyspdfmark {pgfid1120}{21831994}{42988061}
\pgfsyspdfmark {pgfid1121}{20743814}{42988061}
\pgfsyspdfmark {pgfid1122}{22067923}{42988061}
\pgfsyspdfmark {pgfid1123}{23195141}{42988061}
\pgfsyspdfmark {pgfid1124}{24322359}{42988061}
\pgfsyspdfmark {pgfid1125}{25449577}{42988061}
\pgfsyspdfmark {pgfid1126}{26576795}{42988061}
\pgfsyspdfmark {pgfid1127}{21504314}{42444925}
\pgfsyspdfmark {pgfid1128}{21831994}{41177627}
\pgfsyspdfmark {pgfid1129}{20796806}{41177627}
\pgfsyspdfmark {pgfid1130}{22067923}{41177627}
\pgfsyspdfmark {pgfid1131}{23195141}{41177627}
\pgfsyspdfmark {pgfid1132}{24322359}{41177627}
\pgfsyspdfmark {pgfid1133}{25449577}{41177627}
\pgfsyspdfmark {pgfid1134}{26576795}{41177627}
\pgfsyspdfmark {pgfid1135}{21504314}{40634491}
\pgfsyspdfmark {pgfid1136}{20324103}{40634491}
\pgfsyspdfmark {pgfid1137}{21504314}{40634491}
\pgfsyspdfmark {pgfid1138}{22631532}{40634491}
\pgfsyspdfmark {pgfid1139}{23758750}{40634491}
\pgfsyspdfmark {pgfid1140}{24885968}{40634491}
\pgfsyspdfmark {pgfid1141}{26013186}{40634491}
\pgfsyspdfmark {pgfid1142}{27140404}{40634491}
\savepicturepage{pgfid1143}{11}
\pgfsyspdfmark {pgfid1143}{27638479}{44878772}
\pgfsyspdfmark {pgfid1144}{21504314}{38709958}
\pgfsyspdfmark {pgfid1145}{21831994}{37442660}
\pgfsyspdfmark {pgfid1146}{22067923}{37442660}
\pgfsyspdfmark {pgfid1147}{23195141}{37442660}
\pgfsyspdfmark {pgfid1148}{24322359}{37442660}
\pgfsyspdfmark {pgfid1149}{25449577}{37442660}
\pgfsyspdfmark {pgfid1150}{26576795}{37442660}
\pgfsyspdfmark {pgfid1151}{21504314}{36899524}
\pgfsyspdfmark {pgfid1152}{21831994}{35632226}
\pgfsyspdfmark {pgfid1153}{20770310}{35632226}
\pgfsyspdfmark {pgfid1154}{22067923}{35632226}
\pgfsyspdfmark {pgfid1155}{23195141}{35632226}
\pgfsyspdfmark {pgfid1156}{24322359}{35632226}
\pgfsyspdfmark {pgfid1157}{25449577}{35632226}
\pgfsyspdfmark {pgfid1158}{26576795}{35632226}
\pgfsyspdfmark {pgfid1159}{21504314}{35089090}
\pgfsyspdfmark {pgfid1160}{21831994}{33821792}
\pgfsyspdfmark {pgfid1161}{20743814}{33821792}
\pgfsyspdfmark {pgfid1162}{22067923}{33821792}
\pgfsyspdfmark {pgfid1163}{23195141}{33821792}
\pgfsyspdfmark {pgfid1164}{24322359}{33821792}
\pgfsyspdfmark {pgfid1165}{25449577}{33821792}
\pgfsyspdfmark {pgfid1166}{26576795}{33821792}
\pgfsyspdfmark {pgfid1167}{21504314}{33278656}
\pgfsyspdfmark {pgfid1168}{21831994}{32011358}
\pgfsyspdfmark {pgfid1169}{20796806}{32011358}
\pgfsyspdfmark {pgfid1170}{22067923}{32011358}
\pgfsyspdfmark {pgfid1171}{23195141}{32011358}
\pgfsyspdfmark {pgfid1172}{24322359}{32011358}
\pgfsyspdfmark {pgfid1173}{25449577}{32011358}
\pgfsyspdfmark {pgfid1174}{26576795}{32011358}
\pgfsyspdfmark {pgfid1175}{21504314}{31468222}
\pgfsyspdfmark {pgfid1176}{21831994}{30200924}
\pgfsyspdfmark {pgfid1177}{20743814}{30200924}
\pgfsyspdfmark {pgfid1178}{22067923}{30200924}
\pgfsyspdfmark {pgfid1179}{23195141}{30200924}
\pgfsyspdfmark {pgfid1180}{24322359}{30200924}
\pgfsyspdfmark {pgfid1181}{25449577}{30200924}
\pgfsyspdfmark {pgfid1182}{26576795}{30200924}
\pgfsyspdfmark {pgfid1183}{21504314}{29657788}
\pgfsyspdfmark {pgfid1184}{21831994}{28390490}
\pgfsyspdfmark {pgfid1185}{20796806}{28390490}
\pgfsyspdfmark {pgfid1186}{22067923}{28390490}
\pgfsyspdfmark {pgfid1187}{23195141}{28390490}
\pgfsyspdfmark {pgfid1188}{24322359}{28390490}
\pgfsyspdfmark {pgfid1189}{25449577}{28390490}
\pgfsyspdfmark {pgfid1190}{26576795}{28390490}
\pgfsyspdfmark {pgfid1191}{21504314}{27847354}
\pgfsyspdfmark {pgfid1192}{20324103}{27847354}
\pgfsyspdfmark {pgfid1193}{21504314}{27847354}
\pgfsyspdfmark {pgfid1194}{22631532}{27847354}
\pgfsyspdfmark {pgfid1195}{23758750}{27847354}
\pgfsyspdfmark {pgfid1196}{24885968}{27847354}
\pgfsyspdfmark {pgfid1197}{26013186}{27847354}
\pgfsyspdfmark {pgfid1198}{27140404}{27847354}
\savepicturepage{pgfid1199}{11}
\pgfsyspdfmark {pgfid1199}{27638479}{32091635}
\pgfsyspdfmark {pgfid1200}{21504314}{27577604}
\pgfsyspdfmark {pgfid1201}{21831994}{26310306}
\pgfsyspdfmark {pgfid1202}{22067923}{26310306}
\pgfsyspdfmark {pgfid1203}{23195141}{26310306}
\pgfsyspdfmark {pgfid1204}{24322359}{26310306}
\pgfsyspdfmark {pgfid1205}{25449577}{26310306}
\pgfsyspdfmark {pgfid1206}{26576795}{26310306}
\pgfsyspdfmark {pgfid1207}{21504314}{25767170}
\pgfsyspdfmark {pgfid1208}{21831994}{24499872}
\pgfsyspdfmark {pgfid1209}{20770310}{24499872}
\pgfsyspdfmark {pgfid1210}{22067923}{24499872}
\pgfsyspdfmark {pgfid1211}{23195141}{24499872}
\pgfsyspdfmark {pgfid1212}{24322359}{24499872}
\pgfsyspdfmark {pgfid1213}{25449577}{24499872}
\pgfsyspdfmark {pgfid1214}{26576795}{24499872}
\pgfsyspdfmark {pgfid1215}{21504314}{23956736}
\pgfsyspdfmark {pgfid1216}{21831994}{22689438}
\pgfsyspdfmark {pgfid1217}{20743814}{22689438}
\pgfsyspdfmark {pgfid1218}{22067923}{22689438}
\pgfsyspdfmark {pgfid1219}{23195141}{22689438}
\pgfsyspdfmark {pgfid1220}{24322359}{22689438}
\pgfsyspdfmark {pgfid1221}{25449577}{22689438}
\pgfsyspdfmark {pgfid1222}{26576795}{22689438}
\pgfsyspdfmark {pgfid1223}{21504314}{22146302}
\pgfsyspdfmark {pgfid1224}{21831994}{20879004}
\pgfsyspdfmark {pgfid1225}{20796806}{20879004}
\pgfsyspdfmark {pgfid1226}{22067923}{20879004}
\pgfsyspdfmark {pgfid1227}{23195141}{20879004}
\pgfsyspdfmark {pgfid1228}{24322359}{20879004}
\pgfsyspdfmark {pgfid1229}{25449577}{20879004}
\pgfsyspdfmark {pgfid1230}{26576795}{20879004}
\pgfsyspdfmark {pgfid1231}{21504314}{20335868}
\pgfsyspdfmark {pgfid1232}{21831994}{19068570}
\pgfsyspdfmark {pgfid1233}{20743814}{19068570}
\pgfsyspdfmark {pgfid1234}{22067923}{19068570}
\pgfsyspdfmark {pgfid1235}{23195141}{19068570}
\pgfsyspdfmark {pgfid1236}{24322359}{19068570}
\pgfsyspdfmark {pgfid1237}{25449577}{19068570}
\pgfsyspdfmark {pgfid1238}{26576795}{19068570}
\pgfsyspdfmark {pgfid1239}{21504314}{18525434}
\pgfsyspdfmark {pgfid1240}{21831994}{17258136}
\pgfsyspdfmark {pgfid1241}{20796806}{17258136}
\pgfsyspdfmark {pgfid1242}{22067923}{17258136}
\pgfsyspdfmark {pgfid1243}{23195141}{17258136}
\pgfsyspdfmark {pgfid1244}{24322359}{17258136}
\pgfsyspdfmark {pgfid1245}{25449577}{17258136}
\pgfsyspdfmark {pgfid1246}{26576795}{17258136}
\pgfsyspdfmark {pgfid1247}{21504314}{16715000}
\pgfsyspdfmark {pgfid1248}{20324103}{16715000}
\pgfsyspdfmark {pgfid1249}{21504314}{16715000}
\pgfsyspdfmark {pgfid1250}{22631532}{16715000}
\pgfsyspdfmark {pgfid1251}{23758750}{16715000}
\pgfsyspdfmark {pgfid1252}{24885968}{16715000}
\pgfsyspdfmark {pgfid1253}{26013186}{16715000}
\pgfsyspdfmark {pgfid1254}{27140404}{16715000}
\savepicturepage{pgfid1255}{11}
\pgfsyspdfmark {pgfid1255}{27638479}{20959281}
\pgfsyspdfmark {pgfid1256}{21504314}{16445250}
\pgfsyspdfmark {pgfid1257}{21831994}{15177952}
\pgfsyspdfmark {pgfid1258}{22067923}{15177952}
\pgfsyspdfmark {pgfid1259}{23195141}{15177952}
\pgfsyspdfmark {pgfid1260}{24322359}{15177952}
\pgfsyspdfmark {pgfid1261}{25449577}{15177952}
\pgfsyspdfmark {pgfid1262}{26576795}{15177952}
\pgfsyspdfmark {pgfid1263}{21504314}{14634816}
\pgfsyspdfmark {pgfid1264}{21831994}{13367518}
\pgfsyspdfmark {pgfid1265}{20770310}{13367518}
\pgfsyspdfmark {pgfid1266}{22067923}{13367518}
\pgfsyspdfmark {pgfid1267}{23195141}{13367518}
\pgfsyspdfmark {pgfid1268}{24322359}{13367518}
\pgfsyspdfmark {pgfid1269}{25449577}{13367518}
\pgfsyspdfmark {pgfid1270}{26576795}{13367518}
\pgfsyspdfmark {pgfid1271}{21504314}{12824382}
\pgfsyspdfmark {pgfid1272}{21831994}{11557084}
\pgfsyspdfmark {pgfid1273}{20743814}{11557084}
\pgfsyspdfmark {pgfid1274}{22067923}{11557084}
\pgfsyspdfmark {pgfid1275}{23195141}{11557084}
\pgfsyspdfmark {pgfid1276}{24322359}{11557084}
\pgfsyspdfmark {pgfid1277}{25449577}{11557084}
\pgfsyspdfmark {pgfid1278}{26576795}{11557084}
\pgfsyspdfmark {pgfid1279}{21504314}{11013948}
\pgfsyspdfmark {pgfid1280}{21831994}{9746650}
\pgfsyspdfmark {pgfid1281}{20796806}{9746650}
\pgfsyspdfmark {pgfid1282}{22067923}{9746650}
\pgfsyspdfmark {pgfid1283}{23195141}{9746650}
\pgfsyspdfmark {pgfid1284}{24322359}{9746650}
\pgfsyspdfmark {pgfid1285}{25449577}{9746650}
\pgfsyspdfmark {pgfid1286}{26576795}{9746650}
\pgfsyspdfmark {pgfid1287}{21504314}{9203514}
\pgfsyspdfmark {pgfid1288}{21831994}{7936216}
\pgfsyspdfmark {pgfid1289}{20743814}{7936216}
\pgfsyspdfmark {pgfid1290}{22067923}{7936216}
\pgfsyspdfmark {pgfid1291}{23195141}{7936216}
\pgfsyspdfmark {pgfid1292}{24322359}{7936216}
\pgfsyspdfmark {pgfid1293}{25449577}{7936216}
\pgfsyspdfmark {pgfid1294}{26576795}{7936216}
\pgfsyspdfmark {pgfid1295}{21504314}{7393080}
\pgfsyspdfmark {pgfid1296}{21831994}{6125782}
\pgfsyspdfmark {pgfid1297}{20796806}{6125782}
\pgfsyspdfmark {pgfid1298}{22067923}{6125782}
\pgfsyspdfmark {pgfid1299}{23195141}{6125782}
\pgfsyspdfmark {pgfid1300}{24322359}{6125782}
\pgfsyspdfmark {pgfid1301}{25449577}{6125782}
\pgfsyspdfmark {pgfid1302}{26576795}{6125782}
\pgfsyspdfmark {pgfid1303}{21504314}{5582646}
\pgfsyspdfmark {pgfid1304}{20324103}{5582646}
\pgfsyspdfmark {pgfid1305}{21504314}{5582646}
\pgfsyspdfmark {pgfid1306}{22631532}{5582646}
\pgfsyspdfmark {pgfid1307}{23758750}{5582646}
\pgfsyspdfmark {pgfid1308}{24885968}{5582646}
\pgfsyspdfmark {pgfid1309}{26013186}{5582646}
\pgfsyspdfmark {pgfid1310}{27140404}{5582646}
\savepicturepage{pgfid1311}{11}
\pgfsyspdfmark {pgfid1311}{27638479}{9826927}
\pgfsyspdfmark {pgfid1312}{21504314}{51497095}
\pgfsyspdfmark {pgfid1313}{21831994}{50229797}
\pgfsyspdfmark {pgfid1314}{22067923}{50229797}
\pgfsyspdfmark {pgfid1315}{23221637}{50229797}
\pgfsyspdfmark {pgfid1316}{24370433}{50229797}
\pgfsyspdfmark {pgfid1317}{25519229}{50229797}
\pgfsyspdfmark {pgfid1318}{26668025}{50229797}
\pgfsyspdfmark {pgfid1319}{21504314}{49686661}
\pgfsyspdfmark {pgfid1320}{21831994}{48419363}
\pgfsyspdfmark {pgfid1321}{20770310}{48419363}
\pgfsyspdfmark {pgfid1322}{22067923}{48419363}
\pgfsyspdfmark {pgfid1323}{23221637}{48419363}
\pgfsyspdfmark {pgfid1324}{24370433}{48419363}
\pgfsyspdfmark {pgfid1325}{25519229}{48419363}
\pgfsyspdfmark {pgfid1326}{26668025}{48419363}
\pgfsyspdfmark {pgfid1327}{21504314}{47876227}
\pgfsyspdfmark {pgfid1328}{21831994}{46608929}
\pgfsyspdfmark {pgfid1329}{20743814}{46608929}
\pgfsyspdfmark {pgfid1330}{22067923}{46608929}
\pgfsyspdfmark {pgfid1331}{23221637}{46608929}
\pgfsyspdfmark {pgfid1332}{24370433}{46608929}
\pgfsyspdfmark {pgfid1333}{25519229}{46608929}
\pgfsyspdfmark {pgfid1334}{26668025}{46608929}
\pgfsyspdfmark {pgfid1335}{21504314}{46065793}
\pgfsyspdfmark {pgfid1336}{21831994}{44798495}
\pgfsyspdfmark {pgfid1337}{20796806}{44798495}
\pgfsyspdfmark {pgfid1338}{22067923}{44798495}
\pgfsyspdfmark {pgfid1339}{23221637}{44798495}
\pgfsyspdfmark {pgfid1340}{24370433}{44798495}
\pgfsyspdfmark {pgfid1341}{25519229}{44798495}
\pgfsyspdfmark {pgfid1342}{26668025}{44798495}
\pgfsyspdfmark {pgfid1343}{21504314}{44255359}
\pgfsyspdfmark {pgfid1344}{21831994}{42988061}
\pgfsyspdfmark {pgfid1345}{20743814}{42988061}
\pgfsyspdfmark {pgfid1346}{22067923}{42988061}
\pgfsyspdfmark {pgfid1347}{23221637}{42988061}
\pgfsyspdfmark {pgfid1348}{24370433}{42988061}
\pgfsyspdfmark {pgfid1349}{25519229}{42988061}
\pgfsyspdfmark {pgfid1350}{26668025}{42988061}
\pgfsyspdfmark {pgfid1351}{21504314}{42444925}
\pgfsyspdfmark {pgfid1352}{21831994}{41177627}
\pgfsyspdfmark {pgfid1353}{20796806}{41177627}
\pgfsyspdfmark {pgfid1354}{22067923}{41177627}
\pgfsyspdfmark {pgfid1355}{23221637}{41177627}
\pgfsyspdfmark {pgfid1356}{24370433}{41177627}
\pgfsyspdfmark {pgfid1357}{25519229}{41177627}
\pgfsyspdfmark {pgfid1358}{26668025}{41177627}
\pgfsyspdfmark {pgfid1359}{21504314}{40634491}
\pgfsyspdfmark {pgfid1360}{20324103}{40634491}
\pgfsyspdfmark {pgfid1361}{21504314}{40634491}
\pgfsyspdfmark {pgfid1362}{22631532}{40634491}
\pgfsyspdfmark {pgfid1363}{23811742}{40634491}
\pgfsyspdfmark {pgfid1364}{24929124}{40634491}
\pgfsyspdfmark {pgfid1365}{26109334}{40634491}
\pgfsyspdfmark {pgfid1366}{27226716}{40634491}
\savepicturepage{pgfid1367}{12}
\pgfsyspdfmark {pgfid1367}{27724791}{44878772}
\@writefile{toc}{\defcounter {refsection}{0}\relax }\@writefile{toc}{\contentsline {section}{\numberline {2.2}Гисин. №3.5}{12}{section.2.2}\protected@file@percent }
\@writefile{toc}{\defcounter {refsection}{0}\relax }\@writefile{toc}{\contentsline {section}{\numberline {2.3}Гисин. №3.6}{13}{section.2.3}\protected@file@percent }
\newlabel{LastPage}{{}{14}{}{page.14}{}}
\xdef\lastpage@lastpage{14}
\xdef\lastpage@lastpageHy{14}
\gdef \@abspage@last{14}
