\boolfalse {citerequest}\boolfalse {citetracker}\boolfalse {pagetracker}\boolfalse {backtracker}\relax 
\babel@toc {russian}{}
\defcounter {refsection}{0}\relax 
\contentsline {part}{I\hspace {1em}Элементы теории множеств}{3}{part.1}%
\defcounter {refsection}{0}\relax 
\contentsline {chapter}{\numberline {1}Домашнее задание 1}{4}{chapter.1}%
\defcounter {refsection}{0}\relax 
\contentsline {section}{\numberline {1.1}Законы Де Моргана}{4}{section.1.1}%
\defcounter {refsection}{0}\relax 
\contentsline {section}{\numberline {1.2}Гисин, 1 глава, практикум}{4}{section.1.2}%
\defcounter {refsection}{0}\relax 
\contentsline {subsection}{\numberline {1.2.1}Гисин, 1.7}{4}{subsection.1.2.1}%
\defcounter {refsection}{0}\relax 
\contentsline {subsection}{\numberline {1.2.2}Гисин, 1.8}{5}{subsection.1.2.2}%
\defcounter {refsection}{0}\relax 
\contentsline {subsection}{\numberline {1.2.3}Гисин, 1.9}{6}{subsection.1.2.3}%
\defcounter {refsection}{0}\relax 
\contentsline {subsection}{\numberline {1.2.4}Гисин, 1.11}{7}{subsection.1.2.4}%
\defcounter {refsection}{0}\relax 
\contentsline {section}{\numberline {1.3}Силезнёва, стр.\,9}{8}{section.1.3}%
\defcounter {refsection}{0}\relax 
\contentsline {subsection}{\numberline {1.3.1}Силезнёва 1.3 5}{8}{subsection.1.3.1}%
\defcounter {refsection}{0}\relax 
\contentsline {subsection}{\numberline {1.3.2}Силезнёва 1.4 8}{9}{subsection.1.3.2}%
\defcounter {refsection}{0}\relax 
\contentsline {subsection}{\numberline {1.3.3}Силезнёва 1.6 8}{9}{subsection.1.3.3}%
\defcounter {refsection}{0}\relax 
\contentsline {chapter}{\numberline {2}Домашнее задание 2}{10}{chapter.2}%
\defcounter {refsection}{0}\relax 
\contentsline {section}{\numberline {2.1}Гисин. №3.4}{10}{section.2.1}%
\defcounter {refsection}{0}\relax 
\contentsline {section}{\numberline {2.2}Гисин. №3.5}{12}{section.2.2}%
\defcounter {refsection}{0}\relax 
\contentsline {section}{\numberline {2.3}Гисин. №3.6}{13}{section.2.3}%
