\relax 
\providecommand\hyper@newdestlabel[2]{}
\providecommand\babel@aux[2]{}
\@nameuse{bbl@beforestart}
\catcode `"\active 
\nicematrix@redefine@check@rerun 
\abx@aux@refcontext{nty/global//global/global}
\providecommand\HyperFirstAtBeginDocument{\AtBeginDocument}
\HyperFirstAtBeginDocument{\ifx\hyper@anchor\@undefined
\global\let\oldcontentsline\contentsline
\gdef\contentsline#1#2#3#4{\oldcontentsline{#1}{#2}{#3}}
\global\let\oldnewlabel\newlabel
\gdef\newlabel#1#2{\newlabelxx{#1}#2}
\gdef\newlabelxx#1#2#3#4#5#6{\oldnewlabel{#1}{{#2}{#3}}}
\AtEndDocument{\ifx\hyper@anchor\@undefined
\let\contentsline\oldcontentsline
\let\newlabel\oldnewlabel
\fi}
\fi}
\global\let\hyper@last\relax 
\gdef\HyperFirstAtBeginDocument#1{#1}
\providecommand\HyField@AuxAddToFields[1]{}
\providecommand\HyField@AuxAddToCoFields[2]{}
\providecommand\@newglossary[4]{}
\@newglossary{main}{glg}{gls}{glo}
\providecommand\@glsorder[1]{}
\providecommand\@istfilename[1]{}
\@istfilename{forth.xdy}
\@glsorder{word}
\babel@aux{russian}{}
\@writefile{toc}{\contentsline {section}{\numberline {1}Номер 1}{2}{section.1}\protected@file@percent }
\@writefile{toc}{\contentsline {subsection}{\numberline {1.1}Условие}{2}{subsection.1.1}\protected@file@percent }
\@writefile{toc}{\contentsline {subsection}{\numberline {1.2}Код}{2}{subsection.1.2}\protected@file@percent }
\@writefile{lof}{\contentsline {figure}{\numberline {1.1}{\ignorespaces Код номера 1\relax }}{2}{figure.caption.1}\protected@file@percent }
\providecommand*\caption@xref[2]{\@setref\relax\@undefined{#1}}
\newlabel{Код номера 1}{{1.1}{2}{Код номера 1\relax }{figure.caption.1}{}}
\@writefile{toc}{\contentsline {subsection}{\numberline {1.3}Вывод}{2}{subsection.1.3}\protected@file@percent }
\@writefile{lof}{\contentsline {figure}{\numberline {1.2}{\ignorespaces Вывод номера 1\relax }}{2}{figure.caption.2}\protected@file@percent }
\newlabel{Вывод номера 1}{{1.2}{2}{Вывод номера 1\relax }{figure.caption.2}{}}
\@writefile{toc}{\contentsline {section}{\numberline {2}Номер 2}{3}{section.2}\protected@file@percent }
\@writefile{toc}{\contentsline {subsection}{\numberline {2.1}Условие}{3}{subsection.2.1}\protected@file@percent }
\@writefile{toc}{\contentsline {subsection}{\numberline {2.2}Код}{3}{subsection.2.2}\protected@file@percent }
\@writefile{lof}{\contentsline {figure}{\numberline {2.1}{\ignorespaces Код номера 2\relax }}{3}{figure.caption.3}\protected@file@percent }
\newlabel{Код номера 2}{{2.1}{3}{Код номера 2\relax }{figure.caption.3}{}}
\@writefile{toc}{\contentsline {subsection}{\numberline {2.3}Вывод}{3}{subsection.2.3}\protected@file@percent }
\@writefile{lof}{\contentsline {figure}{\numberline {2.2}{\ignorespaces Вывод номера 2\relax }}{3}{figure.caption.4}\protected@file@percent }
\newlabel{Вывод номера 2}{{2.2}{3}{Вывод номера 2\relax }{figure.caption.4}{}}
\@writefile{toc}{\contentsline {section}{\numberline {3}Номер 3}{4}{section.3}\protected@file@percent }
\@writefile{toc}{\contentsline {subsection}{\numberline {3.1}Условие}{4}{subsection.3.1}\protected@file@percent }
\@writefile{toc}{\contentsline {subsection}{\numberline {3.2}Код}{4}{subsection.3.2}\protected@file@percent }
\@writefile{lof}{\contentsline {figure}{\numberline {3.1}{\ignorespaces Код номера 3\relax }}{4}{figure.caption.5}\protected@file@percent }
\newlabel{Код номера 3}{{3.1}{4}{Код номера 3\relax }{figure.caption.5}{}}
\@writefile{toc}{\contentsline {subsection}{\numberline {3.3}Вывод}{4}{subsection.3.3}\protected@file@percent }
\@writefile{lof}{\contentsline {figure}{\numberline {3.2}{\ignorespaces Вывод номера 3\relax }}{4}{figure.caption.6}\protected@file@percent }
\newlabel{Вывод номера 3}{{3.2}{4}{Вывод номера 3\relax }{figure.caption.6}{}}
\@writefile{toc}{\contentsline {section}{\numberline {4}Номер 4}{5}{section.4}\protected@file@percent }
\@writefile{toc}{\contentsline {subsection}{\numberline {4.1}Условие}{5}{subsection.4.1}\protected@file@percent }
\@writefile{toc}{\contentsline {subsection}{\numberline {4.2}Код}{5}{subsection.4.2}\protected@file@percent }
\@writefile{lof}{\contentsline {figure}{\numberline {4.1}{\ignorespaces Код номера 4\relax }}{5}{figure.caption.7}\protected@file@percent }
\newlabel{Код номера 4}{{4.1}{5}{Код номера 4\relax }{figure.caption.7}{}}
\@writefile{toc}{\contentsline {subsection}{\numberline {4.3}Вывод}{6}{subsection.4.3}\protected@file@percent }
\@writefile{lof}{\contentsline {figure}{\numberline {4.2}{\ignorespaces Вывод номера 4\relax }}{6}{figure.caption.8}\protected@file@percent }
\newlabel{Вывод номера 4}{{4.2}{6}{Вывод номера 4\relax }{figure.caption.8}{}}
\@writefile{toc}{\contentsline {section}{\numberline {5}Номер 5}{6}{section.5}\protected@file@percent }
\@writefile{toc}{\contentsline {subsection}{\numberline {5.1}Условие}{6}{subsection.5.1}\protected@file@percent }
\@writefile{toc}{\contentsline {subsection}{\numberline {5.2}Код}{6}{subsection.5.2}\protected@file@percent }
\@writefile{lof}{\contentsline {figure}{\numberline {5.1}{\ignorespaces Код номера 5\relax }}{7}{figure.caption.9}\protected@file@percent }
\newlabel{Код номера 5}{{5.1}{7}{Код номера 5\relax }{figure.caption.9}{}}
\@writefile{toc}{\contentsline {subsection}{\numberline {5.3}Вывод}{7}{subsection.5.3}\protected@file@percent }
\@writefile{lof}{\contentsline {figure}{\numberline {5.2}{\ignorespaces Вывод номера 5\relax }}{7}{figure.caption.10}\protected@file@percent }
\newlabel{Вывод номера 5}{{5.2}{7}{Вывод номера 5\relax }{figure.caption.10}{}}
\@writefile{toc}{\contentsline {section}{\numberline {6}Номер 6}{7}{section.6}\protected@file@percent }
\@writefile{toc}{\contentsline {subsection}{\numberline {6.1}Условие}{7}{subsection.6.1}\protected@file@percent }
\@writefile{toc}{\contentsline {subsection}{\numberline {6.2}Код}{8}{subsection.6.2}\protected@file@percent }
\@writefile{lof}{\contentsline {figure}{\numberline {6.1}{\ignorespaces Код номера 6\relax }}{8}{figure.caption.11}\protected@file@percent }
\newlabel{Код номера 6}{{6.1}{8}{Код номера 6\relax }{figure.caption.11}{}}
\@writefile{toc}{\contentsline {subsection}{\numberline {6.3}Вывод}{8}{subsection.6.3}\protected@file@percent }
\@writefile{lof}{\contentsline {figure}{\numberline {6.2}{\ignorespaces Вывод номера 6\relax }}{8}{figure.caption.12}\protected@file@percent }
\newlabel{Вывод номера 6}{{6.2}{8}{Вывод номера 6\relax }{figure.caption.12}{}}
\@writefile{toc}{\contentsline {section}{\numberline {7}Номер 7}{8}{section.7}\protected@file@percent }
\@writefile{toc}{\contentsline {subsection}{\numberline {7.1}Условие}{8}{subsection.7.1}\protected@file@percent }
\@writefile{toc}{\contentsline {subsection}{\numberline {7.2}Код}{8}{subsection.7.2}\protected@file@percent }
\@writefile{lof}{\contentsline {figure}{\numberline {7.1}{\ignorespaces Код номера 7\relax }}{9}{figure.caption.13}\protected@file@percent }
\newlabel{Код номера 7}{{7.1}{9}{Код номера 7\relax }{figure.caption.13}{}}
\@writefile{toc}{\contentsline {subsection}{\numberline {7.3}Вывод}{9}{subsection.7.3}\protected@file@percent }
\@writefile{lof}{\contentsline {figure}{\numberline {7.2}{\ignorespaces Вывод номера 7\relax }}{9}{figure.caption.14}\protected@file@percent }
\newlabel{Вывод номера 7}{{7.2}{9}{Вывод номера 7\relax }{figure.caption.14}{}}
\@writefile{toc}{\contentsline {section}{\numberline {8}Номер 8}{9}{section.8}\protected@file@percent }
\@writefile{toc}{\contentsline {subsection}{\numberline {8.1}Условие}{9}{subsection.8.1}\protected@file@percent }
\@writefile{toc}{\contentsline {subsection}{\numberline {8.2}Код}{10}{subsection.8.2}\protected@file@percent }
\@writefile{lof}{\contentsline {figure}{\numberline {8.1}{\ignorespaces Код номера 8\relax }}{10}{figure.caption.15}\protected@file@percent }
\newlabel{Код номера 8}{{8.1}{10}{Код номера 8\relax }{figure.caption.15}{}}
\@writefile{toc}{\contentsline {subsection}{\numberline {8.3}Вывод}{10}{subsection.8.3}\protected@file@percent }
\@writefile{lof}{\contentsline {figure}{\numberline {8.2}{\ignorespaces Вывод номера 8\relax }}{10}{figure.caption.16}\protected@file@percent }
\newlabel{Вывод номера 8}{{8.2}{10}{Вывод номера 8\relax }{figure.caption.16}{}}
\@writefile{toc}{\contentsline {section}{\numberline {9}Номер 9}{10}{section.9}\protected@file@percent }
\@writefile{toc}{\contentsline {subsection}{\numberline {9.1}Условие}{10}{subsection.9.1}\protected@file@percent }
\@writefile{toc}{\contentsline {subsection}{\numberline {9.2}Код}{10}{subsection.9.2}\protected@file@percent }
\@writefile{lof}{\contentsline {figure}{\numberline {9.1}{\ignorespaces Код номера 9\relax }}{11}{figure.caption.17}\protected@file@percent }
\newlabel{Код номера 9}{{9.1}{11}{Код номера 9\relax }{figure.caption.17}{}}
\@writefile{toc}{\contentsline {subsection}{\numberline {9.3}Вывод}{11}{subsection.9.3}\protected@file@percent }
\@writefile{lof}{\contentsline {figure}{\numberline {9.2}{\ignorespaces Вывод номера 9\relax }}{11}{figure.caption.18}\protected@file@percent }
\newlabel{Вывод номера 9}{{9.2}{11}{Вывод номера 9\relax }{figure.caption.18}{}}
\@writefile{toc}{\contentsline {section}{\numberline {10}Номер 10}{11}{section.10}\protected@file@percent }
\@writefile{toc}{\contentsline {subsection}{\numberline {10.1}Условие}{11}{subsection.10.1}\protected@file@percent }
\@writefile{toc}{\contentsline {subsection}{\numberline {10.2}Код}{11}{subsection.10.2}\protected@file@percent }
\@writefile{lof}{\contentsline {figure}{\numberline {10.1}{\ignorespaces Код номера 10\relax }}{12}{figure.caption.19}\protected@file@percent }
\newlabel{Код номера 10}{{10.1}{12}{Код номера 10\relax }{figure.caption.19}{}}
\@writefile{toc}{\contentsline {subsection}{\numberline {10.3}Вывод}{12}{subsection.10.3}\protected@file@percent }
\@writefile{lof}{\contentsline {figure}{\numberline {10.2}{\ignorespaces Вывод номера 10\relax }}{12}{figure.caption.20}\protected@file@percent }
\newlabel{Вывод номера 10}{{10.2}{12}{Вывод номера 10\relax }{figure.caption.20}{}}
\newlabel{LastPage}{{}{15}{}{page.15}{}}
\xdef\lastpage@lastpage{15}
\xdef\lastpage@lastpageHy{15}
\abx@aux@read@bbl@mdfivesum{nobblfile}
\gdef \@abspage@last{15}
