\defcounter {refsection}{0}\relax 
\headcommand {\slideentry {0}{0}{1}{1/1}{}{0}}
\defcounter {refsection}{0}\relax 
\headcommand {\beamer@framepages {1}{1}}
\defcounter {refsection}{0}\relax 
\headcommand {\beamer@sectionpages {1}{1}}
\defcounter {refsection}{0}\relax 
\headcommand {\beamer@subsectionpages {1}{1}}
\defcounter {refsection}{0}\relax 
\headcommand {\sectionentry {1}{Эмоции и чувства}{2}{Эмоции и чувства}{0}}
\defcounter {refsection}{0}\relax 
\headcommand {\beamer@subsectionpages {2}{1}}
\defcounter {refsection}{0}\relax 
\headcommand {\beamer@subsectionentry {0}{1}{1}{2}{Эмоции}}
\defcounter {refsection}{0}\relax 
\headcommand {\slideentry {1}{1}{1}{2/2}{Эмоции}{0}}
\defcounter {refsection}{0}\relax 
\headcommand {\beamer@framepages {2}{2}}
\defcounter {refsection}{0}\relax 
\headcommand {\slideentry {1}{1}{2}{3/3}{Эмоции}{0}}
\defcounter {refsection}{0}\relax 
\headcommand {\beamer@framepages {3}{3}}
\defcounter {refsection}{0}\relax 
\headcommand {\slideentry {1}{1}{3}{4/4}{Эмоции}{0}}
\defcounter {refsection}{0}\relax 
\headcommand {\beamer@framepages {4}{4}}
\defcounter {refsection}{0}\relax 
\headcommand {\slideentry {1}{1}{4}{5/5}{Эмоции}{0}}
\defcounter {refsection}{0}\relax 
\headcommand {\beamer@framepages {5}{5}}
\defcounter {refsection}{0}\relax 
\headcommand {\beamer@subsectionpages {2}{5}}
\defcounter {refsection}{0}\relax 
\headcommand {\beamer@subsectionentry {0}{1}{2}{6}{Чувства}}
\defcounter {refsection}{0}\relax 
\headcommand {\slideentry {1}{2}{1}{6/6}{Чувства}{0}}
\defcounter {refsection}{0}\relax 
\headcommand {\beamer@framepages {6}{6}}
\defcounter {refsection}{0}\relax 
\headcommand {\slideentry {1}{2}{2}{7/7}{Чувства}{0}}
\defcounter {refsection}{0}\relax 
\headcommand {\beamer@framepages {7}{7}}
\defcounter {refsection}{0}\relax 
\headcommand {\slideentry {1}{2}{3}{8/8}{Чувства}{0}}
\defcounter {refsection}{0}\relax 
\headcommand {\beamer@framepages {8}{8}}
\defcounter {refsection}{0}\relax 
\headcommand {\beamer@subsectionpages {6}{8}}
\defcounter {refsection}{0}\relax 
\headcommand {\beamer@subsectionentry {0}{1}{3}{9}{Отличия чувств и эмоций}}
\defcounter {refsection}{0}\relax 
\headcommand {\slideentry {1}{3}{1}{9/9}{Отличия чувств и эмоций}{0}}
\defcounter {refsection}{0}\relax 
\headcommand {\beamer@framepages {9}{9}}
\defcounter {refsection}{0}\relax 
\headcommand {\beamer@sectionpages {2}{9}}
\defcounter {refsection}{0}\relax 
\headcommand {\beamer@subsectionpages {9}{9}}
\defcounter {refsection}{0}\relax 
\headcommand {\sectionentry {2}{Значение для человека}{10}{Значение для человека}{0}}
\defcounter {refsection}{0}\relax 
\headcommand {\slideentry {2}{0}{1}{10/10}{}{0}}
\defcounter {refsection}{0}\relax 
\headcommand {\beamer@framepages {10}{10}}
\defcounter {refsection}{0}\relax 
\headcommand {\slideentry {2}{0}{2}{11/11}{}{0}}
\defcounter {refsection}{0}\relax 
\headcommand {\beamer@framepages {11}{11}}
\headcommand {\beamer@partpages {1}{11}}
\headcommand {\beamer@subsectionpages {10}{11}}
\headcommand {\beamer@sectionpages {10}{11}}
\headcommand {\beamer@documentpages {11}}
\headcommand {\gdef \inserttotalframenumber {11}}
