\boolfalse {citerequest}\boolfalse {citetracker}\boolfalse {pagetracker}\boolfalse {backtracker}\relax 
\babel@toc {russian}{}
\defcounter {refsection}{0}\relax 
\beamer@sectionintoc {1}{Эмоции и чувства}{2}{0}{1}
\defcounter {refsection}{0}\relax 
\beamer@subsectionintoc {1}{1}{Эмоции}{2}{0}{1}
\defcounter {refsection}{0}\relax 
\beamer@subsectionintoc {1}{2}{Чувства}{6}{0}{1}
\defcounter {refsection}{0}\relax 
\beamer@subsectionintoc {1}{3}{Отличия чувств и эмоций}{9}{0}{1}
\defcounter {refsection}{0}\relax 
\beamer@sectionintoc {2}{Значение для человека}{10}{0}{2}
