\relax 
\providecommand\babel@aux[2]{}
\@nameuse{bbl@beforestart}
\catcode `"\active 
\ExplSyntaxOn \cs_if_free:NT \pgfsyspdfmark {\cs_set_eq:NN \pgfsyspdfmark \@gobblethree }\ExplSyntaxOff 
\babel@aux{russian}{}
\@writefile{toc}{\contentsline {section}{\numberline {1}Forth lesson}{1}{}\protected@file@percent }
\pgfsyspdfmark {pgfid208}{8415237}{40865873}
\pgfsyspdfmark {pgfid209}{8742918}{40085998}
\pgfsyspdfmark {pgfid210}{9340932}{40085998}
\pgfsyspdfmark {pgfid211}{11559324}{40085998}
\pgfsyspdfmark {pgfid212}{13410713}{40085998}
\pgfsyspdfmark {pgfid213}{8415237}{39751761}
\pgfsyspdfmark {pgfid214}{9014900}{38971886}
\pgfsyspdfmark {pgfid215}{9476923}{38971886}
\pgfsyspdfmark {pgfid216}{11559324}{38971886}
\pgfsyspdfmark {pgfid217}{13043710}{38971886}
\pgfsyspdfmark {pgfid218}{8415237}{38637649}
\pgfsyspdfmark {pgfid219}{9476924}{37857774}
\pgfsyspdfmark {pgfid220}{9707935}{37857774}
\pgfsyspdfmark {pgfid221}{11192321}{37857774}
\pgfsyspdfmark {pgfid222}{13179701}{37857774}
\pgfsyspdfmark {pgfid223}{8415237}{37523537}
\pgfsyspdfmark {pgfid224}{8415237}{37523537}
\pgfsyspdfmark {pgfid225}{10266626}{37523537}
\pgfsyspdfmark {pgfid226}{12118015}{37523537}
\pgfsyspdfmark {pgfid227}{13969404}{37523537}
\pgfsyspdfmark {pgfid228}{14467479}{38912901}
\pgfsyspdfmark {pgfid229}{9864869}{37118932}
\pgfsyspdfmark {pgfid230}{10192550}{36339057}
\pgfsyspdfmark {pgfid231}{10790564}{36339057}
\pgfsyspdfmark {pgfid232}{13008956}{36339057}
\pgfsyspdfmark {pgfid233}{14860345}{36339057}
\pgfsyspdfmark {pgfid234}{9864869}{36004820}
\pgfsyspdfmark {pgfid235}{10464532}{35224945}
\pgfsyspdfmark {pgfid236}{10926555}{35224945}
\pgfsyspdfmark {pgfid237}{13008956}{35224945}
\pgfsyspdfmark {pgfid238}{14493342}{35224945}
\pgfsyspdfmark {pgfid239}{9864869}{34890708}
\pgfsyspdfmark {pgfid240}{10926556}{34110833}
\pgfsyspdfmark {pgfid241}{11157567}{34110833}
\pgfsyspdfmark {pgfid242}{12641953}{34110833}
\pgfsyspdfmark {pgfid243}{14629333}{34110833}
\pgfsyspdfmark {pgfid244}{9864869}{33776596}
\pgfsyspdfmark {pgfid245}{9864869}{33776596}
\pgfsyspdfmark {pgfid246}{11716258}{33776596}
\pgfsyspdfmark {pgfid247}{13567647}{33776596}
\pgfsyspdfmark {pgfid248}{15419036}{33776596}
\pgfsyspdfmark {pgfid249}{15405929}{35165960}
\pgfsyspdfmark {pgfid250}{5968363}{32083116}
\pgfsyspdfmark {pgfid251}{6296044}{31303241}
\pgfsyspdfmark {pgfid252}{6894058}{31303241}
\pgfsyspdfmark {pgfid253}{9112450}{31303241}
\pgfsyspdfmark {pgfid254}{10963839}{31303241}
\pgfsyspdfmark {pgfid255}{5968363}{30969004}
\pgfsyspdfmark {pgfid256}{6568026}{30189129}
\pgfsyspdfmark {pgfid257}{7030049}{30189129}
\pgfsyspdfmark {pgfid258}{9112450}{30189129}
\pgfsyspdfmark {pgfid259}{10596836}{30189129}
\pgfsyspdfmark {pgfid260}{5968363}{29854892}
\pgfsyspdfmark {pgfid261}{7030050}{29075017}
\pgfsyspdfmark {pgfid262}{7261061}{29075017}
\pgfsyspdfmark {pgfid263}{8745447}{29075017}
\pgfsyspdfmark {pgfid264}{10732827}{29075017}
\pgfsyspdfmark {pgfid265}{5968363}{28740780}
\pgfsyspdfmark {pgfid266}{5968363}{28740780}
\pgfsyspdfmark {pgfid267}{7819752}{28740780}
\pgfsyspdfmark {pgfid268}{9671141}{28740780}
\pgfsyspdfmark {pgfid269}{11522530}{28740780}
\pgfsyspdfmark {pgfid270}{11509423}{30130144}
\pgfsyspdfmark {pgfid271}{12201519}{28432736}
\pgfsyspdfmark {pgfid272}{12529199}{27652861}
\pgfsyspdfmark {pgfid273}{12991222}{27652861}
\pgfsyspdfmark {pgfid274}{14706619}{27652861}
\pgfsyspdfmark {pgfid275}{12201519}{27318624}
\pgfsyspdfmark {pgfid276}{12760211}{26538749}
\pgfsyspdfmark {pgfid277}{12991222}{26538749}
\pgfsyspdfmark {pgfid278}{14706619}{26538749}
\pgfsyspdfmark {pgfid279}{12201519}{26204512}
\pgfsyspdfmark {pgfid280}{12201519}{26204512}
\pgfsyspdfmark {pgfid281}{13780925}{26204512}
\pgfsyspdfmark {pgfid282}{15632313}{26204512}
\pgfsyspdfmark {pgfid283}{15619206}{27036820}
\pgfsyspdfmark {pgfid284}{21225421}{28432736}
\pgfsyspdfmark {pgfid285}{21553101}{27652861}
\pgfsyspdfmark {pgfid286}{22151115}{27652861}
\pgfsyspdfmark {pgfid287}{24002503}{27652861}
\pgfsyspdfmark {pgfid288}{21225421}{27318624}
\pgfsyspdfmark {pgfid289}{21689092}{26538749}
\pgfsyspdfmark {pgfid290}{22151115}{26538749}
\pgfsyspdfmark {pgfid291}{24002503}{26538749}
\pgfsyspdfmark {pgfid292}{21225421}{26204512}
\pgfsyspdfmark {pgfid293}{21225421}{26204512}
\pgfsyspdfmark {pgfid294}{23076809}{26204512}
\pgfsyspdfmark {pgfid295}{24928197}{26204512}
\pgfsyspdfmark {pgfid296}{24915090}{27036820}
\pgfsyspdfmark {pgfid297}{5968363}{25896468}
\pgfsyspdfmark {pgfid298}{6296044}{25116593}
\pgfsyspdfmark {pgfid299}{6894058}{25116593}
\pgfsyspdfmark {pgfid300}{9112450}{25116593}
\pgfsyspdfmark {pgfid301}{10963839}{25116593}
\pgfsyspdfmark {pgfid302}{5968363}{24782356}
\pgfsyspdfmark {pgfid303}{6568026}{24002481}
\pgfsyspdfmark {pgfid304}{7030049}{24002481}
\pgfsyspdfmark {pgfid305}{9112450}{24002481}
\pgfsyspdfmark {pgfid306}{10596836}{24002481}
\pgfsyspdfmark {pgfid307}{5968363}{23668244}
\pgfsyspdfmark {pgfid308}{7030050}{22888369}
\pgfsyspdfmark {pgfid309}{7261061}{22888369}
\pgfsyspdfmark {pgfid310}{8745447}{22888369}
\pgfsyspdfmark {pgfid311}{10732827}{22888369}
\pgfsyspdfmark {pgfid312}{5968363}{22554132}
\pgfsyspdfmark {pgfid313}{5968363}{22554132}
\pgfsyspdfmark {pgfid314}{7819752}{22554132}
\pgfsyspdfmark {pgfid315}{9671141}{22554132}
\pgfsyspdfmark {pgfid316}{11522530}{22554132}
\pgfsyspdfmark {pgfid317}{11509423}{23943496}
\pgfsyspdfmark {pgfid318}{12739299}{25896468}
\pgfsyspdfmark {pgfid319}{13066980}{25116593}
\pgfsyspdfmark {pgfid320}{13664994}{25116593}
\pgfsyspdfmark {pgfid321}{15149380}{25116593}
\pgfsyspdfmark {pgfid322}{17000769}{25116593}
\pgfsyspdfmark {pgfid323}{12739299}{24782356}
\pgfsyspdfmark {pgfid324}{13338962}{24002481}
\pgfsyspdfmark {pgfid325}{13800985}{24002481}
\pgfsyspdfmark {pgfid326}{15149380}{24002481}
\pgfsyspdfmark {pgfid327}{16633766}{24002481}
\pgfsyspdfmark {pgfid328}{12739299}{23668244}
\pgfsyspdfmark {pgfid329}{13800986}{22888369}
\pgfsyspdfmark {pgfid330}{14031997}{22888369}
\pgfsyspdfmark {pgfid331}{15149380}{22888369}
\pgfsyspdfmark {pgfid332}{16769757}{22888369}
\pgfsyspdfmark {pgfid333}{12739299}{22554132}
\pgfsyspdfmark {pgfid334}{12739299}{22554132}
\pgfsyspdfmark {pgfid335}{14590688}{22554132}
\pgfsyspdfmark {pgfid336}{15708071}{22554132}
\pgfsyspdfmark {pgfid337}{17559460}{22554132}
\pgfsyspdfmark {pgfid338}{17546353}{23943496}
\pgfsyspdfmark {pgfid339}{24133406}{25339412}
\pgfsyspdfmark {pgfid340}{24461086}{24559537}
\pgfsyspdfmark {pgfid341}{24923109}{24559537}
\pgfsyspdfmark {pgfid342}{26638506}{24559537}
\pgfsyspdfmark {pgfid343}{24133406}{24225300}
\pgfsyspdfmark {pgfid344}{24692098}{23445425}
\pgfsyspdfmark {pgfid345}{24923109}{23445425}
\pgfsyspdfmark {pgfid346}{26638506}{23445425}
\pgfsyspdfmark {pgfid347}{24133406}{23111188}
\pgfsyspdfmark {pgfid348}{24133406}{23111188}
\pgfsyspdfmark {pgfid349}{25712812}{23111188}
\pgfsyspdfmark {pgfid350}{27564200}{23111188}
\pgfsyspdfmark {pgfid351}{27551093}{23943496}
\pgfsyspdfmark {pgfid352}{5968363}{22236908}
\pgfsyspdfmark {pgfid353}{6296044}{21457033}
\pgfsyspdfmark {pgfid354}{6894058}{21457033}
\pgfsyspdfmark {pgfid355}{9112450}{21457033}
\pgfsyspdfmark {pgfid356}{10963839}{21457033}
\pgfsyspdfmark {pgfid357}{5968363}{21122796}
\pgfsyspdfmark {pgfid358}{6568026}{20342921}
\pgfsyspdfmark {pgfid359}{7030049}{20342921}
\pgfsyspdfmark {pgfid360}{9112450}{20342921}
\pgfsyspdfmark {pgfid361}{10596836}{20342921}
\pgfsyspdfmark {pgfid362}{5968363}{20008684}
\pgfsyspdfmark {pgfid363}{7030050}{19228809}
\pgfsyspdfmark {pgfid364}{7261061}{19228809}
\pgfsyspdfmark {pgfid365}{8745447}{19228809}
\pgfsyspdfmark {pgfid366}{10732827}{19228809}
\pgfsyspdfmark {pgfid367}{5968363}{18894572}
\pgfsyspdfmark {pgfid368}{5968363}{18894572}
\pgfsyspdfmark {pgfid369}{7819752}{18894572}
\pgfsyspdfmark {pgfid370}{9671141}{18894572}
\pgfsyspdfmark {pgfid371}{11522530}{18894572}
\pgfsyspdfmark {pgfid372}{11509423}{20283936}
\pgfsyspdfmark {pgfid373}{12739299}{22236908}
\pgfsyspdfmark {pgfid374}{13066980}{21457033}
\pgfsyspdfmark {pgfid375}{13664994}{21457033}
\pgfsyspdfmark {pgfid376}{15883386}{21457033}
\pgfsyspdfmark {pgfid377}{18196797}{21457033}
\pgfsyspdfmark {pgfid378}{12739299}{21122796}
\pgfsyspdfmark {pgfid379}{13800986}{20342921}
\pgfsyspdfmark {pgfid380}{14031997}{20342921}
\pgfsyspdfmark {pgfid381}{15652374}{20342921}
\pgfsyspdfmark {pgfid382}{17598783}{20342921}
\pgfsyspdfmark {pgfid383}{12739299}{20008684}
\pgfsyspdfmark {pgfid384}{13800986}{19228809}
\pgfsyspdfmark {pgfid385}{14031997}{19228809}
\pgfsyspdfmark {pgfid386}{15516383}{19228809}
\pgfsyspdfmark {pgfid387}{17965785}{19228809}
\pgfsyspdfmark {pgfid388}{12739299}{18894572}
\pgfsyspdfmark {pgfid389}{12739299}{18894572}
\pgfsyspdfmark {pgfid390}{14590688}{18894572}
\pgfsyspdfmark {pgfid391}{16442077}{18894572}
\pgfsyspdfmark {pgfid392}{18755488}{18894572}
\pgfsyspdfmark {pgfid393}{18742381}{20283936}
\pgfsyspdfmark {pgfid394}{19972257}{22236908}
\pgfsyspdfmark {pgfid395}{20299938}{21457033}
\pgfsyspdfmark {pgfid396}{20897952}{21457033}
\pgfsyspdfmark {pgfid397}{22844362}{21457033}
\pgfsyspdfmark {pgfid398}{25157773}{21457033}
\pgfsyspdfmark {pgfid399}{19972257}{21122796}
\pgfsyspdfmark {pgfid400}{21033944}{20342921}
\pgfsyspdfmark {pgfid401}{21264955}{20342921}
\pgfsyspdfmark {pgfid402}{22613350}{20342921}
\pgfsyspdfmark {pgfid403}{24559759}{20342921}
\pgfsyspdfmark {pgfid404}{19972257}{20008684}
\pgfsyspdfmark {pgfid405}{21033944}{19228809}
\pgfsyspdfmark {pgfid406}{21264955}{19228809}
\pgfsyspdfmark {pgfid407}{22844362}{19228809}
\pgfsyspdfmark {pgfid408}{24926761}{19228809}
\pgfsyspdfmark {pgfid409}{19972257}{18894572}
\pgfsyspdfmark {pgfid410}{19972257}{18894572}
\pgfsyspdfmark {pgfid411}{21823646}{18894572}
\pgfsyspdfmark {pgfid412}{23403053}{18894572}
\pgfsyspdfmark {pgfid413}{25716464}{18894572}
\pgfsyspdfmark {pgfid414}{25703357}{20283936}
\@writefile{toc}{\contentsline {section}{\numberline {2}Миноры и алгебраические дополнения элемента матрицы}{1}{}\protected@file@percent }
\pgfsyspdfmark {pgfid485}{10767514}{9971679}
\pgfsyspdfmark {pgfid486}{11095195}{9191804}
\pgfsyspdfmark {pgfid487}{11620702}{9191804}
\pgfsyspdfmark {pgfid488}{10767514}{8857280}
\pgfsyspdfmark {pgfid489}{10767514}{8857280}
\pgfsyspdfmark {pgfid490}{12473889}{8857280}
\pgfsyspdfmark {pgfid491}{12578748}{9132675}
\pgfsyspdfmark {pgfid492}{15517662}{11085647}
\pgfsyspdfmark {pgfid493}{15845343}{10305772}
\pgfsyspdfmark {pgfid494}{16431943}{10305772}
\pgfsyspdfmark {pgfid495}{18260504}{10305772}
\pgfsyspdfmark {pgfid496}{20089065}{10305772}
\pgfsyspdfmark {pgfid497}{15517662}{9971535}
\pgfsyspdfmark {pgfid498}{15845343}{9191660}
\pgfsyspdfmark {pgfid499}{16431943}{9191660}
\pgfsyspdfmark {pgfid500}{18260504}{9191660}
\pgfsyspdfmark {pgfid501}{20089065}{9191660}
\pgfsyspdfmark {pgfid502}{15517662}{8857423}
\pgfsyspdfmark {pgfid503}{15845343}{8077548}
\pgfsyspdfmark {pgfid504}{16431943}{8077548}
\pgfsyspdfmark {pgfid505}{18260504}{8077548}
\pgfsyspdfmark {pgfid506}{20089065}{8077548}
\pgfsyspdfmark {pgfid507}{15517662}{7743311}
\pgfsyspdfmark {pgfid508}{15517662}{7743311}
\pgfsyspdfmark {pgfid509}{17346223}{7743311}
\pgfsyspdfmark {pgfid510}{19174784}{7743311}
\pgfsyspdfmark {pgfid511}{21003345}{7743311}
\pgfsyspdfmark {pgfid512}{21501420}{9132675}
\pgfsyspdfmark {pgfid513}{12610362}{43514578}
\pgfsyspdfmark {pgfid514}{12938043}{42734703}
\pgfsyspdfmark {pgfid515}{13524643}{42734703}
\pgfsyspdfmark {pgfid516}{15353204}{42734703}
\pgfsyspdfmark {pgfid517}{17181765}{42734703}
\pgfsyspdfmark {pgfid518}{12610362}{42400466}
\pgfsyspdfmark {pgfid519}{12938043}{41620591}
\pgfsyspdfmark {pgfid520}{13524643}{41620591}
\pgfsyspdfmark {pgfid521}{15353204}{41620591}
\pgfsyspdfmark {pgfid522}{17181765}{41620591}
\pgfsyspdfmark {pgfid523}{12610362}{41286354}
\pgfsyspdfmark {pgfid524}{12938043}{40506479}
\pgfsyspdfmark {pgfid525}{13524643}{40506479}
\pgfsyspdfmark {pgfid526}{15353204}{40506479}
\pgfsyspdfmark {pgfid527}{17181765}{40506479}
\pgfsyspdfmark {pgfid528}{12610362}{40172242}
\pgfsyspdfmark {pgfid529}{12610362}{40172242}
\pgfsyspdfmark {pgfid530}{14438923}{40172242}
\pgfsyspdfmark {pgfid531}{16267484}{40172242}
\pgfsyspdfmark {pgfid532}{18096045}{40172242}
\pgfsyspdfmark {pgfid533}{18082938}{41561606}
\pgfsyspdfmark {pgfid534}{10649548}{25905524}
\pgfsyspdfmark {pgfid535}{10977229}{25125649}
\pgfsyspdfmark {pgfid536}{11575243}{25125649}
\pgfsyspdfmark {pgfid537}{13059629}{25125649}
\pgfsyspdfmark {pgfid538}{15101059}{25125649}
\pgfsyspdfmark {pgfid539}{10649548}{24791412}
\pgfsyspdfmark {pgfid540}{11711235}{24011537}
\pgfsyspdfmark {pgfid541}{11942246}{24011537}
\pgfsyspdfmark {pgfid542}{13059629}{24011537}
\pgfsyspdfmark {pgfid543}{15332070}{24011537}
\pgfsyspdfmark {pgfid544}{10649548}{23677300}
\pgfsyspdfmark {pgfid545}{11711235}{22897425}
\pgfsyspdfmark {pgfid546}{11942246}{22897425}
\pgfsyspdfmark {pgfid547}{13059629}{22897425}
\pgfsyspdfmark {pgfid548}{14870047}{22897425}
\pgfsyspdfmark {pgfid549}{10649548}{22563188}
\pgfsyspdfmark {pgfid550}{10649548}{22563188}
\pgfsyspdfmark {pgfid551}{12500937}{22563188}
\pgfsyspdfmark {pgfid552}{13618320}{22563188}
\pgfsyspdfmark {pgfid553}{16121773}{22563188}
\pgfsyspdfmark {pgfid554}{16108666}{23952552}
\@writefile{toc}{\contentsline {subsection}{\numberline {2.1}Формулы Крамера для решения с.\,л.\,у.}{2}{}\protected@file@percent }
\pgfsyspdfmark {pgfid686}{10599093}{11459199}
\pgfsyspdfmark {pgfid687}{10926774}{10679324}
\pgfsyspdfmark {pgfid688}{11513374}{10679324}
\pgfsyspdfmark {pgfid689}{13341935}{10679324}
\pgfsyspdfmark {pgfid690}{15170496}{10679324}
\pgfsyspdfmark {pgfid691}{10599093}{10345087}
\pgfsyspdfmark {pgfid692}{10926774}{9565212}
\pgfsyspdfmark {pgfid693}{11513374}{9565212}
\pgfsyspdfmark {pgfid694}{13341935}{9565212}
\pgfsyspdfmark {pgfid695}{15170496}{9565212}
\pgfsyspdfmark {pgfid696}{10599093}{9230975}
\pgfsyspdfmark {pgfid697}{10926774}{8451100}
\pgfsyspdfmark {pgfid698}{11513374}{8451100}
\pgfsyspdfmark {pgfid699}{13341935}{8451100}
\pgfsyspdfmark {pgfid700}{15170496}{8451100}
\pgfsyspdfmark {pgfid701}{10599093}{8116863}
\pgfsyspdfmark {pgfid702}{10599093}{8116863}
\pgfsyspdfmark {pgfid703}{12427654}{8116863}
\pgfsyspdfmark {pgfid704}{14256215}{8116863}
\pgfsyspdfmark {pgfid705}{16084776}{8116863}
\pgfsyspdfmark {pgfid706}{16582851}{9506227}
\pgfsyspdfmark {pgfid707}{10599093}{43514578}
\pgfsyspdfmark {pgfid708}{10926774}{42734703}
\pgfsyspdfmark {pgfid709}{11513374}{42734703}
\pgfsyspdfmark {pgfid710}{13341935}{42734703}
\pgfsyspdfmark {pgfid711}{15170496}{42734703}
\pgfsyspdfmark {pgfid712}{16858591}{42734703}
\pgfsyspdfmark {pgfid713}{10599093}{42400466}
\pgfsyspdfmark {pgfid714}{10926774}{41620591}
\pgfsyspdfmark {pgfid715}{11513374}{41620591}
\pgfsyspdfmark {pgfid716}{13341935}{41620591}
\pgfsyspdfmark {pgfid717}{15170496}{41620591}
\pgfsyspdfmark {pgfid718}{16858591}{41620591}
\pgfsyspdfmark {pgfid719}{10599093}{41286354}
\pgfsyspdfmark {pgfid720}{10926774}{40506479}
\pgfsyspdfmark {pgfid721}{11513374}{40506479}
\pgfsyspdfmark {pgfid722}{13341935}{40506479}
\pgfsyspdfmark {pgfid723}{15170496}{40506479}
\pgfsyspdfmark {pgfid724}{16858591}{40506479}
\pgfsyspdfmark {pgfid725}{10599093}{40172242}
\pgfsyspdfmark {pgfid726}{10599093}{40172242}
\pgfsyspdfmark {pgfid727}{12427654}{40172242}
\pgfsyspdfmark {pgfid728}{14256215}{40172242}
\pgfsyspdfmark {pgfid729}{16154244}{40172242}
\pgfsyspdfmark {pgfid730}{17562937}{40172242}
\pgfsyspdfmark {pgfid731}{18061012}{41561606}
\pgfsyspdfmark {pgfid732}{18061012}{41561606}
\pgfsyspdfmark {pgfid733}{12048725}{39855018}
\pgfsyspdfmark {pgfid734}{12376406}{39075143}
\pgfsyspdfmark {pgfid735}{12963006}{39075143}
\pgfsyspdfmark {pgfid736}{14791567}{39075143}
\pgfsyspdfmark {pgfid737}{16620128}{39075143}
\pgfsyspdfmark {pgfid738}{12048725}{38740906}
\pgfsyspdfmark {pgfid739}{12376406}{37961031}
\pgfsyspdfmark {pgfid740}{12963006}{37961031}
\pgfsyspdfmark {pgfid741}{14791567}{37961031}
\pgfsyspdfmark {pgfid742}{16620128}{37961031}
\pgfsyspdfmark {pgfid743}{12048725}{37626794}
\pgfsyspdfmark {pgfid744}{12376406}{36846919}
\pgfsyspdfmark {pgfid745}{12963006}{36846919}
\pgfsyspdfmark {pgfid746}{14791567}{36846919}
\pgfsyspdfmark {pgfid747}{16620128}{36846919}
\pgfsyspdfmark {pgfid748}{12048725}{36512682}
\pgfsyspdfmark {pgfid749}{12048725}{36512682}
\pgfsyspdfmark {pgfid750}{13877286}{36512682}
\pgfsyspdfmark {pgfid751}{15705847}{36512682}
\pgfsyspdfmark {pgfid752}{17534408}{36512682}
\pgfsyspdfmark {pgfid753}{17521301}{37902046}
\pgfsyspdfmark {pgfid754}{10359396}{32074576}
\pgfsyspdfmark {pgfid755}{10687076}{31294701}
\pgfsyspdfmark {pgfid756}{11063742}{31294701}
\pgfsyspdfmark {pgfid757}{12682368}{31294701}
\pgfsyspdfmark {pgfid758}{14510928}{31294701}
\pgfsyspdfmark {pgfid759}{10359396}{30960464}
\pgfsyspdfmark {pgfid760}{10687076}{30180589}
\pgfsyspdfmark {pgfid761}{11063742}{30180589}
\pgfsyspdfmark {pgfid762}{12682368}{30180589}
\pgfsyspdfmark {pgfid763}{14510928}{30180589}
\pgfsyspdfmark {pgfid764}{10359396}{29846352}
\pgfsyspdfmark {pgfid765}{10687076}{29066477}
\pgfsyspdfmark {pgfid766}{11063742}{29066477}
\pgfsyspdfmark {pgfid767}{12682368}{29066477}
\pgfsyspdfmark {pgfid768}{14510928}{29066477}
\pgfsyspdfmark {pgfid769}{10359396}{28732240}
\pgfsyspdfmark {pgfid770}{10359396}{28732240}
\pgfsyspdfmark {pgfid771}{11768088}{28732240}
\pgfsyspdfmark {pgfid772}{13596648}{28732240}
\pgfsyspdfmark {pgfid773}{15425208}{28732240}
\pgfsyspdfmark {pgfid774}{15412101}{30121604}
\pgfsyspdfmark {pgfid775}{10359396}{27163699}
\pgfsyspdfmark {pgfid776}{10687076}{26383824}
\pgfsyspdfmark {pgfid777}{11273676}{26383824}
\pgfsyspdfmark {pgfid778}{12892302}{26383824}
\pgfsyspdfmark {pgfid779}{14510928}{26383824}
\pgfsyspdfmark {pgfid780}{10359396}{26049587}
\pgfsyspdfmark {pgfid781}{10687076}{25269712}
\pgfsyspdfmark {pgfid782}{11273676}{25269712}
\pgfsyspdfmark {pgfid783}{12892302}{25269712}
\pgfsyspdfmark {pgfid784}{14510928}{25269712}
\pgfsyspdfmark {pgfid785}{10359396}{24935475}
\pgfsyspdfmark {pgfid786}{10687076}{24155600}
\pgfsyspdfmark {pgfid787}{11273676}{24155600}
\pgfsyspdfmark {pgfid788}{12892302}{24155600}
\pgfsyspdfmark {pgfid789}{14510928}{24155600}
\pgfsyspdfmark {pgfid790}{10359396}{23821363}
\pgfsyspdfmark {pgfid791}{10359396}{23821363}
\pgfsyspdfmark {pgfid792}{12187956}{23821363}
\pgfsyspdfmark {pgfid793}{13596648}{23821363}
\pgfsyspdfmark {pgfid794}{15425208}{23821363}
\pgfsyspdfmark {pgfid795}{15412101}{25210727}
\pgfsyspdfmark {pgfid796}{10359396}{22252822}
\pgfsyspdfmark {pgfid797}{10687076}{21472947}
\pgfsyspdfmark {pgfid798}{11273676}{21472947}
\pgfsyspdfmark {pgfid799}{13102236}{21472947}
\pgfsyspdfmark {pgfid800}{14720862}{21472947}
\pgfsyspdfmark {pgfid801}{10359396}{21138710}
\pgfsyspdfmark {pgfid802}{10687076}{20358835}
\pgfsyspdfmark {pgfid803}{11273676}{20358835}
\pgfsyspdfmark {pgfid804}{13102236}{20358835}
\pgfsyspdfmark {pgfid805}{14720862}{20358835}
\pgfsyspdfmark {pgfid806}{10359396}{20024598}
\pgfsyspdfmark {pgfid807}{10687076}{19244723}
\pgfsyspdfmark {pgfid808}{11273676}{19244723}
\pgfsyspdfmark {pgfid809}{13102236}{19244723}
\pgfsyspdfmark {pgfid810}{14720862}{19244723}
\pgfsyspdfmark {pgfid811}{10359396}{18910486}
\pgfsyspdfmark {pgfid812}{10359396}{18910486}
\pgfsyspdfmark {pgfid813}{12187956}{18910486}
\pgfsyspdfmark {pgfid814}{14016516}{18910486}
\pgfsyspdfmark {pgfid815}{15425208}{18910486}
\pgfsyspdfmark {pgfid816}{15412101}{20299850}
\@writefile{toc}{\contentsline {subsection}{\numberline {2.2}Векторы}{3}{}\protected@file@percent }
\@writefile{toc}{\contentsline {subsection}{\numberline {2.3}Операции над векторами}{4}{}\protected@file@percent }
\pgfsyspdfmark {pgfid842}{9916454}{36943672}
\pgfsyspdfmark {pgfid843}{10244134}{36163797}
\pgfsyspdfmark {pgfid844}{10475145}{36163797}
\pgfsyspdfmark {pgfid845}{11959530}{36163797}
\pgfsyspdfmark {pgfid846}{13810918}{36163797}
\pgfsyspdfmark {pgfid847}{15662306}{36163797}
\pgfsyspdfmark {pgfid848}{9916454}{35829560}
\pgfsyspdfmark {pgfid849}{10244134}{35049685}
\pgfsyspdfmark {pgfid850}{10475145}{35049685}
\pgfsyspdfmark {pgfid851}{11959530}{35049685}
\pgfsyspdfmark {pgfid852}{13810918}{35049685}
\pgfsyspdfmark {pgfid853}{15662306}{35049685}
\pgfsyspdfmark {pgfid854}{9916454}{34715448}
\pgfsyspdfmark {pgfid855}{10244134}{33935573}
\pgfsyspdfmark {pgfid856}{10475145}{33935573}
\pgfsyspdfmark {pgfid857}{11959530}{33935573}
\pgfsyspdfmark {pgfid858}{13810918}{33935573}
\pgfsyspdfmark {pgfid859}{15662306}{33935573}
\pgfsyspdfmark {pgfid860}{9916454}{33601336}
\pgfsyspdfmark {pgfid861}{9916454}{33601336}
\pgfsyspdfmark {pgfid862}{11033836}{33601336}
\pgfsyspdfmark {pgfid863}{12885224}{33601336}
\pgfsyspdfmark {pgfid864}{14736612}{33601336}
\pgfsyspdfmark {pgfid865}{16588000}{33601336}
\pgfsyspdfmark {pgfid866}{17086075}{34990700}
\@writefile{toc}{\contentsline {subsection}{\numberline {2.4}Линейно-независимые векторы}{6}{}\protected@file@percent }
\pgfsyspdfmark {pgfid892}{7585825}{26953660}
\pgfsyspdfmark {pgfid893}{8375530}{26173785}
\pgfsyspdfmark {pgfid894}{8606541}{26173785}
\pgfsyspdfmark {pgfid895}{10552949}{26173785}
\pgfsyspdfmark {pgfid896}{12499359}{26173785}
\pgfsyspdfmark {pgfid897}{14119736}{26173785}
\pgfsyspdfmark {pgfid898}{7585825}{25839548}
\pgfsyspdfmark {pgfid899}{8375530}{25059673}
\pgfsyspdfmark {pgfid900}{8606541}{25059673}
\pgfsyspdfmark {pgfid901}{10919952}{25059673}
\pgfsyspdfmark {pgfid902}{12499359}{25059673}
\pgfsyspdfmark {pgfid903}{13983745}{25059673}
\pgfsyspdfmark {pgfid904}{7585825}{24725436}
\pgfsyspdfmark {pgfid905}{7913506}{23945561}
\pgfsyspdfmark {pgfid906}{8375529}{23945561}
\pgfsyspdfmark {pgfid907}{10321938}{23945561}
\pgfsyspdfmark {pgfid908}{12268347}{23945561}
\pgfsyspdfmark {pgfid909}{14119736}{23945561}
\pgfsyspdfmark {pgfid910}{7585825}{23611324}
\pgfsyspdfmark {pgfid911}{7585825}{23611324}
\pgfsyspdfmark {pgfid912}{9165232}{23611324}
\pgfsyspdfmark {pgfid913}{11478643}{23611324}
\pgfsyspdfmark {pgfid914}{13058050}{23611324}
\pgfsyspdfmark {pgfid915}{14909439}{23611324}
\pgfsyspdfmark {pgfid916}{15407514}{25000688}
\gdef \@abspage@last{8}
