\boolfalse {citerequest}\boolfalse {citetracker}\boolfalse {pagetracker}\boolfalse {backtracker}\relax 
\babel@toc {russian}{}
\defcounter {refsection}{0}\relax 
\contentsline {chapter}{\numberline {1}Предисловие}{3}{chapter.1}%
\defcounter {refsection}{0}\relax 
\contentsline {chapter}{\numberline {2}Экономические выгоды легализации подростковой проституции}{4}{chapter.2}%
