\relax 
\providecommand\hyper@newdestlabel[2]{}
\@nameuse{bbl@beforestart}
\catcode `"\active 
\nicematrix@redefine@check@rerun 
\abx@aux@refcontext{nty/global//global/global}
\providecommand\HyperFirstAtBeginDocument{\AtBeginDocument}
\HyperFirstAtBeginDocument{\ifx\hyper@anchor\@undefined
\global\let\oldcontentsline\contentsline
\gdef\contentsline#1#2#3#4{\oldcontentsline{#1}{#2}{#3}}
\global\let\oldnewlabel\newlabel
\gdef\newlabel#1#2{\newlabelxx{#1}#2}
\gdef\newlabelxx#1#2#3#4#5#6{\oldnewlabel{#1}{{#2}{#3}}}
\AtEndDocument{\ifx\hyper@anchor\@undefined
\let\contentsline\oldcontentsline
\let\newlabel\oldnewlabel
\fi}
\fi}
\global\let\hyper@last\relax 
\gdef\HyperFirstAtBeginDocument#1{#1}
\providecommand\HyField@AuxAddToFields[1]{}
\providecommand\HyField@AuxAddToCoFields[2]{}
\providecommand\@newglossary[4]{}
\@newglossary{main}{glg}{gls}{glo}
\providecommand\@glsorder[1]{}
\providecommand\@istfilename[1]{}
\@istfilename{economic.xdy}
\@glsorder{word}
\@writefile{toc}{\boolfalse {citerequest}\boolfalse {citetracker}\boolfalse {pagetracker}\boolfalse {backtracker}\relax }
\@writefile{lof}{\boolfalse {citerequest}\boolfalse {citetracker}\boolfalse {pagetracker}\boolfalse {backtracker}\relax }
\@writefile{lot}{\boolfalse {citerequest}\boolfalse {citetracker}\boolfalse {pagetracker}\boolfalse {backtracker}\relax }
\babel@aux{russian}{}
\pp@pagectr{footnote}{1}{3}{3}
\@writefile{toc}{\defcounter {refsection}{0}\relax }\@writefile{toc}{\contentsline {chapter}{\numberline {1}Предисловие}{3}{chapter.1}\protected@file@percent }
\@writefile{lof}{\defcounter {refsection}{0}\relax }\@writefile{lof}{\addvspace {10\p@ }}
\@writefile{lot}{\defcounter {refsection}{0}\relax }\@writefile{lot}{\addvspace {10\p@ }}
\abx@aux@cite{smi}
\abx@aux@segm{0}{0}{smi}
\abx@aux@cite{phedorova}
\abx@aux@segm{0}{0}{phedorova}
\pp@pagectr{footnote}{2}{4}{4}
\@writefile{toc}{\defcounter {refsection}{0}\relax }\@writefile{toc}{\contentsline {chapter}{\numberline {2}Экономические выгоды легализации подростковой проституции}{4}{chapter.2}\protected@file@percent }
\@writefile{lof}{\defcounter {refsection}{0}\relax }\@writefile{lof}{\addvspace {10\p@ }}
\@writefile{lot}{\defcounter {refsection}{0}\relax }\@writefile{lot}{\addvspace {10\p@ }}
\newlabel{Зависимость денег с налогов от числа налогоплательщиков}{{2.1}{4}{Экономические выгоды легализации подростковой проституции}{equation.2.0.1}{}}
\@writefile{lomyscheme}{\defcounter {refsection}{0}\relax }\@writefile{lomyscheme}{\contentsline {myscheme}{\numberline {2.1}{\ignorespaces Зависимость доходов от налогоплательщиков при увеличении их числа\relax }}{5}{myscheme.caption.2}\protected@file@percent }
\providecommand*\caption@xref[2]{\@setref\relax\@undefined{#1}}
\newlabel{Зависимость доходов от налогоплательщиков при увеличении их числа}{{2.1}{5}{Зависимость доходов от налогоплательщиков при увеличении их числа\relax }{myscheme.caption.2}{}}
\abx@aux@refcontextdefaultsdone
\abx@aux@defaultrefcontext{0}{smi}{nty/global//global/global}
\abx@aux@defaultrefcontext{0}{phedorova}{nty/global//global/global}
\newlabel{LastPage}{{}{7}{}{page.7}{}}
\xdef\lastpage@lastpage{7}
\xdef\lastpage@lastpageHy{7}
