\relax 
\providecommand\hyper@newdestlabel[2]{}
\providecommand\babel@aux[2]{}
\@nameuse{bbl@beforestart}
\catcode `"\active 
\nicematrix@redefine@check@rerun 
\@writefile{toc}{\boolfalse {citerequest}\boolfalse {citetracker}\boolfalse {pagetracker}\boolfalse {backtracker}\relax }
\@writefile{lof}{\boolfalse {citerequest}\boolfalse {citetracker}\boolfalse {pagetracker}\boolfalse {backtracker}\relax }
\@writefile{lot}{\boolfalse {citerequest}\boolfalse {citetracker}\boolfalse {pagetracker}\boolfalse {backtracker}\relax }
\abx@aux@refcontext{nty/global//global/global}
\providecommand\HyperFirstAtBeginDocument{\AtBeginDocument}
\HyperFirstAtBeginDocument{\ifx\hyper@anchor\@undefined
\global\let\oldcontentsline\contentsline
\gdef\contentsline#1#2#3#4{\oldcontentsline{#1}{#2}{#3}}
\global\let\oldnewlabel\newlabel
\gdef\newlabel#1#2{\newlabelxx{#1}#2}
\gdef\newlabelxx#1#2#3#4#5#6{\oldnewlabel{#1}{{#2}{#3}}}
\AtEndDocument{\ifx\hyper@anchor\@undefined
\let\contentsline\oldcontentsline
\let\newlabel\oldnewlabel
\fi}
\fi}
\global\let\hyper@last\relax 
\gdef\HyperFirstAtBeginDocument#1{#1}
\providecommand\HyField@AuxAddToFields[1]{}
\providecommand\HyField@AuxAddToCoFields[2]{}
\babel@aux{russian}{}
\ExplSyntaxOn \cs_if_free:NT \pgfsyspdfmark {\cs_set_eq:NN \pgfsyspdfmark \@gobblethree }\ExplSyntaxOff 
\pp@pagectr{footnote}{1}{2}{2}
\@writefile{toc}{\defcounter {refsection}{0}\relax }\@writefile{toc}{\contentsline {chapter}{\numberline {1}Вариант 10}{2}{chapter.1}\protected@file@percent }
\@writefile{lof}{\defcounter {refsection}{0}\relax }\@writefile{lof}{\addvspace {10\p@ }}
\@writefile{lot}{\defcounter {refsection}{0}\relax }\@writefile{lot}{\addvspace {10\p@ }}
\@writefile{lomylisting}{\defcounter {refsection}{0}\relax }\@writefile{lomylisting}{\addvspace {10\p@ }}
\@writefile{lomygraphic}{\defcounter {refsection}{0}\relax }\@writefile{lomygraphic}{\addvspace {10\p@ }}
\@writefile{lomyscheme}{\defcounter {refsection}{0}\relax }\@writefile{lomyscheme}{\addvspace {10\p@ }}
\@writefile{lomydiagram}{\defcounter {refsection}{0}\relax }\@writefile{lomydiagram}{\addvspace {10\p@ }}
\@writefile{toc}{\defcounter {refsection}{0}\relax }\@writefile{toc}{\contentsline {section}{\numberline {1.1}Задание №1}{2}{section.1.1}\protected@file@percent }
\@writefile{toc}{\defcounter {refsection}{0}\relax }\@writefile{toc}{\contentsline {subsection}{\numberline {1.1.1}a}{2}{subsection.1.1.1}\protected@file@percent }
\@writefile{toc}{\defcounter {refsection}{0}\relax }\@writefile{toc}{\contentsline {subsection}{\numberline {1.1.2}b}{2}{subsection.1.1.2}\protected@file@percent }
\@writefile{toc}{\defcounter {refsection}{0}\relax }\@writefile{toc}{\contentsline {subsection}{\numberline {1.1.3}c}{3}{subsection.1.1.3}\protected@file@percent }
\pgfsyspdfmark {pgfid88}{10987293}{48219422}
\pgfsyspdfmark {pgfid89}{11555051}{46952124}
\pgfsyspdfmark {pgfid90}{11818011}{46952124}
\pgfsyspdfmark {pgfid91}{13991120}{46952124}
\pgfsyspdfmark {pgfid92}{16916249}{46952124}
\pgfsyspdfmark {pgfid93}{10987293}{46408988}
\pgfsyspdfmark {pgfid94}{11314973}{45141690}
\pgfsyspdfmark {pgfid95}{11818011}{45141690}
\pgfsyspdfmark {pgfid96}{13991120}{45141690}
\pgfsyspdfmark {pgfid97}{16916249}{45141690}
\pgfsyspdfmark {pgfid98}{10987293}{44598554}
\pgfsyspdfmark {pgfid99}{11337638}{43331256}
\pgfsyspdfmark {pgfid100}{11818011}{43331256}
\pgfsyspdfmark {pgfid101}{13991120}{43331256}
\pgfsyspdfmark {pgfid102}{16916249}{43331256}
\pgfsyspdfmark {pgfid103}{10987293}{42788120}
\pgfsyspdfmark {pgfid104}{11577716}{41520822}
\pgfsyspdfmark {pgfid105}{11818011}{41520822}
\pgfsyspdfmark {pgfid106}{13991120}{41520822}
\pgfsyspdfmark {pgfid107}{16916249}{41520822}
\pgfsyspdfmark {pgfid108}{10987293}{40977686}
\pgfsyspdfmark {pgfid109}{10987293}{40977686}
\pgfsyspdfmark {pgfid110}{12648729}{40977686}
\pgfsyspdfmark {pgfid111}{13304089}{40977686}
\pgfsyspdfmark {pgfid112}{14678151}{40977686}
\pgfsyspdfmark {pgfid113}{15333511}{40977686}
\pgfsyspdfmark {pgfid114}{18498987}{40977686}
\savepicturepage{pgfid115}{3}
\pgfsyspdfmark {pgfid115}{19128134}{44316750}
\pgfsyspdfmark {pgfid116}{20869550}{40596210}
\pgfsyspdfmark {pgfid117}{21437308}{39328912}
\pgfsyspdfmark {pgfid118}{21700268}{39328912}
\pgfsyspdfmark {pgfid119}{23873377}{39328912}
\pgfsyspdfmark {pgfid120}{26706358}{39328912}
\pgfsyspdfmark {pgfid121}{20869550}{38785776}
\pgfsyspdfmark {pgfid122}{21197230}{37518478}
\pgfsyspdfmark {pgfid123}{21700268}{37518478}
\pgfsyspdfmark {pgfid124}{23873377}{37518478}
\pgfsyspdfmark {pgfid125}{26706358}{37518478}
\pgfsyspdfmark {pgfid126}{20869550}{36975342}
\pgfsyspdfmark {pgfid127}{21219895}{35708044}
\pgfsyspdfmark {pgfid128}{21700268}{35708044}
\pgfsyspdfmark {pgfid129}{23873377}{35708044}
\pgfsyspdfmark {pgfid130}{26706358}{35708044}
\pgfsyspdfmark {pgfid131}{20869550}{35164908}
\pgfsyspdfmark {pgfid132}{21459973}{33897610}
\pgfsyspdfmark {pgfid133}{21700268}{33897610}
\pgfsyspdfmark {pgfid134}{23873377}{33897610}
\pgfsyspdfmark {pgfid135}{26706358}{33897610}
\pgfsyspdfmark {pgfid136}{20869550}{33354474}
\pgfsyspdfmark {pgfid137}{20869550}{33354474}
\pgfsyspdfmark {pgfid138}{22530986}{33354474}
\pgfsyspdfmark {pgfid139}{23186346}{33354474}
\pgfsyspdfmark {pgfid140}{24560408}{33354474}
\pgfsyspdfmark {pgfid141}{25215768}{33354474}
\pgfsyspdfmark {pgfid142}{28196948}{33354474}
\savepicturepage{pgfid143}{3}
\pgfsyspdfmark {pgfid143}{28826095}{36693538}
\pgfsyspdfmark {pgfid144}{27440063}{32972998}
\pgfsyspdfmark {pgfid145}{28007821}{31705700}
\pgfsyspdfmark {pgfid146}{28270781}{31705700}
\pgfsyspdfmark {pgfid147}{30443890}{31705700}
\pgfsyspdfmark {pgfid148}{33276871}{31705700}
\pgfsyspdfmark {pgfid149}{27440063}{31162564}
\pgfsyspdfmark {pgfid150}{27767743}{29895266}
\pgfsyspdfmark {pgfid151}{28270781}{29895266}
\pgfsyspdfmark {pgfid152}{30443890}{29895266}
\pgfsyspdfmark {pgfid153}{33276871}{29895266}
\pgfsyspdfmark {pgfid154}{27440063}{29352130}
\pgfsyspdfmark {pgfid155}{27790408}{28084832}
\pgfsyspdfmark {pgfid156}{28270781}{28084832}
\pgfsyspdfmark {pgfid157}{30443890}{28084832}
\pgfsyspdfmark {pgfid158}{33276871}{28084832}
\pgfsyspdfmark {pgfid159}{27440063}{27541696}
\pgfsyspdfmark {pgfid160}{28030486}{26274398}
\pgfsyspdfmark {pgfid161}{28270781}{26274398}
\pgfsyspdfmark {pgfid162}{30443890}{26274398}
\pgfsyspdfmark {pgfid163}{33276871}{26274398}
\pgfsyspdfmark {pgfid164}{27440063}{25731262}
\pgfsyspdfmark {pgfid165}{27440063}{25731262}
\pgfsyspdfmark {pgfid166}{29101499}{25731262}
\pgfsyspdfmark {pgfid167}{29756859}{25731262}
\pgfsyspdfmark {pgfid168}{31130921}{25731262}
\pgfsyspdfmark {pgfid169}{31786281}{25731262}
\pgfsyspdfmark {pgfid170}{34767461}{25731262}
\savepicturepage{pgfid171}{3}
\pgfsyspdfmark {pgfid171}{35396608}{29070326}
\@writefile{toc}{\defcounter {refsection}{0}\relax }\@writefile{toc}{\contentsline {subsection}{\numberline {1.1.4}d}{3}{subsection.1.1.4}\protected@file@percent }
\pgfsyspdfmark {pgfid214}{21056919}{9041921}
\pgfsyspdfmark {pgfid215}{21384599}{7774623}
\pgfsyspdfmark {pgfid216}{21620253}{7774623}
\pgfsyspdfmark {pgfid217}{23525978}{7774623}
\pgfsyspdfmark {pgfid218}{25638824}{7774623}
\pgfsyspdfmark {pgfid219}{21056919}{7231487}
\pgfsyspdfmark {pgfid220}{21056919}{7231487}
\pgfsyspdfmark {pgfid221}{22183587}{7231487}
\pgfsyspdfmark {pgfid222}{22838947}{7231487}
\pgfsyspdfmark {pgfid223}{24213009}{7231487}
\pgfsyspdfmark {pgfid224}{24868369}{7231487}
\pgfsyspdfmark {pgfid225}{26409279}{7231487}
\savepicturepage{pgfid226}{3}
\pgfsyspdfmark {pgfid226}{26854925}{7854900}
\pgfsyspdfmark {pgfid227}{7844408}{51449875}
\pgfsyspdfmark {pgfid228}{8412166}{50182577}
\pgfsyspdfmark {pgfid229}{8675126}{50182577}
\pgfsyspdfmark {pgfid230}{10848235}{50182577}
\pgfsyspdfmark {pgfid231}{14388226}{50182577}
\pgfsyspdfmark {pgfid232}{7844408}{49639441}
\pgfsyspdfmark {pgfid233}{8172088}{48372143}
\pgfsyspdfmark {pgfid234}{8675126}{48372143}
\pgfsyspdfmark {pgfid235}{10848235}{48372143}
\pgfsyspdfmark {pgfid236}{14388226}{48372143}
\pgfsyspdfmark {pgfid237}{7844408}{47829007}
\pgfsyspdfmark {pgfid238}{8194753}{46561709}
\pgfsyspdfmark {pgfid239}{8675126}{46561709}
\pgfsyspdfmark {pgfid240}{10848235}{46561709}
\pgfsyspdfmark {pgfid241}{14388226}{46561709}
\pgfsyspdfmark {pgfid242}{7844408}{46009930}
\pgfsyspdfmark {pgfid243}{8434831}{44742632}
\pgfsyspdfmark {pgfid244}{8675126}{44742632}
\pgfsyspdfmark {pgfid245}{10848235}{44742632}
\pgfsyspdfmark {pgfid246}{14388226}{44742632}
\pgfsyspdfmark {pgfid247}{7844408}{44190853}
\pgfsyspdfmark {pgfid248}{7844408}{44190853}
\pgfsyspdfmark {pgfid249}{9505844}{44190853}
\pgfsyspdfmark {pgfid250}{10161204}{44190853}
\pgfsyspdfmark {pgfid251}{11535266}{44190853}
\pgfsyspdfmark {pgfid252}{12190626}{44190853}
\pgfsyspdfmark {pgfid253}{16585826}{44190853}
\savepicturepage{pgfid254}{4}
\pgfsyspdfmark {pgfid254}{17214973}{47538560}
\@writefile{toc}{\defcounter {refsection}{0}\relax }\@writefile{toc}{\contentsline {subsection}{\numberline {1.1.5}e}{4}{subsection.1.1.5}\protected@file@percent }
\pgfsyspdfmark {pgfid269}{21259372}{29528840}
\pgfsyspdfmark {pgfid270}{21587052}{28261542}
\pgfsyspdfmark {pgfid271}{21822706}{28261542}
\pgfsyspdfmark {pgfid272}{23728431}{28261542}
\pgfsyspdfmark {pgfid273}{25841277}{28261542}
\pgfsyspdfmark {pgfid274}{21259372}{27718406}
\pgfsyspdfmark {pgfid275}{21259372}{27718406}
\pgfsyspdfmark {pgfid276}{22386040}{27718406}
\pgfsyspdfmark {pgfid277}{23041400}{27718406}
\pgfsyspdfmark {pgfid278}{24415462}{27718406}
\pgfsyspdfmark {pgfid279}{25070822}{27718406}
\pgfsyspdfmark {pgfid280}{26611732}{27718406}
\savepicturepage{pgfid281}{4}
\pgfsyspdfmark {pgfid281}{27057378}{28341819}
\@writefile{toc}{\defcounter {refsection}{0}\relax }\@writefile{toc}{\contentsline {section}{\numberline {1.2}Задание №2}{4}{section.1.2}\protected@file@percent }
\pp@pagectr{footnote}{2}{6}{6}
\@writefile{toc}{\defcounter {refsection}{0}\relax }\@writefile{toc}{\contentsline {chapter}{\numberline {2}Вариант 20}{6}{chapter.2}\protected@file@percent }
\@writefile{lof}{\defcounter {refsection}{0}\relax }\@writefile{lof}{\addvspace {10\p@ }}
\@writefile{lot}{\defcounter {refsection}{0}\relax }\@writefile{lot}{\addvspace {10\p@ }}
\@writefile{lomylisting}{\defcounter {refsection}{0}\relax }\@writefile{lomylisting}{\addvspace {10\p@ }}
\@writefile{lomygraphic}{\defcounter {refsection}{0}\relax }\@writefile{lomygraphic}{\addvspace {10\p@ }}
\@writefile{lomyscheme}{\defcounter {refsection}{0}\relax }\@writefile{lomyscheme}{\addvspace {10\p@ }}
\@writefile{lomydiagram}{\defcounter {refsection}{0}\relax }\@writefile{lomydiagram}{\addvspace {10\p@ }}
\@writefile{toc}{\defcounter {refsection}{0}\relax }\@writefile{toc}{\contentsline {section}{\numberline {2.1}Задание №1}{6}{section.2.1}\protected@file@percent }
\@writefile{toc}{\defcounter {refsection}{0}\relax }\@writefile{toc}{\contentsline {subsection}{\numberline {2.1.1}a}{6}{subsection.2.1.1}\protected@file@percent }
\@writefile{toc}{\defcounter {refsection}{0}\relax }\@writefile{toc}{\contentsline {subsection}{\numberline {2.1.2}b}{6}{subsection.2.1.2}\protected@file@percent }
\pgfsyspdfmark {pgfid337}{17409874}{17961557}
\pgfsyspdfmark {pgfid338}{17737554}{16694259}
\pgfsyspdfmark {pgfid339}{17973208}{16694259}
\pgfsyspdfmark {pgfid340}{19878933}{16694259}
\pgfsyspdfmark {pgfid341}{22842641}{16694259}
\pgfsyspdfmark {pgfid342}{17409874}{16151123}
\pgfsyspdfmark {pgfid343}{17409874}{16151123}
\pgfsyspdfmark {pgfid344}{18536542}{16151123}
\pgfsyspdfmark {pgfid345}{19191902}{16151123}
\pgfsyspdfmark {pgfid346}{20565964}{16151123}
\pgfsyspdfmark {pgfid347}{21221324}{16151123}
\pgfsyspdfmark {pgfid348}{24463958}{16151123}
\savepicturepage{pgfid349}{6}
\pgfsyspdfmark {pgfid349}{24909604}{16774536}
\pgfsyspdfmark {pgfid350}{18492773}{15098433}
\pgfsyspdfmark {pgfid351}{18820453}{13831135}
\pgfsyspdfmark {pgfid352}{19062660}{13831135}
\pgfsyspdfmark {pgfid353}{20974938}{13831135}
\pgfsyspdfmark {pgfid354}{23106307}{13831135}
\pgfsyspdfmark {pgfid355}{18492773}{13287999}
\pgfsyspdfmark {pgfid356}{18492773}{13287999}
\pgfsyspdfmark {pgfid357}{19632547}{13287999}
\pgfsyspdfmark {pgfid358}{20287907}{13287999}
\pgfsyspdfmark {pgfid359}{21661969}{13287999}
\pgfsyspdfmark {pgfid360}{22317329}{13287999}
\pgfsyspdfmark {pgfid361}{23895285}{13287999}
\savepicturepage{pgfid362}{6}
\pgfsyspdfmark {pgfid362}{24340931}{13911412}
\pgfsyspdfmark {pgfid363}{13204684}{12785954}
\pgfsyspdfmark {pgfid364}{13772114}{11518656}
\pgfsyspdfmark {pgfid365}{14014649}{11518656}
\pgfsyspdfmark {pgfid366}{16167005}{11518656}
\pgfsyspdfmark {pgfid367}{19657924}{11518656}
\pgfsyspdfmark {pgfid368}{13204684}{10975520}
\pgfsyspdfmark {pgfid369}{14014649}{9708222}
\pgfsyspdfmark {pgfid370}{16167005}{9708222}
\pgfsyspdfmark {pgfid371}{13204684}{9165086}
\pgfsyspdfmark {pgfid372}{13772442}{7897788}
\pgfsyspdfmark {pgfid373}{14014649}{7897788}
\pgfsyspdfmark {pgfid374}{16167005}{7897788}
\pgfsyspdfmark {pgfid375}{19657924}{7897788}
\pgfsyspdfmark {pgfid376}{13204684}{7354652}
\pgfsyspdfmark {pgfid377}{13532364}{6087354}
\pgfsyspdfmark {pgfid378}{14014649}{6087354}
\pgfsyspdfmark {pgfid379}{16167005}{6087354}
\pgfsyspdfmark {pgfid380}{19657924}{6087354}
\pgfsyspdfmark {pgfid381}{13204684}{5544218}
\pgfsyspdfmark {pgfid382}{13204684}{5544218}
\pgfsyspdfmark {pgfid383}{14824614}{5544218}
\pgfsyspdfmark {pgfid384}{15479974}{5544218}
\pgfsyspdfmark {pgfid385}{16854036}{5544218}
\pgfsyspdfmark {pgfid386}{17509396}{5544218}
\pgfsyspdfmark {pgfid387}{21806452}{5544218}
\savepicturepage{pgfid388}{6}
\pgfsyspdfmark {pgfid388}{22435599}{8883282}
\@writefile{toc}{\defcounter {refsection}{0}\relax }\@writefile{toc}{\contentsline {subsection}{\numberline {2.1.3}c}{7}{subsection.2.1.3}\protected@file@percent }
\pgfsyspdfmark {pgfid431}{20267877}{36958799}
\pgfsyspdfmark {pgfid432}{20595557}{35691501}
\pgfsyspdfmark {pgfid433}{20831211}{35691501}
\pgfsyspdfmark {pgfid434}{22736936}{35691501}
\pgfsyspdfmark {pgfid435}{24849782}{35691501}
\pgfsyspdfmark {pgfid436}{20267877}{35148365}
\pgfsyspdfmark {pgfid437}{20267877}{35148365}
\pgfsyspdfmark {pgfid438}{21394545}{35148365}
\pgfsyspdfmark {pgfid439}{22049905}{35148365}
\pgfsyspdfmark {pgfid440}{23423967}{35148365}
\pgfsyspdfmark {pgfid441}{24079327}{35148365}
\pgfsyspdfmark {pgfid442}{25620237}{35148365}
\savepicturepage{pgfid443}{7}
\pgfsyspdfmark {pgfid443}{26065883}{35771778}
\pgfsyspdfmark {pgfid444}{9356675}{34683185}
\pgfsyspdfmark {pgfid445}{9924433}{33415887}
\pgfsyspdfmark {pgfid446}{10187393}{33415887}
\pgfsyspdfmark {pgfid447}{12360502}{33415887}
\pgfsyspdfmark {pgfid448}{14982266}{33415887}
\pgfsyspdfmark {pgfid449}{9356675}{32872751}
\pgfsyspdfmark {pgfid450}{9684355}{31605453}
\pgfsyspdfmark {pgfid451}{10187393}{31605453}
\pgfsyspdfmark {pgfid452}{12360502}{31605453}
\pgfsyspdfmark {pgfid453}{14982266}{31605453}
\pgfsyspdfmark {pgfid454}{9356675}{31062317}
\pgfsyspdfmark {pgfid455}{9707020}{29795019}
\pgfsyspdfmark {pgfid456}{10187393}{29795019}
\pgfsyspdfmark {pgfid457}{12360502}{29795019}
\pgfsyspdfmark {pgfid458}{14982266}{29795019}
\pgfsyspdfmark {pgfid459}{9356675}{29251883}
\pgfsyspdfmark {pgfid460}{9947098}{27984585}
\pgfsyspdfmark {pgfid461}{10187393}{27984585}
\pgfsyspdfmark {pgfid462}{12360502}{27984585}
\pgfsyspdfmark {pgfid463}{14982266}{27984585}
\pgfsyspdfmark {pgfid464}{9356675}{27441449}
\pgfsyspdfmark {pgfid465}{9356675}{27441449}
\pgfsyspdfmark {pgfid466}{11018111}{27441449}
\pgfsyspdfmark {pgfid467}{11673471}{27441449}
\pgfsyspdfmark {pgfid468}{13047533}{27441449}
\pgfsyspdfmark {pgfid469}{13702893}{27441449}
\pgfsyspdfmark {pgfid470}{16261639}{27441449}
\savepicturepage{pgfid471}{7}
\pgfsyspdfmark {pgfid471}{16890786}{30780513}
\@writefile{toc}{\defcounter {refsection}{0}\relax }\@writefile{toc}{\contentsline {subsection}{\numberline {2.1.4}d}{7}{subsection.2.1.4}\protected@file@percent }
\pgfsyspdfmark {pgfid504}{26237780}{13117359}
\pgfsyspdfmark {pgfid505}{26565460}{11850061}
\pgfsyspdfmark {pgfid506}{26801114}{11850061}
\pgfsyspdfmark {pgfid507}{28706839}{11850061}
\pgfsyspdfmark {pgfid508}{32734641}{11850061}
\pgfsyspdfmark {pgfid509}{26237780}{11306925}
\pgfsyspdfmark {pgfid510}{26237780}{11306925}
\pgfsyspdfmark {pgfid511}{27364448}{11306925}
\pgfsyspdfmark {pgfid512}{28019808}{11306925}
\pgfsyspdfmark {pgfid513}{29393870}{11306925}
\pgfsyspdfmark {pgfid514}{30049230}{11306925}
\pgfsyspdfmark {pgfid515}{35420052}{11306925}
\savepicturepage{pgfid516}{7}
\pgfsyspdfmark {pgfid516}{35865698}{11930338}
\pgfsyspdfmark {pgfid517}{14411551}{51500898}
\pgfsyspdfmark {pgfid518}{14979309}{50233600}
\pgfsyspdfmark {pgfid519}{15221516}{50233600}
\pgfsyspdfmark {pgfid520}{17373872}{50233600}
\pgfsyspdfmark {pgfid521}{20535129}{50233600}
\pgfsyspdfmark {pgfid522}{14411551}{49690464}
\pgfsyspdfmark {pgfid523}{14739231}{48423166}
\pgfsyspdfmark {pgfid524}{15221516}{48423166}
\pgfsyspdfmark {pgfid525}{17373872}{48423166}
\pgfsyspdfmark {pgfid526}{20535129}{48423166}
\pgfsyspdfmark {pgfid527}{14411551}{47871739}
\pgfsyspdfmark {pgfid528}{14411551}{47871739}
\pgfsyspdfmark {pgfid529}{16031481}{47871739}
\pgfsyspdfmark {pgfid530}{16686841}{47871739}
\pgfsyspdfmark {pgfid531}{18060903}{47871739}
\pgfsyspdfmark {pgfid532}{18716263}{47871739}
\pgfsyspdfmark {pgfid533}{22353995}{47871739}
\savepicturepage{pgfid534}{8}
\pgfsyspdfmark {pgfid534}{22983142}{49404514}
\@writefile{toc}{\defcounter {refsection}{0}\relax }\@writefile{toc}{\contentsline {subsection}{\numberline {2.1.5}d}{8}{subsection.2.1.5}\protected@file@percent }
\@writefile{toc}{\defcounter {refsection}{0}\relax }\@writefile{toc}{\contentsline {section}{\numberline {2.2}Задание №2}{10}{section.2.2}\protected@file@percent }
\pgfsyspdfmark {pgfid565}{14669721}{47439378}
\pgfsyspdfmark {pgfid566}{15237479}{46172080}
\pgfsyspdfmark {pgfid567}{15500439}{46172080}
\pgfsyspdfmark {pgfid568}{17673548}{46172080}
\pgfsyspdfmark {pgfid569}{21232943}{46172080}
\pgfsyspdfmark {pgfid570}{14669721}{45628944}
\pgfsyspdfmark {pgfid571}{14997401}{44361646}
\pgfsyspdfmark {pgfid572}{15500439}{44361646}
\pgfsyspdfmark {pgfid573}{17673548}{44361646}
\pgfsyspdfmark {pgfid574}{21232943}{44361646}
\pgfsyspdfmark {pgfid575}{14669721}{43818510}
\pgfsyspdfmark {pgfid576}{15020066}{42551212}
\pgfsyspdfmark {pgfid577}{15500439}{42551212}
\pgfsyspdfmark {pgfid578}{17673548}{42551212}
\pgfsyspdfmark {pgfid579}{21232943}{42551212}
\pgfsyspdfmark {pgfid580}{14669721}{42008076}
\pgfsyspdfmark {pgfid581}{15260144}{40740778}
\pgfsyspdfmark {pgfid582}{15500439}{40740778}
\pgfsyspdfmark {pgfid583}{17673548}{40740778}
\pgfsyspdfmark {pgfid584}{21232943}{40740778}
\pgfsyspdfmark {pgfid585}{14669721}{40197642}
\pgfsyspdfmark {pgfid586}{14669721}{40197642}
\pgfsyspdfmark {pgfid587}{16331157}{40197642}
\pgfsyspdfmark {pgfid588}{16986517}{40197642}
\pgfsyspdfmark {pgfid589}{18360579}{40197642}
\pgfsyspdfmark {pgfid590}{19015939}{40197642}
\pgfsyspdfmark {pgfid591}{23449947}{40197642}
\savepicturepage{pgfid592}{10}
\pgfsyspdfmark {pgfid592}{24079094}{43536706}
\newlabel{LastPage}{{}{10}{}{page.10}{}}
\xdef\lastpage@lastpage{10}
\xdef\lastpage@lastpageHy{10}
\gdef \@abspage@last{10}
