\relax 
\providecommand\hyper@newdestlabel[2]{}
\providecommand\babel@aux[2]{}
\@nameuse{bbl@beforestart}
\catcode `"\active 
\nicematrix@redefine@check@rerun 
\abx@aux@refcontext{nty/global//global/global}
\providecommand\HyperFirstAtBeginDocument{\AtBeginDocument}
\HyperFirstAtBeginDocument{\ifx\hyper@anchor\@undefined
\global\let\oldcontentsline\contentsline
\gdef\contentsline#1#2#3#4{\oldcontentsline{#1}{#2}{#3}}
\global\let\oldnewlabel\newlabel
\gdef\newlabel#1#2{\newlabelxx{#1}#2}
\gdef\newlabelxx#1#2#3#4#5#6{\oldnewlabel{#1}{{#2}{#3}}}
\AtEndDocument{\ifx\hyper@anchor\@undefined
\let\contentsline\oldcontentsline
\let\newlabel\oldnewlabel
\fi}
\fi}
\global\let\hyper@last\relax 
\gdef\HyperFirstAtBeginDocument#1{#1}
\providecommand\HyField@AuxAddToFields[1]{}
\providecommand\HyField@AuxAddToCoFields[2]{}
\babel@aux{russian}{}
\ExplSyntaxOn \cs_if_free:NT \pgfsyspdfmark {\cs_set_eq:NN \pgfsyspdfmark \@gobblethree }\ExplSyntaxOff 
\ExplSyntaxOn 
\char_set_catcode_space:n {32}
\tl_gset:cn {c__nicematrix_1_tl}{\seq_gset_from_clist:Nn \g__nicematrix_size_seq {1,10,10,1,4,4}}
\ExplSyntaxOff 
\@writefile{lot}{\contentsline {table}{\numberline {1}{\ignorespaces Задание №1\relax }}{3}{table.caption.1}\protected@file@percent }
\providecommand*\caption@xref[2]{\@setref\relax\@undefined{#1}}
\newlabel{myt:Задание №1}{{1}{3}{Задание №1\relax }{table.caption.1}{}}
\pgfsyspdfmark {pgfid3}{17781095}{49030191}
\pgfsyspdfmark {pgfid4}{17781095}{49030191}
\pgfsyspdfmark {pgfid5}{17781095}{47666496}
\pgfsyspdfmark {pgfid6}{18145228}{47666496}
\pgfsyspdfmark {pgfid7}{19738568}{47666496}
\pgfsyspdfmark {pgfid8}{21410550}{47666496}
\pgfsyspdfmark {pgfid9}{22963747}{47666496}
\pgfsyspdfmark {pgfid10}{17781095}{47231987}
\pgfsyspdfmark {pgfid11}{17781095}{47063153}
\pgfsyspdfmark {pgfid12}{17914217}{45768403}
\pgfsyspdfmark {pgfid13}{18145228}{45768403}
\pgfsyspdfmark {pgfid14}{19738568}{45768403}
\pgfsyspdfmark {pgfid15}{21410550}{45768403}
\pgfsyspdfmark {pgfid16}{22963747}{45768403}
\pgfsyspdfmark {pgfid17}{17781095}{45333894}
\pgfsyspdfmark {pgfid18}{17914217}{44320055}
\pgfsyspdfmark {pgfid19}{18145228}{44320055}
\pgfsyspdfmark {pgfid20}{19738568}{44320055}
\pgfsyspdfmark {pgfid21}{21410550}{44320055}
\pgfsyspdfmark {pgfid22}{22963747}{44320055}
\pgfsyspdfmark {pgfid23}{17781095}{43885546}
\pgfsyspdfmark {pgfid24}{17914217}{42871707}
\pgfsyspdfmark {pgfid25}{18145228}{42871707}
\pgfsyspdfmark {pgfid26}{19738568}{42871707}
\pgfsyspdfmark {pgfid27}{21410550}{42871707}
\pgfsyspdfmark {pgfid28}{22963747}{42871707}
\pgfsyspdfmark {pgfid29}{17781095}{42437198}
\pgfsyspdfmark {pgfid30}{17914217}{41423359}
\pgfsyspdfmark {pgfid31}{18145228}{41423359}
\pgfsyspdfmark {pgfid32}{19738568}{41423359}
\pgfsyspdfmark {pgfid33}{21410550}{41423359}
\pgfsyspdfmark {pgfid34}{22963747}{41423359}
\pgfsyspdfmark {pgfid35}{17781095}{40988850}
\pgfsyspdfmark {pgfid36}{17781095}{40820016}
\pgfsyspdfmark {pgfid37}{17914217}{39525266}
\pgfsyspdfmark {pgfid38}{18145228}{39525266}
\pgfsyspdfmark {pgfid39}{19738568}{39525266}
\pgfsyspdfmark {pgfid40}{21410550}{39525266}
\pgfsyspdfmark {pgfid41}{22963747}{39525266}
\pgfsyspdfmark {pgfid42}{17781095}{39090757}
\pgfsyspdfmark {pgfid43}{17914217}{38076918}
\pgfsyspdfmark {pgfid44}{18145228}{38076918}
\pgfsyspdfmark {pgfid45}{19738568}{38076918}
\pgfsyspdfmark {pgfid46}{21410550}{38076918}
\pgfsyspdfmark {pgfid47}{22963747}{38076918}
\pgfsyspdfmark {pgfid48}{17781095}{37642409}
\pgfsyspdfmark {pgfid49}{17914217}{36628570}
\pgfsyspdfmark {pgfid50}{18145228}{36628570}
\pgfsyspdfmark {pgfid51}{19738568}{36628570}
\pgfsyspdfmark {pgfid52}{21410550}{36628570}
\pgfsyspdfmark {pgfid53}{22963747}{36628570}
\pgfsyspdfmark {pgfid54}{17781095}{36194061}
\pgfsyspdfmark {pgfid55}{17914217}{35180222}
\pgfsyspdfmark {pgfid56}{18145228}{35180222}
\pgfsyspdfmark {pgfid57}{19738568}{35180222}
\pgfsyspdfmark {pgfid58}{21410550}{35180222}
\pgfsyspdfmark {pgfid59}{22963747}{35180222}
\pgfsyspdfmark {pgfid60}{17781095}{34745713}
\pgfsyspdfmark {pgfid61}{18145228}{33731874}
\pgfsyspdfmark {pgfid62}{17781095}{33297365}
\pgfsyspdfmark {pgfid63}{17781095}{33128531}
\pgfsyspdfmark {pgfid64}{17781095}{33053032}
\pgfsyspdfmark {pgfid65}{18902577}{33053032}
\pgfsyspdfmark {pgfid66}{20574559}{33053032}
\pgfsyspdfmark {pgfid67}{22292416}{33053032}
\pgfsyspdfmark {pgfid68}{23241862}{33053032}
\pgfsyspdfmark {pgfid69}{23241862}{40805682}
\savepicturepage{pgfid71}{3}
\pgfsyspdfmark {pgfid71}{23241862}{40805682}
\pgfsyspdfmark {pgfid72}{23241862}{40805682}
\@writefile{toc}{\contentsline {section}{\numberline {1}Задание №1}{3}{section.1}\protected@file@percent }
\@LN@col{1}
\@LN@col{1}
\@writefile{toc}{\contentsline {section}{\numberline {2}Задание №2}{3}{section.2}\protected@file@percent }
\@LN@col{1}
\@LN@col{1}
\@LN@col{1}
\@LN@col{1}
\@writefile{toc}{\contentsline {section}{\numberline {3}Задание №3}{4}{section.3}\protected@file@percent }
\@LN@col{1}
\@LN@col{1}
\ExplSyntaxOn 
\char_set_catcode_space:n {32}
\tl_gset:cn {c__nicematrix_2_tl}{\seq_gset_from_clist:Nn \g__nicematrix_size_seq {1,10,10,1,4,4}}
\ExplSyntaxOff 
\@writefile{lot}{\contentsline {table}{\numberline {2}{\ignorespaces Задание №3\relax }}{5}{table.caption.2}\protected@file@percent }
\newlabel{myt:Задание №3}{{2}{5}{Задание №3\relax }{table.caption.2}{}}
\pgfsyspdfmark {pgfid75}{17781095}{49030191}
\pgfsyspdfmark {pgfid76}{17781095}{49030191}
\pgfsyspdfmark {pgfid77}{17781095}{47666496}
\pgfsyspdfmark {pgfid78}{18145228}{47666496}
\pgfsyspdfmark {pgfid79}{19738568}{47666496}
\pgfsyspdfmark {pgfid80}{21410550}{47666496}
\pgfsyspdfmark {pgfid81}{22963747}{47666496}
\pgfsyspdfmark {pgfid82}{17781095}{47231987}
\pgfsyspdfmark {pgfid83}{17781095}{47063153}
\pgfsyspdfmark {pgfid84}{17914217}{45768403}
\pgfsyspdfmark {pgfid85}{18145228}{45768403}
\pgfsyspdfmark {pgfid86}{19738568}{45768403}
\pgfsyspdfmark {pgfid87}{21410550}{45768403}
\pgfsyspdfmark {pgfid88}{22963747}{45768403}
\pgfsyspdfmark {pgfid89}{17781095}{45333894}
\pgfsyspdfmark {pgfid90}{17914217}{44320055}
\pgfsyspdfmark {pgfid91}{18145228}{44320055}
\pgfsyspdfmark {pgfid92}{19738568}{44320055}
\pgfsyspdfmark {pgfid93}{21410550}{44320055}
\pgfsyspdfmark {pgfid94}{22963747}{44320055}
\pgfsyspdfmark {pgfid95}{17781095}{43885546}
\pgfsyspdfmark {pgfid96}{17914217}{42871707}
\pgfsyspdfmark {pgfid97}{18145228}{42871707}
\pgfsyspdfmark {pgfid98}{19738568}{42871707}
\pgfsyspdfmark {pgfid99}{21410550}{42871707}
\pgfsyspdfmark {pgfid100}{22963747}{42871707}
\pgfsyspdfmark {pgfid101}{17781095}{42437198}
\pgfsyspdfmark {pgfid102}{17914217}{41423359}
\pgfsyspdfmark {pgfid103}{18145228}{41423359}
\pgfsyspdfmark {pgfid104}{19738568}{41423359}
\pgfsyspdfmark {pgfid105}{21410550}{41423359}
\pgfsyspdfmark {pgfid106}{22963747}{41423359}
\pgfsyspdfmark {pgfid107}{17781095}{40988850}
\pgfsyspdfmark {pgfid108}{17781095}{40820016}
\pgfsyspdfmark {pgfid109}{17914217}{39525266}
\pgfsyspdfmark {pgfid110}{18145228}{39525266}
\pgfsyspdfmark {pgfid111}{19738568}{39525266}
\pgfsyspdfmark {pgfid112}{21410550}{39525266}
\pgfsyspdfmark {pgfid113}{22963747}{39525266}
\pgfsyspdfmark {pgfid114}{17781095}{39090757}
\pgfsyspdfmark {pgfid115}{17914217}{38076918}
\pgfsyspdfmark {pgfid116}{18145228}{38076918}
\pgfsyspdfmark {pgfid117}{19738568}{38076918}
\pgfsyspdfmark {pgfid118}{21410550}{38076918}
\pgfsyspdfmark {pgfid119}{22963747}{38076918}
\pgfsyspdfmark {pgfid120}{17781095}{37642409}
\pgfsyspdfmark {pgfid121}{17914217}{36628570}
\pgfsyspdfmark {pgfid122}{18145228}{36628570}
\pgfsyspdfmark {pgfid123}{19738568}{36628570}
\pgfsyspdfmark {pgfid124}{21410550}{36628570}
\pgfsyspdfmark {pgfid125}{22963747}{36628570}
\pgfsyspdfmark {pgfid126}{17781095}{36194061}
\pgfsyspdfmark {pgfid127}{17914217}{35180222}
\pgfsyspdfmark {pgfid128}{18145228}{35180222}
\pgfsyspdfmark {pgfid129}{19738568}{35180222}
\pgfsyspdfmark {pgfid130}{21410550}{35180222}
\pgfsyspdfmark {pgfid131}{22963747}{35180222}
\pgfsyspdfmark {pgfid132}{17781095}{34745713}
\pgfsyspdfmark {pgfid133}{18145228}{33731874}
\pgfsyspdfmark {pgfid134}{17781095}{33297365}
\pgfsyspdfmark {pgfid135}{17781095}{33128531}
\pgfsyspdfmark {pgfid136}{17781095}{33053032}
\pgfsyspdfmark {pgfid137}{18902577}{33053032}
\pgfsyspdfmark {pgfid138}{20574559}{33053032}
\pgfsyspdfmark {pgfid139}{22292416}{33053032}
\pgfsyspdfmark {pgfid140}{23241862}{33053032}
\pgfsyspdfmark {pgfid141}{23241862}{40805682}
\savepicturepage{pgfid143}{5}
\pgfsyspdfmark {pgfid143}{23241862}{40805682}
\pgfsyspdfmark {pgfid144}{23241862}{40805682}
\@LN@col{1}
\@LN@col{1}
\@writefile{toc}{\contentsline {section}{\numberline {4}Задание №4}{6}{section.4}\protected@file@percent }
\@LN@col{1}
\@LN@col{1}
\newlabel{LastPage}{{}{6}{}{page.6}{}}
\xdef\lastpage@lastpage{6}
\xdef\lastpage@lastpageHy{6}
\abx@aux@read@bbl@mdfivesum{D41D8CD98F00B204E9800998ECF8427E}
\gdef \@abspage@last{6}
