\defcounter {refsection}{0}\relax 
\headcommand {\slideentry {0}{0}{1}{1/1}{}{0}}
\defcounter {refsection}{0}\relax 
\headcommand {\beamer@framepages {1}{1}}
\defcounter {refsection}{0}\relax 
\headcommand {\beamer@sectionpages {1}{1}}
\defcounter {refsection}{0}\relax 
\headcommand {\beamer@subsectionpages {1}{1}}
\defcounter {refsection}{0}\relax 
\headcommand {\sectionentry {1}{Биография}{2}{Биография}{0}}
\defcounter {refsection}{0}\relax 
\headcommand {\beamer@subsectionpages {2}{1}}
\defcounter {refsection}{0}\relax 
\headcommand {\beamer@subsectionentry {0}{1}{1}{2}{Кто это?}}
\defcounter {refsection}{0}\relax 
\headcommand {\slideentry {1}{1}{1}{2/2}{Кто это?}{0}}
\defcounter {refsection}{0}\relax 
\headcommand {\beamer@framepages {2}{2}}
\defcounter {refsection}{0}\relax 
\headcommand {\beamer@subsectionpages {2}{2}}
\defcounter {refsection}{0}\relax 
\headcommand {\beamer@subsectionentry {0}{1}{2}{3}{Основные моменты жизни}}
\defcounter {refsection}{0}\relax 
\headcommand {\slideentry {1}{2}{1}{3/3}{Основные моменты жизни}{0}}
\defcounter {refsection}{0}\relax 
\headcommand {\beamer@framepages {3}{3}}
\defcounter {refsection}{0}\relax 
\headcommand {\beamer@subsectionpages {3}{3}}
\defcounter {refsection}{0}\relax 
\headcommand {\beamer@subsectionentry {0}{1}{3}{4}{Физическая география}}
\defcounter {refsection}{0}\relax 
\headcommand {\slideentry {1}{3}{1}{4/4}{Физическая география}{0}}
\defcounter {refsection}{0}\relax 
\headcommand {\beamer@framepages {4}{4}}
\defcounter {refsection}{0}\relax 
\headcommand {\beamer@subsectionpages {4}{4}}
\defcounter {refsection}{0}\relax 
\headcommand {\beamer@subsectionentry {0}{1}{4}{5}{Основные идеи}}
\defcounter {refsection}{0}\relax 
\headcommand {\slideentry {1}{4}{1}{5/5}{Основные идеи}{0}}
\defcounter {refsection}{0}\relax 
\headcommand {\beamer@framepages {5}{5}}
\defcounter {refsection}{0}\relax 
\headcommand {\beamer@sectionpages {2}{5}}
\defcounter {refsection}{0}\relax 
\headcommand {\beamer@subsectionpages {5}{5}}
\defcounter {refsection}{0}\relax 
\headcommand {\sectionentry {2}{Космогония}{6}{Космогония}{0}}
\defcounter {refsection}{0}\relax 
\headcommand {\slideentry {2}{0}{1}{6/6}{}{0}}
\defcounter {refsection}{0}\relax 
\headcommand {\beamer@framepages {6}{6}}
\defcounter {refsection}{0}\relax 
\headcommand {\beamer@sectionpages {6}{6}}
\defcounter {refsection}{0}\relax 
\headcommand {\beamer@subsectionpages {6}{6}}
\defcounter {refsection}{0}\relax 
\headcommand {\sectionentry {3}{Нус}{7}{Нус}{0}}
\defcounter {refsection}{0}\relax 
\headcommand {\slideentry {3}{0}{1}{7/7}{}{0}}
\defcounter {refsection}{0}\relax 
\headcommand {\beamer@framepages {7}{7}}
\defcounter {refsection}{0}\relax 
\headcommand {\beamer@sectionpages {7}{7}}
\defcounter {refsection}{0}\relax 
\headcommand {\beamer@subsectionpages {7}{7}}
\defcounter {refsection}{0}\relax 
\headcommand {\sectionentry {4}{Гомеомерия}{8}{Гомеомерия}{0}}
\defcounter {refsection}{0}\relax 
\headcommand {\slideentry {4}{0}{1}{8/8}{}{0}}
\defcounter {refsection}{0}\relax 
\headcommand {\beamer@framepages {8}{8}}
\defcounter {refsection}{0}\relax 
\headcommand {\beamer@sectionpages {8}{8}}
\defcounter {refsection}{0}\relax 
\headcommand {\beamer@subsectionpages {8}{8}}
\defcounter {refsection}{0}\relax 
\headcommand {\sectionentry {5}{Заключение}{9}{Заключение}{0}}
\defcounter {refsection}{0}\relax 
\headcommand {\slideentry {5}{0}{1}{9/9}{}{0}}
\defcounter {refsection}{0}\relax 
\headcommand {\beamer@framepages {9}{9}}
\headcommand {\beamer@partpages {1}{9}}
\headcommand {\beamer@subsectionpages {9}{9}}
\headcommand {\beamer@sectionpages {9}{9}}
\headcommand {\beamer@documentpages {9}}
\headcommand {\gdef \inserttotalframenumber {9}}
