\boolfalse {citerequest}\boolfalse {citetracker}\boolfalse {pagetracker}\boolfalse {backtracker}\relax 
\babel@toc {russian}{}
\defcounter {refsection}{0}\relax 
\beamer@sectionintoc {1}{Биография}{2}{0}{1}
\defcounter {refsection}{0}\relax 
\beamer@subsectionintoc {1}{1}{Кто это?}{2}{0}{1}
\defcounter {refsection}{0}\relax 
\beamer@subsectionintoc {1}{2}{Основные моменты жизни}{3}{0}{1}
\defcounter {refsection}{0}\relax 
\beamer@subsectionintoc {1}{3}{Физическая география}{4}{0}{1}
\defcounter {refsection}{0}\relax 
\beamer@subsectionintoc {1}{4}{Основные идеи}{5}{0}{1}
\defcounter {refsection}{0}\relax 
\beamer@sectionintoc {2}{Космогония}{6}{0}{2}
\defcounter {refsection}{0}\relax 
\beamer@sectionintoc {3}{Нус}{7}{0}{3}
\defcounter {refsection}{0}\relax 
\beamer@sectionintoc {4}{Гомеомерия}{8}{0}{4}
\defcounter {refsection}{0}\relax 
\beamer@sectionintoc {5}{Заключение}{9}{0}{5}
