\BOOKMARK [2][]{Outline0.1}{\376\377\004\021\004\070\004\076\004\063\004\100\004\060\004\104\004\070\004\117}{}% 1
\BOOKMARK [3][]{Outline0.1.1.2}{\376\377\004\032\004\102\004\076\000\040\004\115\004\102\004\076\000?}{Outline0.1}% 2
\BOOKMARK [3][]{Outline0.1.2.3}{\376\377\004\036\004\101\004\075\004\076\004\062\004\075\004\113\004\065\000\040\004\074\004\076\004\074\004\065\004\075\004\102\004\113\000\040\004\066\004\070\004\067\004\075\004\070}{Outline0.1}% 3
\BOOKMARK [3][]{Outline0.1.3.4}{\376\377\004\044\004\070\004\067\004\070\004\107\004\065\004\101\004\072\004\060\004\117\000\040\004\063\004\065\004\076\004\063\004\100\004\060\004\104\004\070\004\117}{Outline0.1}% 4
\BOOKMARK [3][]{Outline0.1.4.5}{\376\377\004\036\004\101\004\075\004\076\004\062\004\075\004\113\004\065\000\040\004\070\004\064\004\065\004\070}{Outline0.1}% 5
\BOOKMARK [2][]{Outline0.2}{\376\377\004\032\004\076\004\101\004\074\004\076\004\063\004\076\004\075\004\070\004\117}{}% 6
\BOOKMARK [2][]{Outline0.3}{\376\377\004\035\004\103\004\101}{}% 7
\BOOKMARK [2][]{Outline0.4}{\376\377\004\023\004\076\004\074\004\065\004\076\004\074\004\065\004\100\004\070\004\117}{}% 8
\BOOKMARK [2][]{Outline0.5}{\376\377\004\027\004\060\004\072\004\073\004\116\004\107\004\065\004\075\004\070\004\065}{}% 9
