[0] Config.pm:304> INFO - This is Biber 2.14
[0] Config.pm:307> INFO - Logfile is 'fourth.blg'
[69] biber:322> INFO - === Sat Oct 10, 2020, 16:22:01
[82] Biber.pm:415> INFO - Reading 'fourth.bcf'
[140] Utils.pm:304> WARN - No data sources defined!
