\relax 
\providecommand\hyper@newdestlabel[2]{}
\@nameuse{bbl@beforestart}
\catcode `"\active 
\nicematrix@redefine@check@rerun 
\abx@aux@refcontext{nty/global//global/global}
\providecommand\HyperFirstAtBeginDocument{\AtBeginDocument}
\HyperFirstAtBeginDocument{\ifx\hyper@anchor\@undefined
\global\let\oldcontentsline\contentsline
\gdef\contentsline#1#2#3#4{\oldcontentsline{#1}{#2}{#3}}
\global\let\oldnewlabel\newlabel
\gdef\newlabel#1#2{\newlabelxx{#1}#2}
\gdef\newlabelxx#1#2#3#4#5#6{\oldnewlabel{#1}{{#2}{#3}}}
\AtEndDocument{\ifx\hyper@anchor\@undefined
\let\contentsline\oldcontentsline
\let\newlabel\oldnewlabel
\fi}
\fi}
\global\let\hyper@last\relax 
\gdef\HyperFirstAtBeginDocument#1{#1}
\providecommand\HyField@AuxAddToFields[1]{}
\providecommand\HyField@AuxAddToCoFields[2]{}
\providecommand\@newglossary[4]{}
\@newglossary{main}{glg}{gls}{glo}
\providecommand\@glsorder[1]{}
\providecommand\@istfilename[1]{}
\@istfilename{philosophy.xdy}
\@glsorder{word}
\@writefile{toc}{\boolfalse {citerequest}\boolfalse {citetracker}\boolfalse {pagetracker}\boolfalse {backtracker}\relax }
\@writefile{lof}{\boolfalse {citerequest}\boolfalse {citetracker}\boolfalse {pagetracker}\boolfalse {backtracker}\relax }
\@writefile{lot}{\boolfalse {citerequest}\boolfalse {citetracker}\boolfalse {pagetracker}\boolfalse {backtracker}\relax }
\babel@aux{russian}{}
\pp@pagectr{footnote}{1}{4}{4}
\@writefile{toc}{\defcounter {refsection}{0}\relax }\@writefile{toc}{\contentsline {chapter}{\numberline {1}Информация к учебному курсу}{4}{chapter.1}\protected@file@percent }
\@writefile{lof}{\defcounter {refsection}{0}\relax }\@writefile{lof}{\addvspace {10\p@ }}
\@writefile{lot}{\defcounter {refsection}{0}\relax }\@writefile{lot}{\addvspace {10\p@ }}
\@writefile{toc}{\defcounter {refsection}{0}\relax }\@writefile{toc}{\contentsline {section}{\numberline {1.1}Благодарность}{4}{section.1.1}\protected@file@percent }
\@writefile{toc}{\defcounter {refsection}{0}\relax }\@writefile{toc}{\contentsline {section}{\numberline {1.2}Пособия, рекомендованные к курсу}{4}{section.1.2}\protected@file@percent }
\newlabel{Пособия, рекомендованные к курсу}{{1.2}{4}{Пособия, рекомендованные к курсу}{section.1.2}{}}
\pp@pagectr{footnote}{2}{4}{4}
\pp@pagectr{footnote}{3}{4}{4}
\pp@pagectr{footnote}{4}{4}{4}
\pp@pagectr{footnote}{5}{4}{4}
\@writefile{toc}{\defcounter {refsection}{0}\relax }\@writefile{toc}{\contentsline {section}{\numberline {1.3}Понятие философии}{4}{section.1.3}\protected@file@percent }
\newlabel{Понятие философии}{{1.3}{4}{Понятие философии}{section.1.3}{}}
\pp@pagectr{footnote}{6}{5}{5}
\@writefile{toc}{\defcounter {refsection}{0}\relax }\@writefile{toc}{\contentsline {chapter}{\numberline {2}Основные эпохи в философии}{5}{chapter.2}\protected@file@percent }
\@writefile{lof}{\defcounter {refsection}{0}\relax }\@writefile{lof}{\addvspace {10\p@ }}
\@writefile{lot}{\defcounter {refsection}{0}\relax }\@writefile{lot}{\addvspace {10\p@ }}
\@writefile{toc}{\defcounter {refsection}{0}\relax }\@writefile{toc}{\contentsline {section}{\numberline {2.1}Античность}{5}{section.2.1}\protected@file@percent }
\newlabel{Античность}{{2.1}{5}{Античность}{section.2.1}{}}
\@writefile{toc}{\defcounter {refsection}{0}\relax }\@writefile{toc}{\contentsline {subsection}{\numberline {2.1.1}Писатели-предтечи}{5}{subsection.2.1.1}\protected@file@percent }
\newlabel{Писатели-предтечи}{{2.1.1}{5}{Писатели-предтечи}{subsection.2.1.1}{}}
\pp@pagectr{footnote}{7}{5}{5}
\pp@pagectr{footnote}{8}{5}{5}
\@writefile{toc}{\defcounter {refsection}{0}\relax }\@writefile{toc}{\contentsline {subsection}{\numberline {2.1.2}Первые философы}{5}{subsection.2.1.2}\protected@file@percent }
\newlabel{Первые философы}{{2.1.2}{5}{Первые философы}{subsection.2.1.2}{}}
\@writefile{toc}{\defcounter {refsection}{0}\relax }\@writefile{toc}{\contentsline {subsection}{\numberline {2.1.3}Появление софистов}{5}{subsection.2.1.3}\protected@file@percent }
\newlabel{Появление софистов}{{2.1.3}{5}{Появление софистов}{subsection.2.1.3}{}}
\@writefile{toc}{\defcounter {refsection}{0}\relax }\@writefile{toc}{\contentsline {subsection}{\numberline {2.1.4}Расцвет философии Античности}{5}{subsection.2.1.4}\protected@file@percent }
\newlabel{Расцвет философии Античности}{{2.1.4}{5}{Расцвет философии Античности}{subsection.2.1.4}{}}
\@writefile{lomyscheme}{\defcounter {refsection}{0}\relax }\@writefile{lomyscheme}{\contentsline {myscheme}{\numberline {2.1}{\ignorespaces Решение главного вопроса\relax }}{6}{myscheme.caption.2}\protected@file@percent }
\providecommand*\caption@xref[2]{\@setref\relax\@undefined{#1}}
\newlabel{Решение главного вопроса}{{2.1}{6}{Решение главного вопроса\relax }{myscheme.caption.2}{}}
\@writefile{toc}{\defcounter {refsection}{0}\relax }\@writefile{toc}{\contentsline {subsection}{\numberline {2.1.5}Сформирование философии как дисциплины}{6}{subsection.2.1.5}\protected@file@percent }
\newlabel{Сформирование философии как дисциплины}{{2.1.5}{6}{Сформирование философии как дисциплины}{subsection.2.1.5}{}}
\@writefile{toc}{\defcounter {refsection}{0}\relax }\@writefile{toc}{\contentsline {subsection}{\numberline {2.1.6}Распространение греческой философии}{6}{subsection.2.1.6}\protected@file@percent }
\newlabel{Распространение греческой философии}{{2.1.6}{6}{Распространение греческой философии}{subsection.2.1.6}{}}
\@writefile{toc}{\defcounter {refsection}{0}\relax }\@writefile{toc}{\contentsline {subsection}{\numberline {2.1.7}Древний Рим}{6}{subsection.2.1.7}\protected@file@percent }
\newlabel{Древний Рим}{{2.1.7}{6}{Древний Рим}{subsection.2.1.7}{}}
\@writefile{toc}{\defcounter {refsection}{0}\relax }\@writefile{toc}{\contentsline {section}{\numberline {2.2}Средние века}{7}{section.2.2}\protected@file@percent }
\newlabel{Средние века}{{2.2}{7}{Средние века}{section.2.2}{}}
\pp@pagectr{footnote}{9}{7}{7}
\@writefile{toc}{\defcounter {refsection}{0}\relax }\@writefile{toc}{\contentsline {section}{\numberline {2.3}Возрождение}{7}{section.2.3}\protected@file@percent }
\newlabel{Возрождение}{{2.3}{7}{Возрождение}{section.2.3}{}}
\@writefile{toc}{\defcounter {refsection}{0}\relax }\@writefile{toc}{\contentsline {section}{\numberline {2.4}Новое время}{7}{section.2.4}\protected@file@percent }
\newlabel{Новое время}{{2.4}{7}{Новое время}{section.2.4}{}}
\@writefile{lomyscheme}{\defcounter {refsection}{0}\relax }\@writefile{lomyscheme}{\contentsline {myscheme}{\numberline {2.2}{\ignorespaces Подход к познаваемости мира\relax }}{8}{myscheme.caption.3}\protected@file@percent }
\newlabel{Подход к познаваемости мира}{{2.2}{8}{Подход к познаваемости мира\relax }{myscheme.caption.3}{}}
\@writefile{lomyscheme}{\defcounter {refsection}{0}\relax }\@writefile{lomyscheme}{\contentsline {myscheme}{\numberline {2.3}{\ignorespaces Разделы философии\relax }}{8}{myscheme.caption.4}\protected@file@percent }
\newlabel{Разделы философии}{{2.3}{8}{Разделы философии\relax }{myscheme.caption.4}{}}
\@writefile{toc}{\defcounter {refsection}{0}\relax }\@writefile{toc}{\contentsline {section}{\numberline {2.5}Просвещение}{8}{section.2.5}\protected@file@percent }
\newlabel{Просвещение}{{2.5}{8}{Просвещение}{section.2.5}{}}
\@writefile{toc}{\defcounter {refsection}{0}\relax }\@writefile{toc}{\contentsline {subsection}{\numberline {2.5.1}Изменения в философии}{8}{subsection.2.5.1}\protected@file@percent }
\newlabel{Изменения в философии}{{2.5.1}{8}{Изменения в философии}{subsection.2.5.1}{}}
\pp@pagectr{footnote}{10}{10}{10}
\@writefile{toc}{\defcounter {refsection}{0}\relax }\@writefile{toc}{\contentsline {chapter}{\numberline {3}Античность}{10}{chapter.3}\protected@file@percent }
\@writefile{lof}{\defcounter {refsection}{0}\relax }\@writefile{lof}{\addvspace {10\p@ }}
\@writefile{lot}{\defcounter {refsection}{0}\relax }\@writefile{lot}{\addvspace {10\p@ }}
\@writefile{toc}{\defcounter {refsection}{0}\relax }\@writefile{toc}{\contentsline {section}{\numberline {3.1}Древняя Греция}{10}{section.3.1}\protected@file@percent }
\newlabel{Древняя Греция}{{3.1}{10}{Древняя Греция}{section.3.1}{}}
\@writefile{toc}{\defcounter {refsection}{0}\relax }\@writefile{toc}{\contentsline {subsection}{\numberline {3.1.1}Орфей}{10}{subsection.3.1.1}\protected@file@percent }
\newlabel{Орфей}{{3.1.1}{10}{Орфей}{subsection.3.1.1}{}}
\pp@pagectr{footnote}{11}{10}{10}
\@writefile{toc}{\defcounter {refsection}{0}\relax }\@writefile{toc}{\contentsline {subsection}{\numberline {3.1.2}Фалес Милетский}{10}{subsection.3.1.2}\protected@file@percent }
\newlabel{Фалес Милетский}{{3.1.2}{10}{Фалес Милетский}{subsection.3.1.2}{}}
\pp@pagectr{footnote}{12}{10}{10}
\@writefile{toc}{\defcounter {refsection}{0}\relax }\@writefile{toc}{\contentsline {subsection}{\numberline {3.1.3}Анаксимандр}{10}{subsection.3.1.3}\protected@file@percent }
\newlabel{Анаксимандр}{{3.1.3}{10}{Анаксимандр}{subsection.3.1.3}{}}
\newlabel{Элемент-первоначало}{{\caption@xref {Элемент-первоначало}{ on input line 1}}{11}{Фалес Милетский}{myscheme.caption.5}{}}
\@writefile{lomyscheme}{\defcounter {refsection}{0}\relax }\@writefile{lomyscheme}{\contentsline {myscheme}{\numberline {3.1}{\ignorespaces Элемент-первоначало\relax }}{11}{myscheme.caption.5}\protected@file@percent }
\pp@pagectr{footnote}{13}{11}{11}
\@writefile{toc}{\defcounter {refsection}{0}\relax }\@writefile{toc}{\contentsline {subsection}{\numberline {3.1.4}Анаксимен}{11}{subsection.3.1.4}\protected@file@percent }
\newlabel{Анаксимен}{{3.1.4}{11}{Анаксимен}{subsection.3.1.4}{}}
\pp@pagectr{footnote}{14}{11}{11}
\@writefile{toc}{\defcounter {refsection}{0}\relax }\@writefile{toc}{\contentsline {subsection}{\numberline {3.1.5}Гераклит Эфесский}{11}{subsection.3.1.5}\protected@file@percent }
\newlabel{Гераклит Эфесский}{{3.1.5}{11}{Гераклит Эфесский}{subsection.3.1.5}{}}
\pp@pagectr{footnote}{15}{12}{12}
\@writefile{toc}{\defcounter {refsection}{0}\relax }\@writefile{toc}{\contentsline {subsection}{\numberline {3.1.6}Пифагор}{12}{subsection.3.1.6}\protected@file@percent }
\newlabel{Пифагор}{{3.1.6}{12}{Пифагор}{subsection.3.1.6}{}}
\pp@pagectr{footnote}{16}{12}{12}
\@writefile{toc}{\defcounter {refsection}{0}\relax }\@writefile{toc}{\contentsline {subsection}{\numberline {3.1.7}Ксенофан}{12}{subsection.3.1.7}\protected@file@percent }
\newlabel{Ксенофан}{{3.1.7}{12}{Ксенофан}{subsection.3.1.7}{}}
\pp@pagectr{footnote}{17}{12}{12}
\@writefile{toc}{\defcounter {refsection}{0}\relax }\@writefile{toc}{\contentsline {subsection}{\numberline {3.1.8}Парменид}{12}{subsection.3.1.8}\protected@file@percent }
\newlabel{Парменид}{{3.1.8}{12}{Парменид}{subsection.3.1.8}{}}
\pp@pagectr{footnote}{18}{12}{12}
\@writefile{toc}{\defcounter {refsection}{0}\relax }\@writefile{toc}{\contentsline {subsection}{\numberline {3.1.9}Зенон Элейский}{12}{subsection.3.1.9}\protected@file@percent }
\newlabel{Зенон Элейский}{{3.1.9}{12}{Зенон Элейский}{subsection.3.1.9}{}}
\pp@pagectr{footnote}{19}{12}{12}
\@writefile{toc}{\defcounter {refsection}{0}\relax }\@writefile{toc}{\contentsline {subsection}{\numberline {3.1.10}Эмпедокл}{12}{subsection.3.1.10}\protected@file@percent }
\newlabel{Эмпедокл}{{3.1.10}{12}{Эмпедокл}{subsection.3.1.10}{}}
\@writefile{lomyscheme}{\defcounter {refsection}{0}\relax }\@writefile{lomyscheme}{\contentsline {myscheme}{\numberline {3.2}{\ignorespaces Атомы\relax }}{13}{myscheme.caption.6}\protected@file@percent }
\newlabel{Атомы}{{3.2}{13}{Атомы\relax }{myscheme.caption.6}{}}
\pp@pagectr{footnote}{20}{13}{13}
\@writefile{toc}{\defcounter {refsection}{0}\relax }\@writefile{toc}{\contentsline {subsection}{\numberline {3.1.11}Анаксагор}{13}{subsection.3.1.11}\protected@file@percent }
\newlabel{Анаксагор}{{3.1.11}{13}{Анаксагор}{subsection.3.1.11}{}}
\pp@pagectr{footnote}{21}{13}{13}
\@writefile{toc}{\defcounter {refsection}{0}\relax }\@writefile{toc}{\contentsline {subsection}{\numberline {3.1.12}Левкид}{13}{subsection.3.1.12}\protected@file@percent }
\newlabel{Левкид}{{3.1.12}{13}{Левкид}{subsection.3.1.12}{}}
\pp@pagectr{footnote}{22}{13}{13}
\@writefile{toc}{\defcounter {refsection}{0}\relax }\@writefile{toc}{\contentsline {subsection}{\numberline {3.1.13}Демокрит}{13}{subsection.3.1.13}\protected@file@percent }
\newlabel{Демокрит}{{3.1.13}{13}{Демокрит}{subsection.3.1.13}{}}
\pp@pagectr{footnote}{23}{14}{14}
\@writefile{toc}{\defcounter {refsection}{0}\relax }\@writefile{toc}{\contentsline {subsection}{\numberline {3.1.14}Протагор}{14}{subsection.3.1.14}\protected@file@percent }
\newlabel{Протагор}{{3.1.14}{14}{Протагор}{subsection.3.1.14}{}}
\pp@pagectr{footnote}{24}{14}{14}
\@writefile{toc}{\defcounter {refsection}{0}\relax }\@writefile{toc}{\contentsline {subsection}{\numberline {3.1.15}Горгий}{14}{subsection.3.1.15}\protected@file@percent }
\newlabel{Горгий}{{3.1.15}{14}{Горгий}{subsection.3.1.15}{}}
\@writefile{toc}{\defcounter {refsection}{0}\relax }\@writefile{toc}{\contentsline {subsection}{\numberline {3.1.16}Роль софистов}{14}{subsection.3.1.16}\protected@file@percent }
\newlabel{Роль софистов}{{3.1.16}{14}{Роль софистов}{subsection.3.1.16}{}}
\pp@pagectr{footnote}{25}{14}{14}
\@writefile{toc}{\defcounter {refsection}{0}\relax }\@writefile{toc}{\contentsline {subsection}{\numberline {3.1.17}Сократ}{14}{subsection.3.1.17}\protected@file@percent }
\newlabel{Сократ}{{3.1.17}{14}{Сократ}{subsection.3.1.17}{}}
\@writefile{lomyscheme}{\defcounter {refsection}{0}\relax }\@writefile{lomyscheme}{\contentsline {myscheme}{\numberline {3.3}{\ignorespaces Идеальное государство\relax }}{15}{myscheme.caption.7}\protected@file@percent }
\newlabel{Идеальное государство}{{3.3}{15}{Идеальное государство\relax }{myscheme.caption.7}{}}
\pp@pagectr{footnote}{26}{15}{15}
\@writefile{toc}{\defcounter {refsection}{0}\relax }\@writefile{toc}{\contentsline {subsection}{\numberline {3.1.18}Платон}{15}{subsection.3.1.18}\protected@file@percent }
\newlabel{Платон}{{3.1.18}{15}{Платон}{subsection.3.1.18}{}}
\pp@pagectr{footnote}{27}{16}{16}
\@writefile{toc}{\defcounter {refsection}{0}\relax }\@writefile{toc}{\contentsline {subsection}{\numberline {3.1.19}Аристотель}{16}{subsection.3.1.19}\protected@file@percent }
\newlabel{Аристотель}{{3.1.19}{16}{Аристотель}{subsection.3.1.19}{}}
\pp@pagectr{footnote}{28}{16}{16}
\@writefile{toc}{\defcounter {refsection}{0}\relax }\@writefile{toc}{\contentsline {subsection}{\numberline {3.1.20}Диоген}{16}{subsection.3.1.20}\protected@file@percent }
\newlabel{Диоген}{{3.1.20}{16}{Диоген}{subsection.3.1.20}{}}
\pp@pagectr{footnote}{29}{17}{17}
\@writefile{toc}{\defcounter {refsection}{0}\relax }\@writefile{toc}{\contentsline {subsection}{\numberline {3.1.21}Эпикур}{17}{subsection.3.1.21}\protected@file@percent }
\newlabel{Эпикуризм}{{3.1.21}{17}{Эпикур}{subsection.3.1.21}{}}
\newlabel{Эпикуризм}{{3.1.21}{18}{Эпикур}{subsection.3.1.21}{}}
\pp@pagectr{footnote}{30}{18}{18}
\@writefile{toc}{\defcounter {refsection}{0}\relax }\@writefile{toc}{\contentsline {subsection}{\numberline {3.1.22}Пиррон}{18}{subsection.3.1.22}\protected@file@percent }
\newlabel{Пиррон}{{3.1.22}{18}{Пиррон}{subsection.3.1.22}{}}
\pp@pagectr{footnote}{31}{18}{18}
\@writefile{toc}{\defcounter {refsection}{0}\relax }\@writefile{toc}{\contentsline {subsection}{\numberline {3.1.23}Зенон Китийский}{18}{subsection.3.1.23}\protected@file@percent }
\newlabel{Зенон Китийский}{{3.1.23}{18}{Зенон Китийский}{subsection.3.1.23}{}}
\@writefile{toc}{\defcounter {refsection}{0}\relax }\@writefile{toc}{\contentsline {section}{\numberline {3.2}Древний Рим}{18}{section.3.2}\protected@file@percent }
\newlabel{Древний Рим}{{3.2}{18}{Древний Рим}{section.3.2}{}}
\pp@pagectr{footnote}{32}{18}{18}
\@writefile{toc}{\defcounter {refsection}{0}\relax }\@writefile{toc}{\contentsline {subsection}{\numberline {3.2.1}Сенека}{18}{subsection.3.2.1}\protected@file@percent }
\newlabel{Сенека}{{3.2.1}{18}{Сенека}{subsection.3.2.1}{}}
\pp@pagectr{footnote}{33}{19}{19}
\@writefile{toc}{\defcounter {refsection}{0}\relax }\@writefile{toc}{\contentsline {subsection}{\numberline {3.2.2}Эпиктет}{19}{subsection.3.2.2}\protected@file@percent }
\newlabel{Эпиктет}{{3.2.2}{19}{Эпиктет}{subsection.3.2.2}{}}
\newlabel{Эпиктет}{{3.2.2}{19}{Эпиктет}{subsection.3.2.2}{}}
\pp@pagectr{footnote}{34}{19}{19}
\@writefile{toc}{\defcounter {refsection}{0}\relax }\@writefile{toc}{\contentsline {subsection}{\numberline {3.2.3}Марк Аврелий}{19}{subsection.3.2.3}\protected@file@percent }
\newlabel{Марк Аврелий}{{3.2.3}{19}{Марк Аврелий}{subsection.3.2.3}{}}
\newlabel{Эпиктет}{{3.2.3}{19}{Марк Аврелий}{subsection.3.2.3}{}}
\pp@pagectr{footnote}{35}{19}{19}
\@writefile{toc}{\defcounter {refsection}{0}\relax }\@writefile{toc}{\contentsline {subsection}{\numberline {3.2.4}Секст Эмпирик}{19}{subsection.3.2.4}\protected@file@percent }
\newlabel{Секст Эмпирик}{{3.2.4}{19}{Секст Эмпирик}{subsection.3.2.4}{}}
\pp@pagectr{footnote}{36}{19}{19}
\@writefile{toc}{\defcounter {refsection}{0}\relax }\@writefile{toc}{\contentsline {subsection}{\numberline {3.2.5}Плотин}{19}{subsection.3.2.5}\protected@file@percent }
\newlabel{Плотин}{{3.2.5}{19}{Плотин}{subsection.3.2.5}{}}
\@writefile{toc}{\defcounter {refsection}{0}\relax }\@writefile{toc}{\contentsline {chapter}{Предметный указатель}{21}{section*.8}\protected@file@percent }
\@writefile{toc}{\defcounter {refsection}{0}\relax }\@writefile{toc}{\contentsline {chapter}{Словарь терминов}{23}{section*.10}\protected@file@percent }
\@gls@hypergroup{main}{Д}
\@gls@hypergroup{main}{М}
\@gls@hypergroup{main}{Н}
\@gls@hypergroup{main}{Э}
\newlabel{LastPage}{{}{25}{}{page.25}{}}
\xdef\lastpage@lastpage{25}
\xdef\lastpage@lastpageHy{25}
\providecommand\@xdylanguage[2]{}
\@xdylanguage{main}{russian}
\providecommand\@gls@codepage[2]{}
\@gls@codepage{main}{utf8}
