\boolfalse {citerequest}\boolfalse {citetracker}\boolfalse {pagetracker}\boolfalse {backtracker}\relax 
\babel@toc {russian}{}
\defcounter {refsection}{0}\relax 
\contentsline {chapter}{\numberline {1}Информация к учебному курсу}{4}{chapter.1}%
\defcounter {refsection}{0}\relax 
\contentsline {section}{\numberline {1.1}Благодарность}{4}{section.1.1}%
\defcounter {refsection}{0}\relax 
\contentsline {section}{\numberline {1.2}Пособия, рекомендованные к курсу}{4}{section.1.2}%
\defcounter {refsection}{0}\relax 
\contentsline {section}{\numberline {1.3}Понятие философии}{4}{section.1.3}%
\defcounter {refsection}{0}\relax 
\contentsline {chapter}{\numberline {2}Основные эпохи в философии}{5}{chapter.2}%
\defcounter {refsection}{0}\relax 
\contentsline {section}{\numberline {2.1}Античность}{5}{section.2.1}%
\defcounter {refsection}{0}\relax 
\contentsline {subsection}{\numberline {2.1.1}Писатели-предтечи}{5}{subsection.2.1.1}%
\defcounter {refsection}{0}\relax 
\contentsline {subsection}{\numberline {2.1.2}Первые философы}{5}{subsection.2.1.2}%
\defcounter {refsection}{0}\relax 
\contentsline {subsection}{\numberline {2.1.3}Появление софистов}{5}{subsection.2.1.3}%
\defcounter {refsection}{0}\relax 
\contentsline {subsection}{\numberline {2.1.4}Расцвет философии Античности}{5}{subsection.2.1.4}%
\defcounter {refsection}{0}\relax 
\contentsline {subsection}{\numberline {2.1.5}Сформирование философии как дисциплины}{6}{subsection.2.1.5}%
\defcounter {refsection}{0}\relax 
\contentsline {subsection}{\numberline {2.1.6}Распространение греческой философии}{6}{subsection.2.1.6}%
\defcounter {refsection}{0}\relax 
\contentsline {subsection}{\numberline {2.1.7}Древний Рим}{6}{subsection.2.1.7}%
\defcounter {refsection}{0}\relax 
\contentsline {section}{\numberline {2.2}Средние века}{7}{section.2.2}%
\defcounter {refsection}{0}\relax 
\contentsline {section}{\numberline {2.3}Возрождение}{7}{section.2.3}%
\defcounter {refsection}{0}\relax 
\contentsline {section}{\numberline {2.4}Новое время}{7}{section.2.4}%
\defcounter {refsection}{0}\relax 
\contentsline {section}{\numberline {2.5}Просвещение}{8}{section.2.5}%
\defcounter {refsection}{0}\relax 
\contentsline {subsection}{\numberline {2.5.1}Изменения в философии}{8}{subsection.2.5.1}%
\defcounter {refsection}{0}\relax 
\contentsline {chapter}{\numberline {3}Античность}{10}{chapter.3}%
\defcounter {refsection}{0}\relax 
\contentsline {section}{\numberline {3.1}Древняя Греция}{10}{section.3.1}%
\defcounter {refsection}{0}\relax 
\contentsline {subsection}{\numberline {3.1.1}Орфей}{10}{subsection.3.1.1}%
\defcounter {refsection}{0}\relax 
\contentsline {subsection}{\numberline {3.1.2}Фалес Милетский}{10}{subsection.3.1.2}%
\defcounter {refsection}{0}\relax 
\contentsline {subsection}{\numberline {3.1.3}Анаксимандр}{10}{subsection.3.1.3}%
\defcounter {refsection}{0}\relax 
\contentsline {subsection}{\numberline {3.1.4}Анаксимен}{11}{subsection.3.1.4}%
\defcounter {refsection}{0}\relax 
\contentsline {subsection}{\numberline {3.1.5}Гераклит Эфесский}{11}{subsection.3.1.5}%
\defcounter {refsection}{0}\relax 
\contentsline {subsection}{\numberline {3.1.6}Пифагор}{12}{subsection.3.1.6}%
\defcounter {refsection}{0}\relax 
\contentsline {subsection}{\numberline {3.1.7}Ксенофан}{12}{subsection.3.1.7}%
\defcounter {refsection}{0}\relax 
\contentsline {subsection}{\numberline {3.1.8}Парменид}{12}{subsection.3.1.8}%
\defcounter {refsection}{0}\relax 
\contentsline {subsection}{\numberline {3.1.9}Зенон Элейский}{12}{subsection.3.1.9}%
\defcounter {refsection}{0}\relax 
\contentsline {subsection}{\numberline {3.1.10}Эмпедокл}{12}{subsection.3.1.10}%
\defcounter {refsection}{0}\relax 
\contentsline {subsection}{\numberline {3.1.11}Анаксагор}{13}{subsection.3.1.11}%
\defcounter {refsection}{0}\relax 
\contentsline {subsection}{\numberline {3.1.12}Левкид}{13}{subsection.3.1.12}%
\defcounter {refsection}{0}\relax 
\contentsline {subsection}{\numberline {3.1.13}Демокрит}{13}{subsection.3.1.13}%
\defcounter {refsection}{0}\relax 
\contentsline {subsection}{\numberline {3.1.14}Протагор}{14}{subsection.3.1.14}%
\defcounter {refsection}{0}\relax 
\contentsline {subsection}{\numberline {3.1.15}Горгий}{14}{subsection.3.1.15}%
\defcounter {refsection}{0}\relax 
\contentsline {subsection}{\numberline {3.1.16}Роль софистов}{14}{subsection.3.1.16}%
\defcounter {refsection}{0}\relax 
\contentsline {subsection}{\numberline {3.1.17}Сократ}{14}{subsection.3.1.17}%
\defcounter {refsection}{0}\relax 
\contentsline {subsection}{\numberline {3.1.18}Платон}{15}{subsection.3.1.18}%
\defcounter {refsection}{0}\relax 
\contentsline {subsection}{\numberline {3.1.19}Аристотель}{16}{subsection.3.1.19}%
\defcounter {refsection}{0}\relax 
\contentsline {subsection}{\numberline {3.1.20}Диоген}{16}{subsection.3.1.20}%
\defcounter {refsection}{0}\relax 
\contentsline {subsection}{\numberline {3.1.21}Эпикур}{17}{subsection.3.1.21}%
\defcounter {refsection}{0}\relax 
\contentsline {subsection}{\numberline {3.1.22}Пиррон}{18}{subsection.3.1.22}%
\defcounter {refsection}{0}\relax 
\contentsline {subsection}{\numberline {3.1.23}Зенон Китийский}{18}{subsection.3.1.23}%
\defcounter {refsection}{0}\relax 
\contentsline {section}{\numberline {3.2}Древний Рим}{18}{section.3.2}%
\defcounter {refsection}{0}\relax 
\contentsline {subsection}{\numberline {3.2.1}Сенека}{18}{subsection.3.2.1}%
\defcounter {refsection}{0}\relax 
\contentsline {subsection}{\numberline {3.2.2}Эпиктет}{19}{subsection.3.2.2}%
\defcounter {refsection}{0}\relax 
\contentsline {subsection}{\numberline {3.2.3}Марк Аврелий}{19}{subsection.3.2.3}%
\defcounter {refsection}{0}\relax 
\contentsline {subsection}{\numberline {3.2.4}Секст Эмпирик}{19}{subsection.3.2.4}%
\defcounter {refsection}{0}\relax 
\contentsline {subsection}{\numberline {3.2.5}Плотин}{19}{subsection.3.2.5}%
\defcounter {refsection}{0}\relax 
\contentsline {chapter}{Предметный указатель}{21}{section*.8}%
\defcounter {refsection}{0}\relax 
\contentsline {chapter}{Словарь терминов}{23}{section*.10}%
